﻿ID,Latitude,Longitude,Site name,Time of avulsion,Number of avulsions,Avulsion image,Landscape
JA_1_Taquari_1990,-18.7679,-57.0413,Taquari,1990,1,,fan
JA_2_Taquari,-18.2482,-56.0383,Taquari,Throughout timelapse,1,,fan
JA_3_Mangoky_1994,-21.5972,43.6262,Mangoky River delta,1994,1,,delta
JA_4_Kosi_2008,26.1241,87.0765,Kosi fan,2008,1,,fan
JA_5_China_2008,40.1978,96.7906,China,2008,1,,fan
JA_6_China_1988_2002,39.6347,93.4437,China,"1988, 2002",2,,fan
JA_7_India_2005_2011,28.1508,95.5568,India,"2005, 2011",2,,fan
JA_8_India_2004,26.7775,90.9387,India,2004,1,,fan
JA_9_Huanghe_1999,37.8274,119.1168,Yellow River (Huanghe),1999,1,LT05_121034_20080414,delta
JA_10_Iran_2009,27.0504,55.8036,"homorzgon province, Iran 2009",2009,2,LT05_160041_20091214,delta
JA_12_Eritrea,15.7245,39.4094,"Shieb, Eritrea (lower)",2004,1,LE07_169049_20060908,delta
JA_13_Madagascar,-19.1915,44.3763,Ankoadavo Madagascar,2004,1,LT05_161073_20031221,delta
JA_14_Angola,-12.92,13.066,BaiaFartaAngola,2003,1,LE07_182069_20030420,delta
JA_15_PNG,-6.49,146.4574,Papa new guinea,Throughout timelapse,5,,fan
JA_16_Atacama,-28.1748,-70.6229,Atacama 1998,1998,1,,fan
JA_17_Atacama,-29.0242,-67.4053,Atacama,Throughout timelapse,1,,fan
JA_18_PNG_1994,-6.7069,147.3137,"Bukau, Papua New Guinea",1994,7,LT05_096065_19941001,delta
JA_25_India_1990_2000_2008_2011,26.9005,92.1867,India,"1990 through 2000, 2008, 2011",3,,fan
JA_26_Ethiopia_1989_2002_2005_2007,4.7142,36.1747,Ethiopia,"1989, 2002, 2005, 2007",4,,fan
JA_27_India_2003_2005,26.8918,90.4599,India,"2003, 2005",2,,fan
JA_28_Eritrea_1997,15.2373,39.569,"zula, Eritrea",1997,1,,delta
JA_29_Peru_1998,-3.5569,-80.4859,TumbesPeru,1998,1,LT05_011062_19980619,delta
JA_30_Eritrea_2007,15.8742,39.3021,"Shieb, Eritrea (upper)",2007,1,LE07_169049_20070826,delta
JA_31_Cucomongo,37.2647,-117.8119,Cucomongo fan,Throughout timelapse,2,,fan
JA_32_China_1995,39.4461,119.2698,China,1995,1,,delta
JA_33_India,28.3057,95.697,India,Throughout timelapse,many,,fan
JA_34_Morocco_2001,35.3301,-4.9566,Morocco,2001,1,,delta
JA_35_Madagascar_2000,-21.0547,43.8612,"Maintapaka, Madagascar",2000,1,LT05_161075_20060212,delta
JA_36_Eritrea_2005,17.5511,38.7987,Eritrea,2005,1,,delta
JA_37_Somalia_1989,10.5776,44.0554,"Lughaya, Somalia",1989,1,LT05_165053_19890516,delta
JA_38_Madagascar_1994,-20.4727,44.1573,Maharivo Madadgascar,1994,1,LT05_161074_19940603,delta
JA_39_Eritrea,15.2373,39.569,Eritrea,Throughout timelapse,many,,fan
JA_40_NewGuinea_Madang_1989,-5.4947,145.9001,Madang2 NewGuinea19890519,Throughout timelapse,many,LT05_0947064_19890519,delta
JA_67_Angola,-12.4499,13.4846,LobitoAngola,1999,1,LT05_182069_19990519,delta
JA_68_Madagascar_1984,-23.3003,43.6669,Toliara Madagascar,"1984, prolonged",1,LT05_161076_19890317,delta
JA_69_PNG_2004_2009,-5.4597,145.7307,"Madang Province, Papua New Guinea",2004 through 2009,1,LT05_097064_20080727,delta
JA_70_MorobeNewGuinea_1990,-5.946,147.0918,MorobeNew Guinea1990,Throughout timelapse,many,LT05_096064_19901022,delta
JA_81_DeinNewGuinea_2002,-5.5604,146.2204,DeinNewGuinea1992,2002 and onward,4,LT05_097064_19921103,delta
JA_82_DeinNewGuinea1995,-5.5604,146.2204,DeinNewGuinea1995,,,LT05_097064_19950317,delta
JA_85_PNG_Gilagil_2007,-4.7769,145.6776,"Gilagil River, Papua New Guinea",2007,1,,delta
JA_86_Philippines_1996,11.021,122.0534,Philippines,1996 and onward,many,LT05_115052_19961231,delta
JA_87_Tagliamento,46.1251,12.9328,Tagliamento,Throughout timelapse,many,,other
JA_88_Argentina_1999,-22.8842,-64.4969,Argentina,1999,1,,other
JA_89_Nepal_2009,26.6115,87.934,India / Nepal,2009,1,,other
JA_90_WA_lake_2003,47.5288,-123.7369,"WA, USA",2003,1,,other
JA_91_Peru,-9.315573,-78.469445,"Samanco, Peru",,,,other
JA_92_Casma_Province,-9.46503,-78.35145,Casma province,,,,other
JA_93_Chile,-26.56643,-70.68403,"Puerto Flamenco, Chile",,,,delta
JA_94_Iran,25.417647,59.632755,"Goriyan, Iran",,,,delta
JA_95_PNG_1989,-5.4391,145.731373,"Madang Province 3, Papua New Guinea",1989,1,LT05_097064_19890604,delta