{
"type": "FeatureCollection",
"crs": { "type": "name", "properties": { "name": "urn:ogc:def:crs:EPSG::32630" } },
"features": [
{ "type": "Feature", "properties": { "id": 1 }, "geometry": { "type": "MultiLineString", "coordinates": [ [ [ 323549.765765318879858, 3912108.755128413438797 ], [ 323541.669997547985986, 3912102.884988363832235 ], [ 323533.574229777092114, 3912097.014848314691335 ], [ 323525.478462006140035, 3912091.144708265084773 ], [ 323517.382694235246163, 3912085.274568215943873 ], [ 323509.286926464352291, 3912079.404428166337311 ], [ 323501.191158693458419, 3912073.534288117196411 ], [ 323493.095390922564548, 3912067.664148067589849 ], [ 323484.999623151612468, 3912061.794008018448949 ], [ 323476.903855380718596, 3912055.923867968842387 ], [ 323468.808087609824724, 3912050.053727919235826 ], [ 323460.712319838930853, 3912044.183587870094925 ], [ 323452.616552067978773, 3912038.313447820488364 ], [ 323444.520784297084901, 3912032.443307771347463 ], [ 323436.42501652619103, 3912026.573167721740901 ], [ 323428.329248755297158, 3912020.703027672600001 ], [ 323420.233480984403286, 3912014.832887622993439 ], [ 323412.137713213451207, 3912008.962747573852539 ], [ 323404.041945442557335, 3912003.092607524245977 ], [ 323395.946177671663463, 3911997.222467474639416 ], [ 323387.850409900769591, 3911991.352327425498515 ], [ 323379.75464212987572, 3911985.482187375891954 ], [ 323371.65887435892364, 3911979.612047326751053 ], [ 323363.563106588029768, 3911973.741907277144492 ], [ 323355.467338817135897, 3911967.871767228003591 ], [ 323347.371571046242025, 3911962.00162717839703 ], [ 323339.275803275348153, 3911956.131487129256129 ], [ 323331.180035504396074, 3911950.261347079649568 ], [ 323323.084267733502202, 3911944.391207030043006 ], [ 323314.98849996260833, 3911938.521066980902106 ], [ 323306.892732191714458, 3911932.650926931295544 ], [ 323298.796964420820586, 3911926.780786882154644 ], [ 323290.701196649868507, 3911920.910646832548082 ], [ 323282.605428878974635, 3911915.040506783407182 ], [ 323278.30217459629057, 3911906.3472132361494 ], [ 323275.001393326325342, 3911896.907677071169019 ], [ 323271.700612056301907, 3911887.468140906188637 ], [ 323268.399830786336679, 3911878.028604741208255 ], [ 323265.099049516313244, 3911868.589068576693535 ], [ 323261.798268246348016, 3911859.149532411713153 ], [ 323258.497486976382788, 3911849.709996246732771 ], [ 323255.196705706359353, 3911840.27046008175239 ], [ 323251.895924436394125, 3911830.830923917237669 ], [ 323248.595143166428898, 3911821.391387752257288 ], [ 323245.294361896405462, 3911811.951851587276906 ], [ 323241.993580626440234, 3911802.512315422296524 ], [ 323238.692799356416799, 3911793.072779257781804 ], [ 323235.392018086451571, 3911783.633243092801422 ], [ 323232.091236816486344, 3911774.19370692782104 ], [ 323228.790455546462908, 3911764.754170762840658 ], [ 323225.489674276497681, 3911755.314634598325938 ], [ 323222.188893006474245, 3911745.875098433345556 ], [ 323218.888111736509018, 3911736.435562268365175 ], [ 323215.58733046654379, 3911726.996026103384793 ], [ 323212.286549196520355, 3911717.556489938870072 ], [ 323208.985767926555127, 3911708.116953773889691 ], [ 323205.684986656531692, 3911698.677417608909309 ], [ 323202.384205386566464, 3911689.237881443928927 ], [ 323199.083424116601236, 3911679.798345279414207 ], [ 323195.782642846577801, 3911670.358809114433825 ], [ 323192.481861576612573, 3911660.919272949453443 ], [ 323189.181080306589138, 3911651.479736784938723 ], [ 323185.88029903662391, 3911642.040200619958341 ], [ 323182.579517766658682, 3911632.600664454977959 ], [ 323179.278736496635247, 3911623.161128289997578 ], [ 323175.977955226670019, 3911613.721592125482857 ], [ 323172.677173956646584, 3911604.282055960502476 ], [ 323169.376392686681356, 3911594.842519795522094 ], [ 323166.075611416716129, 3911585.402983630541712 ], [ 323162.774830146692693, 3911575.963447466026992 ], [ 323158.2760753975017, 3911567.259082673117518 ], [ 323151.354690299311187, 3911560.041435665916651 ], [ 323144.433305201120675, 3911552.823788658250123 ], [ 323137.511920102930162, 3911545.606141651049256 ], [ 323130.59053500473965, 3911538.388494643848389 ], [ 323123.669149906549137, 3911531.170847636647522 ], [ 323116.747764808358625, 3911523.953200628980994 ], [ 323109.826379710168112, 3911516.735553621780127 ], [ 323102.9049946119776, 3911509.51790661457926 ], [ 323095.983609513787087, 3911502.300259606912732 ], [ 323089.062224415596575, 3911495.082612599711865 ], [ 323082.140839317406062, 3911487.864965592510998 ], [ 323075.21945421921555, 3911480.64731858484447 ], [ 323068.298069121025037, 3911473.429671577643603 ], [ 323061.376684022834525, 3911466.212024570442736 ], [ 323054.455298924644012, 3911458.994377563241869 ], [ 323047.533913826511707, 3911451.776730555575341 ], [ 323040.612528728321195, 3911444.559083548374474 ], [ 323033.691143630130682, 3911437.341436541173607 ], [ 323026.76975853194017, 3911430.123789533507079 ], [ 323019.848373433749657, 3911422.906142526306212 ], [ 323012.926988335559145, 3911415.688495519105345 ], [ 323006.005603237368632, 3911408.470848511438817 ], [ 322999.08421813917812, 3911401.25320150423795 ], [ 322992.162833040987607, 3911394.035554497037083 ], [ 322984.693302623869386, 3911387.754851404111832 ], [ 322975.009989808255341, 3911385.258163014426827 ], [ 322965.326676992641296, 3911382.761474624741822 ], [ 322955.643364177027252, 3911380.264786235056818 ], [ 322945.960051361413207, 3911377.768097845371813 ], [ 322936.276738545799162, 3911375.271409455686808 ], [ 322926.593425730185118, 3911372.774721066467464 ], [ 322916.910112914571073, 3911370.278032676782459 ], [ 322907.226800098957028, 3911367.781344287097454 ], [ 322897.363435757753905, 3911366.240064808633178 ], [ 322887.4355918293586, 3911365.040933900512755 ], [ 322877.507747901021503, 3911363.841802992392331 ], [ 322867.579903972684406, 3911362.642672084737569 ], [ 322857.652060044347309, 3911361.443541176617146 ], [ 322847.724216116010211, 3911360.244410268496722 ], [ 322837.796372187673114, 3911359.04527936084196 ], [ 322827.868528259336017, 3911357.846148452721536 ], [ 322817.94068433099892, 3911356.647017544601113 ], [ 322808.012840402603615, 3911355.44788663694635 ], [ 322798.084996474266518, 3911354.248755728825927 ], [ 322788.157152545929421, 3911353.049624820705503 ], [ 322779.481628573033959, 3911349.081594816874713 ], [ 322772.025189876614604, 3911342.418148113414645 ], [ 322764.568751180253457, 3911335.754701410420239 ], [ 322757.112312483834103, 3911329.091254706960171 ], [ 322749.655873787472956, 3911322.427808003500104 ], [ 322742.199435091111809, 3911315.764361300505698 ], [ 322734.742996394692454, 3911309.10091459704563 ], [ 322727.286557698331308, 3911302.437467894051224 ], [ 322719.830119001970161, 3911295.774021190591156 ], [ 322712.373680305550806, 3911289.11057448759675 ], [ 322704.917241609189659, 3911282.447127784136683 ], [ 322697.460802912828512, 3911275.783681081142277 ], [ 322690.004364216409158, 3911269.120234377682209 ], [ 322682.547925520048011, 3911262.456787674222142 ], [ 322675.091486823628657, 3911255.793340971227735 ], [ 322667.63504812726751, 3911249.129894267767668 ], [ 322660.178609430906363, 3911242.466447564773262 ], [ 322652.722170734487008, 3911235.803000861313194 ], [ 322645.265732038125861, 3911229.139554158318788 ], [ 322637.809293341764715, 3911222.47610745485872 ], [ 322630.35285464534536, 3911215.812660751864314 ], [ 322622.896415948984213, 3911209.149214048404247 ], [ 322615.439977252564859, 3911202.485767344944179 ], [ 322607.983538556203712, 3911195.822320641949773 ], [ 322600.527099859842565, 3911189.158873938489705 ], [ 322593.07066116342321, 3911182.495427235495299 ], [ 322585.614222467062064, 3911175.831980532035232 ], [ 322579.651449920609593, 3911167.867320288904011 ], [ 322574.072934996860567, 3911159.56791240349412 ], [ 322568.494420073169749, 3911151.268504518549889 ], [ 322562.915905149420723, 3911142.969096633139998 ], [ 322557.337390225729905, 3911134.669688747730106 ], [ 322551.758875301980879, 3911126.370280862785876 ], [ 322546.180360378290061, 3911118.070872977375984 ], [ 322540.601845454541035, 3911109.771465091966093 ], [ 322535.023330530850217, 3911101.472057207021862 ], [ 322529.444815607159398, 3911093.172649321611971 ], [ 322523.866300683410373, 3911084.873241436202079 ], [ 322518.287785759719554, 3911076.573833551257849 ], [ 322512.709270835970528, 3911068.274425665847957 ], [ 322507.13075591227971, 3911059.975017780438066 ], [ 322501.552240988530684, 3911051.675609895493835 ], [ 322495.973726064839866, 3911043.376202010083944 ], [ 322490.395211141149048, 3911035.076794124674052 ], [ 322484.816696217400022, 3911026.777386239729822 ], [ 322479.238181293709204, 3911018.47797835431993 ], [ 322473.659666369960178, 3911010.178570468910038 ], [ 322468.081151446269359, 3911001.879162583965808 ], [ 322462.502636522520334, 3910993.579754698555917 ], [ 322456.924121598829515, 3910985.280346813146025 ], [ 322450.964629707741551, 3910977.368622114416212 ], [ 322442.569152462121565, 3910971.9357626629062 ], [ 322434.173675216443371, 3910966.502903211861849 ], [ 322425.778197970823385, 3910961.070043760351837 ], [ 322417.382720725203399, 3910955.637184309307486 ], [ 322408.987243479525205, 3910950.204324857797474 ], [ 322400.591766233905219, 3910944.771465406287462 ], [ 322392.196288988285232, 3910939.338605955243111 ], [ 322383.800811742665246, 3910933.905746503733099 ], [ 322375.405334496987052, 3910928.472887052223086 ], [ 322367.009857251367066, 3910923.040027601178735 ], [ 322358.61438000574708, 3910917.607168149668723 ], [ 322350.218902760068886, 3910912.174308698624372 ], [ 322341.8234255144489, 3910906.74144924711436 ], [ 322333.427948268828914, 3910901.308589795604348 ], [ 322325.03247102315072, 3910895.875730344559997 ], [ 322316.001848267158493, 3910892.674331059213728 ], [ 322306.00379814801272, 3910892.871799575164914 ], [ 322296.005748028866947, 3910893.069268091116101 ], [ 322286.007697909662966, 3910893.266736607067287 ], [ 322276.009647790517192, 3910893.464205123018473 ], [ 322266.011597671371419, 3910893.66167363896966 ], [ 322256.013547552225646, 3910893.859142154920846 ], [ 322246.015497433079872, 3910894.056610670406371 ], [ 322236.017447313875891, 3910894.254079186357558 ], [ 322226.019397194730118, 3910894.451547702308744 ], [ 322216.021347075584345, 3910894.649016218259931 ], [ 322206.023296956438571, 3910894.846484734211117 ], [ 322196.02524683723459, 3910895.043953250162303 ], [ 322186.027196718088817, 3910895.24142176611349 ], [ 322176.029146598943044, 3910895.438890282064676 ], [ 322166.03109647979727, 3910895.636358798015863 ], [ 322156.033046360593289, 3910895.833827313967049 ], [ 322146.034996241447516, 3910896.031295829918236 ], [ 322136.036946122301742, 3910896.228764345869422 ], [ 322126.038896003155969, 3910896.426232861820608 ], [ 322116.040845884010196, 3910896.623701377771795 ], [ 322106.042795764806215, 3910896.821169893722981 ], [ 322096.044745645660441, 3910897.018638409674168 ], [ 322086.046695526514668, 3910897.216106925625354 ], [ 322076.048645407368895, 3910897.41357544157654 ], [ 322066.050595288164914, 3910897.611043957527727 ], [ 322056.05254516901914, 3910897.808512473478913 ], [ 322046.054495049873367, 3910898.0059809894301 ], [ 322036.055753168591764, 3910898.155359947122633 ], [ 322026.056159933912568, 3910898.24555495986715 ], [ 322016.056566699175164, 3910898.335749973077327 ], [ 322006.056973464495968, 3910898.425944985821843 ], [ 321996.057380229758564, 3910898.516139998566359 ], [ 321986.057786995079368, 3910898.606335011776537 ], [ 321976.058193760341965, 3910898.696530024521053 ], [ 321966.058600525662769, 3910898.786725037265569 ], [ 321956.059007290925365, 3910898.876920050475746 ], [ 321946.059414056187961, 3910898.967115063220263 ], [ 321936.059820821508765, 3910899.057310075964779 ], [ 321926.060227586771362, 3910899.147505089174956 ], [ 321916.060634352092165, 3910899.237700101919472 ], [ 321906.061041117354762, 3910899.327895114663988 ], [ 321896.061447882675566, 3910899.418090127874166 ], [ 321886.061854647938162, 3910899.508285140618682 ], [ 321876.062261413258966, 3910899.598480153363198 ], [ 321866.062668178521562, 3910899.688675166573375 ], [ 321856.063074943842366, 3910899.778870179317892 ], [ 321846.063481709104963, 3910899.869065192062408 ], [ 321836.063888474425767, 3910899.959260205272585 ], [ 321826.064295239688363, 3910900.049455218017101 ], [ 321816.064702005009167, 3910900.139650230761617 ], [ 321806.065108770271763, 3910900.229845243971795 ], [ 321796.065515535592567, 3910900.320040256716311 ], [ 321786.065922300855163, 3910900.410235269460827 ], [ 321776.066329066175967, 3910900.500430282671005 ], [ 321766.066735831438564, 3910900.590625295415521 ], [ 321756.067142596759368, 3910900.680820308160037 ], [ 321746.067549362021964, 3910900.771015321370214 ], [ 321736.067956127342768, 3910900.86121033411473 ], [ 321726.068362892605364, 3910900.951405346859246 ], [ 321716.068769657926168, 3910901.041600360069424 ], [ 321706.069176423188765, 3910901.13179537281394 ], [ 321696.069583188451361, 3910901.221990385558456 ], [ 321686.069989953772165, 3910901.312185398302972 ], [ 321676.070396719034761, 3910901.40238041151315 ], [ 321666.070803484355565, 3910901.492575424257666 ], [ 321656.071210249618161, 3910901.582770437002182 ], [ 321646.071617014938965, 3910901.672965450212359 ], [ 321637.494918629177846, 3910896.969117079861462 ], [ 321629.163684666855261, 3910891.438245479017496 ], [ 321620.832450704532675, 3910885.90737387817353 ], [ 321612.50121674221009, 3910880.376502277329564 ], [ 321604.169982779945713, 3910874.845630676485598 ], [ 321595.838748817623127, 3910869.314759075641632 ], [ 321587.507514855300542, 3910863.783887474797666 ], [ 321579.176280892977957, 3910858.2530158739537 ], [ 321570.845046930655371, 3910852.722144273109734 ], [ 321562.513812968332786, 3910847.191272672265768 ], [ 321554.182579006068408, 3910841.660401071421802 ], [ 321545.851345043745823, 3910836.129529470577836 ], [ 321537.520111081423238, 3910830.59865786973387 ], [ 321529.188877119100653, 3910825.067786268889904 ], [ 321520.857643156778067, 3910819.536914668045938 ], [ 321512.52640919451369, 3910814.006043067201972 ], [ 321504.195175232191104, 3910808.475171466358006 ], [ 321495.863941269868519, 3910802.94429986551404 ], [ 321487.532707307545934, 3910797.413428264670074 ], [ 321479.201473345223349, 3910791.882556663826108 ], [ 321470.870239382900763, 3910786.351685062982142 ], [ 321462.539005420636386, 3910780.820813462138176 ], [ 321454.2077714583138, 3910775.28994186129421 ], [ 321445.876537495991215, 3910769.759070259984583 ], [ 321437.54530353366863, 3910764.228198659140617 ], [ 321429.214069571346045, 3910758.697327058296651 ], [ 321420.882835609081667, 3910753.166455457452685 ], [ 321412.551601646759082, 3910747.635583856608719 ], [ 321404.220367684436496, 3910742.104712255764753 ], [ 321395.889133722113911, 3910736.573840654920787 ], [ 321387.557899759791326, 3910731.042969054076821 ], [ 321379.226665797526948, 3910725.512097453232855 ], [ 321370.895431835204363, 3910719.981225852388889 ], [ 321362.759608188644052, 3910714.180017323698848 ], [ 321354.894863479654305, 3910708.003789456561208 ], [ 321347.030118770664558, 3910701.827561589889228 ], [ 321339.165374061674811, 3910695.651333723217249 ], [ 321331.300629352685064, 3910689.475105856545269 ], [ 321323.435884643753525, 3910683.298877989407629 ], [ 321315.571139934763778, 3910677.122650122735649 ], [ 321307.706395225774031, 3910670.94642225606367 ], [ 321299.841650516784284, 3910664.77019438939169 ], [ 321291.976905807794537, 3910658.59396652225405 ], [ 321284.112161098804791, 3910652.41773865558207 ], [ 321276.247416389873251, 3910646.241510788910091 ], [ 321268.382671680883504, 3910640.065282922238111 ], [ 321260.517926971893758, 3910633.889055055100471 ], [ 321252.653182262904011, 3910627.712827188428491 ], [ 321244.788437553914264, 3910621.536599321756512 ], [ 321236.923692844924517, 3910615.360371455084532 ], [ 321229.058948135992978, 3910609.184143587946892 ], [ 321221.194203427003231, 3910603.007915721274912 ], [ 321213.329458718013484, 3910596.831687854602933 ], [ 321205.464714009023737, 3910590.655459987465292 ], [ 321197.59996930003399, 3910584.479232120793313 ], [ 321189.735224591044243, 3910578.303004254121333 ], [ 321181.870479882054497, 3910572.126776387449354 ], [ 321174.005735173122957, 3910565.950548520311713 ], [ 321166.14099046413321, 3910559.774320653639734 ], [ 321158.276245755143464, 3910553.598092786967754 ], [ 321150.422356206050608, 3910547.408668059390038 ], [ 321142.845076534315012, 3910540.882962521165609 ], [ 321135.267796862637624, 3910534.357256982475519 ], [ 321127.690517190902028, 3910527.831551443785429 ], [ 321120.113237519166432, 3910521.305845905095339 ], [ 321112.535957847489044, 3910514.780140366405249 ], [ 321104.958678175753448, 3910508.254434827715158 ], [ 321097.38139850407606, 3910501.72872928949073 ], [ 321089.804118832340464, 3910495.203023750800639 ], [ 321082.226839160604868, 3910488.677318212110549 ], [ 321074.64955948892748, 3910482.151612673420459 ], [ 321067.072279817191884, 3910475.625907134730369 ], [ 321059.495000145514496, 3910469.10020159650594 ], [ 321051.9177204737789, 3910462.57449605781585 ], [ 321044.340440802043304, 3910456.04879051912576 ], [ 321036.763161130365916, 3910449.523084980435669 ], [ 321030.867495606478769, 3910441.569419792853296 ], [ 321025.656078388507012, 3910433.034718241076916 ], [ 321020.444661170535255, 3910424.500016688834876 ], [ 321015.233243952563498, 3910415.965315137058496 ], [ 321010.021826734649949, 3910407.430613585282117 ], [ 321004.810409516678192, 3910398.895912033505738 ], [ 320999.598992298706435, 3910390.361210481263697 ], [ 320994.387575080734678, 3910381.826508929487318 ], [ 320989.176157862821128, 3910373.291807377710938 ], [ 320983.964740644849371, 3910364.757105825468898 ], [ 320978.753323426877614, 3910356.222404273692518 ], [ 320973.541906208905857, 3910347.687702721916139 ], [ 320968.330488990992308, 3910339.153001169674098 ], [ 320963.119071773020551, 3910330.618299617897719 ], [ 320957.907654555048794, 3910322.08359806612134 ], [ 320952.696237337135244, 3910313.548896513879299 ], [ 320947.484820119163487, 3910305.01419496210292 ], [ 320942.27340290119173, 3910296.47949341032654 ], [ 320937.061985683219973, 3910287.9447918580845 ], [ 320931.850568465306424, 3910279.41009030630812 ], [ 320926.639151247334667, 3910270.875388754531741 ], [ 320921.427734029362909, 3910262.340687202755362 ], [ 320918.367711111204699, 3910252.822259720880538 ], [ 320915.321450291550718, 3910243.297539514023811 ], [ 320912.275189471896738, 3910233.772819307167083 ], [ 320909.228928652242757, 3910224.248099100310355 ], [ 320906.182667832588777, 3910214.723378893453628 ], [ 320903.136407012993004, 3910205.1986586865969 ], [ 320900.090146193339024, 3910195.673938479740173 ], [ 320897.043885373685043, 3910186.149218272883445 ], [ 320893.997624554031063, 3910176.624498066026717 ], [ 320890.951363734377082, 3910167.09977785916999 ], [ 320887.90510291478131, 3910157.575057652313262 ], [ 320884.858842095127329, 3910148.050337445456535 ], [ 320881.812581275473349, 3910138.525617238599807 ], [ 320878.766320455819368, 3910129.000897031743079 ], [ 320875.720059636165388, 3910119.476176824886352 ], [ 320872.673798816511407, 3910109.951456618029624 ], [ 320869.627537996915635, 3910100.426736411172897 ], [ 320866.581277177261654, 3910090.902016204316169 ], [ 320863.535016357607674, 3910081.377295997459441 ], [ 320860.488755537953693, 3910071.852575790602714 ], [ 320857.442494718299713, 3910062.327855584211648 ], [ 320854.39623389870394, 3910052.80313537735492 ], [ 320851.34997307904996, 3910043.278415170498192 ], [ 320848.303712259395979, 3910033.753694963641465 ], [ 320845.257451439741999, 3910024.228974756784737 ], [ 320842.211190620088018, 3910014.70425454992801 ], [ 320838.568966115417425, 3910005.393573850858957 ], [ 320834.859227981010918, 3909996.107140575535595 ], [ 320831.149489846604411, 3909986.820707300212234 ], [ 320827.439751712197904, 3909977.534274025354534 ], [ 320823.730013577791397, 3909968.247840750031173 ], [ 320820.02027544338489, 3909958.961407474707812 ], [ 320816.310537308978382, 3909949.674974199850112 ], [ 320812.600799174571875, 3909940.388540924526751 ], [ 320808.891061040165368, 3909931.10210764920339 ], [ 320805.181322905758861, 3909921.81567437434569 ], [ 320801.471584771352354, 3909912.529241099022329 ], [ 320797.761846636945847, 3909903.242807823698968 ], [ 320794.05210850253934, 3909893.956374548841268 ], [ 320790.342370368132833, 3909884.669941273517907 ], [ 320786.632632233726326, 3909875.383507998194546 ], [ 320782.922894099319819, 3909866.097074723336846 ], [ 320779.213155964913312, 3909856.810641448013484 ], [ 320775.503417830506805, 3909847.524208172690123 ], [ 320771.793679696100298, 3909838.237774897832423 ], [ 320768.083941561693791, 3909828.951341622509062 ], [ 320764.374203427287284, 3909819.664908347185701 ], [ 320760.664465292880777, 3909810.378475072328001 ], [ 320754.788027945091017, 3909803.017792634200305 ], [ 320746.001076039741747, 3909798.24396018916741 ], [ 320737.214124134392478, 3909793.470127744134516 ], [ 320728.427172228985, 3909788.696295299101621 ], [ 320719.640220323635731, 3909783.922462854068726 ], [ 320710.853268418286461, 3909779.148630409035832 ], [ 320702.066316512878984, 3909774.374797964002937 ], [ 320693.279364607529715, 3909769.600965518970042 ], [ 320684.492412702180445, 3909764.827133074402809 ], [ 320675.705460796772968, 3909760.053300629369915 ], [ 320666.918508891423699, 3909755.27946818433702 ], [ 320658.131556986074429, 3909750.505635739304125 ], [ 320651.507293527305592, 3909743.976975965313613 ], [ 320648.645879645599052, 3909734.395101900212467 ], [ 320645.784465763892513, 3909724.813227835576981 ], [ 320642.923051882185973, 3909715.231353770475835 ], [ 320640.061638000421226, 3909705.649479705374688 ], [ 320637.200224118714686, 3909696.067605640273541 ], [ 320634.338810237008147, 3909686.485731575172395 ], [ 320631.477396355301607, 3909676.903857510536909 ], [ 320628.615982473595068, 3909667.321983445435762 ], [ 320625.754568591830321, 3909657.740109380334616 ], [ 320622.893154710123781, 3909648.158235315233469 ], [ 320622.60167020407971, 3909638.201585107948631 ], [ 320622.607434171601199, 3909628.201586768962443 ], [ 320622.613198139180895, 3909618.201588430441916 ], [ 320622.618962106702384, 3909608.201590091455728 ], [ 320622.62472607428208, 3909598.20159175246954 ], [ 320622.630490041861776, 3909588.201593413949013 ], [ 320622.636254009383265, 3909578.201595074962825 ], [ 320622.642017976962961, 3909568.201596735976636 ], [ 320622.64778194448445, 3909558.20159839745611 ], [ 320622.653545912064146, 3909548.201600058469921 ], [ 320622.659309879643843, 3909538.201601719483733 ], [ 320620.631995183823165, 3909528.608685285318643 ], [ 320616.776452625228558, 3909519.381833623629063 ], [ 320612.920910066633951, 3909510.154981962405145 ], [ 320609.065367508097552, 3909500.928130301181227 ], [ 320605.209824949502945, 3909491.701278639957309 ], [ 320601.354282390908338, 3909482.474426978733391 ], [ 320597.498739832313731, 3909473.247575317509472 ], [ 320593.643197273719124, 3909464.020723656285554 ], [ 320589.787654715182725, 3909454.793871995061636 ], [ 320585.932112156588119, 3909445.567020333837718 ], [ 320582.076569597993512, 3909436.3401686726138 ], [ 320578.221027039398905, 3909427.113317011389881 ], [ 320574.365484480862506, 3909417.886465349700302 ], [ 320570.509941922267899, 3909408.659613688476384 ], [ 320566.654399363673292, 3909399.432762027252465 ], [ 320562.798856805078685, 3909390.205910366028547 ], [ 320558.863479558960535, 3909381.029247291386127 ], [ 320552.219857392658014, 3909373.555139684583992 ], [ 320545.576235226413701, 3909366.081032078247517 ], [ 320538.932613060169388, 3909358.606924471911043 ], [ 320532.288990893925074, 3909351.132816865574569 ], [ 320525.645368727622554, 3909343.658709259238094 ], [ 320519.001746561378241, 3909336.18460165290162 ], [ 320512.358124395133927, 3909328.710494046565145 ], [ 320505.714502228831407, 3909321.236386440228671 ], [ 320499.463730076735374, 3909313.610220683272928 ], [ 320499.344029239320662, 3909303.610937123652548 ], [ 320499.224328401847742, 3909293.611653564032167 ], [ 320499.104627564374823, 3909283.612370003946126 ], [ 320498.984926726901904, 3909273.613086444325745 ], [ 320498.865225889487192, 3909263.613802884239703 ], [ 320498.745525052014273, 3909253.614519324619323 ], [ 320498.625824214541353, 3909243.615235764998943 ], [ 320498.506123377068434, 3909233.615952204912901 ], [ 320498.386422539653722, 3909223.616668645292521 ], [ 320498.266721702180803, 3909213.617385085206479 ], [ 320498.147020864707883, 3909203.618101525586098 ], [ 320498.027320027293172, 3909193.618817965965718 ], [ 320497.907619189820252, 3909183.619534405879676 ], [ 320497.787918352347333, 3909173.620250846259296 ], [ 320497.668217514874414, 3909163.620967286173254 ], [ 320497.548516677459702, 3909153.621683726552874 ], [ 320497.428815839986783, 3909143.622400166466832 ], [ 320500.700438120518811, 3909134.221442403271794 ], [ 320504.234717262734193, 3909124.866824776399881 ], [ 320507.768996404949576, 3909115.512207149527967 ], [ 320511.303275547164958, 3909106.157589522656053 ], [ 320514.83755468938034, 3909096.80297189578414 ], [ 320518.371833831595723, 3909087.448354268912226 ], [ 320521.906112973752897, 3909078.093736642040312 ], [ 320525.44039211596828, 3909068.739119015168399 ], [ 320528.974671258183662, 3909059.384501388296485 ], [ 320532.508950400399044, 3909050.029883761424571 ], [ 320536.043229542614426, 3909040.675266134552658 ], [ 320539.577508684829809, 3909031.320648507680744 ], [ 320543.111787827045191, 3909021.96603088080883 ], [ 320546.646066969260573, 3909012.611413253936917 ], [ 320550.180346111475956, 3909003.256795627065003 ], [ 320553.714625253691338, 3908993.902178000193089 ], [ 320557.24890439590672, 3908984.547560373321176 ], [ 320560.783183538122103, 3908975.192942746449262 ], [ 320564.317462680337485, 3908965.838325119577348 ], [ 320568.231187375378795, 3908956.655197376385331 ], [ 320572.91725856740959, 3908947.821130544878542 ], [ 320577.603329759440385, 3908938.987063713371754 ], [ 320582.28940095147118, 3908930.152996881864965 ], [ 320586.975472143501975, 3908921.318930050358176 ], [ 320591.66154333553277, 3908912.484863218851388 ], [ 320596.347614527563564, 3908903.650796387344599 ], [ 320601.033685719594359, 3908894.81672955583781 ], [ 320605.719756911625154, 3908885.982662724331021 ], [ 320610.405828103655949, 3908877.148595892824233 ], [ 320615.091899295686744, 3908868.314529061317444 ], [ 320619.777970487717539, 3908859.480462229810655 ], [ 320624.464041679748334, 3908850.646395398303866 ], [ 320628.90485004108632, 3908841.693396895658225 ], [ 320632.939501744112931, 3908832.543446861207485 ], [ 320636.974153447139543, 3908823.393496826291084 ], [ 320641.008805150166154, 3908814.243546791840345 ], [ 320645.043456853192765, 3908805.093596757389605 ], [ 320649.078108556161169, 3908795.943646722473204 ], [ 320653.11276025918778, 3908786.793696688022465 ], [ 320657.147411962214392, 3908777.643746653571725 ], [ 320661.182063665241003, 3908768.493796619120985 ], [ 320665.216715368267614, 3908759.343846584204584 ], [ 320669.251367071236018, 3908750.193896549753845 ], [ 320673.286018774262629, 3908741.043946515303105 ], [ 320677.320670477289241, 3908731.893996480386704 ], [ 320681.355322180315852, 3908722.744046445935965 ], [ 320685.389973883342464, 3908713.594096411485225 ], [ 320689.424625586310867, 3908704.444146377034485 ], [ 320693.459277289337479, 3908695.294196342118084 ], [ 320697.49392899236409, 3908686.144246307667345 ], [ 320701.528580695390701, 3908676.994296273216605 ], [ 320705.563232398359105, 3908667.844346238765866 ], [ 320709.597884101385716, 3908658.694396203849465 ], [ 320713.632535804412328, 3908649.544446169398725 ], [ 320717.667187507438939, 3908640.394496134947985 ], [ 320721.70183921046555, 3908631.244546100031585 ], [ 320725.736490913433954, 3908622.094596065580845 ], [ 320729.771142616460565, 3908612.944646031130105 ], [ 320733.805794319487177, 3908603.794695996679366 ], [ 320737.840446022513788, 3908594.644745961762965 ], [ 320741.8750977255404, 3908585.494795927312225 ], [ 320745.909749428508803, 3908576.344845892861485 ], [ 320746.578584052098449, 3908566.941152821760625 ], [ 320743.96133499185089, 3908557.2897276757285 ], [ 320741.344085931603331, 3908547.638302529230714 ], [ 320738.726836871355772, 3908537.986877382732928 ], [ 320736.109587811050005, 3908528.335452236235142 ], [ 320733.492338750802446, 3908518.684027089737356 ], [ 320730.875089690554887, 3908509.032601943705231 ], [ 320728.257840630307328, 3908499.381176797207445 ], [ 320725.640591570001561, 3908489.729751650709659 ], [ 320723.023342509754002, 3908480.078326504211873 ], [ 320720.406093449506443, 3908470.426901357714087 ], [ 320717.788844389258884, 3908460.775476211681962 ], [ 320715.171595328953117, 3908451.124051065184176 ], [ 320712.554346268705558, 3908441.47262591868639 ], [ 320709.937097208457999, 3908431.821200772188604 ], [ 320707.31984814821044, 3908422.169775625690818 ], [ 320704.702599087962881, 3908412.518350479658693 ], [ 320702.085350027657114, 3908402.866925333160907 ], [ 320699.468100967409555, 3908393.215500186663121 ], [ 320696.850851907161996, 3908383.564075040165335 ], [ 320694.233602846914437, 3908373.91264989413321 ], [ 320691.61635378660867, 3908364.261224747635424 ], [ 320688.999104726361111, 3908354.609799601137638 ], [ 320686.381855666113552, 3908344.958374454639852 ], [ 320683.764606605865993, 3908335.306949308142066 ], [ 320681.147357545618434, 3908325.655524162109941 ], [ 320678.530108485312667, 3908316.004099015612155 ], [ 320675.912859425065108, 3908306.352673869114369 ], [ 320673.295610364817549, 3908296.701248722616583 ], [ 320670.678361304569989, 3908287.049823576118797 ], [ 320668.061112244264223, 3908277.398398430086672 ], [ 320665.443863184016664, 3908267.746973283588886 ], [ 320662.826614123769104, 3908258.0955481370911 ], [ 320660.209365063521545, 3908248.444122990593314 ], [ 320656.890358930628281, 3908239.070827878080308 ], [ 320652.185205368732568, 3908230.246909816283733 ], [ 320647.480051806778647, 3908221.422991754487157 ], [ 320642.774898244824726, 3908212.599073693156242 ], [ 320638.069744682929013, 3908203.775155631359667 ], [ 320633.364591120975092, 3908194.951237569563091 ], [ 320628.659437559021171, 3908186.127319508232176 ], [ 320623.954283997125458, 3908177.303401446435601 ], [ 320619.249130435171537, 3908168.479483384639025 ], [ 320614.543976873217616, 3908159.65556532330811 ], [ 320609.838823311263695, 3908150.831647261511534 ], [ 320605.133669749367982, 3908142.007729199714959 ], [ 320600.428516187414061, 3908133.183811138384044 ], [ 320595.72336262546014, 3908124.359893076587468 ], [ 320591.018209063564427, 3908115.535975014790893 ], [ 320586.313055501610506, 3908106.712056953459978 ], [ 320581.607901939656585, 3908097.888138891663402 ], [ 320576.902748377760872, 3908089.064220829866827 ], [ 320572.197594815806951, 3908080.240302768535912 ], [ 320567.492441253853031, 3908071.416384706739336 ], [ 320562.78728769189911, 3908062.59246664494276 ], [ 320558.082134130003396, 3908053.768548583611846 ], [ 320553.376980568049476, 3908044.94463052181527 ], [ 320548.671827006095555, 3908036.120712460018694 ], [ 320543.966673444199841, 3908027.29679439868778 ], [ 320539.261519882245921, 3908018.472876336891204 ], [ 320534.556366320292, 3908009.648958275094628 ], [ 320529.851212758396287, 3908000.825040213763714 ], [ 320525.146059196442366, 3907992.001122151967138 ], [ 320520.440905634488445, 3907983.177204090170562 ], [ 320515.735752072534524, 3907974.353286028839648 ], [ 320511.030598510638811, 3907965.529367967043072 ], [ 320506.32544494868489, 3907956.705449905246496 ], [ 320501.620291386730969, 3907947.881531843915582 ], [ 320496.915137824835256, 3907939.057613782119006 ], [ 320492.209984262881335, 3907930.23369572032243 ], [ 320487.504830700927414, 3907921.409777658991516 ], [ 320482.799677138973493, 3907912.58585959719494 ], [ 320478.09452357707778, 3907903.761941535398364 ], [ 320473.389370015123859, 3907894.93802347406745 ], [ 320468.684216453169938, 3907886.114105412270874 ], [ 320463.979062891274225, 3907877.290187350474298 ], [ 320460.465084161667619, 3907867.982072864193469 ], [ 320457.679464567103423, 3907858.377890260890126 ], [ 320454.893844972539227, 3907848.773707657586783 ], [ 320452.108225378033239, 3907839.169525054749101 ], [ 320449.322605783469044, 3907829.565342451445758 ], [ 320446.536986188904848, 3907819.961159848608077 ], [ 320443.75136659439886, 3907810.356977245304734 ], [ 320440.965746999834664, 3907800.75279464200139 ], [ 320438.180127405270468, 3907791.148612039163709 ], [ 320435.394507810706273, 3907781.544429435860366 ], [ 320432.608888216200285, 3907771.940246832557023 ], [ 320429.823268621636089, 3907762.336064229719341 ], [ 320427.037649027071893, 3907752.731881626415998 ], [ 320424.252029432565905, 3907743.127699023112655 ], [ 320421.466409838001709, 3907733.523516420274973 ], [ 320418.680790243437514, 3907723.91933381697163 ], [ 320415.895170648873318, 3907714.315151213668287 ], [ 320413.10955105436733, 3907704.710968610830605 ], [ 320410.323931459803134, 3907695.106786007527262 ], [ 320407.538311865238938, 3907685.502603404223919 ], [ 320404.75269227073295, 3907675.898420801386237 ], [ 320401.967072676168755, 3907666.294238198082894 ], [ 320399.181453081604559, 3907656.690055594779551 ], [ 320396.395833487040363, 3907647.085872991941869 ], [ 320394.53586130781332, 3907637.346445246599615 ], [ 320394.457184457045514, 3907627.346754753962159 ], [ 320394.378507606277708, 3907617.347064260859042 ], [ 320394.299830755568109, 3907607.347373768221587 ], [ 320394.221153904800303, 3907597.34768327511847 ], [ 320394.142477054032497, 3907587.347992782481015 ], [ 320394.063800203264691, 3907577.348302289377898 ], [ 320393.985123352496885, 3907567.348611796740443 ], [ 320393.906446501729079, 3907557.348921303637326 ], [ 320393.827769650961272, 3907547.34923081099987 ], [ 320393.749092800251674, 3907537.349540317896754 ], [ 320393.670415949483868, 3907527.349849825259298 ], [ 320393.591739098716062, 3907517.350159332156181 ], [ 320393.513062247948255, 3907507.350468839518726 ], [ 320393.434385397180449, 3907497.350778346415609 ], [ 320393.355708546412643, 3907487.351087853778154 ], [ 320393.277031695703045, 3907477.351397360675037 ], [ 320393.198354844935238, 3907467.351706868037581 ], [ 320393.119677994167432, 3907457.352016374934465 ], [ 320393.041001143399626, 3907447.352325882297009 ], [ 320392.96232429263182, 3907437.352635389193892 ], [ 320392.883647441864014, 3907427.352944896556437 ], [ 320392.804970591096207, 3907417.35325440345332 ], [ 320392.726293740386609, 3907407.353563910815865 ], [ 320392.647616889618803, 3907397.353873417712748 ], [ 320392.568940038850997, 3907387.354182925075293 ], [ 320392.49026318808319, 3907377.354492431972176 ], [ 320392.411586337315384, 3907367.35480193933472 ], [ 320393.812495846708771, 3907357.473138135392219 ], [ 320395.475442062830552, 3907347.612377014476806 ], [ 320397.138388278952334, 3907337.751615893561393 ], [ 320398.801334495015908, 3907327.89085477264598 ], [ 320400.46428071113769, 3907318.030093651730567 ], [ 320402.127226927259471, 3907308.169332531280816 ], [ 320403.790173143381253, 3907298.308571410365403 ], [ 320405.453119359444827, 3907288.44781028944999 ], [ 320407.116065575566608, 3907278.587049168534577 ], [ 320408.77901179168839, 3907268.726288047619164 ], [ 320410.441958007751964, 3907258.865526926703751 ], [ 320412.104904223873746, 3907249.004765805788338 ], [ 320413.767850439995527, 3907239.144004685338587 ], [ 320415.430796656117309, 3907229.283243564423174 ], [ 320417.093742872180883, 3907219.422482443507761 ], [ 320418.756689088302664, 3907209.561721322592348 ], [ 320423.72654901543865, 3907201.066697636153549 ], [ 320429.506303184491117, 3907192.906155880074948 ], [ 320435.286057353543583, 3907184.745614124462008 ], [ 320441.06581152259605, 3907176.585072368849069 ], [ 320446.845565691648517, 3907168.424530613236129 ], [ 320452.625319860642776, 3907160.26398885762319 ], [ 320458.405074029695243, 3907152.10344710201025 ], [ 320464.184828198747709, 3907143.94290534639731 ], [ 320469.964582367800176, 3907135.782363590784371 ], [ 320475.744336536852643, 3907127.621821835171431 ], [ 320481.52409070590511, 3907119.461280079558492 ], [ 320487.303844874957576, 3907111.300738323945552 ], [ 320493.083599044010043, 3907103.140196568332613 ], [ 320498.86335321306251, 3907094.979654812719673 ], [ 320504.643107382114977, 3907086.819113057106733 ], [ 320510.422861551167443, 3907078.658571301493794 ], [ 320516.20261572021991, 3907070.498029545880854 ], [ 320521.982369889214169, 3907062.337487790267915 ], [ 320527.762124058266636, 3907054.176946034654975 ], [ 320533.541878227319103, 3907046.016404279042035 ], [ 320539.321632396371569, 3907037.855862523429096 ], [ 320545.101386565424036, 3907029.695320767816156 ], [ 320550.881140734476503, 3907021.534779012203217 ], [ 320556.66089490352897, 3907013.374237256590277 ], [ 320562.440649072581436, 3907005.213695500977337 ], [ 320568.220403241633903, 3906997.053153745364398 ], [ 320574.00015741068637, 3906988.892611989751458 ], [ 320579.779911579738837, 3906980.732070234138519 ], [ 320585.559665748791303, 3906972.571528478525579 ], [ 320591.339419917785563, 3906964.410986722446978 ], [ 320598.081594693241641, 3906957.220109788235277 ], [ 320606.285247940570116, 3906951.501711988355964 ], [ 320614.488901187898591, 3906945.783314188476652 ], [ 320622.692554435285274, 3906940.064916389063001 ], [ 320630.896207682613749, 3906934.346518589183688 ], [ 320639.099860929942224, 3906928.628120789304376 ], [ 320647.303514177270699, 3906922.909722989425063 ], [ 320655.507167424657382, 3906917.191325189545751 ], [ 320663.710820671985857, 3906911.472927389666438 ], [ 320671.914473919314332, 3906905.754529589787126 ], [ 320680.118127166642807, 3906900.036131789907813 ], [ 320688.32178041402949, 3906894.317733990028501 ], [ 320696.525433661357965, 3906888.599336190149188 ], [ 320704.72908690868644, 3906882.880938390269876 ], [ 320712.932740156073123, 3906877.162540590390563 ], [ 320721.136393403401598, 3906871.44414279051125 ], [ 320729.340046650730073, 3906865.725744990631938 ], [ 320737.999531517678406, 3906860.765636080410331 ], [ 320746.898141392564867, 3906856.203318435233086 ], [ 320755.796751267451327, 3906851.641000790055841 ], [ 320764.69536114227958, 3906847.078683145344257 ], [ 320773.593971017166041, 3906842.516365500167012 ], [ 320782.492580892052501, 3906837.954047854989767 ], [ 320791.391190766938962, 3906833.391730209812522 ], [ 320800.289800641767215, 3906828.829412564635277 ], [ 320809.188410516653676, 3906824.267094919458032 ], [ 320818.087020391540136, 3906819.704777274746448 ], [ 320826.985630266426597, 3906815.142459629569203 ], [ 320835.884240141313057, 3906810.580141984391958 ], [ 320844.78285001614131, 3906806.017824339214712 ], [ 320853.681459891027771, 3906801.455506694037467 ], [ 320862.580069765914232, 3906796.893189048860222 ], [ 320871.478679640800692, 3906792.330871404148638 ], [ 320880.377289515687153, 3906787.768553758971393 ], [ 320889.275899390515406, 3906783.206236113794148 ], [ 320897.267279293795582, 3906777.723794322926551 ], [ 320901.954717114684172, 3906768.890452561434358 ], [ 320906.642154935514554, 3906760.057110799942166 ], [ 320911.329592756344937, 3906751.223769038449973 ], [ 320916.017030577233527, 3906742.39042727695778 ], [ 320920.704468398063909, 3906733.557085515465587 ], [ 320925.391906218952499, 3906724.723743753973395 ], [ 320930.079344039782882, 3906715.890401992481202 ], [ 320934.766781860671472, 3906707.057060230989009 ], [ 320939.454219681501854, 3906698.223718469496816 ], [ 320944.141657502390444, 3906689.390376708004624 ], [ 320948.829095323220827, 3906680.557034946512431 ], [ 320953.516533144051209, 3906671.723693185020238 ], [ 320956.760086623078678, 3906662.593884013127536 ], [ 320955.932586937269662, 3906652.628180612809956 ], [ 320955.105087251460645, 3906642.662477212026715 ], [ 320954.277587565651629, 3906632.696773811243474 ], [ 320953.450087879784405, 3906622.731070410460234 ], [ 320952.622588193975389, 3906612.765367010142654 ], [ 320951.795088508166373, 3906602.799663609359413 ], [ 320950.967588822299149, 3906592.833960208576173 ], [ 320950.140089136490133, 3906582.868256807792932 ], [ 320949.312589450681116, 3906572.902553407475352 ], [ 320948.4850897648721, 3906562.936850006692111 ], [ 320941.333883059502114, 3906557.946234686300159 ], [ 320931.842912982450798, 3906554.796395484823734 ], [ 320922.351942905399483, 3906551.646556282881647 ], [ 320912.860972828348167, 3906548.496717081405222 ], [ 320903.370002751355059, 3906545.346877879463136 ], [ 320893.879032674303744, 3906542.197038677986711 ], [ 320884.388062597252429, 3906539.047199476044625 ], [ 320874.897092520201113, 3906535.8973602745682 ], [ 320865.406122443208005, 3906532.747521072626114 ], [ 320855.91515236615669, 3906529.597681870684028 ], [ 320846.424182289105374, 3906526.447842669207603 ], [ 320836.787995284830686, 3906528.033296080306172 ], [ 320827.121849879971705, 3906530.595645199995488 ], [ 320817.455704475112725, 3906533.157994320150465 ], [ 320807.789559070253745, 3906535.72034343983978 ], [ 320798.123413665336557, 3906538.282692559529096 ], [ 320788.457268260477576, 3906540.845041679684073 ], [ 320778.791122855618596, 3906543.407390799373388 ], [ 320769.124977450759616, 3906545.969739919062704 ], [ 320759.458832045842428, 3906548.532089038752019 ], [ 320749.792686640983447, 3906551.094438158906996 ], [ 320740.126541236124467, 3906553.656787278596312 ], [ 320730.460395831265487, 3906556.219136398285627 ], [ 320720.794250426406506, 3906558.781485518440604 ], [ 320711.128105021489318, 3906561.34383463812992 ], [ 320701.461959616630338, 3906563.906183757819235 ], [ 320691.795814211771358, 3906566.468532877974212 ], [ 320682.129668806912377, 3906569.030881997663528 ], [ 320672.463523402053397, 3906571.593231117352843 ], [ 320662.839962609752547, 3906573.717354543507099 ], [ 320653.847998537297826, 3906569.341902324464172 ], [ 320644.856034464843106, 3906564.966450105886906 ], [ 320635.864070392388385, 3906560.590997886843979 ], [ 320626.872106319991872, 3906556.215545667801052 ], [ 320617.880142247537151, 3906551.840093448758125 ], [ 320608.88817817508243, 3906547.46464123018086 ], [ 320599.89621410262771, 3906543.089189011137933 ], [ 320590.904250030231196, 3906538.713736792095006 ], [ 320581.912285957776476, 3906534.33828457351774 ], [ 320572.920321885321755, 3906529.962832354474813 ], [ 320563.928357812867034, 3906525.587380135431886 ], [ 320557.551158749847673, 3906518.709471009671688 ], [ 320553.574424359190743, 3906509.534200790803879 ], [ 320549.597689968533814, 3906500.358930572401732 ], [ 320545.620955577876884, 3906491.183660353533924 ], [ 320541.644221187219955, 3906482.008390134666115 ], [ 320537.667486796563026, 3906472.833119916263968 ], [ 320533.690752405906096, 3906463.657849697396159 ], [ 320529.714018015249167, 3906454.482579478528351 ], [ 320525.73728362453403, 3906445.307309260126203 ], [ 320521.7605492338771, 3906436.132039041258395 ], [ 320517.783814843220171, 3906426.956768822856247 ], [ 320513.807080452563241, 3906417.781498603988439 ], [ 320509.830346061906312, 3906408.60622838512063 ], [ 320505.853611671249382, 3906399.430958166718483 ], [ 320501.876877280592453, 3906390.255687947850674 ], [ 320497.900142889935523, 3906381.080417728982866 ], [ 320493.923408499278594, 3906371.905147510580719 ], [ 320490.091914302203804, 3906362.694408037234098 ], [ 320489.39182852639351, 3906352.718944142572582 ], [ 320488.691742750641424, 3906342.743480248376727 ], [ 320487.991656974889338, 3906332.768016354180872 ], [ 320487.291571199137252, 3906322.792552459985018 ], [ 320486.591485423385166, 3906312.817088565323502 ], [ 320485.891399647633079, 3906302.841624671127647 ], [ 320485.191313871822786, 3906292.866160776931792 ], [ 320484.491228096070699, 3906282.890696882735938 ], [ 320483.791142320318613, 3906272.915232988074422 ], [ 320483.091056544566527, 3906262.939769093878567 ], [ 320482.390970768814441, 3906252.964305199682713 ], [ 320481.690884993062355, 3906242.988841305486858 ], [ 320480.990799217252061, 3906233.013377411291003 ], [ 320480.290713441499975, 3906223.037913516629487 ], [ 320479.590627665747888, 3906213.062449622433633 ], [ 320478.890541889995802, 3906203.086985728237778 ], [ 320478.190456114243716, 3906193.111521834041923 ], [ 320477.490370338433422, 3906183.136057939380407 ], [ 320476.790284562681336, 3906173.160594045184553 ], [ 320477.083499361469876, 3906163.357852041255683 ], [ 320481.10987645824207, 3906154.204257803037763 ], [ 320485.136253555014264, 3906145.050663565285504 ], [ 320489.16263065172825, 3906135.897069327067584 ], [ 320493.189007748500444, 3906126.743475088849664 ], [ 320497.215384845272638, 3906117.589880851097405 ], [ 320501.241761942044832, 3906108.436286612879485 ], [ 320505.268139038817026, 3906099.282692375127226 ], [ 320509.294516135531012, 3906090.129098136909306 ], [ 320513.320893232303206, 3906080.975503898691386 ], [ 320517.3472703290754, 3906071.821909660939127 ], [ 320521.373647425847594, 3906062.668315422721207 ], [ 320525.400024522619788, 3906053.514721184968948 ], [ 320529.426401619391982, 3906044.361126946751028 ], [ 320533.452778716105968, 3906035.207532708533108 ], [ 320537.479155812878162, 3906026.053938470780849 ], [ 320541.505532909650356, 3906016.900344232562929 ], [ 320545.531910006422549, 3906007.746749994345009 ], [ 320549.558287103194743, 3905998.593155756592751 ], [ 320553.58466419990873, 3905989.43956151837483 ], [ 320557.611041296680924, 3905980.285967280622572 ], [ 320561.637418393453117, 3905971.132373042404652 ], [ 320565.916401157272048, 3905962.120217605028301 ], [ 320571.616001440910622, 3905953.903493402991444 ], [ 320577.315601724490989, 3905945.686769201420248 ], [ 320583.015202008129563, 3905937.470044999849051 ], [ 320588.71480229170993, 3905929.253320797812194 ], [ 320594.414402575348504, 3905921.036596596240997 ], [ 320600.11400285892887, 3905912.819872394669801 ], [ 320605.813603142567445, 3905904.603148192632943 ], [ 320611.513203426147811, 3905896.386423991061747 ], [ 320617.212803709786385, 3905888.169699789490551 ], [ 320622.912403993366752, 3905879.952975587453693 ], [ 320628.612004277005326, 3905871.736251385882497 ], [ 320634.311604560585693, 3905863.519527184311301 ], [ 320640.011204844224267, 3905855.302802982740104 ], [ 320645.710805127804633, 3905847.086078780703247 ], [ 320651.410405411443207, 3905838.86935457913205 ], [ 320657.110005695023574, 3905830.652630377560854 ], [ 320662.054561600089073, 3905822.130091901868582 ], [ 320663.679423584486358, 3905812.262983737513423 ], [ 320665.304285568883643, 3905802.395875572692603 ], [ 320666.929147553280927, 3905792.528767408337444 ], [ 320668.554009537678212, 3905782.661659243516624 ], [ 320670.178871522075497, 3905772.794551079161465 ], [ 320671.803733506530989, 3905762.927442914340645 ], [ 320673.428595490928274, 3905753.060334749985486 ], [ 320675.053457475325558, 3905743.193226585164666 ], [ 320676.678319459722843, 3905733.326118420809507 ], [ 320678.303181444120128, 3905723.459010255988687 ], [ 320679.928043428517412, 3905713.591902091633528 ], [ 320681.552905412914697, 3905703.724793926812708 ], [ 320681.628521958482452, 3905693.879085217602551 ], [ 320679.731746618286707, 3905684.060620810370892 ], [ 320677.834971278149169, 3905674.242156403604895 ], [ 320675.938195937953424, 3905664.423691996838897 ], [ 320674.041420597815886, 3905654.6052275900729 ], [ 320672.144645257620141, 3905644.786763182841241 ], [ 320670.247869917482603, 3905634.968298776075244 ], [ 320668.351094577286858, 3905625.149834369309247 ], [ 320666.454319237091113, 3905615.331369962543249 ], [ 320664.557543896953575, 3905605.512905555777252 ], [ 320662.66076855675783, 3905595.694441148545593 ], [ 320660.763993216620293, 3905585.875976741779596 ], [ 320658.867217876424547, 3905576.057512335013598 ], [ 320656.97044253628701, 3905566.239047928247601 ], [ 320655.073667196091264, 3905556.420583521015942 ], [ 320653.176891855953727, 3905546.602119114249945 ], [ 320647.138065802515484, 3905538.872409200295806 ], [ 320640.370867044490296, 3905531.510003278031945 ], [ 320633.603668286465108, 3905524.147597355302423 ], [ 320626.83646952843992, 3905516.785191432572901 ], [ 320620.069270770414732, 3905509.422785509843379 ], [ 320613.302072012389544, 3905502.060379587113857 ], [ 320606.534873254364356, 3905494.697973664849997 ], [ 320599.767674496397376, 3905487.335567742120475 ], [ 320593.000475738372188, 3905479.973161819390953 ], [ 320586.233276980347, 3905472.610755896661431 ], [ 320579.466078222321812, 3905465.24834997439757 ], [ 320572.698879464296624, 3905457.885944051668048 ], [ 320565.931680706271436, 3905450.523538128938526 ], [ 320559.164481948246248, 3905443.161132206209004 ], [ 320550.489245361182839, 3905438.411746800411493 ], [ 320541.416013491747435, 3905434.207408155314624 ], [ 320532.342781622253824, 3905430.003069510217756 ], [ 320523.269549752760213, 3905425.798730865120888 ], [ 320514.196317883266602, 3905421.594392220024019 ], [ 320505.123086013831198, 3905417.390053574927151 ], [ 320496.049854144337587, 3905413.185714929830283 ], [ 320486.976622274843976, 3905408.981376284733415 ], [ 320477.903390405408572, 3905404.777037639636546 ], [ 320468.830158535914961, 3905400.572698994539678 ], [ 320459.75692666642135, 3905396.36836034944281 ], [ 320452.64855755364988, 3905389.573897080495954 ], [ 320446.154842008661944, 3905381.969184171874076 ], [ 320439.661126463732217, 3905374.36447126371786 ], [ 320433.167410918744281, 3905366.759758355095983 ], [ 320426.673695373814553, 3905359.155045446474105 ], [ 320420.179979828884825, 3905351.550332537852228 ], [ 320413.68626428389689, 3905343.94561962923035 ], [ 320407.192548738967162, 3905336.340906721074134 ], [ 320400.698833193979226, 3905328.736193812452257 ], [ 320394.205117649049498, 3905321.131480903830379 ], [ 320387.71140210411977, 3905313.526767995208502 ], [ 320381.217686559131835, 3905305.922055086586624 ], [ 320374.723971014202107, 3905298.317342178430408 ], [ 320373.039909753773827, 3905289.064466090872884 ], [ 320373.504577258077916, 3905279.075267719104886 ], [ 320373.969244762382004, 3905269.086069347336888 ], [ 320374.433912266744301, 3905259.096870975568891 ], [ 320374.898579771048389, 3905249.107672603800893 ], [ 320375.363247275352478, 3905239.118474232032895 ], [ 320375.827914779656567, 3905229.129275860264897 ], [ 320376.292582284018863, 3905219.1400774884969 ], [ 320376.757249788322952, 3905209.150879116728902 ], [ 320377.22191729262704, 3905199.161680744960904 ], [ 320377.686584796989337, 3905189.172482373658568 ], [ 320378.151252301293425, 3905179.18328400189057 ], [ 320378.615919805597514, 3905169.194085630122572 ], [ 320379.080587309901603, 3905159.204887258354574 ], [ 320379.545254814263899, 3905149.215688886586577 ], [ 320381.12211647303775, 3905139.36808460438624 ], [ 320383.175165902124718, 3905129.581104067154229 ], [ 320385.228215331211686, 3905119.794123529456556 ], [ 320387.281264760240447, 3905110.007142992224544 ], [ 320389.334314189327415, 3905100.220162454526871 ], [ 320391.387363618414383, 3905090.433181916829199 ], [ 320393.440413047443144, 3905080.646201379597187 ], [ 320395.493462476530112, 3905070.859220841899514 ], [ 320397.546511905617081, 3905061.072240304201841 ], [ 320399.599561334645841, 3905051.28525976696983 ], [ 320401.65261076373281, 3905041.498279229272157 ], [ 320403.705660192819778, 3905031.711298692040145 ], [ 320405.758709621848539, 3905021.924318154342473 ], [ 320406.327084193297196, 3905012.09177077608183 ], [ 320404.87808703770861, 3905002.197307311929762 ], [ 320403.429089882120024, 3904992.302843847777694 ], [ 320401.980092726531439, 3904982.408380383625627 ], [ 320400.531095570942853, 3904972.513916919473559 ], [ 320399.082098415412474, 3904962.619453455321491 ], [ 320397.633101259823889, 3904952.724989991169423 ], [ 320396.184104104235303, 3904942.830526527017355 ], [ 320394.735106948646717, 3904932.936063062865287 ], [ 320393.286109793058131, 3904923.041599598713219 ], [ 320391.837112637469545, 3904913.147136134561151 ], [ 320390.388115481880959, 3904903.252672670874745 ], [ 320388.939118326292373, 3904893.358209206722677 ], [ 320387.490121170703787, 3904883.463745742570609 ], [ 320386.041124015173409, 3904873.569282278418541 ], [ 320384.592126859584823, 3904863.674818814266473 ], [ 320381.239409906207584, 3904854.445030725561082 ], [ 320376.215038083959371, 3904845.798893565312028 ], [ 320371.190666261711158, 3904837.152756405062973 ], [ 320366.166294439521153, 3904828.506619244813919 ], [ 320361.14192261727294, 3904819.860482085030526 ], [ 320356.117550795024727, 3904811.214344924781471 ], [ 320351.093178972776514, 3904802.568207764532417 ], [ 320346.068807150586508, 3904793.922070604283363 ], [ 320341.044435328338295, 3904785.275933444499969 ], [ 320336.020063506090082, 3904776.629796284250915 ], [ 320330.995691683900077, 3904767.983659124001861 ], [ 320325.971319861651864, 3904759.337521963752806 ], [ 320320.946948039403651, 3904750.691384803969413 ], [ 320315.922576217155438, 3904742.045247643720359 ], [ 320310.898204394965433, 3904733.399110483471304 ], [ 320305.87383257271722, 3904724.75297332322225 ], [ 320297.248244615504518, 3904720.480674361344427 ], [ 320287.798429953632876, 3904717.209435626864433 ], [ 320278.348615291761234, 3904713.938196892850101 ], [ 320268.898800629889593, 3904710.666958158835769 ], [ 320259.448985967959743, 3904707.395719424355775 ], [ 320249.999171306088101, 3904704.124480690341443 ], [ 320240.549356644216459, 3904700.853241956327111 ], [ 320231.099541982344817, 3904697.582003221847117 ], [ 320221.649727320414968, 3904694.310764487832785 ], [ 320212.199912658543326, 3904691.039525753818452 ], [ 320202.750097996671684, 3904687.768287019338459 ], [ 320193.300283334800042, 3904684.497048285324126 ], [ 320183.850468672870193, 3904681.225809550844133 ], [ 320174.400654010998551, 3904677.954570816829801 ], [ 320164.950839349126909, 3904674.683332082815468 ], [ 320155.321811768633779, 3904674.843636465258896 ], [ 320145.582652433949988, 3904677.112727792933583 ], [ 320135.843493099266198, 3904679.38181912060827 ], [ 320126.104333764582407, 3904681.650910448282957 ], [ 320116.365174429898616, 3904683.920001775957644 ], [ 320106.626015095214825, 3904686.189093103632331 ], [ 320096.886855760472827, 3904688.458184431307018 ], [ 320087.147696425789036, 3904690.727275758981705 ], [ 320077.408537091105245, 3904692.996367086656392 ], [ 320067.669377756421454, 3904695.265458414331079 ], [ 320057.930218421737663, 3904697.534549742005765 ], [ 320048.191059087053873, 3904699.803641069680452 ], [ 320038.451899752311874, 3904702.072732397355139 ], [ 320028.712740417628083, 3904704.341823725029826 ], [ 320018.973581082944293, 3904706.610915052704513 ], [ 320009.328323670953978, 3904709.034618705045432 ], [ 320002.824375499330927, 3904716.630581987090409 ], [ 319996.320427327707876, 3904724.226545269135386 ], [ 319989.816479156084824, 3904731.822508551180363 ], [ 319983.312530984461773, 3904739.41847183322534 ], [ 319976.808582812838722, 3904747.014435114804655 ], [ 319970.304634641215671, 3904754.610398396849632 ], [ 319963.80068646959262, 3904762.206361678894609 ], [ 319957.296738298027776, 3904769.802324960939586 ], [ 319950.792790126404725, 3904777.398288242984563 ], [ 319944.288841954781674, 3904784.99425152502954 ], [ 319937.784893783158623, 3904792.590214806608856 ], [ 319931.280945611535572, 3904800.186178088653833 ], [ 319924.321712650009431, 3904807.346697045024484 ], [ 319917.022882603807375, 3904814.182417925447226 ], [ 319909.724052557547111, 3904821.018138805869967 ], [ 319902.425222511286847, 3904827.853859686292708 ], [ 319895.126392465026584, 3904834.689580566715449 ], [ 319887.82756241876632, 3904841.52530144713819 ], [ 319880.528732372506056, 3904848.361022327560931 ], [ 319873.229902326245792, 3904855.196743208449334 ], [ 319864.067594089603517, 3904858.444537084084004 ], [ 319854.277816086192615, 3904860.484205352142453 ], [ 319844.488038082839921, 3904862.523873620666564 ], [ 319834.698260079487227, 3904864.563541888725013 ], [ 319824.908482076076325, 3904866.603210157249123 ], [ 319815.118704072723631, 3904868.642878425307572 ], [ 319805.328926069370937, 3904870.682546693831682 ], [ 319795.539148066018242, 3904872.722214961890131 ], [ 319785.749370062607341, 3904874.761883230414242 ], [ 319777.139583390788175, 3904871.729689424391836 ], [ 319769.255531991017051, 3904865.578125922009349 ], [ 319761.371480591245927, 3904859.426562419626862 ], [ 319753.48742919153301, 3904853.274998916778713 ], [ 319745.603377791761886, 3904847.123435414396226 ], [ 319737.719326391990762, 3904840.971871912013739 ], [ 319729.835274992219638, 3904834.820308409165591 ], [ 319721.951223592448514, 3904828.668744906783104 ], [ 319716.915468964492902, 3904820.486495580524206 ], [ 319713.670181697816588, 3904811.027737176045775 ], [ 319710.424894431140274, 3904801.568978771567345 ], [ 319707.17960716446396, 3904792.110220367088914 ], [ 319703.934319897787645, 3904782.651461962144822 ], [ 319700.689032631111331, 3904773.192703557666391 ], [ 319697.443745364435017, 3904763.73394515318796 ], [ 319694.198458097758703, 3904754.27518674870953 ], [ 319690.953170831082389, 3904744.816428343765438 ], [ 319687.707883564406075, 3904735.357669939287007 ], [ 319684.46259629772976, 3904725.898911534808576 ], [ 319681.217309031053446, 3904716.440153129864484 ], [ 319677.972021764377132, 3904706.981394725386053 ], [ 319674.710835592355579, 3904697.528336420655251 ], [ 319671.207017020846251, 3904688.162267052102834 ], [ 319667.703198449278716, 3904678.796197683084756 ], [ 319664.199379877711181, 3904669.43012831453234 ], [ 319660.695561306201853, 3904660.064058945979923 ], [ 319657.191742734634317, 3904650.697989577427506 ], [ 319653.687924163066782, 3904641.33192020887509 ], [ 319650.184105591499247, 3904631.965850840322673 ], [ 319646.680287019989919, 3904622.599781471770257 ], [ 319642.987749756837729, 3904613.307288595940918 ], [ 319639.22739085071953, 3904604.041237608529627 ], [ 319635.467031944601331, 3904594.775186621583998 ], [ 319631.706673038541339, 3904585.509135634172708 ], [ 319628.859633982065134, 3904576.074755001347512 ], [ 319629.069564665609505, 3904566.076958789024502 ], [ 319629.279495349153876, 3904556.079162576235831 ], [ 319629.489426032698248, 3904546.081366363912821 ], [ 319629.699356716242619, 3904536.08357015112415 ], [ 319629.90928739978699, 3904526.08577393880114 ], [ 319635.174084265658166, 3904518.929805648513138 ], [ 319643.606702406425029, 3904513.554775295779109 ], [ 319652.039320547133684, 3904508.17974494304508 ], [ 319660.471938687900547, 3904502.80471459031105 ], [ 319668.90455682866741, 3904497.429684237577021 ], [ 319677.337174969376065, 3904492.054653885308653 ], [ 319685.769793110142928, 3904486.679623532574624 ], [ 319694.202411250851583, 3904481.304593179840595 ], [ 319702.635029391618446, 3904475.929562827106565 ], [ 319711.067647532327101, 3904470.554532474372536 ], [ 319720.565596776606981, 3904467.526979138609022 ], [ 319730.163398040400352, 3904464.719451596494764 ], [ 319739.761199304193724, 3904461.911924054380506 ], [ 319749.359000567987096, 3904459.104396511800587 ], [ 319758.956801831780467, 3904456.296868969686329 ], [ 319768.554603095573839, 3904453.489341427572072 ], [ 319778.15240435936721, 3904450.681813884992152 ], [ 319787.750205623160582, 3904447.874286342877895 ], [ 319796.855518600612413, 3904444.057514614891261 ], [ 319804.974569392157719, 3904438.219619939103723 ], [ 319813.093620183703024, 3904432.381725263316184 ], [ 319821.212670975248329, 3904426.543830587528646 ], [ 319829.331721766735427, 3904420.705935911741108 ], [ 319837.450772558280732, 3904414.868041236419231 ], [ 319845.569823349826038, 3904409.030146560631692 ], [ 319848.722264482290484, 3904399.741135021671653 ], [ 319851.361935618100688, 3904390.095818215049803 ], [ 319854.001606753969099, 3904380.450501408893615 ], [ 319856.641277889779303, 3904370.805184602737427 ], [ 319859.280949025647715, 3904361.159867796115577 ], [ 319861.920620161457919, 3904351.514550989959389 ], [ 319864.56029129732633, 3904341.869234183337539 ], [ 319863.062347674567718, 3904332.598069485742599 ], [ 319858.735249895369634, 3904323.582736723590642 ], [ 319854.408152116113342, 3904314.567403961904347 ], [ 319850.081054336915258, 3904305.55207119975239 ], [ 319845.753956557717174, 3904296.536738438066095 ], [ 319841.391667237388901, 3904287.540263970382512 ], [ 319836.281450790003873, 3904278.944585529156029 ], [ 319831.171234342677053, 3904270.348907088395208 ], [ 319826.061017895292025, 3904261.753228647168726 ], [ 319820.950801447965205, 3904253.157550205942243 ], [ 319815.840585000638384, 3904244.561871765181422 ], [ 319810.730368553253356, 3904235.96619332395494 ], [ 319805.620152105926536, 3904227.370514883194119 ], [ 319800.509935658599716, 3904218.774836441967636 ], [ 319794.013126034638844, 3904211.281025847420096 ], [ 319786.793892982357647, 3904204.361295062117279 ], [ 319779.57465993007645, 3904197.441564277280122 ], [ 319772.355426877795253, 3904190.521833492442966 ], [ 319765.136193825572263, 3904183.602102707140148 ], [ 319757.916960773291066, 3904176.682371922302991 ], [ 319750.697727721009869, 3904169.762641137465835 ], [ 319744.969153837766498, 3904161.768311551772058 ], [ 319740.685907172504812, 3904152.732062440365553 ], [ 319736.402660507243127, 3904143.695813328959048 ], [ 319732.119413841923233, 3904134.659564217552543 ], [ 319727.836167176661547, 3904125.623315106146038 ], [ 319723.552920511399861, 3904116.587065994273871 ], [ 319719.269673846138176, 3904107.550816882867366 ], [ 319714.98642718087649, 3904098.514567771460861 ], [ 319710.703180515614804, 3904089.478318660054356 ], [ 319706.419933850353118, 3904080.442069548647851 ], [ 319701.33251706691226, 3904071.834255767520517 ], [ 319696.222113286727108, 3904063.238688700366765 ], [ 319691.111709506483749, 3904054.643121633678675 ], [ 319686.001305726298597, 3904046.047554566524923 ], [ 319685.542342193890363, 3904036.38787923194468 ], [ 319686.407217107072938, 3904026.425349865108728 ], [ 319687.272092020313721, 3904016.462820498272777 ], [ 319688.136966933496296, 3904006.500291131436825 ], [ 319689.001841846678872, 3903996.537761764600873 ], [ 319689.866716759861447, 3903986.575232397764921 ], [ 319691.769114824826829, 3903976.904130243230611 ], [ 319696.218155828479212, 3903967.948348080739379 ], [ 319700.667196832131594, 3903958.992565917782485 ], [ 319705.116237835783977, 3903950.036783754825592 ], [ 319709.56527883943636, 3903941.081001591868699 ], [ 319714.014319843088742, 3903932.125219429377466 ], [ 319718.463360846741125, 3903923.169437266420573 ], [ 319722.912401850393508, 3903914.21365510346368 ], [ 319727.361442853987683, 3903905.257872940972447 ], [ 319731.810483857640065, 3903896.302090778015554 ], [ 319736.259524861292448, 3903887.346308615058661 ], [ 319743.947200521768536, 3903881.217716369312257 ], [ 319752.220158181153238, 3903875.600050344597548 ], [ 319760.493115840596147, 3903869.98238431988284 ], [ 319768.766073499980848, 3903864.364718295168132 ], [ 319777.03903115936555, 3903858.747052270453423 ], [ 319785.311988818808459, 3903853.129386245738715 ], [ 319793.58494647819316, 3903847.511720221024007 ], [ 319801.857904137577862, 3903841.894054196309298 ], [ 319810.130861796962563, 3903836.27638817159459 ], [ 319818.403819456405472, 3903830.65872214641422 ], [ 319826.676777115790173, 3903825.041056121699512 ], [ 319834.949734775174875, 3903819.423390096984804 ], [ 319842.526644749043044, 3903812.9875298733823 ], [ 319849.397726561001036, 3903805.721978639718145 ], [ 319856.268808372959029, 3903798.456427405588329 ], [ 319863.139890184975229, 3903791.190876171458513 ], [ 319870.010971996933222, 3903783.925324937794358 ], [ 319876.882053808891214, 3903776.659773703664541 ], [ 319883.753135620849207, 3903769.394222469534725 ], [ 319890.6242174328072, 3903762.12867123587057 ], [ 319897.4952992448234, 3903754.863120001740754 ], [ 319904.366381056781393, 3903747.597568768076599 ], [ 319911.237462868739385, 3903740.332017533946782 ], [ 319918.108544680697378, 3903733.066466299816966 ], [ 319924.97962649265537, 3903725.800915066152811 ], [ 319931.850708304613363, 3903718.535363832022995 ], [ 319935.807940108643379, 3903709.59403631510213 ], [ 319938.632260465878062, 3903700.001163204200566 ], [ 319941.456580823054537, 3903690.408290093299001 ], [ 319944.28090118028922, 3903680.815416982397437 ], [ 319947.105221537465695, 3903671.222543871961534 ], [ 319949.929541894700378, 3903661.62967076105997 ], [ 319952.753862251935061, 3903652.036797650158405 ], [ 319955.578182609111536, 3903642.443924539256841 ], [ 319958.402502966346219, 3903632.851051428820938 ], [ 319961.226823323522694, 3903623.258178317919374 ], [ 319964.051143680757377, 3903613.665305207017809 ], [ 319966.87546403799206, 3903604.072432096116245 ], [ 319964.39920792542398, 3903596.039733989164233 ], [ 319956.828344352659769, 3903589.506585838273168 ], [ 319949.257480779895559, 3903582.973437687382102 ], [ 319941.686617207131349, 3903576.440289536025375 ], [ 319934.115753634367138, 3903569.90714138513431 ], [ 319926.544890061602928, 3903563.373993234243244 ], [ 319917.437424194824416, 3903561.103236500173807 ], [ 319907.439414954278618, 3903561.302764007821679 ], [ 319897.441405713791028, 3903561.502291515469551 ], [ 319887.44339647324523, 3903561.701819023583084 ], [ 319877.445387232699431, 3903561.901346531230956 ], [ 319867.447377992211841, 3903562.100874038878828 ], [ 319857.449368751666043, 3903562.3004015465267 ], [ 319847.451359511120245, 3903562.499929054174572 ], [ 319838.659711946733296, 3903558.282666040584445 ], [ 319830.151285411964636, 3903553.028460306115448 ], [ 319821.642858877195977, 3903547.774254571180791 ], [ 319813.134432342369109, 3903542.520048836711794 ], [ 319805.354172859282698, 3903536.648822951130569 ], [ 319801.56771534611471, 3903527.39340618532151 ], [ 319797.781257833004929, 3903518.137989419978112 ], [ 319793.994800319895148, 3903508.882572654634714 ], [ 319790.208342806785367, 3903499.627155889291316 ], [ 319786.619639102602378, 3903490.341915692668408 ], [ 319787.508134212810546, 3903480.38146507833153 ], [ 319788.396629323018715, 3903470.421014463994652 ], [ 319789.285124433226883, 3903460.460563849657774 ], [ 319790.173619543435052, 3903450.500113235320896 ], [ 319794.318483142589685, 3903441.551367909647524 ], [ 319799.230722969165072, 3903432.841034972108901 ], [ 319804.142962795798667, 3903424.130702034104615 ], [ 319809.055202622374054, 3903415.420369096565992 ], [ 319813.967442448949441, 3903406.710036159027368 ], [ 319818.879682275524829, 3903397.999703221023083 ], [ 319823.791922102158424, 3903389.289370283484459 ], [ 319828.704161928733811, 3903380.579037345480174 ], [ 319833.578645903267898, 3903371.847573530394584 ], [ 319838.434057960344944, 3903363.105435705278069 ], [ 319843.289470017421991, 3903354.363297880161554 ], [ 319848.144882074499037, 3903345.621160054579377 ], [ 319853.000294131517876, 3903336.879022229462862 ], [ 319857.855706188594922, 3903328.136884404346347 ], [ 319862.711118245671969, 3903319.39474657876417 ], [ 319867.566530302749015, 3903310.652608753647655 ], [ 319872.421942359826062, 3903301.91047092853114 ], [ 319877.277354416903108, 3903293.168333102948964 ], [ 319882.132766473980155, 3903284.426195277832448 ], [ 319886.988178531057201, 3903275.684057452715933 ], [ 319891.843590588134248, 3903266.941919627133757 ], [ 319896.699002645153087, 3903258.199781802017242 ], [ 319901.554414702230133, 3903249.457643976900727 ], [ 319906.40982675930718, 3903240.71550615131855 ], [ 319911.265238816384226, 3903231.973368326202035 ], [ 319916.120650873461273, 3903223.23123050108552 ], [ 319920.976062930538319, 3903214.489092675503343 ], [ 319925.831474987615366, 3903205.746954850386828 ], [ 319930.686887044692412, 3903197.004817025270313 ], [ 319935.542299101769459, 3903188.262679199688137 ], [ 319940.397711158788297, 3903179.520541374571621 ], [ 319945.253123215865344, 3903170.778403549455106 ], [ 319950.10853527294239, 3903162.03626572387293 ], [ 319954.963947330019437, 3903153.294127898756415 ], [ 319959.819359387096483, 3903144.551990073639899 ], [ 319964.67477144417353, 3903135.809852248057723 ], [ 319967.286584966350347, 3903126.254272007849067 ], [ 319969.162018491188064, 3903116.43170874286443 ], [ 319971.037452016025782, 3903106.609145478345454 ], [ 319972.912885540863499, 3903096.786582213360816 ], [ 319974.788319065643009, 3903086.964018948376179 ], [ 319976.663752590480726, 3903077.141455683391541 ], [ 319978.539186115318444, 3903067.318892418406904 ], [ 319980.414619640156161, 3903057.496329153422266 ], [ 319982.290053164993878, 3903047.673765888437629 ], [ 319978.637134382035583, 3903038.632635816000402 ], [ 319974.112727971805725, 3903029.714690613560379 ], [ 319969.588321561575867, 3903020.796745411120355 ], [ 319965.063915151346009, 3903011.878800208680332 ], [ 319960.539508741116151, 3903002.960855006240308 ], [ 319958.47484313021414, 3902993.428647697903216 ], [ 319958.275436571391765, 3902983.430636044591665 ], [ 319958.07603001256939, 3902973.432624390814453 ], [ 319957.876623453805223, 3902963.434612737502903 ], [ 319957.677216894982848, 3902953.436601083725691 ], [ 319957.477810336160474, 3902943.43858943041414 ], [ 319957.278403777338099, 3902933.440577776636928 ], [ 319957.078997218515724, 3902923.442566123325378 ], [ 319959.171280593029223, 3902913.774341801647097 ], [ 319962.181756636011414, 3902904.238250673748553 ], [ 319965.192232678935397, 3902894.70215954631567 ], [ 319968.202708721859381, 3902885.166068418882787 ], [ 319971.213184764841571, 3902875.629977290984243 ], [ 319976.993659782630857, 3902867.778447051066905 ], [ 319984.075923840457108, 3902860.718593241181225 ], [ 319991.158187898283359, 3902853.658739431295544 ], [ 319998.240451956109609, 3902846.598885621409863 ], [ 320005.513421479554381, 3902839.757507102098316 ], [ 320013.465434365498368, 3902833.694051729049534 ], [ 320021.417447251384147, 3902827.630596356000751 ], [ 320029.369460137269925, 3902821.567140982486308 ], [ 320037.321473023155704, 3902815.503685609437525 ], [ 320045.273485909099691, 3902809.440230236388743 ], [ 320053.67004803736927, 3902804.067312548402697 ], [ 320062.4815215014969, 3902799.338894695509225 ], [ 320071.29299496562453, 3902794.610476842615753 ], [ 320080.104468429810368, 3902789.882058990187943 ], [ 320088.915941893937998, 3902785.153641137294471 ], [ 320097.727415358065628, 3902780.425223284401 ], [ 320106.538888822251465, 3902775.696805431507528 ], [ 320115.350362286379095, 3902770.968387578614056 ], [ 320124.161835750564933, 3902766.239969726186246 ], [ 320132.973309214692563, 3902761.511551873292774 ], [ 320141.784782678820193, 3902756.783134020399302 ], [ 320150.59625614300603, 3902752.054716167505831 ], [ 320157.76603927614633, 3902745.524374336004257 ], [ 320163.292262140777893, 3902737.190056076273322 ], [ 320168.818485005409457, 3902728.855737817008048 ], [ 320174.34470787004102, 3902720.521419557277113 ], [ 320179.870930734672584, 3902712.187101298011839 ], [ 320185.397153599362355, 3902703.852783038280904 ], [ 320190.923376463993918, 3902695.51846477901563 ], [ 320196.449599328625482, 3902687.184146519750357 ], [ 320201.975822193257045, 3902678.849828260019422 ], [ 320207.502045057888608, 3902670.515510000754148 ], [ 320213.028267922520172, 3902662.181191741023213 ], [ 320219.172773213242181, 3902654.319193076808006 ], [ 320225.760576135362498, 3902646.795839259400964 ], [ 320232.348379057482816, 3902639.272485441993922 ], [ 320238.936181979544926, 3902631.749131625052541 ], [ 320245.523984901665244, 3902624.2257778076455 ], [ 320252.111787823785562, 3902616.702423990238458 ], [ 320258.69959074590588, 3902609.179070173297077 ], [ 320262.179446054331493, 3902600.025413481052965 ], [ 320264.624470879381988, 3902590.328926817979664 ], [ 320267.069495704374276, 3902580.632440154906362 ], [ 320269.514520529366564, 3902570.935953491833061 ], [ 320274.28207197226584, 3902562.916030698921531 ], [ 320282.715648170385975, 3902557.542503690347075 ], [ 320291.149224368447904, 3902552.168976682238281 ], [ 320299.582800566568039, 3902546.795449673663825 ], [ 320308.016376764629968, 3902541.421922665089369 ], [ 320316.449952962750103, 3902536.048395656514913 ], [ 320326.444643801776692, 3902535.838454425800592 ], [ 320336.442665037931874, 3902535.639528908301145 ], [ 320346.440686274087057, 3902535.440603390801698 ], [ 320356.438707510242239, 3902535.241677873767912 ], [ 320366.436728746397421, 3902535.042752356268466 ], [ 320376.434749982552603, 3902534.843826838769019 ], [ 320386.432771218707785, 3902534.644901321269572 ], [ 320396.430792454862967, 3902534.445975803770125 ], [ 320406.428813691018149, 3902534.247050286270678 ], [ 320416.426834927115124, 3902534.048124768771231 ], [ 320426.412021828815341, 3902534.526662630029023 ], [ 320436.395334572705906, 3902535.104128349106759 ], [ 320446.378647316654678, 3902535.681594068184495 ], [ 320456.361960060603451, 3902536.259059787727892 ], [ 320466.345272804494016, 3902536.836525506805629 ], [ 320476.328585548442788, 3902537.413991225883365 ], [ 320486.311898292391561, 3902537.991456945426762 ], [ 320496.295211036282126, 3902538.568922664504498 ], [ 320506.278523780230898, 3902539.146388384047896 ], [ 320516.261836524121463, 3902539.723854103125632 ], [ 320526.245149268070236, 3902540.301319822203368 ], [ 320536.228462012019008, 3902540.878785541746765 ], [ 320546.211774755909573, 3902541.456251260824502 ], [ 320556.195087499858346, 3902542.033716979902238 ], [ 320566.178400243807118, 3902542.611182699445635 ], [ 320576.161712987697683, 3902543.188648418523371 ], [ 320586.145025731646456, 3902543.766114138066769 ], [ 320596.128338475595228, 3902544.343579857144505 ], [ 320606.111651219485793, 3902544.921045576222241 ], [ 320616.094963963434566, 3902545.498511295765638 ], [ 320626.078276707383338, 3902546.075977014843374 ], [ 320635.862782969954424, 3902545.733847628347576 ], [ 320644.716033537581097, 3902541.084121358115226 ], [ 320653.569284105207771, 3902536.434395087882876 ], [ 320662.422534672834445, 3902531.784668818116188 ], [ 320671.275785240519326, 3902527.134942547883838 ], [ 320680.129035808146, 3902522.485216277651489 ], [ 320688.982286375772674, 3902517.8354900078848 ], [ 320697.835536943399347, 3902513.185763737652451 ], [ 320706.688787511084229, 3902508.536037467420101 ], [ 320715.542038078710902, 3902503.886311197653413 ], [ 320723.742375083907973, 3902498.613082039635628 ], [ 320727.979397163726389, 3902489.555066589731723 ], [ 320732.216419243486598, 3902480.497051139362156 ], [ 320736.453441323246807, 3902471.439035689458251 ], [ 320740.690463403065223, 3902462.381020239088684 ], [ 320744.927485482825432, 3902453.323004788719118 ], [ 320749.164507562585641, 3902444.264989338815212 ], [ 320747.440501872217283, 3902434.646624617744237 ], [ 320744.965733235527296, 3902424.957686585374177 ], [ 320742.490964598837309, 3902415.268748553004116 ], [ 320740.016195962147322, 3902405.579810520634055 ], [ 320737.541427325515542, 3902395.890872488263994 ], [ 320735.066658688825555, 3902386.201934455893934 ], [ 320732.591890052135568, 3902376.512996423523873 ], [ 320730.117121415445581, 3902366.824058391153812 ], [ 320727.642352778755594, 3902357.135120358783752 ], [ 320725.167584142065607, 3902347.446182326413691 ], [ 320717.177833671041299, 3902342.666781143285334 ], [ 320707.840538102551363, 3902339.086989045143127 ], [ 320698.503242534119636, 3902335.507196947000921 ], [ 320689.165946965629701, 3902331.927404848393053 ], [ 320679.828651397139765, 3902328.347612750250846 ], [ 320670.49135582864983, 3902324.767820652108639 ], [ 320661.154060260218102, 3902321.188028553500772 ], [ 320651.584669560601469, 3902318.784124295692891 ], [ 320641.587464792479295, 3902318.547699203714728 ], [ 320631.590260024357121, 3902318.311274111270905 ], [ 320621.593055256234948, 3902318.074849018827081 ], [ 320611.595850488112774, 3902317.838423926383257 ], [ 320601.5986457199906, 3902317.601998833939433 ], [ 320591.601440951868426, 3902317.365573741495609 ], [ 320582.064598627737723, 3902314.489878550171852 ], [ 320572.577720851579215, 3902311.32773528015241 ], [ 320563.090843075420707, 3902308.165592010132968 ], [ 320553.6039652992622, 3902305.003448740113527 ], [ 320544.117087523045484, 3902301.841305470094085 ], [ 320534.861401928588748, 3902298.432740807998925 ], [ 320531.101298524357844, 3902289.166586136911064 ], [ 320527.34119512012694, 3902279.900431465823203 ], [ 320523.581091715896036, 3902270.634276794735342 ], [ 320519.820988311665133, 3902261.36812212318182 ], [ 320517.965017320879269, 3902251.710662953555584 ], [ 320517.766278316208627, 3902241.712638007942587 ], [ 320517.567539311537985, 3902231.714613062795252 ], [ 320517.368800306867342, 3902221.716588117182255 ], [ 320517.1700613021967, 3902211.718563172034919 ], [ 320518.877186673867982, 3902201.92255287989974 ], [ 320521.167469117033761, 3902192.188355104532093 ], [ 320523.457751560257748, 3902182.454157329164445 ], [ 320525.748034003481735, 3902172.719959553796798 ], [ 320527.649302727018949, 3902162.953465487342328 ], [ 320526.995596477237996, 3902152.974854955915362 ], [ 320526.341890227398835, 3902142.996244424488395 ], [ 320525.688183977559675, 3902133.017633893061429 ], [ 320525.034477727720514, 3902123.039023361634463 ], [ 320524.380771477881353, 3902113.060412829741836 ], [ 320523.727065228042193, 3902103.081802298314869 ], [ 320523.073358978203032, 3902093.103191766887903 ], [ 320522.419652728363872, 3902083.124581235460937 ], [ 320521.765946478524711, 3902073.145970704033971 ], [ 320521.020799264835659, 3902063.193298420403153 ], [ 320516.337641822756268, 3902054.357686592265964 ], [ 320511.654484380676877, 3902045.522074764594436 ], [ 320506.971326938597485, 3902036.686462936457247 ], [ 320502.288169496518094, 3902027.850851108785719 ], [ 320493.301160766277462, 3902023.791700194124132 ], [ 320484.027111979085021, 3902020.051109453197569 ], [ 320474.753063191892579, 3902016.310518711805344 ], [ 320465.479014404700138, 3902012.56992797087878 ], [ 320456.204965617507696, 3902008.829337229486555 ], [ 320446.405028100125492, 3902006.904131248127669 ], [ 320436.567578508402221, 3902005.108418150339276 ], [ 320426.730128916620743, 3902003.312705053016543 ], [ 320416.892679324839264, 3902001.51699195522815 ], [ 320407.055229733057786, 3901999.721278857439756 ], [ 320397.522971713566221, 3901997.053278989158571 ], [ 320388.711799210926984, 3901992.324300333391875 ], [ 320379.900626708287746, 3901987.595321677159518 ], [ 320371.089454205648508, 3901982.866343021392822 ], [ 320362.27828170300927, 3901978.137364365160465 ], [ 320353.467109200370032, 3901973.40838570939377 ], [ 320344.655936697672587, 3901968.679407053161412 ], [ 320336.352468806144316, 3901963.203954839147627 ], [ 320328.716717485280242, 3901956.746764911338687 ], [ 320321.08096616435796, 3901950.289574983529747 ], [ 320313.445214843493886, 3901943.832385055720806 ], [ 320305.809463522571605, 3901937.375195127446204 ], [ 320298.173712201649323, 3901930.918005199637264 ], [ 320301.080579905596096, 3901921.954084149096161 ], [ 320304.992797637125477, 3901912.751119821332395 ], [ 320308.905015368654858, 3901903.548155493102968 ], [ 320312.817233100184239, 3901894.345191165339202 ], [ 320316.729450831713621, 3901885.142226837575436 ], [ 320323.207517002068926, 3901877.830703207757324 ], [ 320330.841168003156781, 3901871.371030429843813 ], [ 320338.474819004244637, 3901864.911357652395964 ], [ 320346.108470005332492, 3901858.451684874948114 ], [ 320353.742121006478556, 3901851.992012097500265 ], [ 320361.375772007566411, 3901845.532339319586754 ], [ 320369.009423008654267, 3901839.072666542138904 ], [ 320376.991092162032146, 3901833.305756220594049 ], [ 320386.730524418060668, 3901831.03783661685884 ], [ 320396.46995667408919, 3901828.76991701265797 ], [ 320406.209388930059504, 3901826.5019974084571 ], [ 320415.948821186088026, 3901824.234077804256231 ], [ 320425.688253442116547, 3901821.966158200521022 ], [ 320435.427685698086862, 3901819.698238596320152 ], [ 320445.167117954115383, 3901817.430318992119282 ], [ 320455.020767628215253, 3901815.854445396456867 ], [ 320464.972438464756124, 3901814.872484317515045 ], [ 320474.924109301355202, 3901813.890523238573223 ], [ 320484.87578013795428, 3901812.908562160097063 ], [ 320494.827450974553358, 3901811.926601081155241 ], [ 320504.779121811094228, 3901810.944640002213418 ], [ 320514.730792647693306, 3901809.962678923271596 ], [ 320524.682463484292384, 3901808.980717844329774 ], [ 320534.634134320833255, 3901807.998756765853614 ], [ 320544.585805157432333, 3901807.016795686911792 ], [ 320554.5583624591236, 3901806.38777481066063 ], [ 320564.556389536068309, 3901806.189143067691475 ], [ 320574.55441661295481, 3901805.990511324256659 ], [ 320584.552443689841311, 3901805.791879581287503 ], [ 320594.55047076678602, 3901805.593247838318348 ], [ 320604.548497843672521, 3901805.394616095349193 ], [ 320614.54652492061723, 3901805.195984351914376 ], [ 320624.544551997503731, 3901804.997352608945221 ], [ 320630.295858472993132, 3901798.730729795992374 ], [ 320633.906437183963135, 3901789.40529568400234 ], [ 320637.51701589487493, 3901780.079861572477967 ], [ 320641.127594605844934, 3901770.754427460953593 ], [ 320644.738173316814937, 3901761.428993348963559 ], [ 320645.684081208251882, 3901751.791877753566951 ], [ 320644.323078001558315, 3901741.88492714939639 ], [ 320642.962074794922955, 3901731.97797654569149 ], [ 320641.601071588287596, 3901722.071025941520929 ], [ 320640.240068381594028, 3901712.164075337350368 ], [ 320638.879065174958669, 3901702.257124733179808 ], [ 320629.28981128684245, 3901700.621171193663031 ], [ 320619.375941529811826, 3901699.311519926413894 ], [ 320609.462071772839408, 3901698.001868659630418 ], [ 320599.548202015808783, 3901696.692217392381281 ], [ 320589.634332258836366, 3901695.382566125132143 ], [ 320580.626399202097673, 3901691.42294681398198 ], [ 320571.985615492332727, 3901686.389373840298504 ], [ 320563.34483178256778, 3901681.355800866615027 ], [ 320554.704048072802834, 3901676.322227892931551 ], [ 320546.063264363037888, 3901671.288654919248074 ], [ 320537.422480653272942, 3901666.255081945564598 ], [ 320528.781696943566203, 3901661.221508971881121 ], [ 320520.140913233801257, 3901656.187935998197645 ], [ 320511.500129524036311, 3901651.154363024514169 ], [ 320502.859345814271364, 3901646.120790050830692 ], [ 320494.218562104506418, 3901641.087217077147216 ], [ 320485.358850390126463, 3901636.510625875554979 ], [ 320476.021380608261097, 3901632.931288217194378 ], [ 320466.683910826395731, 3901629.351950558833778 ], [ 320457.346441044588573, 3901625.772612900473177 ], [ 320448.008971262723207, 3901622.193275242112577 ], [ 320438.671501480857842, 3901618.613937583751976 ], [ 320429.436755554808769, 3901614.962450280319899 ], [ 320429.237961288657971, 3901604.964426433667541 ], [ 320429.039167022507172, 3901594.96640258654952 ], [ 320428.840372756356373, 3901584.968378739897162 ], [ 320428.641578490205575, 3901574.970354893244803 ], [ 320428.442784224054776, 3901564.972331046592444 ], [ 320428.016676618950441, 3901555.012121573090553 ], [ 320424.967926264682319, 3901545.488197945058346 ], [ 320421.919175910414197, 3901535.964274316560477 ], [ 320418.870425556146074, 3901526.44035068852827 ], [ 320415.821675201936159, 3901516.916427060030401 ], [ 320412.772924847668037, 3901507.392503431532532 ], [ 320409.724174493399914, 3901497.868579803500324 ], [ 320406.675424139131792, 3901488.344656175002456 ], [ 320403.626673784921877, 3901478.820732546970248 ], [ 320400.577923430653755, 3901469.296808918472379 ], [ 320397.529173076385632, 3901459.772885290440172 ], [ 320394.48042272211751, 3901450.248961661942303 ], [ 320391.431672367907595, 3901440.725038033910096 ], [ 320388.382922013639472, 3901431.201114405412227 ], [ 320387.813205333426595, 3901421.582713212817907 ], [ 320390.128239529207349, 3901411.854372312314808 ], [ 320392.443273724929895, 3901402.126031412277371 ], [ 320394.758307920710649, 3901392.397690511774272 ], [ 320397.073342116433196, 3901382.669349611271173 ], [ 320399.38837631221395, 3901372.941008711233735 ], [ 320401.703410507994704, 3901363.212667810730636 ], [ 320404.01844470371725, 3901353.484326910693198 ], [ 320409.727744519652333, 3901345.679949767887592 ], [ 320416.885394718672615, 3901338.696537734474987 ], [ 320424.043044917634688, 3901331.713125701062381 ], [ 320431.20069511665497, 3901324.729713667649776 ], [ 320438.358345315675251, 3901317.74630163423717 ], [ 320445.515995514637325, 3901310.762889600824565 ], [ 320452.673645713657606, 3901303.779477567411959 ], [ 320459.831295912677888, 3901296.796065533999354 ], [ 320466.988946111639962, 3901289.812653500586748 ], [ 320474.146596310660243, 3901282.829241467174143 ], [ 320481.304246509680524, 3901275.845829433761537 ], [ 320488.461896708642598, 3901268.862417400348932 ], [ 320495.61954690766288, 3901261.879005366470665 ], [ 320502.777197106683161, 3901254.895593333058059 ], [ 320509.934847305645235, 3901247.912181299645454 ], [ 320517.092497504665516, 3901240.928769266232848 ], [ 320524.250147703685798, 3901233.945357232820243 ], [ 320530.77745218394557, 3901226.448481312487274 ], [ 320536.168816367746331, 3901218.026296783704311 ], [ 320541.560180551488884, 3901209.604112254921347 ], [ 320546.951544735289644, 3901201.181927726138383 ], [ 320552.342908919032197, 3901192.759743197355419 ], [ 320557.734273102832958, 3901184.337558668572456 ], [ 320563.125637286575511, 3901175.915374139789492 ], [ 320568.517001470318064, 3901167.493189610540867 ], [ 320573.908365654118825, 3901159.071005081757903 ], [ 320579.299729837861378, 3901150.648820552974939 ], [ 320584.691094021662138, 3901142.226636024191976 ], [ 320590.082458205404691, 3901133.804451495409012 ], [ 320595.473822389205452, 3901125.382266966626048 ], [ 320599.529070222633891, 3901116.353374436497688 ], [ 320602.322187747398857, 3901106.751369724050164 ], [ 320605.115305272163823, 3901097.149365012068301 ], [ 320607.908422796928789, 3901087.547360299620777 ], [ 320610.701540321693756, 3901077.945355587638915 ], [ 320613.494657846458722, 3901068.343350875191391 ], [ 320616.287775371223688, 3901058.741346163209528 ], [ 320619.080892895988654, 3901049.139341451227665 ], [ 320621.874010420753621, 3901039.537336738780141 ], [ 320624.667127945460379, 3901029.935332026798278 ], [ 320627.460245470225345, 3901020.333327314350754 ], [ 320630.253362994990312, 3901010.731322602368891 ], [ 320633.046480519755278, 3901001.129317889921367 ], [ 320635.839598044520244, 3900991.527313177939504 ], [ 320638.63271556928521, 3900981.92530846549198 ], [ 320641.425833094050176, 3900972.323303753510118 ], [ 320644.218950618815143, 3900962.721299041528255 ], [ 320646.756306912458967, 3900953.075697129592299 ], [ 320647.302017789741512, 3900943.090598249807954 ], [ 320647.847728667082265, 3900933.105499370023608 ], [ 320648.39343954436481, 3900923.120400490239263 ], [ 320648.939150421647355, 3900913.135301610454917 ], [ 320649.484861298988108, 3900903.150202730670571 ], [ 320650.030572176270653, 3900893.165103851351887 ], [ 320650.576283053611405, 3900883.180004971567541 ], [ 320651.12199393089395, 3900873.194906091783196 ], [ 320651.667704808176495, 3900863.20980721199885 ], [ 320652.213415685517248, 3900853.224708332214504 ], [ 320652.759126562799793, 3900843.239609452430159 ], [ 320653.304837440140545, 3900833.254510572645813 ], [ 320653.82946935412474, 3900823.269045431632549 ], [ 320653.630978965375107, 3900813.271015547215939 ], [ 320653.432488576567266, 3900803.27298566326499 ], [ 320653.233998187817633, 3900793.27495577884838 ], [ 320653.035507799009793, 3900783.276925894897431 ], [ 320652.83701741026016, 3900773.278896010480821 ], [ 320652.638527021510527, 3900763.280866126064211 ], [ 320652.440036632702686, 3900753.282836242113262 ], [ 320652.241546243953053, 3900743.284806357696652 ], [ 320652.04305585520342, 3900733.286776473745704 ], [ 320651.844565466395579, 3900723.288746589329094 ], [ 320651.646075077645946, 3900713.290716705378145 ], [ 320651.447584688896313, 3900703.292686820961535 ], [ 320651.249094300088473, 3900693.294656937010586 ], [ 320651.05060391133884, 3900683.296627052593976 ], [ 320650.852113522530999, 3900673.298597168177366 ], [ 320650.653623133781366, 3900663.300567284226418 ], [ 320650.455132745031733, 3900653.302537399809808 ], [ 320650.256642356223892, 3900643.304507515858859 ], [ 320650.058151967474259, 3900633.306477631442249 ], [ 320649.859661578724626, 3900623.3084477474913 ], [ 320649.629101090657059, 3900613.311785706318915 ], [ 320648.975553938595112, 3900603.333164753392339 ], [ 320648.322006786533166, 3900593.354543800931424 ], [ 320647.668459634471219, 3900583.375922848004848 ], [ 320647.014912482409272, 3900573.397301895078272 ], [ 320646.361365330347326, 3900563.418680942151695 ], [ 320645.707818178285379, 3900553.440059989690781 ], [ 320645.054271026223432, 3900543.461439036764205 ], [ 320639.047011923277751, 3900535.587500752881169 ], [ 320632.730110740172677, 3900527.835290781222284 ], [ 320626.413209557009395, 3900520.08308081002906 ], [ 320620.096308373904321, 3900512.330870838370174 ], [ 320613.779407190799247, 3900504.578660866711289 ], [ 320607.462506007694174, 3900496.826450895518064 ], [ 320601.145604824530892, 3900489.074240923859179 ], [ 320594.828703641425818, 3900481.322030952200294 ], [ 320588.511802458320744, 3900473.569820980541408 ], [ 320582.19490127521567, 3900465.817611009348184 ], [ 320575.396514304156881, 3900458.767462539486587 ], [ 320565.889240106276702, 3900455.667182338424027 ], [ 320556.381965908338316, 3900452.566902137361467 ], [ 320546.874691710458137, 3900449.466621936298907 ], [ 320537.367417512519751, 3900446.366341734770685 ], [ 320527.860143314639572, 3900443.266061533708125 ], [ 320518.352869116759393, 3900440.165781332645565 ], [ 320508.845594918821007, 3900437.065501131583005 ], [ 320499.338320720940828, 3900433.965220930054784 ], [ 320489.831046523002442, 3900430.864940728992224 ], [ 320480.323772325122263, 3900427.764660527929664 ], [ 320470.816498127183877, 3900424.664380326867104 ], [ 320461.247265697747935, 3900421.980604633223265 ], [ 320451.249240328674205, 3900422.17932232003659 ], [ 320441.251214959600475, 3900422.378040007315576 ], [ 320431.253189590526745, 3900422.576757694128901 ], [ 320421.255164221453015, 3900422.775475381407887 ], [ 320411.257138852379285, 3900422.974193068221211 ], [ 320401.259113483247347, 3900423.172910755500197 ], [ 320393.291742659988813, 3900420.380709106568247 ], [ 320389.787534001341555, 3900411.014785677660257 ], [ 320386.28332534263609, 3900401.648862248752266 ], [ 320382.779116683988832, 3900392.282938819844276 ], [ 320379.274908025341574, 3900382.917015390936285 ], [ 320375.770699366694316, 3900373.551091962028295 ], [ 320372.266490707988851, 3900364.185168533120304 ], [ 320368.762282049341593, 3900354.819245104212314 ], [ 320365.258073390694335, 3900345.453321675304323 ], [ 320363.119127007084899, 3900335.781429839320481 ], [ 320362.29094486660324, 3900325.815783129539341 ], [ 320361.462762726121582, 3900315.850136420223862 ], [ 320360.634580585639924, 3900305.884489710442722 ], [ 320359.806398445158266, 3900295.918843000661582 ], [ 320358.978216304676607, 3900285.953196290880442 ], [ 320358.150034164136741, 3900275.987549581564963 ], [ 320357.321852023655083, 3900266.021902871783823 ], [ 320356.493669883173425, 3900256.056256162002683 ], [ 320355.665487742691766, 3900246.090609452221543 ], [ 320353.899656881054398, 3900236.438021557871252 ], [ 320348.574538839457091, 3900227.973795790690929 ], [ 320343.249420797801577, 3900219.509570023044944 ], [ 320337.92430275620427, 3900211.04534425586462 ], [ 320332.599184714606963, 3900202.581118488218635 ], [ 320327.274066673009656, 3900194.11689272057265 ], [ 320321.94894863141235, 3900185.652666953392327 ], [ 320316.247368770826142, 3900177.471049604937434 ], [ 320309.606083342339844, 3900169.994865560904145 ], [ 320302.964797913911752, 3900162.518681516870856 ], [ 320296.323512485425454, 3900155.042497473303229 ], [ 320289.682227056997363, 3900147.56631342926994 ], [ 320283.040941628511064, 3900140.090129385702312 ], [ 320276.399656200024765, 3900132.613945341669023 ], [ 320269.758370771596674, 3900125.137761297635734 ], [ 320263.117085343110375, 3900117.661577254068106 ], [ 320256.475799914682284, 3900110.185393210034817 ], [ 320249.834514486195985, 3900102.709209166001529 ], [ 320243.193229057709686, 3900095.233025122433901 ], [ 320236.551943629281595, 3900087.756841078400612 ], [ 320229.250992079381831, 3900081.135545324534178 ], [ 320220.335066291154362, 3900076.60716069675982 ], [ 320211.419140502985101, 3900072.078776068519801 ], [ 320202.503214714757632, 3900067.550391440745443 ], [ 320193.587288926588371, 3900063.022006812505424 ], [ 320184.671363138360903, 3900058.493622184265405 ], [ 320178.068274888559245, 3900051.957829894032329 ], [ 320174.839326907356735, 3900042.493481267243624 ], [ 320171.610378926096018, 3900033.029132639989257 ], [ 320168.381430944893509, 3900023.56478401273489 ], [ 320165.152482963691, 3900014.100435385946184 ], [ 320161.923534982488491, 3900004.636086758691818 ], [ 320158.694587001227774, 3899995.171738131903112 ], [ 320155.465639020025264, 3899985.707389504648745 ], [ 320153.587553117482457, 3899975.89219261193648 ], [ 320151.802882404823322, 3899966.052733762655407 ], [ 320150.018211692164186, 3899956.213274913374335 ], [ 320148.233540979505051, 3899946.373816064093262 ], [ 320146.448870266845915, 3899936.534357214812189 ], [ 320144.66419955418678, 3899926.694898365531117 ], [ 320142.879528841469437, 3899916.855439516250044 ], [ 320141.094858128810301, 3899907.015980666968971 ], [ 320139.310187416151166, 3899897.176521817687899 ], [ 320137.525516703492031, 3899887.337062968406826 ], [ 320135.740845990832895, 3899877.497604119125754 ], [ 320133.95617527817376, 3899867.658145269844681 ], [ 320132.171504565514624, 3899857.818686420563608 ], [ 320130.386833852855489, 3899847.979227570816875 ], [ 320128.602163140196353, 3899838.139768721535802 ], [ 320126.817492427537218, 3899828.300309872254729 ], [ 320125.032821714878082, 3899818.460851022973657 ], [ 320123.248151002218947, 3899808.621392173692584 ], [ 320121.463480289559811, 3899798.781933324411511 ], [ 320119.678809576900676, 3899788.942474475130439 ], [ 320118.802448856527917, 3899784.11081831343472 ] ] ] } }
]
}
