{
"type": "FeatureCollection",
"crs": { "type": "name", "properties": { "name": "urn:ogc:def:crs:EPSG::32755" } },
"features": [
{ "type": "Feature", "properties": { "id": 1 }, "geometry": { "type": "MultiLineString", "coordinates": [ [ [ 378001.438151218928397, 9393201.384382816031575 ], [ 378001.052000560448505, 9393191.39184121415019 ], [ 378000.665849901968613, 9393181.399299612268806 ], [ 378000.279699243430514, 9393171.406758010387421 ], [ 377999.893548584950622, 9393161.414216408506036 ], [ 377999.50739792647073, 9393151.421674806624651 ], [ 377999.121247267990839, 9393141.429133202880621 ], [ 377998.735096609452739, 9393131.436591600999236 ], [ 377998.348945950972848, 9393121.444049999117851 ], [ 377997.962795292492956, 9393111.451508397236466 ], [ 377997.576644634013064, 9393101.458966795355082 ], [ 377997.190493975533172, 9393091.466425193473697 ], [ 377996.804343316995073, 9393081.473883591592312 ], [ 377996.418192658515181, 9393071.481341989710927 ], [ 377996.03204200003529, 9393061.488800387829542 ], [ 377995.645891341555398, 9393051.496258785948157 ], [ 377995.259740683075506, 9393041.503717182204127 ], [ 377994.873590024537407, 9393031.511175580322742 ], [ 377994.487439366057515, 9393021.518633978441358 ], [ 377994.101288707577623, 9393011.526092376559973 ], [ 377993.715138049097732, 9393001.533550774678588 ], [ 377993.328987390559632, 9392991.541009172797203 ], [ 377992.942836732079741, 9392981.548467570915818 ], [ 377992.556686073599849, 9392971.555925969034433 ], [ 377992.170535415119957, 9392961.563384367153049 ], [ 377991.784384756640065, 9392951.570842765271664 ], [ 377991.398234098101966, 9392941.578301161527634 ], [ 377991.012083439622074, 9392931.585759559646249 ], [ 377990.625932781142183, 9392921.593217957764864 ], [ 377990.239782122662291, 9392911.600676355883479 ], [ 377989.853631464182399, 9392901.608134754002094 ], [ 377989.4674808056443, 9392891.615593152120709 ], [ 377989.081330147164408, 9392881.623051550239325 ], [ 377988.695179488684516, 9392871.63050994835794 ], [ 377988.309028830204625, 9392861.637968346476555 ], [ 377987.922878171666525, 9392851.64542674459517 ], [ 377987.536727513186634, 9392841.652885142713785 ], [ 377987.150576854706742, 9392831.660343538969755 ], [ 377986.76442619622685, 9392821.66780193708837 ], [ 377986.378275537746958, 9392811.675260335206985 ], [ 377985.992124879208859, 9392801.682718733325601 ], [ 377985.605974220728967, 9392791.690177131444216 ], [ 377985.219823562249076, 9392781.697635529562831 ], [ 377984.833672903769184, 9392771.705093927681446 ], [ 377984.447522245289292, 9392761.712552325800061 ], [ 377984.061371586751193, 9392751.720010723918676 ], [ 377983.675220928271301, 9392741.727469122037292 ], [ 377983.289070269791409, 9392731.734927518293262 ], [ 377982.902919611311518, 9392721.742385916411877 ], [ 377982.516768952773418, 9392711.749844314530492 ], [ 377982.130618294293527, 9392701.757302712649107 ], [ 377981.744467635813635, 9392691.764761110767722 ], [ 377981.358316977333743, 9392681.772219508886337 ], [ 377980.972166318853851, 9392671.779677907004952 ], [ 377980.586015660315752, 9392661.787136305123568 ], [ 377980.19986500183586, 9392651.794594703242183 ], [ 377979.813714343355969, 9392641.802053101360798 ], [ 377979.427563684876077, 9392631.809511497616768 ], [ 377979.041413026396185, 9392621.816969895735383 ], [ 377978.655262367858086, 9392611.824428293853998 ], [ 377978.269111709378194, 9392601.831886691972613 ], [ 377977.882961050898302, 9392591.839345090091228 ], [ 377977.496810392418411, 9392581.846803488209844 ], [ 377977.110659733880311, 9392571.854261886328459 ], [ 377976.72450907540042, 9392561.861720284447074 ], [ 377976.338358416920528, 9392551.869178682565689 ], [ 377975.952207758440636, 9392541.876637080684304 ], [ 377975.566057099960744, 9392531.884095476940274 ], [ 377975.179906441422645, 9392521.891553875058889 ], [ 377974.793755782942753, 9392511.899012273177505 ], [ 377974.407605124462862, 9392501.90647067129612 ], [ 377974.02145446598297, 9392491.913929069414735 ], [ 377973.635303807503078, 9392481.92138746753335 ], [ 377973.249153148964979, 9392471.928845865651965 ], [ 377972.863002490485087, 9392461.93630426377058 ], [ 377972.476851832005195, 9392451.943762661889195 ], [ 377972.090701173525304, 9392441.951221060007811 ], [ 377971.704550514987204, 9392431.958679458126426 ], [ 377971.318399856507313, 9392421.966137854382396 ], [ 377970.932249198027421, 9392411.973596252501011 ], [ 377970.546098539547529, 9392401.981054650619626 ], [ 377970.159947881067637, 9392391.988513048738241 ], [ 377969.773797222529538, 9392381.995971446856856 ], [ 377969.387646564049646, 9392372.003429844975471 ], [ 377969.001495905569755, 9392362.010888243094087 ], [ 377968.615345247089863, 9392352.018346641212702 ], [ 377968.422734123654664, 9392342.024700000882149 ], [ 377968.694755999080371, 9392332.028400480747223 ], [ 377968.966777874506079, 9392322.032100960612297 ], [ 377969.238799749989994, 9392312.035801440477371 ], [ 377969.510821625415701, 9392302.0395019184798 ], [ 377969.782843500841409, 9392292.043202398344874 ], [ 377970.054865376267117, 9392282.046902878209949 ], [ 377970.326887251692824, 9392272.050603358075023 ], [ 377970.598909127118532, 9392262.054303837940097 ], [ 377970.870931002544239, 9392252.058004317805171 ], [ 377971.142952877969947, 9392242.061704797670245 ], [ 377971.414974753395654, 9392232.065405277535319 ], [ 377971.686996628821362, 9392222.069105757400393 ], [ 377971.959018504247069, 9392212.072806237265468 ], [ 377972.231040379672777, 9392202.076506717130542 ], [ 377972.503062255098484, 9392192.080207196995616 ], [ 377972.775084130524192, 9392182.08390767686069 ], [ 377973.0471060059499, 9392172.087608154863119 ], [ 377973.319127881375607, 9392162.091308634728193 ], [ 377973.591149756801315, 9392152.095009114593267 ], [ 377973.863171632227022, 9392142.098709594458342 ], [ 377974.135193507710937, 9392132.102410074323416 ], [ 377974.407215383136645, 9392122.10611055418849 ], [ 377974.679237258562353, 9392112.109811034053564 ], [ 377974.95125913398806, 9392102.113511513918638 ], [ 377975.223281009413768, 9392092.117211993783712 ], [ 377975.495302884839475, 9392082.120912473648787 ], [ 377975.767324760265183, 9392072.124612953513861 ], [ 377976.03934663569089, 9392062.128313433378935 ], [ 377976.311368511116598, 9392052.132013911381364 ], [ 377976.583390386542305, 9392042.135714391246438 ], [ 377976.855412261968013, 9392032.139414871111512 ], [ 377977.12743413739372, 9392022.143115350976586 ], [ 377977.399456012819428, 9392012.14681583084166 ], [ 377977.671477888245136, 9392002.150516310706735 ], [ 377977.943499763670843, 9391992.154216790571809 ], [ 377978.215521639096551, 9391982.157917270436883 ], [ 377978.487543514522258, 9391972.161617750301957 ], [ 377978.759565389947966, 9391962.165318230167031 ], [ 377979.031587265431881, 9391952.169018710032105 ], [ 377979.303609140857588, 9391942.17271918989718 ], [ 377979.575631016283296, 9391932.176419667899609 ], [ 377979.847652891709004, 9391922.180120147764683 ], [ 377980.119674767134711, 9391912.183820627629757 ], [ 377980.391696642560419, 9391902.187521107494831 ], [ 377980.663718517986126, 9391892.191221587359905 ], [ 377980.935740393411834, 9391882.194922067224979 ], [ 377981.207762268837541, 9391872.198622547090054 ], [ 377981.479784144263249, 9391862.202323026955128 ], [ 377981.751806019688956, 9391852.206023506820202 ], [ 377982.023827895114664, 9391842.209723986685276 ], [ 377982.295849770540372, 9391832.21342446655035 ], [ 377982.567871645966079, 9391822.217124946415424 ], [ 377982.839893521391787, 9391812.220825424417853 ], [ 377983.111915396817494, 9391802.224525904282928 ], [ 377983.383937272243202, 9391792.228226384148002 ], [ 377983.655959147668909, 9391782.231926864013076 ], [ 377983.927981023152824, 9391772.23562734387815 ], [ 377984.200002898578532, 9391762.239327823743224 ], [ 377984.47202477400424, 9391752.243028303608298 ], [ 377984.744046649429947, 9391742.246728783473372 ], [ 377985.016068524855655, 9391732.250429263338447 ], [ 377985.288090400281362, 9391722.254129743203521 ], [ 377985.56011227570707, 9391712.257830223068595 ], [ 377985.832134151132777, 9391702.261530702933669 ], [ 377986.104156026558485, 9391692.265231182798743 ], [ 377986.376177901984192, 9391682.268931660801172 ], [ 377986.6481997774099, 9391672.272632140666246 ], [ 377986.920221652835608, 9391662.276332620531321 ], [ 377985.962090421642642, 9391652.327508755028248 ], [ 377984.92044503800571, 9391642.381907973438501 ], [ 377983.878799654426984, 9391632.436307191848755 ], [ 377982.837154270790052, 9391622.490706412121654 ], [ 377981.795508887211327, 9391612.545105630531907 ], [ 377980.753863503632601, 9391602.599504848942161 ], [ 377979.712218119995669, 9391592.653904069215059 ], [ 377978.670572736416943, 9391582.708303287625313 ], [ 377977.628927352838218, 9391572.762702506035566 ], [ 377976.587281969201285, 9391562.81710172444582 ], [ 377975.54563658562256, 9391552.871500944718719 ], [ 377974.503991202043835, 9391542.925900163128972 ], [ 377973.462345818406902, 9391532.980299381539226 ], [ 377972.420700434828177, 9391523.034698601812124 ], [ 377971.379055051249452, 9391513.089097820222378 ], [ 377970.337409667612519, 9391503.143497038632631 ], [ 377969.295764284033794, 9391493.19789625890553 ], [ 377968.254118900455069, 9391483.252295477315784 ], [ 377967.212473516818136, 9391473.306694695726037 ], [ 377966.170828133239411, 9391463.361093915998936 ], [ 377965.129182749660686, 9391453.415493134409189 ], [ 377964.087537366023753, 9391443.469892352819443 ], [ 377963.045891982445028, 9391433.524291573092341 ], [ 377962.004246598808095, 9391423.578690791502595 ], [ 377960.96260121522937, 9391413.633090009912848 ], [ 377959.920955831650645, 9391403.687489230185747 ], [ 377958.879310448013712, 9391393.741888448596001 ], [ 377957.837665064434987, 9391383.796287667006254 ], [ 377956.796019680856261, 9391373.850686887279153 ], [ 377955.754374297219329, 9391363.905086105689406 ], [ 377954.712728913640603, 9391353.95948532409966 ], [ 377953.671083530061878, 9391344.013884544372559 ], [ 377952.629438146424945, 9391334.068283762782812 ], [ 377951.58779276284622, 9391324.122682981193066 ], [ 377950.546147379267495, 9391314.177082201465964 ], [ 377949.504501995630562, 9391304.231481419876218 ], [ 377948.462856612051837, 9391294.285880638286471 ], [ 377947.421211228473112, 9391284.34027985855937 ], [ 377946.379565844836179, 9391274.394679076969624 ], [ 377945.337920461257454, 9391264.449078295379877 ], [ 377944.481598088867031, 9391254.518346188589931 ], [ 377947.095605323673226, 9391244.866042515262961 ], [ 377949.709612558537629, 9391235.213738843798637 ], [ 377952.323619793343823, 9391225.561435172334313 ], [ 377954.937627028150018, 9391215.909131499007344 ], [ 377957.551634263014421, 9391206.25682782754302 ], [ 377960.165641497820616, 9391196.604524156078696 ], [ 377962.779648732685018, 9391186.952220484614372 ], [ 377965.393655967491213, 9391177.299916811287403 ], [ 377968.007663202297408, 9391167.647613139823079 ], [ 377970.621670437161811, 9391157.995309468358755 ], [ 377973.235677671968006, 9391148.343005795031786 ], [ 377975.8496849067742, 9391138.690702123567462 ], [ 377978.463692141638603, 9391129.038398452103138 ], [ 377981.077699376444798, 9391119.386094780638814 ], [ 377983.691706611309201, 9391109.733791107311845 ], [ 377986.305713846115395, 9391100.081487435847521 ], [ 377988.91972108092159, 9391090.429183764383197 ], [ 377991.533728315785993, 9391080.776880091056228 ], [ 377994.147735550592188, 9391071.124576419591904 ], [ 377996.761742785398383, 9391061.47227274812758 ], [ 377999.375750020262785, 9391051.819969076663256 ], [ 378001.98975725506898, 9391042.167665403336287 ], [ 378004.603764489933383, 9391032.515361731871963 ], [ 378007.217771724739578, 9391022.863058060407639 ], [ 378009.831778959545773, 9391013.210754387080669 ], [ 378012.445786194410175, 9391003.558450715616345 ], [ 378015.05979342921637, 9390993.906147044152021 ], [ 378017.673800664080773, 9390984.253843372687697 ], [ 378020.287807898886967, 9390974.601539699360728 ], [ 378022.901815133693162, 9390964.949236027896404 ], [ 378025.515822368557565, 9390955.29693235643208 ], [ 378028.12982960336376, 9390945.644628684967756 ], [ 378030.743836838169955, 9390935.992325011640787 ], [ 378033.357844073034357, 9390926.340021340176463 ], [ 378035.971851307840552, 9390916.687717668712139 ], [ 378038.585858542704955, 9390907.03541399538517 ], [ 378040.617494316305965, 9390897.280926881358027 ], [ 378041.445671105117071, 9390887.315279727801681 ], [ 378042.27384789386997, 9390877.349632574245334 ], [ 378043.102024682681076, 9390867.383985418826342 ], [ 378043.930201471492182, 9390857.418338265269995 ], [ 378044.758378260245081, 9390847.452691109851003 ], [ 378045.586555049056187, 9390837.487043956294656 ], [ 378046.414731837809086, 9390827.521396800875664 ], [ 378047.242908626620192, 9390817.555749647319317 ], [ 378048.071085415373091, 9390807.590102491900325 ], [ 378048.899262204184197, 9390797.624455338343978 ], [ 378049.727438992937095, 9390787.658808182924986 ], [ 378050.555615781748202, 9390777.693161029368639 ], [ 378051.383792570559308, 9390767.727513873949647 ], [ 378052.211969359312207, 9390757.7618667203933 ], [ 378053.040146148123313, 9390747.796219564974308 ], [ 378053.868322936876211, 9390737.830572411417961 ], [ 378054.696499725687318, 9390727.864925257861614 ], [ 378055.524676514440216, 9390717.899278102442622 ], [ 378056.352853303251322, 9390707.933630948886275 ], [ 378057.181030092004221, 9390697.967983793467283 ], [ 378058.009206880815327, 9390688.002336639910936 ], [ 378058.837383669626433, 9390678.036689484491944 ], [ 378059.665560458379332, 9390668.071042330935597 ], [ 378060.493737247190438, 9390658.105395175516605 ], [ 378061.321914035943337, 9390648.139748021960258 ], [ 378062.150090824754443, 9390638.174100866541266 ], [ 378062.978267613507342, 9390628.20845371298492 ], [ 378063.806444402318448, 9390618.242806557565928 ], [ 378064.634621191071346, 9390608.277159404009581 ], [ 378065.462797979882453, 9390598.311512248590589 ], [ 378066.290974768693559, 9390588.345865095034242 ], [ 378068.227251023927238, 9390578.799306584522128 ], [ 378074.201148835127242, 9390570.779796317219734 ], [ 378080.175046646327246, 9390562.760286048054695 ], [ 378086.14894445752725, 9390554.740775780752301 ], [ 378092.122842268727254, 9390546.721265511587262 ], [ 378098.096740079869051, 9390538.701755244284868 ], [ 378104.070637891069055, 9390530.682244975119829 ], [ 378110.044535702269059, 9390522.662734707817435 ], [ 378116.018433513469063, 9390514.643224438652396 ], [ 378121.992331324669067, 9390506.623714171350002 ], [ 378127.966229135869071, 9390498.604203902184963 ], [ 378133.940126947069075, 9390490.584693634882569 ], [ 378139.914024758269079, 9390482.56518336571753 ], [ 378145.887922569469083, 9390474.545673098415136 ], [ 378151.861820380669087, 9390466.526162829250097 ], [ 378157.835718191869091, 9390458.506652561947703 ], [ 378163.809616003069095, 9390450.487142292782664 ], [ 378169.783513814269099, 9390442.46763202548027 ], [ 378175.757411625469103, 9390434.448121758177876 ], [ 378181.731309436669108, 9390426.428611489012837 ], [ 378187.705207247869112, 9390418.409101221710443 ], [ 378193.679105059069116, 9390410.389590952545404 ], [ 378199.65300287026912, 9390402.370080685243011 ], [ 378205.626900681469124, 9390394.350570416077971 ], [ 378211.600798492669128, 9390386.331060148775578 ], [ 378217.574696303869132, 9390378.311549879610538 ], [ 378223.548594115069136, 9390370.292039612308145 ], [ 378229.52249192626914, 9390362.272529343143106 ], [ 378231.131401344144251, 9390353.806670665740967 ], [ 378226.904263554490171, 9390344.744038261473179 ], [ 378222.677125764894299, 9390335.681405855342746 ], [ 378218.449987975240219, 9390326.618773451074958 ], [ 378214.222850185644347, 9390317.556141044944525 ], [ 378209.995712395990267, 9390308.493508640676737 ], [ 378205.768574606394395, 9390299.430876236408949 ], [ 378201.541436816740315, 9390290.368243830278516 ], [ 378197.314299027144443, 9390281.305611426010728 ], [ 378193.087161237490363, 9390272.24297902174294 ], [ 378188.860023447894491, 9390263.180346615612507 ], [ 378184.632885658240411, 9390254.117714211344719 ], [ 378180.405747868644539, 9390245.055081805214286 ], [ 378176.178610078990459, 9390235.992449400946498 ], [ 378171.951472289394587, 9390226.92981699667871 ], [ 378167.724334499740507, 9390217.867184590548277 ], [ 378163.497196710144635, 9390208.804552186280489 ], [ 378159.270058920490555, 9390199.741919782012701 ], [ 378155.042921130894683, 9390190.679287375882268 ], [ 378150.815783341240603, 9390181.61665497161448 ], [ 378146.588645551644731, 9390172.554022565484047 ], [ 378142.361507762048859, 9390163.491390161216259 ], [ 378138.134369972394779, 9390154.428757756948471 ], [ 378133.907232182798907, 9390145.366125350818038 ], [ 378129.680094393144827, 9390136.30349294655025 ], [ 378125.452956603548955, 9390127.240860542282462 ], [ 378121.225818813894875, 9390118.178228136152029 ], [ 378116.998681024299003, 9390109.115595731884241 ], [ 378112.771543234644923, 9390100.052963325753808 ], [ 378108.544405445049051, 9390090.99033092148602 ], [ 378104.317267655394971, 9390081.927698517218232 ], [ 378100.090129865799099, 9390072.865066111087799 ], [ 378095.862992076145019, 9390063.802433706820011 ], [ 378091.635854286549147, 9390054.739801302552223 ], [ 378086.0176534303464, 9390046.543194282799959 ], [ 378079.751105166913476, 9390038.750224832445383 ], [ 378073.484556903422344, 9390030.957255380228162 ], [ 378067.218008639989421, 9390023.164285929873586 ], [ 378060.951460376498289, 9390015.37131647951901 ], [ 378054.684912113065366, 9390007.578347029164433 ], [ 378048.418363849632442, 9389999.785377576947212 ], [ 378042.151815586141311, 9389991.992408126592636 ], [ 378035.885267322708387, 9389984.19943867623806 ], [ 378029.618719059217256, 9389976.406469225883484 ], [ 378023.352170795784332, 9389968.613499773666263 ], [ 378017.0856225322932, 9389960.820530323311687 ], [ 378010.819074268860277, 9389953.02756087295711 ], [ 378004.552526005427353, 9389945.234591422602534 ], [ 377998.285977741936222, 9389937.441621970385313 ], [ 377992.019429478503298, 9389929.648652520030737 ], [ 377985.752881215012167, 9389921.855683069676161 ], [ 377979.486332951579243, 9389914.06271361745894 ], [ 377973.219784688088112, 9389906.269744167104363 ], [ 377966.953236424655188, 9389898.476774716749787 ], [ 377960.686688161222264, 9389890.683805266395211 ], [ 377954.420139897731133, 9389882.89083581417799 ], [ 377948.153591634298209, 9389875.097866363823414 ], [ 377949.771443336619996, 9389865.683154966682196 ], [ 377952.453518778143916, 9389856.049543425440788 ], [ 377955.135594219667837, 9389846.415931884199381 ], [ 377957.81766966113355, 9389836.782320342957973 ], [ 377960.499745102657471, 9389827.148708801716566 ], [ 377963.181820544181392, 9389817.515097260475159 ], [ 377965.863895985647105, 9389807.881485719233751 ], [ 377968.545971427171025, 9389798.247874177992344 ], [ 377971.228046868694946, 9389788.614262636750937 ], [ 377973.910122310218867, 9389778.980651095509529 ], [ 377976.59219775168458, 9389769.347039554268122 ], [ 377979.274273193208501, 9389759.713428013026714 ], [ 377981.956348634732421, 9389750.079816471785307 ], [ 377984.638424076256342, 9389740.4462049305439 ], [ 377987.320499517722055, 9389730.812593389302492 ], [ 377990.002574959245976, 9389721.178981848061085 ], [ 377992.684650400769897, 9389711.545370306819677 ], [ 377995.36672584223561, 9389701.91175876557827 ], [ 377998.048801283759531, 9389692.278147224336863 ], [ 378000.730876725283451, 9389682.644535683095455 ], [ 378003.412952166807372, 9389673.010924141854048 ], [ 378006.095027608273085, 9389663.37731260061264 ], [ 378008.777103049797006, 9389653.743701059371233 ], [ 378011.459178491320927, 9389644.110089519992471 ], [ 378014.141253932844847, 9389634.476477978751063 ], [ 378016.823329374310561, 9389624.842866437509656 ], [ 378019.505404815834481, 9389615.209254896268249 ], [ 378022.187480257358402, 9389605.575643355026841 ], [ 378024.869555698882323, 9389595.942031813785434 ], [ 378028.607737103127874, 9389586.958271242678165 ], [ 378035.998479961825069, 9389580.222031936049461 ], [ 378043.389222820522264, 9389573.485792629420757 ], [ 378050.779965679161251, 9389566.749553322792053 ], [ 378058.170708537858445, 9389560.013314016163349 ], [ 378065.56145139655564, 9389553.277074709534645 ], [ 378072.952194255252834, 9389546.540835402905941 ], [ 378080.342937113950029, 9389539.804596096277237 ], [ 378087.733679972647224, 9389533.068356789648533 ], [ 378095.124422831344418, 9389526.332117483019829 ], [ 378102.515165690041613, 9389519.595878176391125 ], [ 378109.905908548738807, 9389512.859638869762421 ], [ 378117.296651407436002, 9389506.123399563133717 ], [ 378124.687394266074989, 9389499.387160256505013 ], [ 378132.078137124772184, 9389492.650920949876308 ], [ 378139.468879983469378, 9389485.914681643247604 ], [ 378146.859622842166573, 9389479.1784423366189 ], [ 378154.250365700863767, 9389472.442203029990196 ], [ 378161.641108559560962, 9389465.705963723361492 ], [ 378169.031851418258157, 9389458.969724416732788 ], [ 378176.422594276955351, 9389452.233485110104084 ], [ 378183.813337135652546, 9389445.49724580347538 ], [ 378191.204079994291533, 9389438.761006496846676 ], [ 378198.594822852988727, 9389432.024767190217972 ], [ 378205.431868472369388, 9389424.930466003715992 ], [ 378208.543081424024422, 9389415.426763884723186 ], [ 378211.654294375679456, 9389405.923061765730381 ], [ 378214.76550732733449, 9389396.419359646737576 ], [ 378217.876720278989524, 9389386.91565752774477 ], [ 378220.987933230644558, 9389377.411955408751965 ], [ 378224.099146182299592, 9389367.908253289759159 ], [ 378227.210359134012833, 9389358.404551170766354 ], [ 378230.321572085667867, 9389348.900849051773548 ], [ 378233.432785037322901, 9389339.397146932780743 ], [ 378236.543997988977935, 9389329.893444811925292 ], [ 378239.655210940632969, 9389320.389742692932487 ], [ 378242.766423892288003, 9389310.886040573939681 ], [ 378245.877636843943037, 9389301.382338454946876 ], [ 378248.988849795598071, 9389291.87863633595407 ], [ 378252.100062747253105, 9389282.374934216961265 ], [ 378255.211275698908139, 9389272.871232097968459 ], [ 378258.322488650563173, 9389263.367529978975654 ], [ 378261.433701602218207, 9389253.863827859982848 ], [ 378264.544914553873241, 9389244.360125740990043 ], [ 378267.656127505586483, 9389234.856423621997237 ], [ 378270.767340457241517, 9389225.352721503004432 ], [ 378273.878553408896551, 9389215.849019382148981 ], [ 378276.989766360551585, 9389206.345317263156176 ], [ 378280.100979312206618, 9389196.84161514416337 ], [ 378283.212192263861652, 9389187.337913025170565 ], [ 378286.323405215516686, 9389177.834210906177759 ], [ 378289.43461816717172, 9389168.330508787184954 ], [ 378292.545831118826754, 9389158.826806668192148 ], [ 378295.657044070481788, 9389149.323104549199343 ], [ 378298.768257022136822, 9389139.819402430206537 ], [ 378301.879469973791856, 9389130.315700311213732 ], [ 378304.99068292544689, 9389120.811998192220926 ], [ 378308.101895877160132, 9389111.308296073228121 ], [ 378311.213108828815166, 9389101.804593954235315 ], [ 378314.3243217804702, 9389092.300891833379865 ], [ 378317.435534732125234, 9389082.797189714387059 ], [ 378320.546747683780268, 9389073.293487595394254 ], [ 378323.657960635435302, 9389063.789785476401448 ], [ 378326.769173587090336, 9389054.286083357408643 ], [ 378329.980927094642539, 9389044.817980539053679 ], [ 378333.543277124350425, 9389035.474016590043902 ], [ 378337.105627154116519, 9389026.130052642896771 ], [ 378340.667977183882613, 9389016.786088693886995 ], [ 378344.230327213590499, 9389007.442124746739864 ], [ 378347.792677243356593, 9388998.098160797730088 ], [ 378351.355027273122687, 9388988.754196850582957 ], [ 378354.917377302830573, 9388979.410232901573181 ], [ 378358.479727332596667, 9388970.066268952563405 ], [ 378362.042077362362761, 9388960.722305005416274 ], [ 378365.604427392070647, 9388951.378341056406498 ], [ 378369.166777421836741, 9388942.034377109259367 ], [ 378372.729127451602835, 9388932.690413160249591 ], [ 378376.291477481310721, 9388923.34644921310246 ], [ 378379.853827511076815, 9388914.002485264092684 ], [ 378383.416177540842909, 9388904.658521315082908 ], [ 378386.978527570550796, 9388895.314557367935777 ], [ 378390.54087760031689, 9388885.970593418926001 ], [ 378394.103227630082984, 9388876.62662947177887 ], [ 378397.66557765979087, 9388867.282665522769094 ], [ 378401.227927689556964, 9388857.938701575621963 ], [ 378404.79027771926485, 9388848.594737626612186 ], [ 378408.352627749030944, 9388839.25077367760241 ], [ 378411.914977778797038, 9388829.906809730455279 ], [ 378415.477327808504924, 9388820.562845781445503 ], [ 378419.039677838271018, 9388811.218881834298372 ], [ 378422.602027868037112, 9388801.874917885288596 ], [ 378426.164377897744998, 9388792.530953938141465 ], [ 378429.726727927511092, 9388783.186989989131689 ], [ 378433.289077957277186, 9388773.843026040121913 ], [ 378436.851427986985072, 9388764.499062092974782 ], [ 378440.413778016751166, 9388755.155098143965006 ], [ 378443.97612804651726, 9388745.811134196817875 ], [ 378447.538478076225147, 9388736.467170247808099 ], [ 378451.100828105991241, 9388727.123206300660968 ], [ 378454.663178135757335, 9388717.779242351651192 ], [ 378458.225528165465221, 9388708.435278402641416 ], [ 378461.787878195231315, 9388699.091314455494285 ], [ 378465.350228224997409, 9388689.747350506484509 ], [ 378468.787820575758815, 9388680.360077153891325 ], [ 378471.781484781648032, 9388670.818694936111569 ], [ 378474.775148987479042, 9388661.277312718331814 ], [ 378477.76881319336826, 9388651.735930500552058 ], [ 378480.76247739919927, 9388642.194548282772303 ], [ 378483.756141605088487, 9388632.653166064992547 ], [ 378486.749805810919497, 9388623.111783847212791 ], [ 378489.743470016808715, 9388613.570401629433036 ], [ 378492.737134222639725, 9388604.02901941165328 ], [ 378495.730798428528942, 9388594.487637193873525 ], [ 378498.724462634359952, 9388584.946254976093769 ], [ 378501.71812684024917, 9388575.404872760176659 ], [ 378504.71179104608018, 9388565.863490542396903 ], [ 378507.705455251969397, 9388556.322108324617147 ], [ 378510.699119457800407, 9388546.780726106837392 ], [ 378513.692783663689625, 9388537.239343889057636 ], [ 378516.686447869520634, 9388527.697961671277881 ], [ 378519.680112075409852, 9388518.156579453498125 ], [ 378522.673776281240862, 9388508.615197235718369 ], [ 378525.667440487130079, 9388499.073815017938614 ], [ 378528.661104692961089, 9388489.532432800158858 ], [ 378531.654768898850307, 9388479.991050582379103 ], [ 378534.648433104739524, 9388470.449668366461992 ], [ 378537.642097310570534, 9388460.908286148682237 ], [ 378540.635761516459752, 9388451.366903930902481 ], [ 378543.629425722290762, 9388441.825521713122725 ], [ 378546.623089928179979, 9388432.28413949534297 ], [ 378549.616754134010989, 9388422.742757277563214 ], [ 378552.610418339900207, 9388413.201375059783459 ], [ 378555.604082545731217, 9388403.659992842003703 ], [ 378558.597746751620434, 9388394.118610624223948 ], [ 378561.591410957451444, 9388384.577228406444192 ], [ 378564.585075163340662, 9388375.035846188664436 ], [ 378567.578739369171672, 9388365.494463972747326 ], [ 378570.572403575060889, 9388355.95308175496757 ], [ 378571.90559489117004, 9388346.279823759570718 ], [ 378570.455525004828814, 9388336.385517451912165 ], [ 378569.005455118487589, 9388326.491211142390966 ], [ 378567.555385232146364, 9388316.596904834732413 ], [ 378566.105315345746931, 9388306.70259852707386 ], [ 378564.655245459405705, 9388296.808292217552662 ], [ 378563.20517557306448, 9388286.913985909894109 ], [ 378561.755105686723255, 9388277.01967960037291 ], [ 378560.305035800382029, 9388267.125373292714357 ], [ 378558.854965914040804, 9388257.231066985055804 ], [ 378557.404896027641371, 9388247.336760675534606 ], [ 378555.954826141300146, 9388237.442454367876053 ], [ 378554.50475625495892, 9388227.548148058354855 ], [ 378553.054686368617695, 9388217.653841750696301 ], [ 378551.604616482276469, 9388207.759535441175103 ], [ 378550.154546595935244, 9388197.86522913351655 ], [ 378548.704476709594019, 9388187.970922825857997 ], [ 378547.254406823194586, 9388178.076616516336799 ], [ 378545.80433693685336, 9388168.182310208678246 ], [ 378544.354267050512135, 9388158.288003899157047 ], [ 378542.90419716417091, 9388148.393697591498494 ], [ 378541.454127277829684, 9388138.499391283839941 ], [ 378540.004057391488459, 9388128.605084974318743 ], [ 378538.553987505089026, 9388118.71077866666019 ], [ 378537.103917618747801, 9388108.816472357138991 ], [ 378535.653847732406575, 9388098.922166049480438 ], [ 378534.20377784606535, 9388089.027859741821885 ], [ 378532.753707959724125, 9388079.133553432300687 ], [ 378531.303638073382899, 9388069.239247124642134 ], [ 378529.853568186983466, 9388059.344940815120935 ], [ 378528.403498300642241, 9388049.450634507462382 ], [ 378526.953428414301015, 9388039.556328199803829 ], [ 378525.50335852795979, 9388029.662021890282631 ], [ 378524.053288641618565, 9388019.767715582624078 ], [ 378522.603218755277339, 9388009.87340927310288 ], [ 378521.153148868877906, 9387999.979102965444326 ], [ 378519.703078982536681, 9387990.084796657785773 ], [ 378518.253009096195456, 9387980.190490348264575 ], [ 378516.80293920985423, 9387970.296184040606022 ], [ 378515.352869323513005, 9387960.401877731084824 ], [ 378513.900571638019755, 9387950.507913909852505 ], [ 378512.311763464473188, 9387940.634936213493347 ], [ 378510.72295529092662, 9387930.76195851713419 ], [ 378509.134147117380053, 9387920.888980820775032 ], [ 378507.545338943775278, 9387911.016003124415874 ], [ 378505.95653077022871, 9387901.143025428056717 ], [ 378504.367722596682142, 9387891.270047731697559 ], [ 378502.778914423135575, 9387881.397070037201047 ], [ 378501.190106249589007, 9387871.524092340841889 ], [ 378499.601298075984232, 9387861.651114644482732 ], [ 378498.012489902437665, 9387851.778136948123574 ], [ 378496.423681728891097, 9387841.905159251764417 ], [ 378494.834873555344529, 9387832.032181555405259 ], [ 378493.246065381739754, 9387822.159203859046102 ], [ 378491.657257208193187, 9387812.286226162686944 ], [ 378490.068449034646619, 9387802.413248468190432 ], [ 378488.479640861100052, 9387792.540270771831274 ], [ 378486.890832687495276, 9387782.667293075472116 ], [ 378485.302024513948709, 9387772.794315379112959 ], [ 378483.713216340402141, 9387762.921337682753801 ], [ 378482.124408166855574, 9387753.048359986394644 ], [ 378480.535599993250798, 9387743.175382290035486 ], [ 378478.946791819704231, 9387733.302404595538974 ], [ 378477.357983646157663, 9387723.429426899179816 ], [ 378475.769175472611096, 9387713.556449202820659 ], [ 378474.180367299006321, 9387703.683471506461501 ], [ 378472.591559125459753, 9387693.810493810102344 ], [ 378471.002750951913185, 9387683.937516113743186 ], [ 378469.413942778366618, 9387674.064538417384028 ], [ 378467.82513460482005, 9387664.191560722887516 ], [ 378466.236326431215275, 9387654.318583026528358 ], [ 378464.647518257668708, 9387644.445605330169201 ], [ 378463.05871008412214, 9387634.572627633810043 ], [ 378461.469901910575572, 9387624.699649937450886 ], [ 378459.881093736970797, 9387614.826672241091728 ], [ 378458.29228556342423, 9387604.953694544732571 ], [ 378456.703477389877662, 9387595.080716850236058 ], [ 378455.114669216331095, 9387585.207739153876901 ], [ 378453.525861042726319, 9387575.334761457517743 ], [ 378451.937052869179752, 9387565.461783761158586 ], [ 378450.437852041504811, 9387555.580290034413338 ], [ 378450.138414487533737, 9387545.584774183109403 ], [ 378449.838976933504455, 9387535.589258329942822 ], [ 378449.539539379475173, 9387525.593742478638887 ], [ 378449.240101825504098, 9387515.598226625472307 ], [ 378448.940664271474816, 9387505.602710774168372 ], [ 378448.641226717445534, 9387495.607194921001792 ], [ 378448.341789163474459, 9387485.611679069697857 ], [ 378448.042351609445177, 9387475.616163218393922 ], [ 378447.742914055415895, 9387465.620647365227342 ], [ 378447.44347650144482, 9387455.625131513923407 ], [ 378447.144038947415538, 9387445.629615660756826 ], [ 378446.844601393386256, 9387435.634099809452891 ], [ 378446.545163839415181, 9387425.638583956286311 ], [ 378446.245726285385899, 9387415.643068104982376 ], [ 378445.946288731356617, 9387405.647552251815796 ], [ 378445.646851177385543, 9387395.652036400511861 ], [ 378445.34741362335626, 9387385.656520547345281 ], [ 378445.047976069385186, 9387375.661004696041346 ], [ 378444.748538515355904, 9387365.665488842874765 ], [ 378444.449100961326621, 9387355.66997299157083 ], [ 378444.149663407355547, 9387345.67445713840425 ], [ 378443.850225853326265, 9387335.678941287100315 ], [ 378443.550788299296983, 9387325.683425433933735 ], [ 378443.251350745325908, 9387315.6879095826298 ], [ 378442.951913191296626, 9387305.692393731325865 ], [ 378442.652475637267344, 9387295.696877878159285 ], [ 378442.353038083296269, 9387285.70136202685535 ], [ 378442.053600529266987, 9387275.705846173688769 ], [ 378441.754162975237705, 9387265.710330322384834 ], [ 378441.45472542126663, 9387255.714814469218254 ], [ 378441.17616656946484, 9387245.723449638113379 ], [ 378445.276238812773954, 9387236.602626889944077 ], [ 378449.376311056083068, 9387227.481804141774774 ], [ 378453.476383299392182, 9387218.360981393605471 ], [ 378457.576455542701297, 9387209.240158645436168 ], [ 378461.676527786010411, 9387200.11933589912951 ], [ 378465.776600029319525, 9387190.998513150960207 ], [ 378469.876672272628639, 9387181.877690402790904 ], [ 378473.976744515937753, 9387172.756867654621601 ], [ 378478.076816759246867, 9387163.636044906452298 ], [ 378482.176889002555981, 9387154.515222158282995 ], [ 378486.276961245865095, 9387145.394399410113692 ], [ 378490.37703348917421, 9387136.273576661944389 ], [ 378494.477105732483324, 9387127.152753915637732 ], [ 378498.577177975792438, 9387118.031931167468429 ], [ 378502.67725021915976, 9387108.911108419299126 ], [ 378506.777322462468874, 9387099.790285671129823 ], [ 378510.877394705777988, 9387090.66946292296052 ], [ 378514.977466949087102, 9387081.548640174791217 ], [ 378519.077539192396216, 9387072.427817426621914 ], [ 378523.17761143570533, 9387063.306994678452611 ], [ 378527.277683679014444, 9387054.186171930283308 ], [ 378531.377755922323558, 9387045.06534918397665 ], [ 378535.477828165632673, 9387035.944526435807347 ], [ 378539.577900408941787, 9387026.823703687638044 ], [ 378543.677972652250901, 9387017.702880939468741 ], [ 378547.778044895560015, 9387008.582058191299438 ], [ 378551.878117138869129, 9386999.461235443130136 ], [ 378555.978189382178243, 9386990.340412694960833 ], [ 378560.078261625487357, 9386981.21958994679153 ], [ 378564.178333868796472, 9386972.098767198622227 ], [ 378570.76037094485946, 9386964.757360689342022 ], [ 378578.08236615289934, 9386957.946458680555224 ], [ 378585.404361360997427, 9386951.135556671768427 ], [ 378592.726356569037307, 9386944.324654662981629 ], [ 378600.048351777135395, 9386937.513752654194832 ], [ 378607.370346985175274, 9386930.702850645408034 ], [ 378614.692342193273362, 9386923.891948636621237 ], [ 378622.014337401313242, 9386917.081046627834439 ], [ 378629.336332609411329, 9386910.270144619047642 ], [ 378636.658327817451209, 9386903.459242610260844 ], [ 378643.980323025549296, 9386896.648340601474047 ], [ 378651.302318233589176, 9386889.837438592687249 ], [ 378658.624313441687264, 9386883.026536583900452 ], [ 378665.946308649727143, 9386876.215634575113654 ], [ 378673.268303857825231, 9386869.404732566326857 ], [ 378680.590299065865111, 9386862.593830557540059 ], [ 378687.912294273963198, 9386855.782928548753262 ], [ 378695.234289482003078, 9386848.972026539966464 ], [ 378702.556284690101165, 9386842.161124531179667 ], [ 378709.878279898141045, 9386835.350222522392869 ], [ 378717.200275106239133, 9386828.539320513606071 ], [ 378724.522270314279012, 9386821.728418504819274 ], [ 378731.8442655223771, 9386814.917516496032476 ], [ 378739.16626073041698, 9386808.106614487245679 ], [ 378746.488255938515067, 9386801.295712478458881 ], [ 378753.810251146554947, 9386794.484810469672084 ], [ 378761.132246354653034, 9386787.673908460885286 ], [ 378768.454241562692914, 9386780.863006452098489 ], [ 378775.776236770791002, 9386774.052104443311691 ], [ 378783.098231978830881, 9386767.241202434524894 ], [ 378790.420227186928969, 9386760.430300425738096 ], [ 378796.547064996615518, 9386752.776055812835693 ], [ 378800.509734380815644, 9386743.594702353700995 ], [ 378804.47240376501577, 9386734.413348894566298 ], [ 378808.435073149215896, 9386725.231995433568954 ], [ 378812.397742533416022, 9386716.050641974434257 ], [ 378816.360411917616148, 9386706.869288515299559 ], [ 378820.323081301758066, 9386697.687935056164861 ], [ 378824.285750685958192, 9386688.506581595167518 ], [ 378828.248420070158318, 9386679.32522813603282 ], [ 378832.211089454358444, 9386670.143874676898122 ], [ 378836.17375883855857, 9386660.962521215900779 ], [ 378840.136428222758695, 9386651.781167756766081 ], [ 378844.099097606958821, 9386642.599814297631383 ], [ 378848.061766991158947, 9386633.418460838496685 ], [ 378852.024436375300866, 9386624.237107377499342 ], [ 378855.987105759500992, 9386615.055753918364644 ], [ 378859.949775143701117, 9386605.874400459229946 ], [ 378863.912444527901243, 9386596.693046998232603 ], [ 378867.875113912101369, 9386587.511693539097905 ], [ 378871.837783296301495, 9386578.330340079963207 ], [ 378875.800452680501621, 9386569.148986618965864 ], [ 378879.763122064643539, 9386559.967633159831166 ], [ 378883.725791448843665, 9386550.786279700696468 ], [ 378887.688460833043791, 9386541.60492624156177 ], [ 378891.651130217243917, 9386532.423572780564427 ], [ 378895.613799601444043, 9386523.242219321429729 ], [ 378899.336813807662111, 9386514.002124296501279 ], [ 378900.069080324086826, 9386504.028971046209335 ], [ 378900.801346840511542, 9386494.055817795917392 ], [ 378901.533613356936257, 9386484.082664547488093 ], [ 378902.265879873360973, 9386474.10951129719615 ], [ 378902.998146389785688, 9386464.136358046904206 ], [ 378903.730412906210404, 9386454.163204796612263 ], [ 378904.462679422635119, 9386444.190051546320319 ], [ 378905.194945939059835, 9386434.216898296028376 ], [ 378905.92721245548455, 9386424.243745045736432 ], [ 378906.659478971909266, 9386414.270591797307134 ], [ 378907.391745488333981, 9386404.29743854701519 ], [ 378908.124012004758697, 9386394.324285296723247 ], [ 378908.856278521125205, 9386384.351132046431303 ], [ 378909.58854503754992, 9386374.377978796139359 ], [ 378910.320811553974636, 9386364.404825545847416 ], [ 378911.053078070399351, 9386354.431672295555472 ], [ 378911.785344586824067, 9386344.458519045263529 ], [ 378912.517611103248782, 9386334.48536579683423 ], [ 378913.249877619673498, 9386324.512212546542287 ], [ 378913.982144136098213, 9386314.539059296250343 ], [ 378914.714410652522929, 9386304.5659060459584 ], [ 378915.446677168947645, 9386294.592752795666456 ], [ 378916.17894368537236, 9386284.619599545374513 ], [ 378916.911210201797076, 9386274.646446295082569 ], [ 378917.643476718221791, 9386264.673293046653271 ], [ 378918.375743234646507, 9386254.700139796361327 ], [ 378919.108009751071222, 9386244.726986546069384 ], [ 378919.776348563143983, 9386234.749648209661245 ], [ 378920.350562953099143, 9386224.766147928312421 ], [ 378920.92477734311251, 9386214.782647648826241 ], [ 378921.498991733125877, 9386204.799147369340062 ], [ 378922.073206123139244, 9386194.815647089853883 ], [ 378922.647420513152611, 9386184.832146810367703 ], [ 378923.221634903165977, 9386174.848646530881524 ], [ 378923.795849293179344, 9386164.865146251395345 ], [ 378924.370063683192711, 9386154.881645971909165 ], [ 378924.944278073147871, 9386144.898145692422986 ], [ 378925.518492463161238, 9386134.914645412936807 ], [ 378926.092706853174604, 9386124.931145131587982 ], [ 378926.666921243187971, 9386114.947644852101803 ], [ 378927.241135633201338, 9386104.964144572615623 ], [ 378927.815350023214705, 9386094.980644293129444 ], [ 378928.389564413228072, 9386084.997144013643265 ], [ 378928.963778803241439, 9386075.013643734157085 ], [ 378929.537993193254806, 9386065.030143454670906 ], [ 378930.112207583209965, 9386055.046643175184727 ], [ 378930.686421973223332, 9386045.063142895698547 ], [ 378931.260636363236699, 9386035.079642616212368 ], [ 378931.834850753250066, 9386025.096142334863544 ], [ 378932.409065143263433, 9386015.112642055377364 ], [ 378932.9832795332768, 9386005.129141775891185 ], [ 378933.557493923290167, 9385995.145641496405005 ], [ 378934.131708313303534, 9385985.162141216918826 ], [ 378934.705922703258693, 9385975.178640937432647 ], [ 378935.28013709327206, 9385965.195140657946467 ], [ 378935.854351483285427, 9385955.211640378460288 ], [ 378936.428565873298794, 9385945.228140098974109 ], [ 378937.002780263312161, 9385935.244639819487929 ], [ 378937.576994653325528, 9385925.261139538139105 ], [ 378938.151209043338895, 9385915.277639258652925 ], [ 378938.725423433352262, 9385905.294138979166746 ], [ 378939.299637823365629, 9385895.310638699680567 ], [ 378939.873852213320788, 9385885.327138420194387 ], [ 378940.448066603334155, 9385875.343638140708208 ], [ 378941.022280993347522, 9385865.360137861222029 ], [ 378941.596495383360889, 9385855.376637581735849 ], [ 378942.170709773374256, 9385845.39313730224967 ], [ 378942.744924163387623, 9385835.409637020900846 ], [ 378943.31913855340099, 9385825.426136741414666 ], [ 378943.893352943414357, 9385815.442636461928487 ], [ 378944.467567333369516, 9385805.459136182442307 ], [ 378945.041781723382883, 9385795.475635902956128 ], [ 378945.398462995828595, 9385785.482047248631716 ], [ 378945.750721021438949, 9385775.488253459334373 ], [ 378946.10297904710751, 9385765.494459671899676 ], [ 378946.455237072776072, 9385755.500665884464979 ], [ 378946.807495098444633, 9385745.506872095167637 ], [ 378947.159753124113195, 9385735.51307830773294 ], [ 378947.512011149781756, 9385725.519284518435597 ], [ 378947.864269175450318, 9385715.5254907310009 ], [ 378948.216527201118879, 9385705.531696941703558 ], [ 378948.56878522678744, 9385695.537903154268861 ], [ 378948.921043252397794, 9385685.544109364971519 ], [ 378949.273301278066356, 9385675.550315577536821 ], [ 378949.625559303734917, 9385665.556521788239479 ], [ 378949.977817329403479, 9385655.562728000804782 ], [ 378950.33007535507204, 9385645.56893421150744 ], [ 378950.682333380740602, 9385635.575140424072742 ], [ 378951.034591406409163, 9385625.5813466347754 ], [ 378951.386849432077724, 9385615.587552847340703 ], [ 378951.739107457688078, 9385605.593759058043361 ], [ 378952.09136548335664, 9385595.599965270608664 ], [ 378952.443623509025201, 9385585.606171481311321 ], [ 378952.795881534693763, 9385575.612377693876624 ], [ 378953.148139560362324, 9385565.618583906441927 ], [ 378953.500397586030886, 9385555.624790117144585 ], [ 378953.852655611699447, 9385545.630996329709888 ], [ 378954.204913637368008, 9385535.637202540412545 ], [ 378954.557171662978362, 9385525.643408752977848 ], [ 378954.909429688646924, 9385515.649614963680506 ], [ 378955.261687714315485, 9385505.655821176245809 ], [ 378953.737172184337396, 9385496.064826656132936 ], [ 378949.315036452317145, 9385487.095728842541575 ], [ 378944.892900720238686, 9385478.12663103081286 ], [ 378940.470764988160226, 9385469.157533219084144 ], [ 378936.048629256139975, 9385460.188435405492783 ], [ 378931.626493524061516, 9385451.219337593764067 ], [ 378927.204357792041264, 9385442.250239782035351 ], [ 378922.782222059962805, 9385433.28114196844399 ], [ 378918.360086327942554, 9385424.312044156715274 ], [ 378913.937950595864095, 9385415.342946344986558 ], [ 378909.515814863785636, 9385406.373848531395197 ], [ 378905.093679131765384, 9385397.404750719666481 ], [ 378900.671543399686925, 9385388.435652907937765 ], [ 378896.249407667666674, 9385379.466555094346404 ], [ 378891.827271935588215, 9385370.497457282617688 ], [ 378887.405136203509755, 9385361.528359470888972 ], [ 378882.983000471489504, 9385352.559261657297611 ], [ 378878.560864739411045, 9385343.590163845568895 ], [ 378874.138729007390793, 9385334.621066033840179 ], [ 378869.716593275312334, 9385325.651968220248818 ], [ 378865.294457543292083, 9385316.682870408520103 ], [ 378860.872321811213624, 9385307.713772596791387 ], [ 378856.450186079135165, 9385298.744674783200026 ], [ 378852.028050347114913, 9385289.77557697147131 ], [ 378847.605914615036454, 9385280.806479159742594 ], [ 378842.263212491525337, 9385272.359220739454031 ], [ 378836.838826047838666, 9385263.958266524598002 ], [ 378831.414439604151994, 9385255.557312309741974 ], [ 378825.990053160465322, 9385247.15635809674859 ], [ 378820.565666716778651, 9385238.755403881892562 ], [ 378815.141280273091979, 9385230.354449667036533 ], [ 378809.716893829405308, 9385221.95349545404315 ], [ 378804.292507385776844, 9385213.552541239187121 ], [ 378798.868120942090172, 9385205.151587024331093 ], [ 378793.443734498403501, 9385196.750632811337709 ], [ 378788.019348054716829, 9385188.349678596481681 ], [ 378782.594961611030158, 9385179.948724381625652 ], [ 378777.170575167343486, 9385171.547770168632269 ], [ 378771.746188723656815, 9385163.14681595377624 ], [ 378766.321802279970143, 9385154.745861738920212 ], [ 378760.897415836283471, 9385146.344907525926828 ], [ 378755.4730293925968, 9385137.9439533110708 ], [ 378750.048642948910128, 9385129.542999096214771 ], [ 378744.624256505223457, 9385121.142044883221388 ], [ 378739.199870061536785, 9385112.741090668365359 ], [ 378735.408322788134683, 9385103.497667280957103 ], [ 378731.705429497349542, 9385094.208502557128668 ], [ 378728.0025362065644, 9385084.919337833300233 ], [ 378724.299642915837467, 9385075.630173107609153 ], [ 378720.596749625052325, 9385066.341008383780718 ], [ 378716.893856334267184, 9385057.051843659952283 ], [ 378713.190963043482043, 9385047.762678934261203 ], [ 378709.488069752696902, 9385038.473514210432768 ], [ 378705.78517646191176, 9385029.184349486604333 ], [ 378702.082283171184827, 9385019.895184760913253 ], [ 378698.379389880399685, 9385010.606020037084818 ], [ 378694.676496589614544, 9385001.316855313256383 ], [ 378690.973603298829403, 9384992.027690589427948 ], [ 378687.270710008044261, 9384982.738525863736868 ], [ 378683.56781671725912, 9384973.449361139908433 ], [ 378679.864923426532187, 9384964.160196416079998 ], [ 378676.162030135747045, 9384954.871031690388918 ], [ 378672.459136844961904, 9384945.581866966560483 ], [ 378668.756243554176763, 9384936.292702242732048 ], [ 378665.053350263391621, 9384927.003537517040968 ], [ 378661.35045697260648, 9384917.714372793212533 ], [ 378660.109327076352201, 9384907.922144630923867 ], [ 378659.871043424878735, 9384897.924983989447355 ], [ 378659.632759773405269, 9384887.927823347970843 ], [ 378659.394476121931802, 9384877.930662706494331 ], [ 378659.156192470458336, 9384867.933502063155174 ], [ 378658.91790881898487, 9384857.936341421678662 ], [ 378658.679625167511404, 9384847.93918078020215 ], [ 378658.441341516037937, 9384837.942020138725638 ], [ 378658.203057864564471, 9384827.944859495386481 ], [ 378657.964774213091005, 9384817.947698853909969 ], [ 378657.726490561617538, 9384807.950538212433457 ], [ 378657.488206910085864, 9384797.953377570956945 ], [ 378657.249923258612398, 9384787.956216927617788 ], [ 378657.011639607138932, 9384777.959056286141276 ], [ 378656.773355955665465, 9384767.961895644664764 ], [ 378656.535072304191999, 9384757.964735001325607 ], [ 378656.296788652718533, 9384747.967574359849095 ], [ 378656.058505001245067, 9384737.970413718372583 ], [ 378655.8202213497716, 9384727.973253076896071 ], [ 378658.354469181969762, 9384718.770723322406411 ], [ 378663.85211905289907, 9384710.417529569938779 ], [ 378669.349768923828378, 9384702.064335815608501 ], [ 378674.847418794757687, 9384693.711142061278224 ], [ 378680.345068665686995, 9384685.357948306947947 ], [ 378685.842718536616303, 9384677.004754552617669 ], [ 378691.340368407545611, 9384668.651560798287392 ], [ 378696.838018278474919, 9384660.298367043957114 ], [ 378702.335668149404228, 9384651.945173289626837 ], [ 378707.575732222874649, 9384643.454970341175795 ], [ 378711.429300072486512, 9384634.227293772622943 ], [ 378715.282867922040168, 9384624.999617205932736 ], [ 378719.136435771652032, 9384615.77194063924253 ], [ 378721.068017506622709, 9384606.282111978158355 ], [ 378719.826483639364596, 9384596.35948159918189 ], [ 378718.584949772106484, 9384586.436851218342781 ], [ 378717.343415904790163, 9384576.514220839366317 ], [ 378716.10188203753205, 9384566.591590458527207 ], [ 378714.860348170273937, 9384556.668960079550743 ], [ 378711.981297868711408, 9384547.536605704575777 ], [ 378704.985581578919664, 9384540.390980917960405 ], [ 378697.989865289186127, 9384533.245356131345034 ], [ 378690.994148999394383, 9384526.099731344729662 ], [ 378683.998432709660847, 9384518.95410655811429 ], [ 378677.00271641992731, 9384511.808481771498919 ], [ 378670.106299992941786, 9384504.580499239265919 ], [ 378664.377555885526817, 9384496.384067639708519 ], [ 378658.648811778053641, 9384488.187636042013764 ], [ 378652.920067670638673, 9384479.991204442456365 ], [ 378647.191323563165497, 9384471.79477284476161 ], [ 378641.462579455692321, 9384463.59834124520421 ], [ 378635.733835348277353, 9384455.401909647509456 ], [ 378630.005091240804177, 9384447.205478047952056 ], [ 378624.276347133331001, 9384439.009046450257301 ], [ 378618.547603025916032, 9384430.812614850699902 ], [ 378612.818858918442857, 9384422.616183253005147 ], [ 378607.090114811027888, 9384414.419751653447747 ], [ 378601.361370703554712, 9384406.223320055752993 ], [ 378595.632626596081536, 9384398.026888456195593 ], [ 378589.903882488666568, 9384389.830456858500838 ], [ 378584.670993883279152, 9384381.404827877879143 ], [ 378582.139438842481468, 9384371.730571882799268 ], [ 378579.607883801683784, 9384362.056315885856748 ], [ 378577.076328760886099, 9384352.382059890776873 ], [ 378578.399352040956728, 9384342.647783968597651 ], [ 378580.628475694393273, 9384332.89939909055829 ], [ 378582.857599347829819, 9384323.15101421251893 ], [ 378585.086723001324572, 9384313.402629332616925 ], [ 378587.315846654761117, 9384303.654244454577565 ], [ 378589.54497030825587, 9384293.905859576538205 ], [ 378591.774093961692415, 9384284.157474698498845 ], [ 378594.003217615187168, 9384274.409089820459485 ], [ 378596.232341268623713, 9384264.66070494055748 ], [ 378598.461464922060259, 9384254.91232006251812 ], [ 378600.690588575555012, 9384245.16393518447876 ], [ 378602.919712228991557, 9384235.4155503064394 ], [ 378602.580385172972456, 9384225.479501333087683 ], [ 378601.791904358600732, 9384215.510634897276759 ], [ 378601.003423544287216, 9384205.541768461465836 ], [ 378600.2149427299737, 9384195.572902027517557 ], [ 378599.426461915660184, 9384185.604035591706634 ], [ 378598.63798110128846, 9384175.63516915589571 ], [ 378597.849500286974944, 9384165.666302720084786 ], [ 378597.061019472661428, 9384155.697436286136508 ], [ 378596.272538658347912, 9384145.728569850325584 ], [ 378595.484057843976188, 9384135.759703414514661 ], [ 378594.695577029662672, 9384125.790836978703737 ], [ 378593.907096215349156, 9384115.821970544755459 ], [ 378592.314857505087275, 9384106.132511653006077 ], [ 378586.749688943848014, 9384097.824148464947939 ], [ 378581.18452038266696, 9384089.515785275027156 ], [ 378575.619351821427699, 9384081.207422085106373 ], [ 378570.054183260188438, 9384072.899058897048235 ], [ 378564.489014698949177, 9384064.590695707127452 ], [ 378558.923846137768123, 9384056.282332517206669 ], [ 378553.358677576528862, 9384047.973969329148531 ], [ 378548.209743138111662, 9384039.408027524128556 ], [ 378543.257314805756323, 9384030.720481634140015 ], [ 378538.304886473400984, 9384022.032935742288828 ], [ 378534.924165661039297, 9384013.047932835295796 ], [ 378536.359435704769567, 9384003.151468824595213 ], [ 378537.794705748441629, 9383993.255004813894629 ], [ 378539.229975792171899, 9383983.358540805056691 ], [ 378544.302794378600083, 9383975.318077465519309 ], [ 378551.473414376669098, 9383968.34798357449472 ], [ 378558.644034374738112, 9383961.377889685332775 ], [ 378565.814654372807126, 9383954.407795794308186 ], [ 378572.985274370817933, 9383947.437701903283596 ], [ 378580.806608629063703, 9383941.428362023085356 ], [ 378589.939814900921192, 9383937.355949567630887 ], [ 378599.073021172778681, 9383933.283537114039063 ], [ 378608.20622744463617, 9383929.21112466044724 ], [ 378617.339433716493659, 9383925.138712206855416 ], [ 378624.368363233457785, 9383918.310407178476453 ], [ 378630.702735245518852, 9383910.572466159239411 ], [ 378637.037107257579919, 9383902.83452514000237 ], [ 378643.371479269640986, 9383895.096584120765328 ], [ 378649.53691298677586, 9383887.294577835127711 ], [ 378649.926298157079145, 9383877.302161751314998 ], [ 378650.315683327324223, 9383867.309745667502284 ], [ 378650.705068497627508, 9383857.31732958368957 ], [ 378651.094453667930793, 9383847.324913499876857 ], [ 378651.483838838234078, 9383837.332497416064143 ], [ 378651.873224008537363, 9383827.34008133225143 ], [ 378651.808129674522206, 9383817.41213589720428 ], [ 378648.655061217024922, 9383807.92223814688623 ], [ 378645.501992759527639, 9383798.432340398430824 ], [ 378642.348924302030355, 9383788.942442648112774 ], [ 378639.195855844533071, 9383779.452544897794724 ], [ 378636.042787387035787, 9383769.962647147476673 ], [ 378632.889718929538503, 9383760.472749399021268 ], [ 378629.736650472041219, 9383750.982851648703218 ], [ 378626.583582014543936, 9383741.492953898385167 ], [ 378623.430513557046652, 9383732.003056148067117 ], [ 378620.277445099549368, 9383722.513158399611712 ], [ 378617.124376642052084, 9383713.023260649293661 ], [ 378613.9713081845548, 9383703.533362898975611 ], [ 378610.818239727057517, 9383694.04346514865756 ], [ 378607.665171269560233, 9383684.553567400202155 ], [ 378604.512102812062949, 9383675.063669649884105 ], [ 378601.359034354565665, 9383665.573771899566054 ], [ 378598.205965897068381, 9383656.083874151110649 ], [ 378595.052897439571097, 9383646.593976400792599 ], [ 378591.899828982073814, 9383637.104078650474548 ], [ 378588.74676052457653, 9383627.614180900156498 ], [ 378585.593692067079246, 9383618.124283151701093 ], [ 378581.268075832223985, 9383609.167648071423173 ], [ 378576.187915907183196, 9383600.554171703755856 ], [ 378571.107755982142407, 9383591.940695336088538 ], [ 378566.027596057159826, 9383583.327218968421221 ], [ 378560.947436132119037, 9383574.713742600753903 ], [ 378555.867276207078248, 9383566.100266234949231 ], [ 378550.787116282037459, 9383557.486789867281914 ], [ 378545.706956357054878, 9383548.873313499614596 ], [ 378540.626796432014089, 9383540.259837131947279 ], [ 378535.5466365069733, 9383531.646360764279962 ], [ 378530.466476581990719, 9383523.032884396612644 ], [ 378525.38631665694993, 9383514.419408028945327 ], [ 378520.306156731909141, 9383505.805931661278009 ], [ 378513.970088960311841, 9383498.130939131602645 ], [ 378507.149279030389152, 9383490.818172767758369 ], [ 378500.328469100524671, 9383483.505406403914094 ], [ 378493.507659170601983, 9383476.192640038207173 ], [ 378486.686849240679294, 9383468.879873674362898 ], [ 378479.866039310756605, 9383461.567107310518622 ], [ 378473.045229380892124, 9383454.254340944811702 ], [ 378470.193350384011865, 9383445.310027116909623 ], [ 378469.899012288602535, 9383435.314359800890088 ], [ 378469.604674193134997, 9383425.318692484870553 ], [ 378469.310336097725667, 9383415.323025168851018 ], [ 378469.015998002258129, 9383405.327357852831483 ], [ 378469.356052989198361, 9383395.445119179785252 ], [ 378473.095848145487253, 9383386.170749541372061 ], [ 378476.835643301776145, 9383376.89637990295887 ], [ 378480.575438458065037, 9383367.622010264545679 ], [ 378484.315233614353929, 9383358.347640626132488 ], [ 378488.055028770701028, 9383349.073270987719297 ], [ 378491.79482392698992, 9383339.798901349306107 ], [ 378495.534619083278812, 9383330.524531710892916 ], [ 378499.274414239567704, 9383321.250162072479725 ], [ 378503.014209395856597, 9383311.975792434066534 ], [ 378506.754004552145489, 9383302.701422795653343 ], [ 378510.493799708492588, 9383293.427053159102798 ], [ 378514.23359486478148, 9383284.152683520689607 ], [ 378517.973390021070372, 9383274.878313882276416 ], [ 378521.713185177359264, 9383265.603944243863225 ], [ 378525.452980333648156, 9383256.329574605450034 ], [ 378529.192775489937048, 9383247.055204967036843 ], [ 378532.93257064622594, 9383237.780835328623652 ], [ 378536.67236580257304, 9383228.506465690210462 ], [ 378540.412160958861932, 9383219.232096051797271 ], [ 378544.151956115150824, 9383209.95772641338408 ], [ 378547.891751271439716, 9383200.683356774970889 ], [ 378551.631546427728608, 9383191.408987136557698 ], [ 378555.3713415840175, 9383182.134617498144507 ], [ 378559.111136740306392, 9383172.860247859731317 ], [ 378562.850931896653492, 9383163.585878221318126 ], [ 378566.590727052942384, 9383154.311508582904935 ], [ 378570.330522209231276, 9383145.037138944491744 ], [ 378574.070317365520168, 9383135.762769306078553 ], [ 378577.81011252180906, 9383126.488399667665362 ], [ 378578.035403208399657, 9383116.528719123452902 ], [ 378578.054010965453926, 9383106.528736436739564 ], [ 378578.072618722508196, 9383096.528753750026226 ], [ 378578.091226479562465, 9383086.528771061450243 ], [ 378578.109834236616734, 9383076.528788374736905 ], [ 378578.128441993729211, 9383066.528805686160922 ], [ 378578.147049750783481, 9383056.528822999447584 ], [ 378577.491258465917781, 9383046.646026711910963 ], [ 378574.100320777622983, 9383037.238500917330384 ], [ 378570.709383089386392, 9383027.83097512088716 ], [ 378567.318445401091594, 9383018.423449326306581 ], [ 378563.927507712796796, 9383009.015923529863358 ], [ 378560.536570024560206, 9382999.608397735282779 ], [ 378557.145632336265408, 9382990.200871938839555 ], [ 378553.754694648028817, 9382980.793346144258976 ], [ 378550.363756959734019, 9382971.385820347815752 ], [ 378546.972819271497428, 9382961.978294553235173 ], [ 378543.58188158320263, 9382952.570768756791949 ], [ 378540.190943894907832, 9382943.163242960348725 ], [ 378536.800006206671242, 9382933.755717165768147 ], [ 378533.409068518376444, 9382924.348191369324923 ], [ 378530.018130830139853, 9382914.940665574744344 ], [ 378526.627193141845055, 9382905.53313977830112 ], [ 378523.236255453608464, 9382896.125613983720541 ], [ 378519.845317765313666, 9382886.718088187277317 ], [ 378516.454380077077076, 9382877.310562392696738 ], [ 378513.063442388782278, 9382867.903036596253514 ], [ 378509.67250470048748, 9382858.495510801672935 ], [ 378506.281567012250889, 9382849.087985005229712 ], [ 378502.890629323956091, 9382839.680459210649133 ], [ 378499.4996916357195, 9382830.272933414205909 ], [ 378496.108753947424702, 9382820.86540761962533 ], [ 378492.717816259188112, 9382811.457881823182106 ], [ 378489.326878570893314, 9382802.050356028601527 ], [ 378485.935940882598516, 9382792.642830232158303 ], [ 378482.545003194361925, 9382783.235304435715079 ], [ 378479.154065506067127, 9382773.827778641134501 ], [ 378475.763127817830537, 9382764.420252844691277 ], [ 378472.372190129535738, 9382755.012727050110698 ], [ 378468.981252441299148, 9382745.605201253667474 ], [ 378465.59031475300435, 9382736.197675459086895 ], [ 378462.199377064767759, 9382726.790149662643671 ], [ 378458.808439376472961, 9382717.382623868063092 ], [ 378455.417501688178163, 9382707.975098071619868 ], [ 378452.026563999941573, 9382698.567572277039289 ], [ 378448.635626311646774, 9382689.160046480596066 ], [ 378445.244688623410184, 9382679.752520686015487 ], [ 378441.853750935115386, 9382670.344994889572263 ], [ 378438.462813246878795, 9382660.937469094991684 ], [ 378435.071875558583997, 9382651.52994329854846 ], [ 378431.680937870347407, 9382642.122417503967881 ], [ 378428.290000182052609, 9382632.714891707524657 ], [ 378424.89906249375781, 9382623.307365911081433 ], [ 378421.50812480552122, 9382613.899840116500854 ], [ 378423.017735549015924, 9382604.677691327407956 ], [ 378427.109697797568515, 9382595.553227236494422 ], [ 378431.201660046121106, 9382586.428763143718243 ], [ 378435.293622294731904, 9382577.304299052804708 ], [ 378439.385584543284494, 9382568.179834961891174 ], [ 378443.477546791895293, 9382559.05537087097764 ], [ 378447.569509040447883, 9382549.930906778201461 ], [ 378451.661471289000474, 9382540.806442687287927 ], [ 378455.753433537611272, 9382531.681978596374393 ], [ 378459.845395786163863, 9382522.557514503598213 ], [ 378463.937358034774661, 9382513.433050412684679 ], [ 378469.442389938922133, 9382505.217632178217173 ], [ 378476.049358591728378, 9382497.711104003712535 ], [ 378482.656327244476415, 9382490.204575831070542 ], [ 378489.26329589728266, 9382482.698047656565905 ], [ 378495.870264550030697, 9382475.191519483923912 ], [ 378502.477233202836942, 9382467.684991309419274 ], [ 378509.084201855584979, 9382460.178463136777282 ], [ 378515.691170508391224, 9382452.671934962272644 ], [ 378522.298139161139261, 9382445.165406789630651 ], [ 378528.905107813945506, 9382437.658878615126014 ], [ 378535.512076466693543, 9382430.152350440621376 ], [ 378542.119045119499788, 9382422.645822267979383 ], [ 378548.726013772247825, 9382415.139294093474746 ], [ 378555.33298242505407, 9382407.632765920832753 ], [ 378561.939951077802107, 9382400.126237746328115 ], [ 378568.546919730608352, 9382392.619709573686123 ], [ 378575.153888383356389, 9382385.113181399181485 ], [ 378581.721669437421951, 9382377.573938908055425 ], [ 378587.927414064819459, 9382369.73246368765831 ], [ 378594.133158692275174, 9382361.89098846912384 ], [ 378600.338903319672681, 9382354.049513248726726 ], [ 378606.544647947128396, 9382346.208038030192256 ], [ 378612.750392574525904, 9382338.366562809795141 ], [ 378618.956137201981619, 9382330.525087591260672 ], [ 378622.581180662906263, 9382321.65548100322485 ], [ 378623.467657134460751, 9382311.694850528612733 ], [ 378624.354133606015239, 9382301.734220054000616 ], [ 378625.240610077627935, 9382291.773589577525854 ], [ 378626.127086549182422, 9382281.812959102913737 ], [ 378627.013563020795118, 9382271.85232862830162 ], [ 378627.900039492349606, 9382261.891698151826859 ], [ 378628.786515963904094, 9382251.931067677214742 ], [ 378629.67299243551679, 9382241.97043720073998 ], [ 378630.559468907071277, 9382232.009806726127863 ], [ 378631.445945378625765, 9382222.049176251515746 ], [ 378632.332421850238461, 9382212.088545775040984 ], [ 378633.218898321792949, 9382202.127915300428867 ], [ 378634.105374793405645, 9382192.167284825816751 ], [ 378634.360393771261442, 9382182.178021144121885 ], [ 378634.379023899207823, 9382172.178038498386741 ], [ 378634.397654027212411, 9382162.178055852651596 ], [ 378634.416284155158792, 9382152.178073206916451 ], [ 378634.434914283105172, 9382142.178090561181307 ], [ 378634.45354441110976, 9382132.178107915446162 ], [ 378634.472174539056141, 9382122.178125267848372 ], [ 378634.490804667060729, 9382112.178142622113228 ], [ 378634.50943479500711, 9382102.178159976378083 ], [ 378634.52806492295349, 9382092.178177330642939 ], [ 378634.546695050958078, 9382082.178194684907794 ], [ 378634.565325178904459, 9382072.178212039172649 ], [ 378634.583955306850839, 9382062.178229393437505 ], [ 378634.602585434855428, 9382052.17824674770236 ], [ 378634.621215562801808, 9382042.178264101967216 ], [ 378634.639845690748189, 9382032.178281456232071 ], [ 378634.658475818752777, 9382022.178298810496926 ], [ 378634.677105946699157, 9382012.178316162899137 ], [ 378634.695736074645538, 9382002.178333517163992 ], [ 378634.714366202650126, 9381992.178350871428847 ], [ 378634.732996330596507, 9381982.178368225693703 ], [ 378634.751626458542887, 9381972.178385579958558 ], [ 378634.770256586547475, 9381962.178402934223413 ], [ 378634.788886714493856, 9381952.178420288488269 ], [ 378634.807516842498444, 9381942.178437642753124 ], [ 378633.699463124386966, 9381932.262311939150095 ], [ 378632.200679291796405, 9381922.375267535448074 ], [ 378630.701895459205844, 9381912.488223131746054 ], [ 378629.203111626557074, 9381902.601178729906678 ], [ 378627.704327793966513, 9381892.714134326204658 ], [ 378626.205543961317744, 9381882.827089924365282 ], [ 378624.706760128727183, 9381872.940045520663261 ], [ 378623.207976296078414, 9381863.053001118823886 ], [ 378621.709192463487852, 9381853.165956715121865 ], [ 378620.210408630839083, 9381843.27891231328249 ], [ 378618.711624798248522, 9381833.391867909580469 ], [ 378617.212840965599753, 9381823.504823507741094 ], [ 378615.714057133009192, 9381813.617779104039073 ], [ 378614.21527330041863, 9381803.730734702199697 ], [ 378612.716489467769861, 9381793.843690298497677 ], [ 378611.2177056351793, 9381783.956645896658301 ], [ 378609.718921802530531, 9381774.069601492956281 ], [ 378608.220137969939969, 9381764.182557091116905 ], [ 378606.7213541372912, 9381754.295512687414885 ], [ 378605.222570304700639, 9381744.408468285575509 ], [ 378603.72378647205187, 9381734.521423881873488 ], [ 378607.297972177679185, 9381725.266515882685781 ], [ 378611.177273183595389, 9381716.049627920612693 ], [ 378615.056574189511593, 9381706.832739958539605 ], [ 378618.935875195427798, 9381697.615851996466517 ], [ 378622.815176201344002, 9381688.39896403439343 ], [ 378626.694477207260206, 9381679.182076072320342 ], [ 378630.995751509035472, 9381670.158162362873554 ], [ 378635.430341472907458, 9381661.195215757936239 ], [ 378639.864931436779443, 9381652.232269151136279 ], [ 378644.299521400651429, 9381643.269322546198964 ], [ 378648.734111364581622, 9381634.306375941261649 ], [ 378653.081320856697857, 9381625.303389776498079 ], [ 378656.974440335703548, 9381616.092330081388354 ], [ 378660.867559814651031, 9381606.881270384415984 ], [ 378664.760679293598514, 9381597.670210689306259 ], [ 378668.653798772604205, 9381588.459150994196534 ], [ 378672.546918251551688, 9381579.248091297224164 ], [ 378676.440037730557378, 9381570.037031602114439 ], [ 378679.301112421613652, 9381560.872880846261978 ], [ 378674.588441802945454, 9381552.052975198253989 ], [ 378669.875771184219047, 9381543.233069550246 ], [ 378665.163100565550849, 9381534.413163902238011 ], [ 378660.450429946824443, 9381525.593258254230022 ], [ 378655.737759328156244, 9381516.773352606222034 ], [ 378651.025088709488045, 9381507.953446958214045 ], [ 378646.312418090761639, 9381499.133541310206056 ], [ 378641.599747472093441, 9381490.313635662198067 ], [ 378636.887076853425242, 9381481.493730014190078 ], [ 378632.174406234698836, 9381472.673824366182089 ], [ 378627.461735616030637, 9381463.8539187181741 ], [ 378622.749064997304231, 9381455.034013070166111 ], [ 378618.036394378636032, 9381446.214107422158122 ], [ 378613.323723759967834, 9381437.394201774150133 ], [ 378608.611053141241428, 9381428.574296126142144 ], [ 378603.898382522573229, 9381419.754390478134155 ], [ 378600.083330446504988, 9381410.517365295439959 ], [ 378596.380737195489928, 9381401.228080973029137 ], [ 378592.678143944474868, 9381391.938796650618315 ], [ 378588.975550693459809, 9381382.649512328207493 ], [ 378585.272957442444749, 9381373.360228007659316 ], [ 378581.570364191487897, 9381364.070943685248494 ], [ 378577.867770940472838, 9381354.781659362837672 ], [ 378574.624576895439532, 9381345.432994153350592 ], [ 378575.843520135560539, 9381335.507563311606646 ], [ 378577.062463375681546, 9381325.582132471725345 ], [ 378578.28140661586076, 9381315.656701629981399 ], [ 378579.500349855981767, 9381305.731270790100098 ], [ 378580.453323860478122, 9381295.802889417856932 ], [ 378579.454869136738125, 9381285.852859862148762 ], [ 378578.456414412939921, 9381275.902830304577947 ], [ 378577.457959689199924, 9381265.952800748869777 ], [ 378576.459504965459928, 9381256.002771193161607 ], [ 378569.287102110160049, 9381249.316067485138774 ], [ 378561.627964688639622, 9381242.886634076014161 ], [ 378553.968827267177403, 9381236.457200666889548 ], [ 378546.309689845656976, 9381230.027767257764935 ], [ 378538.650552424136549, 9381223.598333848640323 ], [ 378530.99141500267433, 9381217.16890043951571 ], [ 378522.817418681690469, 9381211.428922932595015 ], [ 378514.477620978665072, 9381205.910972746089101 ], [ 378506.137823275639676, 9381200.393022557720542 ], [ 378497.798025572672486, 9381194.875072369351983 ], [ 378489.458227869647089, 9381189.357122182846069 ], [ 378481.118430166621692, 9381183.83917199447751 ], [ 378472.778632463596296, 9381178.321221807971597 ], [ 378464.438834760629106, 9381172.803271619603038 ], [ 378456.099037057603709, 9381167.285321433097124 ], [ 378447.759239354578312, 9381161.767371244728565 ], [ 378440.089075884083286, 9381155.581049071624875 ], [ 378434.586870676837862, 9381147.230855189263821 ], [ 378429.084665469650645, 9381138.880661308765411 ], [ 378423.58246026240522, 9381130.530467426404357 ], [ 378418.080255055218004, 9381122.180273545905948 ], [ 378412.578049847972579, 9381113.830079663544893 ], [ 378412.030261144042015, 9381104.127130357548594 ], [ 378412.525473717018031, 9381094.139399658888578 ], [ 378413.020686289994046, 9381084.151668962091208 ], [ 378413.515898863028269, 9381074.163938263431191 ], [ 378414.011111436004285, 9381064.176207564771175 ], [ 378416.165767195459921, 9381054.590145640075207 ], [ 378420.292837120068725, 9381045.48150722309947 ], [ 378424.419907044677529, 9381036.372868804261088 ], [ 378428.546976969286334, 9381027.264230385422707 ], [ 378432.67404689383693, 9381018.155591966584325 ], [ 378436.801116818445735, 9381009.046953549608588 ], [ 378439.242720741720404, 9380999.377431789413095 ], [ 378441.396458100585733, 9380989.612114826217294 ], [ 378443.550195459509268, 9380979.846797864884138 ], [ 378445.703932818432804, 9380970.081480901688337 ], [ 378447.420110497390851, 9380960.382701644673944 ], [ 378442.46091734332731, 9380951.699015602469444 ], [ 378437.501724189205561, 9380943.01532956212759 ], [ 378432.542531035142019, 9380934.331643519923091 ], [ 378427.58333788102027, 9380925.647957479581237 ], [ 378422.624144726956729, 9380916.964271439239383 ], [ 378417.66495157283498, 9380908.280585397034883 ], [ 378412.705758418771438, 9380899.596899356693029 ], [ 378407.746565264649689, 9380890.91321331448853 ], [ 378402.787372110586148, 9380882.229527274146676 ], [ 378397.828178956464399, 9380873.545841233804822 ], [ 378392.868985802400857, 9380864.862155191600323 ], [ 378390.748331887007225, 9380855.151873257011175 ], [ 378389.005659027548973, 9380845.304889388382435 ], [ 378387.26298616809072, 9380835.457905519753695 ], [ 378385.520313308690675, 9380825.610921651124954 ], [ 378383.777640449232422, 9380815.763937782496214 ], [ 378382.034967589832377, 9380805.916953913867474 ], [ 378380.292294730374124, 9380796.069970045238733 ], [ 378378.549621870915871, 9380786.222986176609993 ], [ 378376.806949011515826, 9380776.376002307981253 ], [ 378375.064276152057573, 9380766.529018441215158 ], [ 378373.32160329259932, 9380756.682034572586417 ], [ 378371.578930433199275, 9380746.835050703957677 ], [ 378371.392820559500251, 9380736.852859569713473 ], [ 378371.41153230011696, 9380726.852877074852586 ], [ 378371.430244040791877, 9380716.852894581854343 ], [ 378371.448955781466793, 9380706.852912088856101 ], [ 378371.467667522083502, 9380696.852929593995214 ], [ 378371.486379262758419, 9380686.852947100996971 ], [ 378371.505091003433336, 9380676.852964607998729 ], [ 378369.289389890735038, 9380667.471866322681308 ], [ 378364.128483903652523, 9380658.906526317819953 ], [ 378358.967577916628215, 9380650.341186312958598 ], [ 378353.806671929545701, 9380641.775846309959888 ], [ 378348.645765942463186, 9380633.210506305098534 ], [ 378343.484859955380671, 9380624.645166300237179 ], [ 378338.323953968298156, 9380616.079826295375824 ], [ 378333.163047981273849, 9380607.514486290514469 ], [ 378327.454357688257005, 9380599.59906947799027 ], [ 378318.13882517174352, 9380595.963020257651806 ], [ 378308.823292655230034, 9380592.326971037313342 ], [ 378299.507760138774756, 9380588.690921815112233 ], [ 378290.192227622261271, 9380585.054872594773769 ], [ 378280.876695105747785, 9380581.418823374435306 ], [ 378271.561162589292508, 9380577.782774154096842 ], [ 378262.245630072779022, 9380574.146724933758378 ], [ 378252.930097556323744, 9380570.510675713419914 ], [ 378245.450136447965633, 9380563.900450397282839 ], [ 378238.023537159373518, 9380557.203762931749225 ], [ 378230.596937870839611, 9380550.507075466215611 ], [ 378223.170338582247496, 9380543.810388000681996 ], [ 378215.743739293655381, 9380537.113700537011027 ], [ 378208.317140005121473, 9380530.417013071477413 ], [ 378200.890540716529358, 9380523.720325605943799 ], [ 378193.463941427995451, 9380517.023638140410185 ], [ 378186.037342139403336, 9380510.326950674876571 ], [ 378179.651092665095348, 9380502.751556904986501 ], [ 378174.291041399934329, 9380494.309409640729427 ], [ 378168.930990134831518, 9380485.867262376472354 ], [ 378163.570938869670499, 9380477.425115112215281 ], [ 378158.21088760450948, 9380468.982967846095562 ], [ 378152.850836339406669, 9380460.540820581838489 ], [ 378147.49078507424565, 9380452.098673317581415 ], [ 378142.130733809142839, 9380443.656526053324342 ], [ 378136.77068254398182, 9380435.214378789067268 ], [ 378132.32067043374991, 9380426.370981344953179 ], [ 378129.703035121900029, 9380416.719660948961973 ], [ 378127.085399809991941, 9380407.068340554833412 ], [ 378124.46776449814206, 9380397.417020158842206 ], [ 378121.850129186292179, 9380387.765699762851 ], [ 378119.232493874442298, 9380378.114379368722439 ], [ 378116.614858562534209, 9380368.463058972731233 ], [ 378117.501639746304136, 9380358.557815976440907 ], [ 378118.70060884434497, 9380348.629952505230904 ], [ 378119.899577942385804, 9380338.702089034020901 ], [ 378121.098547040484846, 9380328.774225562810898 ], [ 378122.29751613852568, 9380318.846362091600895 ], [ 378123.496485236566514, 9380308.918498620390892 ], [ 378124.695454334665556, 9380298.990635149180889 ], [ 378125.89442343270639, 9380289.062771677970886 ], [ 378128.720451391418464, 9380279.586065776646137 ], [ 378132.80527656013146, 9380270.458404337987304 ], [ 378136.890101728786249, 9380261.330742897465825 ], [ 378140.974926897499245, 9380252.203081458806992 ], [ 378142.338130457268562, 9380242.858312729746103 ], [ 378139.752006426686421, 9380233.198501007631421 ], [ 378137.16588239610428, 9380223.538689285516739 ], [ 378134.579758365522139, 9380213.878877565264702 ], [ 378132.273020213877317, 9380204.151154045015574 ], [ 378130.136458880500868, 9380194.382064748555422 ], [ 378127.999897547124419, 9380184.612975453957915 ], [ 378125.863336213747971, 9380174.843886157497764 ], [ 378123.726774880371522, 9380165.074796861037612 ], [ 378121.590213546936866, 9380155.305707566440105 ], [ 378119.453652213560417, 9380145.536618269979954 ], [ 378117.317090880183969, 9380135.767528975382447 ], [ 378115.18052954680752, 9380125.998439678922296 ], [ 378113.043968213431071, 9380116.229350382462144 ], [ 378110.907406880054623, 9380106.460261087864637 ], [ 378108.770845546678174, 9380096.691171791404486 ], [ 378106.634284213301726, 9380086.922082494944334 ], [ 378104.497722879925277, 9380077.152993200346828 ], [ 378102.361161546490621, 9380067.383903903886676 ], [ 378100.224600213114172, 9380057.614814609289169 ], [ 378098.463659697154071, 9380047.790096687152982 ], [ 378097.677050885627978, 9380037.82108236476779 ], [ 378096.890442074160092, 9380027.852068040519953 ], [ 378096.103833262633998, 9380017.883053718134761 ], [ 378095.317224451107904, 9380007.914039393886924 ], [ 378094.530615639581811, 9379997.945025071501732 ], [ 378093.744006828055717, 9379987.97601074911654 ], [ 378092.957398016587831, 9379978.006996424868703 ], [ 378092.170789205061737, 9379968.037982102483511 ], [ 378089.168139704619534, 9379958.750597586855292 ], [ 378084.216123049438465, 9379950.062817027792335 ], [ 378079.264106394199189, 9379941.375036468729377 ], [ 378074.31208973901812, 9379932.687255909666419 ], [ 378069.360073083837051, 9379923.999475350603461 ], [ 378064.408056428655982, 9379915.311694791540504 ], [ 378059.456039773416705, 9379906.623914232477546 ], [ 378054.504023118235637, 9379897.936133671551943 ], [ 378047.538101422192995, 9379891.135683719068766 ], [ 378039.189587696979288, 9379885.630929538980126 ], [ 378030.841073971707374, 9379880.126175358891487 ], [ 378022.49256024643546, 9379874.621421178802848 ], [ 378014.144046521221753, 9379869.116666998714209 ], [ 378005.795532795949839, 9379863.611912820488214 ], [ 377997.219437146966811, 9379858.58882643096149 ], [ 377987.665655202406924, 9379855.634972922503948 ], [ 377978.111873257847037, 9379852.681119412183762 ], [ 377968.55809131328715, 9379849.72726590372622 ], [ 377959.004309368727263, 9379846.773412393406034 ], [ 377949.450527424167376, 9379843.819558884948492 ], [ 377939.896745479607489, 9379840.865705374628305 ], [ 377930.342963535047602, 9379837.911851864308119 ], [ 377920.789181590487715, 9379834.957998355850577 ], [ 377911.235399645927828, 9379832.004144845530391 ], [ 377901.730625905503985, 9379828.898814413696527 ], [ 377892.257172808633186, 9379825.696676624938846 ], [ 377882.783719711820595, 9379822.494538834318519 ], [ 377873.310266614949796, 9379819.292401045560837 ], [ 377863.836813518137205, 9379816.090263256803155 ], [ 377854.363360421266407, 9379812.888125466182828 ], [ 377844.889907324453816, 9379809.685987677425146 ], [ 377835.416454227583017, 9379806.483849888667464 ], [ 377825.943001130770426, 9379803.281712098047137 ], [ 377816.469548033899628, 9379800.079574309289455 ], [ 377806.996094937087037, 9379796.877436520531774 ], [ 377797.522641840216238, 9379793.675298729911447 ], [ 377788.049188743403647, 9379790.473160941153765 ], [ 377778.575735646532848, 9379787.271023152396083 ], [ 377769.102282549720258, 9379784.068885361775756 ], [ 377759.881636006641202, 9379780.401353033259511 ], [ 377752.038912563177291, 9379774.197185967117548 ], [ 377744.196189119771589, 9379767.993018900975585 ], [ 377736.353465676365886, 9379761.788851834833622 ], [ 377728.510742232960183, 9379755.584684766829014 ], [ 377720.66801878955448, 9379749.380517700687051 ], [ 377712.825295346148778, 9379743.176350634545088 ], [ 377704.982571902743075, 9379736.972183568403125 ], [ 377697.139848459337372, 9379730.768016500398517 ], [ 377689.29712501593167, 9379724.563849434256554 ], [ 377681.454401572525967, 9379718.359682368114591 ], [ 377673.611678129062057, 9379712.155515301972628 ], [ 377665.768954685656354, 9379705.951348235830665 ], [ 377657.926231242250651, 9379699.747181167826056 ], [ 377650.083507798844948, 9379693.543014101684093 ], [ 377642.240784355439246, 9379687.33884703554213 ], [ 377633.794767763989512, 9379682.007982581853867 ], [ 377625.216652400267776, 9379676.86833893507719 ], [ 377616.638537036487833, 9379671.728695290163159 ], [ 377608.060421672766097, 9379666.589051643386483 ], [ 377599.482306308986153, 9379661.449407998472452 ], [ 377590.904190945264418, 9379656.309764351695776 ], [ 377582.326075581542682, 9379651.170120706781745 ], [ 377573.747960217762738, 9379646.030477060005069 ], [ 377565.169844854041003, 9379640.890833415091038 ], [ 377556.591729490319267, 9379635.751189768314362 ], [ 377548.013614126539323, 9379630.611546123400331 ], [ 377539.435498762817588, 9379625.471902476623654 ], [ 377530.857383399095852, 9379620.332258831709623 ], [ 377522.279268035315908, 9379615.192615184932947 ], [ 377515.172505906550214, 9379608.440970223397017 ], [ 377509.273245231655892, 9379600.366397572681308 ], [ 377503.37398455676157, 9379592.291824921965599 ], [ 377497.474723881867249, 9379584.21725227124989 ], [ 377491.575463206972927, 9379576.142679620534182 ], [ 377485.676202532078605, 9379568.068106969818473 ], [ 377479.776941857242491, 9379559.993534319102764 ], [ 377473.877681182348169, 9379551.918961668387055 ], [ 377467.978420507453848, 9379543.844389017671347 ], [ 377462.079159832559526, 9379535.769816366955638 ], [ 377456.995437805191614, 9379527.173456002026796 ], [ 377452.136496359191369, 9379518.433279344812036 ], [ 377447.277554913132917, 9379509.69310268573463 ], [ 377442.418613467132673, 9379500.952926026657224 ], [ 377437.559672021074221, 9379492.212749367579818 ], [ 377432.700730575073976, 9379483.472572710365057 ], [ 377427.841789129015524, 9379474.732396051287651 ], [ 377422.982847683015279, 9379465.992219392210245 ], [ 377418.123906236956827, 9379457.252042733132839 ], [ 377413.264964790898375, 9379448.511866075918078 ], [ 377409.464447033824399, 9379439.265313483774662 ], [ 377405.708005977270659, 9379429.997673515230417 ], [ 377401.951564920716919, 9379420.730033546686172 ], [ 377398.195123864163179, 9379411.462393578141928 ], [ 377394.438682807609439, 9379402.194753609597683 ], [ 377390.682241751055699, 9379392.927113641053438 ], [ 377386.925800694501959, 9379383.659473672509193 ], [ 377383.169359637948219, 9379374.391833703964949 ], [ 377379.418721810157876, 9379365.138511072844267 ] ] ] } }
]
}
