{
"type": "FeatureCollection",
"crs": { "type": "name", "properties": { "name": "urn:ogc:def:crs:EPSG::32647" } },
"features": [
{ "type": "Feature", "properties": { "id": 1 }, "geometry": { "type": "MultiLineString", "coordinates": [ [ [ 452043.28046498412732, 206357.203849859099137 ], [ 452046.774811753479298, 206366.573457143065752 ], [ 452050.269158522773068, 206375.943064427032368 ], [ 452053.763505292125046, 206385.31267171096988 ], [ 452057.257852061477024, 206394.682278994936496 ], [ 452060.752198830770794, 206404.051886278903112 ], [ 452064.246545600122772, 206413.421493562869728 ], [ 452067.74089236947475, 206422.791100846836343 ], [ 452071.23523913876852, 206432.160708130802959 ], [ 452074.729585908120498, 206441.530315414740471 ], [ 452078.223932677414268, 206450.899922698707087 ], [ 452081.718279446766246, 206460.269529982673703 ], [ 452085.212626216118224, 206469.639137266640319 ], [ 452088.706972985411994, 206479.008744550606934 ], [ 452092.201319754763972, 206488.37835183457355 ], [ 452095.69566652411595, 206497.747959118511062 ], [ 452099.19001329340972, 206507.117566402477678 ], [ 452102.684360062761698, 206516.487173686444294 ], [ 452106.178706832113676, 206525.85678097041091 ], [ 452109.673053601407446, 206535.226388254377525 ], [ 452113.167400370759424, 206544.595995538315037 ], [ 452116.661747140111402, 206553.965602822281653 ], [ 452120.156093909405172, 206563.335210106248269 ], [ 452123.65044067875715, 206572.704817390214885 ], [ 452127.14478744805092, 206582.0744246741815 ], [ 452131.074391062953509, 206591.179229897039477 ], [ 452137.788796550128609, 206598.589814148872392 ], [ 452144.503202037361916, 206606.000398400705308 ], [ 452151.217607524537016, 206613.410982652538223 ], [ 452157.932013011770323, 206620.821566904371139 ], [ 452164.646418498945422, 206628.232151156204054 ], [ 452171.360823986120522, 206635.64273540803697 ], [ 452178.075229473353829, 206643.053319659869885 ], [ 452184.789634960528929, 206650.463903911702801 ], [ 452191.504040447704028, 206657.874488163535716 ], [ 452198.218445934937336, 206665.285072415368631 ], [ 452204.932851422112435, 206672.695656667201547 ], [ 452211.647256909287535, 206680.106240919034462 ], [ 452218.361662396520842, 206687.516825170867378 ], [ 452225.076067883695941, 206694.927409422700293 ], [ 452231.790473370871041, 206702.337993674533209 ], [ 452238.504878858104348, 206709.748577926366124 ], [ 452245.219284345279448, 206717.15916217819904 ], [ 452251.933689832454547, 206724.569746430031955 ], [ 452258.648095319687854, 206731.980330681864871 ], [ 452265.362500806862954, 206739.390914933697786 ], [ 452272.076906294038054, 206746.801499185530702 ], [ 452278.791311781271361, 206754.212083437363617 ], [ 452285.50571726844646, 206761.622667689196533 ], [ 452292.220122755679768, 206769.033251941029448 ], [ 452298.934528242854867, 206776.443836192862364 ], [ 452305.648933730029967, 206783.854420444695279 ], [ 452312.363339217263274, 206791.265004696528194 ], [ 452319.077744704438373, 206798.67558894836111 ], [ 452325.792150191613473, 206806.086173200194025 ], [ 452332.50655567884678, 206813.496757452026941 ], [ 452339.22096116602188, 206820.907341703859856 ], [ 452345.917017254163511, 206828.332719993835781 ], [ 452351.734843951766379, 206836.466162839060416 ], [ 452357.55267064931104, 206844.599605684314156 ], [ 452363.370497346913908, 206852.733048529567895 ], [ 452369.188324044516776, 206860.866491374821635 ], [ 452375.006150742061436, 206868.999934220075374 ], [ 452380.823977439664304, 206877.13337706530001 ], [ 452386.641804137267172, 206885.26681991055375 ], [ 452392.459630834811833, 206893.400262755807489 ], [ 452398.277457532414701, 206901.533705601061229 ], [ 452404.095284229959361, 206909.667148446285864 ], [ 452409.913110927562229, 206917.800591291539604 ], [ 452415.730937625165097, 206925.934034136793343 ], [ 452421.548764322709758, 206934.067476982047083 ], [ 452427.366591020312626, 206942.200919827271719 ], [ 452433.184417717915494, 206950.334362672525458 ], [ 452439.002244415460154, 206958.467805517779198 ], [ 452444.298437169287354, 206966.887507593841292 ], [ 452448.034412887005601, 206976.163416467723437 ], [ 452451.770388604782056, 206985.439325341576478 ], [ 452455.506364322500303, 206994.715234215458622 ], [ 452459.242340040218551, 207003.991143089340767 ], [ 452462.978315757995006, 207013.267051963222912 ], [ 452466.714291475713253, 207022.542960837105056 ], [ 452470.4502671934315, 207031.818869710958097 ], [ 452474.186242911207955, 207041.094778584840242 ], [ 452477.922218628926203, 207050.370687458722387 ], [ 452478.471924718120135, 207059.969805892644217 ], [ 452476.67474717652658, 207069.806988054420799 ], [ 452474.877569634991232, 207079.644170216197381 ], [ 452473.080392093397677, 207089.481352377973963 ], [ 452471.283214551804122, 207099.318534539750544 ], [ 452469.486037010268774, 207109.15571670155623 ], [ 452467.688859468675219, 207118.992898863332812 ], [ 452465.891681927081663, 207128.830081025109394 ], [ 452464.094504385546315, 207138.667263186885975 ], [ 452462.29732684395276, 207148.504445348662557 ], [ 452460.500149302359205, 207158.341627510439139 ], [ 452458.702971760823857, 207168.178809672244824 ], [ 452458.396227068675216, 207178.07577057526214 ], [ 452459.399793635762762, 207188.025285847135819 ], [ 452460.403360202850308, 207197.974801119009499 ], [ 452461.406926769996062, 207207.924316390912281 ], [ 452462.410493337083608, 207217.87383166278596 ], [ 452463.414059904171154, 207227.823346934659639 ], [ 452464.4176264712587, 207237.772862206562422 ], [ 452465.421193038346246, 207247.722377478436101 ], [ 452466.424759605492, 207257.67189275030978 ], [ 452467.428326172579546, 207267.621408022183459 ], [ 452468.431892739667092, 207277.570923294086242 ], [ 452468.949373429641128, 207287.552616500877775 ], [ 452469.266093672951683, 207297.547599656798411 ], [ 452469.582813916262239, 207307.542582812748151 ], [ 452469.899534159514587, 207317.537565968668787 ], [ 452470.216254402825143, 207327.532549124618527 ], [ 452470.532974646135699, 207337.527532280568266 ], [ 452470.849694889446255, 207347.522515436488902 ], [ 452471.166415132698603, 207357.517498592438642 ], [ 452471.483135376009159, 207367.512481748359278 ], [ 452471.799855619319715, 207377.507464904309018 ], [ 452472.116575862572063, 207387.502448060258757 ], [ 452473.665632691641804, 207397.058199882652843 ], [ 452479.742073712113779, 207405.000294349825708 ], [ 452485.818514732527547, 207412.942388816969469 ], [ 452491.894955752941314, 207420.884483284142334 ], [ 452497.971396773355082, 207428.826577751286095 ], [ 452504.047837793827057, 207436.768672218429856 ], [ 452510.124278814240824, 207444.710766685602721 ], [ 452516.200719834654592, 207452.652861152746482 ], [ 452522.27716085506836, 207460.594955619919347 ], [ 452528.353601875540335, 207468.537050087063108 ], [ 452534.430042895954102, 207476.479144554235972 ], [ 452540.50648391636787, 207484.421239021379733 ], [ 452547.556463916611392, 207491.502325168490643 ], [ 452554.696356780070346, 207498.503891414584359 ], [ 452561.8362496435293, 207505.505457660678076 ], [ 452568.976142506988253, 207512.507023906771792 ], [ 452576.116035370447207, 207519.508590152865509 ], [ 452583.255928233906161, 207526.510156398930121 ], [ 452590.395821097365115, 207533.511722645023838 ], [ 452597.535713960824069, 207540.513288891117554 ], [ 452604.675606824283022, 207547.514855137211271 ], [ 452611.905672346008942, 207554.387167485401733 ], [ 452620.941812136385124, 207558.67064477482927 ], [ 452629.977951926761307, 207562.954122064227704 ], [ 452639.014091717079282, 207567.237599353655241 ], [ 452648.050231507455464, 207571.521076643082779 ], [ 452657.086371297831647, 207575.804553932510316 ], [ 452666.12251108820783, 207580.08803122190875 ], [ 452675.158650878584012, 207584.371508511336287 ], [ 452684.194790668901987, 207588.654985800763825 ], [ 452693.23093045927817, 207592.938463090191362 ], [ 452702.267070249654353, 207597.2219403796189 ], [ 452711.303210040030535, 207601.505417669017334 ], [ 452720.339349830406718, 207605.788894958444871 ], [ 452729.375489620724693, 207610.072372247872408 ], [ 452738.411629411100876, 207614.355849537299946 ], [ 452747.447769201477058, 207618.639326826727483 ], [ 452756.483908991853241, 207622.922804116125917 ], [ 452765.520048782229424, 207627.206281405553455 ], [ 452774.556188572547399, 207631.489758694980992 ], [ 452783.592328362923581, 207635.773235984408529 ], [ 452792.628468153299764, 207640.056713273836067 ], [ 452801.664607943675946, 207644.340190563234501 ], [ 452810.700747734052129, 207648.623667852662038 ], [ 452819.736887524370104, 207652.907145142089576 ], [ 452828.773027314746287, 207657.190622431517113 ], [ 452837.809167105122469, 207661.474099720915547 ], [ 452846.845306895498652, 207665.757577010343084 ], [ 452855.881446685874835, 207670.041054299770622 ], [ 452864.91758647619281, 207674.324531589198159 ], [ 452873.953726266568992, 207678.608008878625697 ], [ 452882.989866056945175, 207682.89148616802413 ], [ 452892.026005847321358, 207687.174963457451668 ], [ 452901.06214563769754, 207691.458440746879205 ], [ 452910.098285428015515, 207695.741918036306743 ], [ 452919.134425218391698, 207700.02539532573428 ], [ 452928.17056500876788, 207704.308872615132714 ], [ 452932.526606270635966, 207712.948600841395091 ], [ 452936.152245053497609, 207722.268190071394201 ], [ 452939.777883836417459, 207731.587779301393311 ], [ 452943.403522619279101, 207740.907368531421525 ], [ 452947.029161402140744, 207750.226957761420636 ], [ 452950.654800185060594, 207759.546546991419746 ], [ 452954.280438967922237, 207768.866136221418856 ], [ 452957.906077750783879, 207778.18572545144707 ], [ 452961.53171653370373, 207787.50531468144618 ], [ 452965.157355316565372, 207796.82490391144529 ], [ 452968.782994099427015, 207806.1444931414444 ], [ 452972.408632882346865, 207815.464082371472614 ], [ 452976.034271665208507, 207824.783671601471724 ], [ 452979.65991044807015, 207834.103260831470834 ], [ 452983.28554923099, 207843.422850061469944 ], [ 452986.911188013851643, 207852.742439291498158 ], [ 452990.536826796771493, 207862.062028521497268 ], [ 452991.064080237585586, 207872.002913916687248 ], [ 452991.311839429079555, 207881.999844214704353 ], [ 452991.559598620515317, 207891.996774512692355 ], [ 452991.807357812009286, 207901.993704810680356 ], [ 452992.055117003503256, 207911.990635108697461 ], [ 452992.302876194939017, 207921.987565406685462 ], [ 452992.550635386432987, 207931.984495704702567 ], [ 452992.798394577926956, 207941.981426002690569 ], [ 452993.046153769362718, 207951.97835630067857 ], [ 452993.293912960856687, 207961.975286598695675 ], [ 452993.541672152350657, 207971.972216896683676 ], [ 452993.789431343844626, 207981.969147194671677 ], [ 452994.037190535280388, 207991.966077492688783 ], [ 452994.284949726774357, 208001.963007790676784 ], [ 452993.888962695898954, 208011.866665022796951 ], [ 452990.814026777050458, 208021.382166538474848 ], [ 452987.739090858201962, 208030.897668054152746 ], [ 452984.664154939353466, 208040.413169569859747 ], [ 452981.589219020563178, 208049.928671085537644 ], [ 452978.514283101714682, 208059.444172601215541 ], [ 452975.439347182866186, 208068.959674116922542 ], [ 452972.36441126401769, 208078.47517563260044 ], [ 452969.289475345169194, 208087.990677148278337 ], [ 452966.214539426378906, 208097.506178663985338 ], [ 452963.13960350753041, 208107.021680179663235 ], [ 452957.226685729634482, 208114.649701527261641 ], [ 452949.640133714303374, 208121.164625050878385 ], [ 452942.053581698972266, 208127.679548574495129 ], [ 452934.467029683641158, 208134.194472098111873 ], [ 452926.880477668251842, 208140.709395621728618 ], [ 452919.293925652920734, 208147.224319145345362 ], [ 452911.707373637589626, 208153.739242668962106 ], [ 452904.120821622258518, 208160.25416619257885 ], [ 452896.53426960692741, 208166.769089716195595 ], [ 452888.947717591596302, 208173.284013239812339 ], [ 452881.926184595911764, 208180.214997466129716 ], [ 452877.956702031369787, 208189.393407359457342 ], [ 452873.98721946682781, 208198.571817252784967 ], [ 452870.017736902285833, 208207.750227146112593 ], [ 452866.048254337743856, 208216.928637039440218 ], [ 452862.078771773260087, 208226.107046932767844 ], [ 452858.10928920871811, 208235.285456826095469 ], [ 452854.139806644176133, 208244.463866719423095 ], [ 452850.170324079634156, 208253.64227661275072 ], [ 452846.323390192352235, 208262.859034198045265 ], [ 452844.35295094869798, 208272.662980810855515 ], [ 452842.382511704985518, 208282.46692742369487 ], [ 452840.412072461331263, 208292.27087403650512 ], [ 452838.441633217618801, 208302.07482064931537 ], [ 452836.471193973964546, 208311.878767262125621 ], [ 452834.500754730252083, 208321.682713874964975 ], [ 452832.530315486597829, 208331.486660487775225 ], [ 452830.559876242885366, 208341.290607100585476 ], [ 452828.589436999231111, 208351.094553713395726 ], [ 452830.009812883508857, 208360.932950392889325 ], [ 452831.78065330645768, 208370.774907728511607 ], [ 452833.55149372946471, 208380.616865064162994 ], [ 452835.322334152413532, 208390.458822399785277 ], [ 452837.093174575362355, 208400.300779735407559 ], [ 452838.864014998369385, 208410.142737071029842 ], [ 452840.634855421318207, 208419.984694406681228 ], [ 452842.405695844267029, 208429.826651742303511 ], [ 452844.176536267274059, 208439.668609077925794 ], [ 452845.947376690222882, 208449.51056641357718 ], [ 452845.860649693000596, 208459.433424337592442 ], [ 452844.952163191977888, 208469.392071448382922 ], [ 452844.043676691013388, 208479.350718559202505 ], [ 452843.135190190048888, 208489.309365669992985 ], [ 452842.226703689084388, 208499.268012780812569 ], [ 452841.318217188061681, 208509.226659891603049 ], [ 452840.409730687097181, 208519.185307002422633 ], [ 452839.501244186132681, 208529.143954113213113 ], [ 452843.145456234633457, 208538.084452289826004 ], [ 452848.209469949186314, 208546.707431189191993 ], [ 452853.273483663739171, 208555.330410088557983 ], [ 452858.337497378292028, 208563.953388987894868 ], [ 452863.401511092903093, 208572.576367887260858 ], [ 452871.769192790205125, 208577.262312371953158 ], [ 452881.140417971473653, 208580.7523179021955 ], [ 452890.511643152800389, 208584.242323432437843 ], [ 452899.882868334127124, 208587.732328962680185 ], [ 452909.25409351545386, 208591.222334492922528 ], [ 452918.625318696780596, 208594.71234002316487 ], [ 452927.337175918743014, 208599.47907864121953 ], [ 452935.607792562048417, 208605.10019066100358 ], [ 452943.878409205353819, 208610.72130268078763 ], [ 452952.149025848717429, 208616.342414700600784 ], [ 452960.419642492022831, 208621.963526720384834 ], [ 452968.690259135386441, 208627.584638740168884 ], [ 452976.960875778691843, 208633.205750759952934 ], [ 452985.231492422055453, 208638.826862779736985 ], [ 452993.247934491722845, 208644.771635726589011 ], [ 453000.66956880223006, 208651.473825231572846 ], [ 453008.091203112737276, 208658.176014736585785 ], [ 453015.512837423244491, 208664.878204241598723 ], [ 453022.934471733751707, 208671.580393746611662 ], [ 453030.356106044258922, 208678.282583251624601 ], [ 453037.777740354766138, 208684.98477275663754 ], [ 453045.199374665273353, 208691.686962261650478 ], [ 453052.621008975780569, 208698.389151766663417 ], [ 453060.042643286287785, 208705.091341271676356 ], [ 453067.464277596795, 208711.793530776689295 ], [ 453074.456278190249577, 208718.924797401967226 ], [ 453081.148840998765081, 208726.355113886063918 ], [ 453087.841403807338793, 208733.785430370160611 ], [ 453094.533966615854297, 208741.215746854257304 ], [ 453101.226529424369801, 208748.646063338324893 ], [ 453107.919092232943512, 208756.076379822421586 ], [ 453114.611655041459017, 208763.506696306518279 ], [ 453121.304217850032728, 208770.937012790614972 ], [ 453127.996780658548232, 208778.367329274711665 ], [ 453134.698246018844657, 208785.78960358913173 ], [ 453141.412454627337866, 208793.200366219331045 ], [ 453148.126663235889282, 208800.61112884953036 ], [ 453154.840871844382491, 208808.021891479729675 ], [ 453161.555080452933908, 208815.43265410992899 ], [ 453168.995601775415707, 208822.047456830710871 ], [ 453176.988499116676394, 208828.056915383029263 ], [ 453184.98139645793708, 208834.06637393537676 ], [ 453192.974293799197767, 208840.075832487695152 ], [ 453200.967191140458453, 208846.085291040042648 ], [ 453208.960088481660932, 208852.094749592390144 ], [ 453216.952985822921619, 208858.104208144708537 ], [ 453224.945883164182305, 208864.113666697056033 ], [ 453232.938780505442992, 208870.123125249403529 ], [ 453240.931677846703678, 208876.132583801721921 ], [ 453248.924575187906157, 208882.142042354069417 ], [ 453256.917472529166844, 208888.15150090638781 ], [ 453264.91036987042753, 208894.160959458735306 ], [ 453272.903267211688217, 208900.170418011082802 ], [ 453280.896164552948903, 208906.179876563401194 ], [ 453288.889061894151382, 208912.18933511574869 ], [ 453296.881959235412069, 208918.198793668067083 ], [ 453304.874856576672755, 208924.208252220414579 ], [ 453312.867753917933442, 208930.217710772762075 ], [ 453320.860651259194128, 208936.227169325080467 ], [ 453328.853548600396607, 208942.236627877427964 ], [ 453336.846445941657294, 208948.24608642977546 ], [ 453344.83934328291798, 208954.255544982093852 ], [ 453352.832240624178667, 208960.265003534441348 ], [ 453360.825137965439353, 208966.27446208675974 ], [ 453370.401373597676866, 208968.983649103000062 ], [ 453380.090582289500162, 208971.457357842067722 ], [ 453389.779790981381666, 208973.931066581135383 ], [ 453399.46899967326317, 208976.404775320203044 ], [ 453409.158208365086466, 208978.8784840592416 ], [ 453418.84741705696797, 208981.352192798309261 ], [ 453428.536625748791266, 208983.825901537376922 ], [ 453438.22583444067277, 208986.299610276444582 ], [ 453447.915043132496066, 208988.773319015512243 ], [ 453457.60425182437757, 208991.2470277545508 ], [ 453467.293460516200867, 208993.72073649361846 ], [ 453476.98266920808237, 208996.194445232686121 ], [ 453486.671877899905667, 208998.668153971753782 ], [ 453496.613870577304624, 208999.578429755143588 ], [ 453506.588937893160619, 209000.284143609344028 ], [ 453516.564005209074821, 209000.989857463573571 ], [ 453526.539072524930816, 209001.695571317774011 ], [ 453536.514139840786811, 209002.401285172003554 ], [ 453546.489207156642806, 209003.106999026203994 ], [ 453556.464274472498801, 209003.812712880404433 ], [ 453566.439341788354795, 209004.518426734633977 ], [ 453576.41440910421079, 209005.224140588834416 ], [ 453586.389476420066785, 209005.929854443063959 ], [ 453596.004759575356729, 209003.766684783389792 ], [ 453605.496655338734854, 209000.619636195042403 ], [ 453614.988551102054771, 208997.472587606665911 ], [ 453624.480446865432896, 208994.325539018318523 ], [ 453633.97234262881102, 208991.17849042994203 ], [ 453643.464238392130937, 208988.031441841594642 ], [ 453652.956134155509062, 208984.884393253247254 ], [ 453662.448029918887187, 208981.737344664870761 ], [ 453671.939925682265311, 208978.590296076523373 ], [ 453681.199490251252428, 208974.848390230850782 ], [ 453690.311734881717712, 208970.729288654722041 ], [ 453699.423979512182996, 208966.610187078622403 ], [ 453708.53622414264828, 208962.491085502522765 ], [ 453717.648468773113564, 208958.371983926394023 ], [ 453726.760713403637055, 208954.252882350294385 ], [ 453735.872958034102339, 208950.133780774165643 ], [ 453744.985202664567623, 208946.014679198066005 ], [ 453754.097447295032907, 208941.895577621937264 ], [ 453763.319949555792846, 208938.030849089758703 ], [ 453772.555828957061749, 208934.196982675086474 ], [ 453781.791708358330652, 208930.363116260414245 ], [ 453791.027587759599555, 208926.529249845771119 ], [ 453800.263467160810251, 208922.69538343109889 ], [ 453809.499346562079154, 208918.86151701642666 ], [ 453818.735225963348057, 208915.027650601754431 ], [ 453827.971105364558753, 208911.193784187082201 ], [ 453837.206984765827656, 208907.359917772439076 ], [ 453846.442864167096559, 208903.526051357766846 ], [ 453855.678743568365462, 208899.692184943094617 ], [ 453864.914622969576158, 208895.858318528422387 ], [ 453874.150502370845061, 208892.024452113750158 ], [ 453883.386381772113964, 208888.190585699077928 ], [ 453892.622261173382867, 208884.356719284434803 ], [ 453901.858140574593563, 208880.522852869762573 ], [ 453911.094019975862466, 208876.688986455090344 ], [ 453920.329899377131369, 208872.855120040418115 ], [ 453929.565778778342064, 208869.021253625745885 ], [ 453938.801658179610968, 208865.187387211102759 ], [ 453948.037537580879871, 208861.35352079643053 ], [ 453957.273416982148774, 208857.519654381758301 ], [ 453966.278460411936976, 208853.217419468186563 ], [ 453974.944881252478808, 208848.228115928126499 ], [ 453983.611302092962433, 208843.238812388037331 ], [ 453992.277722933504265, 208838.249508847977268 ], [ 454000.944143774046097, 208833.2602053078881 ], [ 454009.610564614529721, 208828.270901767828036 ], [ 454018.276985455071554, 208823.281598227738868 ], [ 454026.943406295555178, 208818.292294687649701 ], [ 454035.60982713609701, 208813.302991147589637 ], [ 454044.276247976638842, 208808.313687607500469 ], [ 454052.942668817122467, 208803.324384067440405 ], [ 454061.609089657664299, 208798.335080527351238 ], [ 454070.275510498206131, 208793.345776987291174 ], [ 454078.941931338689756, 208788.356473447202006 ], [ 454087.608352179231588, 208783.367169907141943 ], [ 454096.274773019715212, 208778.377866367052775 ], [ 454105.618803998280782, 208775.27009178022854 ], [ 454115.476352942700032, 208773.588209261011798 ], [ 454125.333901887119282, 208771.906326741765952 ], [ 454135.191450831538532, 208770.224444222520106 ], [ 454145.048999775957782, 208768.542561703274259 ], [ 454154.906548720377032, 208766.860679184057517 ], [ 454164.764097664796282, 208765.178796664811671 ], [ 454174.621646609215531, 208763.496914145565825 ], [ 454184.479195553576574, 208761.815031626319978 ], [ 454194.336744497995824, 208760.133149107103236 ], [ 454204.194293442415074, 208758.45126658785739 ], [ 454214.051842386834323, 208756.769384068611544 ], [ 454223.909391331253573, 208755.087501549394801 ], [ 454233.831278216501232, 208755.44277549997787 ], [ 454243.775311522767879, 208756.499279926589224 ], [ 454253.719344829092734, 208757.555784353229683 ], [ 454263.66337813535938, 208758.612288779841037 ], [ 454273.607411441626027, 208759.668793206481496 ], [ 454283.551444747950882, 208760.72529763309285 ], [ 454293.495478054217529, 208761.781802059733309 ], [ 454303.439511360484175, 208762.838306486344663 ], [ 454313.38354466680903, 208763.894810912985122 ], [ 454323.327577973075677, 208764.951315339596476 ], [ 454333.150104888365604, 208766.719999923981959 ], [ 454342.881910189345945, 208769.020427185168955 ], [ 454352.613715490326285, 208771.320854446326848 ], [ 454362.345520791306626, 208773.621281707484741 ], [ 454372.077326092286967, 208775.921708968671737 ], [ 454381.8091313932091, 208778.22213622982963 ], [ 454391.54093669418944, 208780.522563490987523 ], [ 454401.272741995169781, 208782.822990752174519 ], [ 454410.569012836727779, 208786.433217209938448 ], [ 454419.740559022582602, 208790.418532826151932 ], [ 454428.912105208437424, 208794.403848442365415 ], [ 454438.083651394292247, 208798.389164058578899 ], [ 454447.255197580147069, 208802.374479674792383 ], [ 454456.426743766001891, 208806.359795291005867 ], [ 454464.103550463623833, 208812.243450577458134 ], [ 454470.129101172089577, 208820.224223638972035 ], [ 454476.154651880555321, 208828.204996700515039 ], [ 454482.180202589021064, 208836.18576976202894 ], [ 454488.205753297486808, 208844.166542823571945 ], [ 454494.052505282917991, 208852.248454936023336 ], [ 454497.78837155707879, 208861.524407888791757 ], [ 454501.524237831181381, 208870.800360841560178 ], [ 454505.26010410534218, 208880.076313794299494 ], [ 454508.995970379502978, 208889.352266747067915 ], [ 454512.731836653605569, 208898.628219699836336 ], [ 454516.467702927766368, 208907.904172652575653 ], [ 454520.203569201868959, 208917.180125605344074 ], [ 454522.415116682590451, 208926.691029660578351 ], [ 454521.645784076827113, 208936.661392108449945 ], [ 454520.876451471063774, 208946.631754556292435 ], [ 454520.107118865300436, 208956.602117004164029 ], [ 454519.337786259537097, 208966.572479452035623 ], [ 454517.778836803219747, 208976.433435973332962 ], [ 454515.808327838487457, 208986.237368573056301 ], [ 454513.837818873813376, 208996.04130117277964 ], [ 454511.867309909081087, 209005.845233772502979 ], [ 454509.896800944348797, 209015.649166372226318 ], [ 454507.926291979616508, 209025.453098971949657 ], [ 454505.955783014884219, 209035.257031571672997 ], [ 454503.985274050210137, 209045.060964171396336 ], [ 454502.014765085477848, 209054.864896771119675 ], [ 454498.602620962832589, 209064.139678547566291 ], [ 454493.76266746444162, 209072.890384241036372 ], [ 454488.922713966108859, 209081.641089934506454 ], [ 454484.082760467776097, 209090.391795628005639 ], [ 454479.242806969443336, 209099.14250132147572 ], [ 454474.402853471052367, 209107.893207014945801 ], [ 454469.562899972719606, 209116.643912708415883 ], [ 454464.722946474386845, 209125.394618401885964 ], [ 454460.161827307660133, 209134.280999691603938 ], [ 454456.263078717223834, 209143.489678175974404 ], [ 454452.364330126729328, 209152.698356660344871 ], [ 454448.46558153629303, 209161.907035144686233 ], [ 454444.566832945856731, 209171.1157136290567 ], [ 454440.668084355362225, 209180.324392113427166 ], [ 454436.769335764925927, 209189.533070597797632 ], [ 454432.870587174431421, 209198.741749082168099 ], [ 454430.855073841579724, 209208.511718870635377 ], [ 454429.07627846498508, 209218.352241570595652 ], [ 454427.297483088390436, 209228.192764270526823 ], [ 454425.518687711737584, 209238.033286970487097 ], [ 454423.73989233514294, 209247.873809670418268 ], [ 454421.961096958548296, 209257.714332370378543 ], [ 454420.182301581953652, 209267.554855070309713 ], [ 454418.403506205359008, 209277.395377770269988 ], [ 454416.624710828764364, 209287.235900470230263 ], [ 454414.84591545216972, 209297.076423170161434 ], [ 454413.067120075516868, 209306.916945870121708 ], [ 454411.288324698922224, 209316.757468570052879 ], [ 454409.50952932232758, 209326.597991270013154 ], [ 454407.730733945732936, 209336.438513969944324 ], [ 454405.951938569138292, 209346.279036669904599 ], [ 454404.173143192543648, 209356.11955936983577 ], [ 454402.394347815949004, 209365.960082069796044 ], [ 454401.773089480411727, 209375.904245319688926 ], [ 454401.775455609429628, 209385.904245039768284 ], [ 454401.777821738389321, 209395.904244759847643 ], [ 454401.780187867349014, 209405.904244479927002 ], [ 454401.782553996308707, 209415.904244199977256 ], [ 454401.784920125326607, 209425.904243920056615 ], [ 454401.7872862542863, 209435.904243640135974 ], [ 454401.789652383245993, 209445.904243360186229 ], [ 454401.792018512263894, 209455.904243080265587 ], [ 454401.794384641223587, 209465.904242800344946 ], [ 454401.79675077018328, 209475.904242520424305 ], [ 454401.799116899142973, 209485.904242240474559 ], [ 454401.801483028160874, 209495.904241960553918 ], [ 454401.803849157120567, 209505.904241680633277 ], [ 454401.80621528608026, 209515.904241400712635 ], [ 454403.737456513161305, 209525.70172690981417 ], [ 454405.812064584752079, 209535.484160213934956 ], [ 454407.886672656284645, 209545.266593518026639 ], [ 454409.961280727875419, 209555.049026822147425 ], [ 454412.035888799466193, 209564.831460126268212 ], [ 454414.110496870998759, 209574.613893430359894 ], [ 454416.185104942589533, 209584.396326734480681 ], [ 454418.259713014180306, 209594.178760038601467 ], [ 454420.334321085712872, 209603.96119334269315 ], [ 454422.408929157303646, 209613.743626646813937 ], [ 454424.483537228836212, 209623.526059950934723 ], [ 454426.558145300426986, 209633.308493255026406 ], [ 454428.63275337201776, 209643.090926559147192 ], [ 454430.707361443550326, 209652.873359863267979 ], [ 454432.7819695151411, 209662.655793167359661 ], [ 454434.856577586731873, 209672.438226471480448 ], [ 454436.93118565826444, 209682.220659775601234 ], [ 454439.005793729855213, 209692.003093079692917 ], [ 454441.080401801387779, 209701.785526383813703 ], [ 454443.155009872978553, 209711.56795968793449 ], [ 454445.230601310264319, 209721.350180660287151 ], [ 454447.377153014065698, 209731.117079645278864 ], [ 454449.523704717808869, 209740.883978630270576 ], [ 454451.670256421610247, 209750.650877615262289 ], [ 454453.816808125353418, 209760.417776600254001 ], [ 454455.963359829154797, 209770.184675585245714 ], [ 454458.109911532897968, 209779.951574570237426 ], [ 454460.256463236699346, 209789.718473555229139 ], [ 454462.403014940442517, 209799.485372540220851 ], [ 454464.549566644243896, 209809.252271525212564 ], [ 454466.696118347987067, 209819.019170510204276 ], [ 454468.842670051788446, 209828.786069495195989 ], [ 454470.989221755531617, 209838.552968480187701 ], [ 454473.135773459332995, 209848.319867465179414 ], [ 454475.282325163076166, 209858.086766450171126 ], [ 454477.428876866877545, 209867.853665435162839 ], [ 454479.575428570620716, 209877.620564420154551 ], [ 454481.721980274422094, 209887.387463405146264 ], [ 454483.868531978165265, 209897.154362390137976 ], [ 454486.015083681966644, 209906.921261375129689 ], [ 454488.161635385709815, 209916.688160360121401 ], [ 454489.993480180506594, 209926.517623562103836 ], [ 454491.745856155350339, 209936.3628852875554 ], [ 454493.498232130252291, 209946.208147013006965 ], [ 454495.250608105154242, 209956.053408738458529 ], [ 454497.002984080056194, 209965.898670463910094 ], [ 454498.755360054958146, 209975.743932189361658 ], [ 454500.50773602980189, 209985.589193914813222 ], [ 454502.260112004703842, 209995.434455640264787 ], [ 454504.012487979605794, 210005.279717365716351 ], [ 454505.764863954507746, 210015.124979091167916 ], [ 454507.51723992935149, 210024.97024081661948 ], [ 454509.269615904253442, 210034.815502542071044 ], [ 454511.021991879155394, 210044.660764267493505 ], [ 454512.774367854057346, 210054.506025992945069 ], [ 454514.526743828959297, 210064.351287718396634 ], [ 454516.279119803803042, 210074.196549443848198 ], [ 454518.031495778704993, 210084.041811169299763 ], [ 454519.783871753606945, 210093.887072894751327 ], [ 454521.536247728508897, 210103.732334620202892 ], [ 454523.288623703410849, 210113.577596345654456 ], [ 454525.040999678254593, 210123.42285807110602 ], [ 454526.793375653156545, 210133.268119796557585 ], [ 454528.545751628058497, 210143.113381522009149 ], [ 454530.298127602960449, 210152.958643247460714 ], [ 454532.050503577862401, 210162.803904972912278 ], [ 454533.802879552706145, 210172.649166698363842 ], [ 454535.555255527608097, 210182.494428423815407 ], [ 454537.307631502510048, 210192.339690149266971 ], [ 454539.060007477412, 210202.184951874718536 ], [ 454540.375262024172116, 210212.097003099537687 ], [ 454541.642797520500608, 210222.016345505428035 ], [ 454542.9103330168291, 210231.935687911347486 ], [ 454544.177868513157591, 210241.855030317237834 ], [ 454545.445404009544291, 210251.774372723157285 ], [ 454546.712939505872782, 210261.693715129047632 ], [ 454547.980475002201274, 210271.61305753493798 ], [ 454549.248010498529766, 210281.532399940857431 ], [ 454550.515545994858257, 210291.451742346747778 ], [ 454551.783081491186749, 210301.37108475266723 ], [ 454553.050616987515241, 210311.290427158557577 ], [ 454554.318152483843733, 210321.209769564477028 ], [ 454555.585687980172224, 210331.129111970367376 ], [ 454556.853223476500716, 210341.048454376257723 ], [ 454558.120758972829208, 210350.967796782177174 ], [ 454559.388294469215907, 210360.887139188067522 ], [ 454560.655829965544399, 210370.806481593986973 ], [ 454561.923365461872891, 210380.725823999877321 ], [ 454563.190900958201382, 210390.645166405767668 ], [ 454564.458436454529874, 210400.564508811687119 ], [ 454565.725971950858366, 210410.483851217577467 ], [ 454566.993507447186857, 210420.403193623496918 ], [ 454568.261042943515349, 210430.322536029387265 ], [ 454569.528578439843841, 210440.241878435277613 ], [ 454570.796113936172333, 210450.161220841197064 ], [ 454571.747043833718635, 210460.09642976851319 ], [ 454571.477573618059978, 210470.092798399331514 ], [ 454571.208103402401321, 210480.089167030120734 ], [ 454570.938633186742663, 210490.085535660909954 ], [ 454570.669162971084006, 210500.081904291728279 ], [ 454570.399692755367141, 210510.078272922517499 ], [ 454570.130222539708484, 210520.074641553335823 ], [ 454569.860752324049827, 210530.071010184125043 ], [ 454569.591282108391169, 210540.067378814943368 ], [ 454569.321811892732512, 210550.063747445732588 ], [ 454569.052341677015647, 210560.060116076521808 ], [ 454568.78287146135699, 210570.056484707340132 ], [ 454568.513401245698333, 210580.052853338129353 ], [ 454568.243931030039676, 210590.049221968947677 ], [ 454566.630406254495028, 210599.909930885361973 ], [ 454564.896860997308977, 210609.758525751705747 ], [ 454563.163315740181133, 210619.607120618049521 ], [ 454561.429770483053289, 210629.455715484422399 ], [ 454559.696225225925446, 210639.304310350766173 ], [ 454557.962679968797602, 210649.152905217109947 ], [ 454556.229134711669758, 210659.00150008345372 ], [ 454554.495589454541914, 210668.850094949797494 ], [ 454552.762044197355863, 210678.698689816141268 ], [ 454551.028498940228019, 210688.547284682485042 ], [ 454549.294953683100175, 210698.39587954885792 ], [ 454547.561408425972331, 210708.244474415201694 ], [ 454545.827863168844488, 210718.093069281545468 ], [ 454544.094317911716644, 210727.941664147889242 ], [ 454542.3607726545888, 210737.790259014233015 ], [ 454540.627227397460956, 210747.638853880576789 ], [ 454538.893682140274905, 210757.487448746949667 ], [ 454537.160136883147061, 210767.336043613293441 ], [ 454535.426591626019217, 210777.184638479637215 ], [ 454533.693046368891373, 210787.033233345980989 ], [ 454531.959501111763529, 210796.881828212324763 ], [ 454530.225955854635686, 210806.730423078668537 ], [ 454528.492410597507842, 210816.579017945041414 ], [ 454526.758865340379998, 210826.427612811385188 ], [ 454525.025320083193947, 210836.276207677728962 ], [ 454521.26550942834001, 210845.529087507602526 ], [ 454517.393025796336588, 210854.748841870925389 ], [ 454513.520542164333165, 210863.968596234248253 ], [ 454509.648058532329742, 210873.188350597571116 ], [ 454505.775574900384527, 210882.408104960893979 ], [ 454501.903091268381104, 210891.627859324216843 ], [ 454498.030607636377681, 210900.847613687539706 ], [ 454494.158124004432466, 210910.067368050862569 ], [ 454490.285640372429043, 210919.287122414185433 ], [ 454486.41315674042562, 210928.506876777508296 ], [ 454482.540673108480405, 210937.726631140831159 ], [ 454478.668189476476982, 210946.946385504154023 ], [ 454474.795705844473559, 210956.166139867476886 ], [ 454470.923222212528344, 210965.385894230799749 ], [ 454467.050738580524921, 210974.605648594122613 ], [ 454463.178254948521499, 210983.825402957445476 ], [ 454459.305771316518076, 210993.04515732076834 ], [ 454455.433287684572861, 211002.264911684091203 ], [ 454451.560804052569438, 211011.484666047414066 ], [ 454447.688320420566015, 211020.70442041073693 ], [ 454443.8158367886208, 211029.924174774059793 ], [ 454439.943353156617377, 211039.143929137382656 ], [ 454436.070869524613954, 211048.36368350070552 ], [ 454432.198385892668739, 211057.583437864028383 ], [ 454428.325902260665316, 211066.803192227351246 ], [ 454424.453418628661893, 211076.02294659067411 ], [ 454420.580934996716678, 211085.242700953996973 ], [ 454416.708451364713255, 211094.462455317319836 ], [ 454412.835967732709832, 211103.682209680613596 ], [ 454408.963484100764617, 211112.901964043936459 ], [ 454405.514279329159763, 211122.242110985913314 ], [ 454403.954910791770089, 211132.119781245884951 ], [ 454402.395542254380416, 211141.997451505856588 ], [ 454400.836173716990743, 211151.875121765828226 ], [ 454399.27680517960107, 211161.752792025799863 ], [ 454397.717436642211396, 211171.630462285742396 ], [ 454396.158068104821723, 211181.508132545714034 ], [ 454394.59869956743205, 211191.385802805685671 ], [ 454393.039331030042376, 211201.263473065657308 ], [ 454391.479962492652703, 211211.141143325628946 ], [ 454389.92059395526303, 211221.018813585571479 ], [ 454388.361225417873356, 211230.896483845543116 ], [ 454386.801856880541891, 211240.774154105514754 ], [ 454385.242488343152218, 211250.651824365486391 ], [ 454383.683119805762544, 211260.529494625458028 ], [ 454382.123751268372871, 211270.407164885400562 ], [ 454380.564382730983198, 211280.284835145372199 ], [ 454379.005014193593524, 211290.162505405343836 ], [ 454377.445645656203851, 211300.040175665315473 ], [ 454375.886277118814178, 211309.917845925287111 ], [ 454374.326908581424505, 211319.795516185229644 ], [ 454372.767540044034831, 211329.673186445201281 ], [ 454371.208171506645158, 211339.550856705172919 ], [ 454369.648802969255485, 211349.428526965144556 ], [ 454368.089434431865811, 211359.306197225116193 ], [ 454366.530065894476138, 211369.183867485058727 ], [ 454367.500610374787357, 211379.023423480684869 ], [ 454369.356826672737952, 211388.849636436614674 ], [ 454371.21304297063034, 211398.675849392544478 ], [ 454373.069259268580936, 211408.502062348474283 ], [ 454374.925475566473324, 211418.328275304433191 ], [ 454376.781691864365712, 211428.154488260362996 ], [ 454378.637908162316307, 211437.9807012162928 ], [ 454380.494124460208695, 211447.806914172222605 ], [ 454382.350340758159291, 211457.63312712815241 ], [ 454384.206557056051679, 211467.459340084082214 ], [ 454386.062773353944067, 211477.285553040012019 ], [ 454387.918989651894663, 211487.111765995941823 ], [ 454389.77520594978705, 211496.937978951900732 ], [ 454391.631422247737646, 211506.764191907830536 ], [ 454393.487638545630034, 211516.590404863760341 ], [ 454395.343854843522422, 211526.416617819690146 ], [ 454397.200071141473018, 211536.24283077561995 ], [ 454399.705358588660602, 211545.827125392213929 ], [ 454404.733287402545102, 211554.47119456375367 ], [ 454409.761216216429602, 211563.115263735293411 ], [ 454414.78914503037231, 211571.759332906833151 ], [ 454419.817073844256811, 211580.403402078372892 ], [ 454424.845002658141311, 211589.047471249912633 ], [ 454429.872931472025812, 211597.691540421452373 ], [ 454434.900860285910312, 211606.335609593021218 ], [ 454439.928789099794813, 211614.979678764560958 ], [ 454444.956717913679313, 211623.623747936100699 ], [ 454449.984646727563813, 211632.26781710764044 ], [ 454455.012575541506521, 211640.91188627918018 ], [ 454460.040504355391022, 211649.555955450719921 ], [ 454465.068433169275522, 211658.200024622259662 ], [ 454470.096361983160023, 211666.844093793799402 ], [ 454475.124290797044523, 211675.488162965368247 ], [ 454480.152219610929023, 211684.132232136907987 ], [ 454485.180148424813524, 211692.776301308447728 ], [ 454490.208077238756232, 211701.420370479987469 ], [ 454496.583752556412946, 211708.935342999844579 ], [ 454504.213295125577133, 211715.399867745378288 ], [ 454511.842837694683112, 211721.864392490911996 ], [ 454519.472380263847299, 211728.328917236445704 ], [ 454527.101922833011486, 211734.793441981979413 ], [ 454534.731465402117465, 211741.257966727513121 ], [ 454542.361007971281651, 211747.72249147304683 ], [ 454549.990550540445838, 211754.187016218580538 ], [ 454557.620093109551817, 211760.651540964114247 ], [ 454565.249635678716004, 211767.116065709647955 ], [ 454572.879178247880191, 211773.580590455181664 ], [ 454580.50872081698617, 211780.045115200715372 ], [ 454588.138263386150356, 211786.509639946249081 ], [ 454595.767805955256335, 211792.974164691782789 ], [ 454603.397348524420522, 211799.438689437316498 ], [ 454611.026891093584709, 211805.903214182850206 ], [ 454619.394417174509726, 211811.096791450399905 ], [ 454628.790802970877849, 211814.51847728723078 ], [ 454638.187188767187763, 211817.940163124090759 ], [ 454647.583574563555885, 211821.361848960921634 ], [ 454656.979960359924007, 211824.783534797752509 ], [ 454666.376346156292129, 211828.205220634583384 ], [ 454675.772731952660251, 211831.626906471443363 ], [ 454685.169117749028374, 211835.048592308274237 ], [ 454694.565503545338288, 211838.470278145105112 ], [ 454703.96188934170641, 211841.891963981935987 ], [ 454713.358275138074532, 211845.313649818795966 ], [ 454722.754660934442654, 211848.735335655626841 ], [ 454732.625110469060019, 211850.156621932255803 ], [ 454742.557720843004063, 211851.315609059092822 ], [ 454752.490331216889899, 211852.474596185900737 ], [ 454762.422941590775736, 211853.633583312737755 ], [ 454772.35555196471978, 211854.792570439574774 ], [ 454782.288162338605616, 211855.951557566411793 ], [ 454792.045668727485463, 211858.049827945884317 ], [ 454801.728690353047568, 211860.547645432961872 ], [ 454811.411711978667881, 211863.045462920010323 ], [ 454821.094733604229987, 211865.543280407087877 ], [ 454830.777755229792092, 211868.041097894136328 ], [ 454840.460776855354197, 211870.538915381213883 ], [ 454850.143798480916303, 211873.036732868262334 ], [ 454859.826820106478408, 211875.534550355339888 ], [ 454869.509841732098721, 211878.032367842388339 ], [ 454879.192863357660826, 211880.530185329465894 ], [ 454888.875884983222932, 211883.028002816514345 ], [ 454898.558906608785037, 211885.5258203035919 ], [ 454908.241928234347142, 211888.02363779064035 ], [ 454917.924949859967455, 211890.521455277717905 ], [ 454927.607971485529561, 211893.019272764766356 ], [ 454937.290993111091666, 211895.517090251843911 ], [ 454946.974014736653771, 211898.014907738892362 ], [ 454956.657036362215877, 211900.512725225969916 ], [ 454966.34005798783619, 211903.010542713018367 ], [ 454975.967686480027623, 211905.710121378011536 ], [ 454985.568685547274072, 211908.506693728326354 ], [ 454995.16968461452052, 211911.303266078641172 ], [ 455004.770683681766968, 211914.099838428955991 ], [ 455014.371682749071624, 211916.896410779299913 ], [ 455023.972681816318072, 211919.692983129614731 ], [ 455033.573680883564521, 211922.48955547992955 ], [ 455043.174679950810969, 211925.286127830273472 ], [ 455052.775679018057417, 211928.08270018058829 ], [ 455062.376678085303865, 211930.879272530903108 ], [ 455071.977677152550314, 211933.675844881217927 ], [ 455081.578676219796762, 211936.472417231561849 ], [ 455091.179675287101418, 211939.268989581876667 ], [ 455100.780674354347866, 211942.065561932191486 ], [ 455110.381673421594314, 211944.862134282535408 ], [ 455119.982672488840763, 211947.658706632850226 ], [ 455129.583671556087211, 211950.455278983165044 ], [ 455139.184670623333659, 211953.251851333479863 ], [ 455148.785669690580107, 211956.048423683823785 ], [ 455158.386668757826556, 211958.844996034138603 ], [ 455167.987667825131211, 211961.641568384453421 ], [ 455177.58866689237766, 211964.43814073476824 ], [ 455187.189665959624108, 211967.234713085112162 ], [ 455196.790665026870556, 211970.03128543542698 ], [ 455206.391664094117004, 211972.827857785741799 ], [ 455215.992663161363453, 211975.624430136085721 ], [ 455225.593662228609901, 211978.421002486400539 ], [ 455235.194661295856349, 211981.217574836715357 ], [ 455244.551309799135197, 211984.66412763754488 ], [ 455253.61687390570296, 211988.884974404441891 ], [ 455262.68243801232893, 211993.105821171309799 ], [ 455271.748002118896693, 211997.326667938177707 ], [ 455280.813566225464456, 212001.547514705045614 ], [ 455289.879130332032219, 212005.768361471942626 ], [ 455298.944694438658189, 212009.989208238810534 ], [ 455308.010258545225952, 212014.210055005678441 ], [ 455317.075822651793715, 212018.430901772546349 ], [ 455326.141386758361477, 212022.651748539443361 ], [ 455335.206950864987448, 212026.872595306311268 ], [ 455344.272514971555211, 212031.093442073179176 ], [ 455353.338079078122973, 212035.314288840047084 ], [ 455362.403643184748944, 212039.535135606944095 ], [ 455371.469207291316707, 212043.755982373812003 ], [ 455380.534771397884469, 212047.976829140679911 ], [ 455389.600335504452232, 212052.197675907547818 ], [ 455398.665899611078203, 212056.41852267444483 ], [ 455407.731463717645966, 212060.639369441312738 ], [ 455416.797027824213728, 212064.860216208180645 ], [ 455425.862591930781491, 212069.081062975048553 ], [ 455434.928156037407462, 212073.301909741945565 ], [ 455443.993720143975224, 212077.522756508813472 ], [ 455453.059284250542987, 212081.74360327568138 ], [ 455462.12484835711075, 212085.964450042549288 ], [ 455471.19041246373672, 212090.185296809446299 ], [ 455480.221583952428773, 212094.479201714158989 ], [ 455489.251055888133124, 212098.776716875465354 ], [ 455498.280527823895682, 212103.074232036800822 ], [ 455507.30999975965824, 212107.371747198107187 ], [ 455516.33947169536259, 212111.669262359442655 ], [ 455525.368943631125148, 212115.966777520749019 ], [ 455534.398415566829499, 212120.264292682055384 ], [ 455543.427887502592057, 212124.561807843390852 ], [ 455552.457359438296407, 212128.859323004697217 ], [ 455561.486831374058966, 212133.156838166032685 ], [ 455570.516303309763316, 212137.454353327339049 ], [ 455579.545775245525874, 212141.751868488645414 ], [ 455588.575247181230225, 212146.049383649980882 ], [ 455597.604719116992783, 212150.346898811287247 ], [ 455606.634191052755341, 212154.644413972593611 ], [ 455615.663662988459691, 212158.941929133929079 ], [ 455624.69313492422225, 212163.239444295235444 ], [ 455633.7226068599266, 212167.536959456570912 ], [ 455642.752078795689158, 212171.834474617877277 ], [ 455651.954719394445419, 212175.739560821413761 ], [ 455661.215439087362029, 212179.513030149420956 ], [ 455670.476158780278638, 212183.286499477399047 ], [ 455679.736878473195247, 212187.059968805377139 ], [ 455688.997598166111857, 212190.83343813335523 ], [ 455698.258317859028466, 212194.606907461333321 ], [ 455707.519037551945075, 212198.380376789340517 ], [ 455716.779757244861685, 212202.153846117318608 ], [ 455726.040476937778294, 212205.927315445296699 ], [ 455735.301196630694903, 212209.70078477327479 ], [ 455744.561916323611513, 212213.474254101281986 ], [ 455753.822636016528122, 212217.247723429260077 ], [ 455763.083355709444731, 212221.021192757238168 ], [ 455772.344075402361341, 212224.79466208521626 ], [ 455781.60479509527795, 212228.568131413194351 ], [ 455791.103646828385536, 212231.611086552205961 ], [ 455800.80912019405514, 212234.020191520568915 ], [ 455810.514593559724744, 212236.429296488931868 ], [ 455820.220066925394349, 212238.838401457265718 ], [ 455829.925540291005746, 212241.247506425628671 ], [ 455839.63101365667535, 212243.656611393962521 ], [ 455849.336487022344954, 212246.065716362325475 ], [ 455859.041960388014559, 212248.474821330688428 ], [ 455868.747433753625955, 212250.883926299022278 ], [ 455878.45290711929556, 212253.293031267385231 ], [ 455888.158380484965164, 212255.702136235719081 ], [ 455897.863853850634769, 212258.111241204082035 ], [ 455907.732222938502673, 212259.528942779899808 ], [ 455917.698291433858685, 212260.352033750532428 ], [ 455927.664359929214697, 212261.175124721165048 ], [ 455937.630428424570709, 212261.998215691797668 ], [ 455947.596496919926722, 212262.821306662430288 ], [ 455957.562565415282734, 212263.644397633062908 ], [ 455967.528633910638746, 212264.467488603695529 ], [ 455977.494702405994758, 212265.290579574299045 ], [ 455987.46077090135077, 212266.113670544931665 ], [ 455994.763925733685028, 212259.643412718025502 ], [ 456001.85506479506148, 212252.592473290365888 ], [ 456008.946203856379725, 212245.541533862706274 ], [ 456016.037342917756177, 212238.49059443504666 ], [ 456023.12848197913263, 212231.439655007357942 ], [ 456030.219621040450875, 212224.388715579698328 ], [ 456037.310760101827327, 212217.337776152038714 ], [ 456044.165673760697246, 212210.074207884637872 ], [ 456050.434230752231088, 212202.282854135526577 ], [ 456056.702787743764929, 212194.491500386415282 ], [ 456062.971344735298771, 212186.700146637303988 ], [ 456069.239901726832613, 212178.908792888192693 ], [ 456075.508458718366455, 212171.117439139081398 ], [ 456081.777015709900297, 212163.326085389970103 ], [ 456087.615316201117821, 212155.235635874036234 ], [ 456092.734575647686142, 212146.645340028248029 ], [ 456097.853835094312672, 212138.05504418243072 ], [ 456102.973094540939201, 212129.464748336642515 ], [ 456108.092353987507522, 212120.874452490825206 ], [ 456113.211613434134051, 212112.284156645037001 ], [ 456118.330872880702373, 212103.693860799219692 ], [ 456123.450132327328902, 212095.103564953431487 ], [ 456128.569391773897223, 212086.513269107643282 ], [ 456133.688651220523752, 212077.922973261825973 ], [ 456138.807910667092074, 212069.332677416037768 ], [ 456143.927170113718603, 212060.742381570220459 ], [ 456149.046429560286924, 212052.152085724432254 ], [ 456154.165689006913453, 212043.561789878614945 ], [ 456159.284948453481775, 212034.97149403282674 ], [ 456164.404207900108304, 212026.381198187009431 ], [ 456169.523467346734833, 212017.790902341221226 ], [ 456174.642726793303154, 212009.200606495403918 ], [ 456179.761986239929684, 212000.610310649615712 ], [ 456184.881245686498005, 211992.020014803798404 ], [ 456190.000505133124534, 211983.429718958010199 ], [ 456195.119764579692855, 211974.83942311219289 ], [ 456200.239024026319385, 211966.249127266404685 ], [ 456205.806681213201955, 211957.946601210336667 ], [ 456211.483731294982135, 211949.714280615968164 ], [ 456217.160781376820523, 211941.481960021599662 ], [ 456222.837831458600704, 211933.249639427202055 ], [ 456228.514881540439092, 211925.017318832833553 ], [ 456234.191931622219272, 211916.78499823846505 ], [ 456239.86898170405766, 211908.552677644096548 ], [ 456245.54603178583784, 211900.320357049698941 ], [ 456251.223081867676228, 211892.088036455330439 ], [ 456256.900131949514616, 211883.855715860961936 ], [ 456262.577182031294797, 211875.623395266593434 ], [ 456268.254232113133185, 211867.391074672195828 ], [ 456273.931282194913365, 211859.158754077827325 ], [ 456279.608332276751753, 211850.926433483458823 ], [ 456285.285382358531933, 211842.694112889061216 ], [ 456292.248988486127928, 211835.712061306549003 ], [ 456300.31556386227021, 211829.801869964343496 ], [ 456308.382139238354284, 211823.891678622137988 ], [ 456316.448714614496566, 211817.98148727993248 ], [ 456324.515289990580641, 211812.071295937726973 ], [ 456332.581865366722923, 211806.161104595521465 ], [ 456340.648440742865205, 211800.250913253315957 ], [ 456348.715016118949279, 211794.34072191111045 ], [ 456356.841121059667785, 211788.653157591674244 ], [ 456366.780950271524489, 211789.748509242606815 ], [ 456376.720779483381193, 211790.843860893539386 ], [ 456386.660608695237897, 211791.939212544471957 ], [ 456396.600437907094602, 211793.034564195404528 ], [ 456406.540267118951306, 211794.129915846337099 ], [ 456416.48009633080801, 211795.22526749726967 ], [ 456426.157867695612367, 211797.449170876148855 ], [ 456435.563294183812104, 211800.845927060436225 ], [ 456444.968720671953633, 211804.24268324469449 ], [ 456454.37414716015337, 211807.639439428981859 ], [ 456463.779573648353107, 211811.036195613269228 ], [ 456473.185000136494637, 211814.432951797556598 ], [ 456482.590426624694373, 211817.829707981814863 ], [ 456491.99585311289411, 211821.226464166102232 ], [ 456501.383053140598349, 211824.665881103050197 ], [ 456510.339294137200341, 211829.113998368964531 ], [ 456519.295535133744124, 211833.562115634849761 ], [ 456528.251776130346116, 211838.010232900764095 ], [ 456537.208017126889899, 211842.458350166678429 ], [ 456546.164258123491891, 211846.906467432563659 ], [ 456555.031337517430075, 211851.523674447817029 ], [ 456563.761037154821679, 211856.401414112944622 ], [ 456572.490736792213283, 211861.279153778072214 ], [ 456581.220436429663096, 211866.15689344322891 ], [ 456589.9501360670547, 211871.034633108356502 ], [ 456598.679835704446305, 211875.912372773513198 ], [ 456607.409535341837909, 211880.79011243864079 ], [ 456614.671038970525842, 211887.542780575196957 ], [ 456621.499656235915609, 211894.848257030796958 ], [ 456628.328273501305375, 211902.153733486367855 ], [ 456635.156890766695142, 211909.459209941938752 ], [ 456641.985508032026701, 211916.764686397509649 ], [ 456648.814125297416467, 211924.07016285310965 ], [ 456655.642742562806234, 211931.375639308680547 ], [ 456659.790363602456637, 211940.408408630057238 ], [ 456663.620017402805388, 211949.646035585581558 ], [ 456667.449671203212347, 211958.883662541076774 ], [ 456671.279325003561098, 211968.121289496601094 ], [ 456675.108978803909849, 211977.358916452125413 ], [ 456678.938632604316808, 211986.596543407649733 ], [ 456682.142499612993561, 211996.013908213353716 ], [ 456683.798596600478049, 212005.875821961089969 ], [ 456685.454693587962538, 212015.737735708855325 ], [ 456687.110790575388819, 212025.599649456591578 ], [ 456688.766887562873308, 212035.461563204356935 ], [ 456690.422984550357796, 212045.323476952093188 ], [ 456692.079081537842285, 212055.185390699829441 ], [ 456693.735178525326774, 212065.047304447594797 ], [ 456695.391275512811262, 212074.90921819533105 ], [ 456694.850080523989163, 212084.695813894213643 ], [ 456692.522577255556826, 212094.421179107681382 ], [ 456690.19507398706628, 212104.146544321149122 ], [ 456687.867570718633942, 212113.871909534616861 ], [ 456685.540067450143397, 212123.597274748084601 ], [ 456683.212564181711059, 212133.322639961552341 ], [ 456680.885060913278721, 212143.04800517502008 ], [ 456678.557557644788176, 212152.77337038848782 ], [ 456677.029400229104795, 212162.647512885101605 ], [ 456675.702013638394419, 212172.559023609443102 ], [ 456674.374627047625836, 212182.470534333784599 ], [ 456673.047240456915461, 212192.382045058126096 ], [ 456671.719853866205085, 212202.293555782467593 ], [ 456669.847892064135522, 212212.089415656926576 ], [ 456667.032590768765658, 212221.684939541359199 ], [ 456664.217289473454002, 212231.280463425762719 ], [ 456661.401988178142346, 212240.875987310195342 ], [ 456658.586686882772483, 212250.471511194627965 ], [ 456655.771385587460827, 212260.067035079031484 ], [ 456652.956084292149171, 212269.662558963464107 ], [ 456650.140782996779308, 212279.258082847867627 ], [ 456647.325481701467652, 212288.85360673230025 ], [ 456644.510180406155996, 212298.449130616732873 ], [ 456641.694879110786133, 212308.044654501136392 ], [ 456638.879577815474477, 212317.640178385569016 ], [ 456636.064276520104613, 212327.235702269972535 ], [ 456633.248975224792957, 212336.831226154405158 ], [ 456630.433673929481301, 212346.426750038837781 ], [ 456627.618372634111438, 212356.022273923241301 ], [ 456624.803071338799782, 212365.617797807673924 ], [ 456621.987770043488126, 212375.213321692077443 ], [ 456619.172468748118263, 212384.808845576510066 ], [ 456616.357167452806607, 212394.404369460942689 ], [ 456613.541866157436743, 212403.999893345346209 ], [ 456610.726564862125088, 212413.595417229778832 ], [ 456605.609881908632815, 212421.874548126535956 ], [ 456598.765980427153409, 212429.165708014479605 ], [ 456591.922078945674002, 212436.456867902423255 ], [ 456585.078177464194596, 212443.748027790366905 ], [ 456578.234275982656982, 212451.039187678310554 ], [ 456571.390374501177575, 212458.330347566254204 ], [ 456564.546473019698169, 212465.621507454197854 ], [ 456557.702571538218763, 212472.912667342141503 ], [ 456550.858670056681149, 212480.203827230085153 ], [ 456544.014768575201742, 212487.494987118028803 ], [ 456537.170867093722336, 212494.786147005972452 ], [ 456530.326965612184722, 212502.077306893916102 ], [ 456523.483064130705316, 212509.368466781859752 ], [ 456516.639162649225909, 212516.659626669803401 ], [ 456509.795261167746503, 212523.950786557776155 ], [ 456503.240666458674241, 212531.500546562805539 ], [ 456496.759875904768705, 212539.116277243214427 ], [ 456490.27908535086317, 212546.732007923623314 ], [ 456483.798294797015842, 212554.347738604032202 ], [ 456477.317504243110307, 212561.963469284470193 ], [ 456470.836713689204771, 212569.579199964879081 ], [ 456464.355923135299236, 212577.194930645287968 ], [ 456457.875132581451908, 212584.810661325696856 ], [ 456451.394342027546372, 212592.426392006105743 ], [ 456444.913551473640837, 212600.042122686543735 ], [ 456438.432760919735301, 212607.657853366952622 ], [ 456431.951970365887973, 212615.27358404736151 ], [ 456425.471179811982438, 212622.889314727770397 ], [ 456418.990389258076902, 212630.505045408179285 ], [ 456412.509598704171367, 212638.120776088617276 ], [ 456406.028808150324039, 212645.736506769026164 ], [ 456399.548017596418504, 212653.352237449435052 ], [ 456393.067227042512968, 212660.967968129843939 ], [ 456386.58643648866564, 212668.583698810252827 ], [ 456380.105645934760105, 212676.199429490690818 ], [ 456373.624855380854569, 212683.815160171099706 ], [ 456367.144064826949034, 212691.430890851508593 ], [ 456360.663274273101706, 212699.046621531917481 ], [ 456354.182483719196171, 212706.662352212326368 ], [ 456347.264934328268282, 212713.810166541981744 ], [ 456339.221373921493068, 212719.751642451446969 ], [ 456331.177813514717855, 212725.693118360912194 ], [ 456323.134253108000848, 212731.63459427037742 ], [ 456315.090692701225635, 212737.576070179842645 ], [ 456307.047132294450421, 212743.517546089336975 ], [ 456299.003571887733415, 212749.4590219988022 ], [ 456290.960011480958201, 212755.400497908267425 ], [ 456282.916451074182987, 212761.341973817732651 ], [ 456274.872890667407773, 212767.283449727197876 ], [ 456266.829330260690767, 212773.224925636692205 ], [ 456258.785769853915554, 212779.166401546157431 ], [ 456250.74220944714034, 212785.107877455622656 ], [ 456242.698649040365126, 212791.049353365087882 ], [ 456234.65508863364812, 212796.990829274553107 ], [ 456226.611528226872906, 212802.932305184018333 ], [ 456218.42913367197616, 212808.677194992633304 ], [ 456210.139690003357828, 212814.270505610242253 ], [ 456201.850246334739495, 212819.863816227822099 ], [ 456193.560802666121162, 212825.457126845401945 ], [ 456185.27135899750283, 212831.05043746298179 ], [ 456176.981915328884497, 212836.64374808059074 ], [ 456168.692471660266165, 212842.237058698170586 ], [ 456160.403027991647832, 212847.830369315750431 ], [ 456152.1135843230295, 212853.423679933359381 ], [ 456143.824140654411167, 212859.016990550939227 ], [ 456135.534696985792834, 212864.610301168519072 ], [ 456127.245253317174502, 212870.203611786098918 ], [ 456119.507096843561158, 212876.438836046552751 ], [ 456112.72596545657143, 212883.788411348039517 ], [ 456105.944834069523495, 212891.137986649526283 ], [ 456099.163702682533767, 212898.487561951013049 ], [ 456092.382571295544039, 212905.837137252470711 ], [ 456085.601439908496104, 212913.186712553957477 ], [ 456078.820308521506377, 212920.536287855444243 ], [ 456072.039177134516649, 212927.885863156931009 ], [ 456065.258045747468714, 212935.235438458417775 ], [ 456058.476914360478986, 212942.585013759904541 ], [ 456051.695782973489258, 212949.934589061362203 ], [ 456044.914651586499531, 212957.284164362848969 ], [ 456038.133520199451596, 212964.633739664335735 ], [ 456031.452379697992001, 212972.055641449260293 ], [ 456026.594765081244987, 212980.79655560257379 ], [ 456021.737150464497972, 212989.537469755858183 ], [ 456016.879535847809166, 212998.278383909142576 ], [ 456012.021921231062151, 213007.019298062456073 ], [ 456007.164306614315137, 213015.760212215740466 ], [ 456002.306691997568123, 213024.501126369053964 ], [ 455997.449077380879316, 213033.242040522338357 ], [ 455992.591462764132302, 213041.982954675651854 ], [ 455987.733848147385288, 213050.723868828936247 ], [ 455982.876233530638274, 213059.46478298222064 ], [ 455978.01861891389126, 213068.205697135534137 ], [ 455973.161004297202453, 213076.946611288818531 ], [ 455968.303389680455439, 213085.687525442132028 ], [ 455963.445775063708425, 213094.428439595416421 ], [ 455958.58816044696141, 213103.169353748729918 ], [ 455954.252065313281491, 213112.157093639165396 ], [ 455950.572065993503202, 213121.4553518097091 ], [ 455946.892066673724912, 213130.753609980281908 ], [ 455943.212067353946622, 213140.051868150825612 ], [ 455939.532068034168333, 213149.35012632139842 ], [ 455935.852068714390043, 213158.648384491971228 ], [ 455932.172069394611754, 213167.946642662514932 ], [ 455928.492070074833464, 213177.24490083308774 ], [ 455924.812070754996967, 213186.543159003660548 ], [ 455921.132071435218677, 213195.841417174204253 ], [ 455917.452072115440387, 213205.139675344777061 ], [ 455913.772072795662098, 213214.437933515349869 ], [ 455910.092073475883808, 213223.736191685893573 ], [ 455906.412074156105518, 213233.034449856466381 ], [ 455902.732074836327229, 213242.332708027010085 ], [ 455899.052075516548939, 213251.630966197582893 ], [ 455895.372076196770649, 213260.929224368155701 ], [ 455891.69207687699236, 213270.227482538699405 ], [ 455887.00673810247099, 213278.863408935576444 ], [ 455879.915633348922711, 213285.914382866496453 ], [ 455872.824528595374431, 213292.965356797387358 ], [ 455865.733423841826152, 213300.016330728278263 ], [ 455858.642319088277873, 213307.067304659198271 ], [ 455851.551214334729593, 213314.118278590089176 ], [ 455844.460109581239522, 213321.169252521009184 ], [ 455837.369004827691242, 213328.220226451900089 ], [ 455830.277900074142963, 213335.271200382820098 ], [ 455823.269218707748223, 213342.403573235758813 ], [ 455816.307481412193738, 213349.582306677533779 ], [ 455809.34574411669746, 213356.761040119279642 ], [ 455802.384006821142975, 213363.939773561054608 ], [ 455795.42226952558849, 213371.118507002829574 ], [ 455788.460532230092213, 213378.297240444575436 ], [ 455781.498794934537727, 213385.475973886350403 ], [ 455774.537057638983242, 213392.654707328125369 ], [ 455767.575320343428757, 213399.833440769871231 ], [ 455760.61358304793248, 213407.012174211646197 ], [ 455753.651845752377994, 213414.19090765339206 ], [ 455746.690108456823509, 213421.369641095167026 ], [ 455739.728371161327232, 213428.548374536941992 ], [ 455732.766633865772747, 213435.727107978687854 ], [ 455724.207263957592659, 213440.36009500126238 ], [ 455714.715372306294739, 213443.507155992119806 ], [ 455705.22348065499682, 213446.654216982948128 ], [ 455695.7315890036989, 213449.801277973805554 ], [ 455686.239697352400981, 213452.948338964633876 ], [ 455676.747805701103061, 213456.095399955491303 ], [ 455667.255914049805142, 213459.242460946319625 ], [ 455657.36663440609118, 213459.930060940183466 ], [ 455647.366634681238793, 213459.93240690958919 ], [ 455637.366634956444614, 213459.934752878994914 ], [ 455627.366635231650434, 213459.937098848371534 ], [ 455617.386907137464732, 213459.753259008168243 ], [ 455607.621725136588793, 213457.598909804830328 ], [ 455597.856543135771062, 213455.444560601521516 ], [ 455588.091361134895124, 213453.290211398183601 ], [ 455578.326179134019185, 213451.135862194845686 ], [ 455568.560997133143246, 213448.981512991536874 ], [ 455558.795815132267307, 213446.827163788198959 ], [ 455549.03063273470616, 213444.672816382983001 ], [ 455539.265449806582183, 213442.518471382762073 ], [ 455529.500266878399998, 213440.364126382541144 ], [ 455519.735083950276021, 213438.209781382320216 ], [ 455509.969901022152044, 213436.055436382070184 ], [ 455500.204718094028067, 213433.901091381849255 ], [ 455490.43953516590409, 213431.746746381628327 ], [ 455480.674352237721905, 213429.592401381407399 ], [ 455470.909169309597928, 213427.438056381157367 ], [ 455461.143986381473951, 213425.283711380936438 ], [ 455451.31520188000286, 213423.487405982712517 ], [ 455441.405479614797514, 213422.146732784050982 ], [ 455431.49575734953396, 213420.806059585389448 ], [ 455421.586035084270407, 213419.46538638669881 ], [ 455411.676312819006853, 213418.124713188037276 ], [ 455401.766590553801507, 213416.784039989375742 ], [ 455391.856868288537953, 213415.443366790685104 ], [ 455381.947146023274399, 213414.10269359202357 ], [ 455373.314450794889126, 213416.381387225061189 ], [ 455366.440228082065005, 213423.643966800853377 ], [ 455359.566005369240884, 213430.906546376616461 ], [ 455352.691782656358555, 213438.169125952379545 ], [ 455345.817559943534434, 213445.431705528171733 ], [ 455338.943337230710313, 213452.694285103934817 ], [ 455332.069114517886192, 213459.956864679697901 ], [ 455325.19489180506207, 213467.219444255490089 ], [ 455318.320669092237949, 213474.482023831253173 ], [ 455311.446446379413828, 213481.744603407016257 ], [ 455304.572223666589707, 213489.007182982808445 ], [ 455300.133719549688976, 213497.922656574344728 ], [ 455295.92403866146924, 213506.993411053379532 ], [ 455291.714357773191296, 213516.064165532414336 ], [ 455287.504676884971559, 213525.134920011478243 ], [ 455283.294995996693615, 213534.205674490513047 ], [ 455279.085315108473878, 213543.276428969547851 ], [ 455274.875634220195934, 213552.347183448611759 ], [ 455270.66595333191799, 213561.417937927646562 ], [ 455266.456272443698253, 213570.488692406681366 ], [ 455262.246591555420309, 213579.559446885745274 ], [ 455255.635108099435456, 213586.662049749604193 ], [ 455247.568605660053436, 213592.572340638871538 ], [ 455239.502103220671415, 213598.482631528109778 ], [ 455231.435600781347603, 213604.392922417377122 ], [ 455223.369098341965582, 213610.303213306615362 ], [ 455215.302595902583562, 213616.213504195882706 ], [ 455207.236093463201541, 213622.123795085120946 ], [ 455199.169591023819521, 213628.03408597438829 ], [ 455191.007145423907787, 213633.78918390526087 ], [ 455182.114592091296799, 213638.363295319053577 ], [ 455173.222038758627605, 213642.937406732875388 ], [ 455164.32948542595841, 213647.511518146668095 ], [ 455155.436932093289215, 213652.085629560460802 ], [ 455146.544378760678228, 213656.659740974282613 ], [ 455137.651825428009033, 213661.23385238807532 ], [ 455128.759272095339838, 213665.807963801897131 ], [ 455119.866718762670644, 213670.382075215689838 ], [ 455110.974165430059657, 213674.956186629511649 ], [ 455102.081612097390462, 213679.530298043304356 ], [ 455093.189058764721267, 213684.104409457126167 ], [ 455087.427796373842284, 213690.50947449717205 ], [ 455087.80256581044523, 213700.502449423074722 ], [ 455088.177335246989969, 213710.495424348948291 ], [ 455088.552104683592916, 213720.488399274850963 ], [ 455088.926874120195862, 213730.481374200724531 ], [ 455089.301643556740601, 213740.474349126627203 ], [ 455089.676412993343547, 213750.467324052500771 ], [ 455090.051182429888286, 213760.460298978403443 ], [ 455090.425951866491232, 213770.453273904277012 ], [ 455090.800721303094178, 213780.446248830179684 ], [ 455091.39528383751167, 213790.427181496052071 ], [ 455092.114492107357364, 213800.401284937688615 ], [ 455092.833700377144851, 213810.375388379354263 ], [ 455093.552908646990545, 213820.349491820990806 ], [ 455094.272116916836239, 213830.32359526262735 ], [ 455100.006770294101443, 213836.818595843185904 ], [ 455109.097099692095071, 213840.985838509077439 ], [ 455118.187429090088699, 213845.153081174939871 ], [ 455127.277758488024119, 213849.320323840802303 ], [ 455136.368087886017747, 213853.487566506693838 ], [ 455145.838685292517766, 213856.192866321915062 ], [ 455155.807412794907577, 213856.983101719379192 ], [ 455165.776140297239181, 213857.773337116843322 ], [ 455175.744867799628992, 213858.563572514307452 ], [ 455185.713595302018803, 213859.353807911771582 ], [ 455195.682322804408614, 213860.144043309235713 ], [ 455205.651050306740217, 213860.934278706699843 ], [ 455215.619777809130028, 213861.724514104163973 ], [ 455225.588505311519839, 213862.514749501628103 ], [ 455235.564982131007127, 213863.18122014743858 ], [ 455245.554423631809186, 213863.640631185902748 ], [ 455255.543865132611245, 213864.10004222439602 ], [ 455265.533306633413304, 213864.559453262860188 ], [ 455275.522748134157155, 213865.018864301324356 ], [ 455285.512189634959213, 213865.478275339788524 ], [ 455295.501631135761272, 213865.937686378252693 ], [ 455305.491072636563331, 213866.397097416716861 ], [ 455315.48051413736539, 213866.856508455181029 ], [ 455325.469955638109241, 213867.315919493645197 ], [ 455335.459397138911299, 213867.775330532138469 ], [ 455345.448838639713358, 213868.234741570602637 ], [ 455355.438280140515417, 213868.694152609066805 ], [ 455365.427721641317476, 213869.153563647530973 ], [ 455375.417163142061327, 213869.612974685995141 ], [ 455385.406604642863385, 213870.072385724459309 ], [ 455395.395624403900001, 213870.540858570137061 ], [ 455405.384554957621731, 213871.011248187889578 ], [ 455415.373485511401668, 213871.481637805642094 ], [ 455425.362416065123398, 213871.952027423394611 ], [ 455435.351346618845128, 213872.422417041147128 ], [ 455445.340277172625065, 213872.892806658899644 ], [ 455455.329207726346795, 213873.363196276652161 ], [ 455465.318138280068524, 213873.833585894404678 ], [ 455475.307068833848462, 213874.303975512157194 ], [ 455485.295999387570191, 213874.774365129909711 ], [ 455495.284929941350129, 213875.244754747662228 ], [ 455505.273860495071858, 213875.715144365414744 ], [ 455515.262791048793588, 213876.185533983167261 ], [ 455525.251721602573525, 213876.655923600919778 ], [ 455535.240652156295255, 213877.126313218672294 ], [ 455545.037124865397345, 213878.879256455111317 ], [ 455554.724173312599305, 213881.361411241116002 ], [ 455564.411221759801265, 213883.843566027120687 ], [ 455574.098270207003225, 213886.325720813125372 ], [ 455583.785318654205184, 213888.807875599130057 ], [ 455593.472367101407144, 213891.290030385134742 ], [ 455603.159415548609104, 213893.772185171139427 ], [ 455612.846463995811064, 213896.254339957144111 ], [ 455622.533512443013024, 213898.736494743148796 ], [ 455632.220560890156776, 213901.218649529153481 ], [ 455641.907609337358736, 213903.700804315158166 ], [ 455651.514458499965258, 213906.379177584312856 ], [ 455660.166836689633783, 213911.392794209357817 ], [ 455668.819214879302308, 213916.406410834431881 ], [ 455677.471593068912625, 213921.420027459505945 ], [ 455686.12397125858115, 213926.43364408458001 ], [ 455694.195108019455802, 213931.110460626863642 ] ] ] } }
]
}
