id,AV_ID,year_est,river_name,country,Wbf
"1",AFR0211,"1998",Catumbela,Angola,158.00
"2",ANGO2,"2003",Coporolo,Angola,130.00
"3",BS0115,"1995",Kura,Azerbaijan,100.00
"4",CA0067,"1986",Motagua,Guatemala,146.00
"5",JAVA2,"1984",Serang,Indonesia,100.00
"6",JAVA3,"1992",Bodri,Indonesia,45.00
"7",JAVA4,"1973",Comal,Indonesia,90.00
"8",JAVA5,"1995",Kelampis,Indonesia,64.00
"9",JAVA5,"1998",Kelampis,Indonesia,64.00
"10",JAVA5,"2018",Kelampis,Indonesia,64.00
"11",JAVA6,"2010",Cirambatan Baru,Indonesia,110.00
"12",JAVA7,"1982",Cikandung,Indonesia,75.00
"13",JAVA7,"1990",Cikandung,Indonesia,75.00
"14",JAVA7,"2010",Cikandung,Indonesia,75.00
"15",JAVA8,"2018",Kali Cbl,Indonesia,65.00
"16",JAVA9,"2014",Cisadane,Indonesia,73.00
"17",JAVA12,"1985",Bengawan Solo,Indonesia,140.00
"18",MALAWI1,"2014",Lilongwe,Malawi,95.00
"19",PI0019,"1989",Batu Gerigis,Indonesia,131.00
"20",PI0209,"2006",Pemali,Indonesia,80.00
"21",PI0769,"1982",Agos,Philippines,200.00
"22",SA0210,"1996",Mitare,Venezuela,60.00
"23",SA0505,"1999",Tumbes,Peru,108.00
"24",SUMA2,"2005",Peusangan,Indonesia,116.00
"25",VENEZ1,"1982",Catatumbo,Venezuela,135.00
"26",VENEZ2,"1986",Misoa,Venezuela,20.00
"27",VENEZ2,"2009",Misoa,Venezuela,20.00
"28",CA0194,"2007",Samala,Guatemala,100.00
"29",CASP1,"1991",Sefid Rud,Iran,178.00
,MISS_LAFOURCHE,"0","Mississippi, Lafourche-Modern",USA,
,MISS_MODERN,"0","Mississippi, Modern-Atchafalaya",USA,
,ORINOCO,"0",Orinoco,Venezuela,
,PARANA,"0",Paraná,Argentina,
,NILE,"0",Nile,Egypt,
,DANUBE,"0",Danube,Romania,
,RHINE,"0",Rhine-Meuse,Netherlands,
,MANAMBOLO,"2004",Manambolo,Madagascar,
,SAMBAO,"2004",Sambao,Madagascar,
,MANGOKY,"0",Mangoky,Madagascar,
,FIHERENANA,"2001",Fiherenana,Madagascar,
,MORONDAVA,"1979",Morondava,Madagascar,
,MAGDALENA,"0",Magdalena,Venezuela,
,HUANGHE,"1930",Huanghe,China,
