{
"type": "FeatureCollection",
"crs": { "type": "name", "properties": { "name": "urn:ogc:def:crs:EPSG::32733" } },
"features": [
{ "type": "Feature", "properties": { "id": 1 }, "geometry": { "type": "MultiLineString", "coordinates": [ [ [ 334223.940126211149618, 8623240.071682091802359 ], [ 334233.240800039784517, 8623236.397792281582952 ], [ 334242.541473868419416, 8623232.72390247322619 ], [ 334251.842147697054315, 8623229.050012663006783 ], [ 334261.142821525689214, 8623225.376122852787375 ], [ 334270.443495354324114, 8623221.702233044430614 ], [ 334279.744169182959013, 8623218.028343234211206 ], [ 334289.044843011593912, 8623214.354453423991799 ], [ 334298.345516840228811, 8623210.680563615635037 ], [ 334307.64619066886371, 8623207.00667380541563 ], [ 334316.946864497498609, 8623203.332783995196223 ], [ 334326.247538326133508, 8623199.658894184976816 ], [ 334335.548212154768407, 8623195.985004376620054 ], [ 334344.848885983403306, 8623192.311114566400647 ], [ 334354.149559812038206, 8623188.63722475618124 ], [ 334363.450233640673105, 8623184.963334947824478 ], [ 334372.774741855275352, 8623181.53510881587863 ], [ 334382.608191465318669, 8623183.352598505094647 ], [ 334392.441641075420193, 8623185.17008819244802 ], [ 334402.27509068546351, 8623186.987577879801393 ], [ 334412.108540295506828, 8623188.80506756901741 ], [ 334421.941989905608352, 8623190.622557256370783 ], [ 334431.775439515651669, 8623192.440046943724155 ], [ 334441.608889125753194, 8623194.257536632940173 ], [ 334451.442338735796511, 8623196.075026320293546 ], [ 334461.275788345839828, 8623197.892516009509563 ], [ 334471.109237955941353, 8623199.710005696862936 ], [ 334480.94268756598467, 8623201.527495384216309 ], [ 334490.776137176086195, 8623203.344985073432326 ], [ 334500.609586786129512, 8623205.162474760785699 ], [ 334510.443036396231037, 8623206.979964450001717 ], [ 334520.276486006274354, 8623208.797454137355089 ], [ 334530.109935616317671, 8623210.614943824708462 ], [ 334539.943385226419196, 8623212.432433513924479 ], [ 334549.776834836462513, 8623214.249923201277852 ], [ 334559.610284446564037, 8623216.067412888631225 ], [ 334569.443734056607354, 8623217.884902577847242 ], [ 334579.277183666708879, 8623219.702392265200615 ], [ 334589.110633276752196, 8623221.519881954416633 ], [ 334598.944082886795513, 8623223.337371641770005 ], [ 334608.777532496897038, 8623225.154861329123378 ], [ 334618.610982106940355, 8623226.972351018339396 ], [ 334628.44443171704188, 8623228.789840705692768 ], [ 334638.277881327085197, 8623230.607330394908786 ], [ 334648.111330937128514, 8623232.424820082262158 ], [ 334657.944780547230039, 8623234.242309769615531 ], [ 334667.778230157273356, 8623236.059799458831549 ], [ 334677.611679767374881, 8623237.877289146184921 ], [ 334687.445129377418198, 8623239.694778835400939 ], [ 334697.278578987519722, 8623241.512268522754312 ], [ 334707.11202859756304, 8623243.329758210107684 ], [ 334716.945478207606357, 8623245.147247899323702 ], [ 334726.761497885745484, 8623247.02180715277791 ], [ 334735.932424186903518, 8623251.008549029007554 ], [ 334745.103350488061551, 8623254.995290903374553 ], [ 334754.274276789277792, 8623258.982032777741551 ], [ 334763.445203090435825, 8623262.968774653971195 ], [ 334772.616129391593859, 8623266.955516528338194 ], [ 334781.787055692751892, 8623270.942258404567838 ], [ 334790.957981993909925, 8623274.929000278934836 ], [ 334800.128908295067959, 8623278.915742153301835 ], [ 334809.299834596225992, 8623282.902484029531479 ], [ 334818.470760897384025, 8623286.889225903898478 ], [ 334827.641687198600266, 8623290.875967780128121 ], [ 334836.812613499758299, 8623294.86270965449512 ], [ 334845.983539800916333, 8623298.849451528862119 ], [ 334855.154466102074366, 8623302.836193405091763 ], [ 334864.325392403232399, 8623306.822935279458761 ], [ 334873.496318704390433, 8623310.80967715382576 ], [ 334882.667245005548466, 8623314.796419030055404 ], [ 334891.838171306706499, 8623318.783160904422402 ], [ 334901.00909760792274, 8623322.769902780652046 ], [ 334910.180023909080774, 8623326.756644655019045 ], [ 334919.350950210238807, 8623330.743386529386044 ], [ 334928.52187651139684, 8623334.730128405615687 ], [ 334937.692802812554874, 8623338.716870279982686 ], [ 334946.863729113712907, 8623342.70361215621233 ], [ 334956.03465541487094, 8623346.690354030579329 ], [ 334965.205581716028973, 8623350.677095904946327 ], [ 334974.376508017245214, 8623354.663837781175971 ], [ 334983.547434318403248, 8623358.65057965554297 ], [ 334992.718360619561281, 8623362.637321529909968 ], [ 335001.889286920719314, 8623366.624063406139612 ], [ 335011.060213221877348, 8623370.610805280506611 ], [ 335020.231139523035381, 8623374.597547156736255 ], [ 335029.402065824193414, 8623378.584289031103253 ], [ 335038.572992125351448, 8623382.571030905470252 ], [ 335047.743918426567689, 8623386.557772781699896 ], [ 335056.914844727725722, 8623390.544514656066895 ], [ 335066.085771028883755, 8623394.531256532296538 ], [ 335075.256697330041789, 8623398.517998406663537 ], [ 335084.427623631199822, 8623402.504740281030536 ], [ 335093.598549932357855, 8623406.49148215726018 ], [ 335102.769476233515888, 8623410.478224031627178 ], [ 335111.940402534673922, 8623414.464965907856822 ], [ 335121.111328835890163, 8623418.451707782223821 ], [ 335130.282255137048196, 8623422.438449656590819 ], [ 335139.453181438206229, 8623426.425191532820463 ], [ 335147.126697659958154, 8623432.577688228338957 ], [ 335154.095232461113483, 8623439.749823385849595 ], [ 335161.063767262268811, 8623446.921958545222878 ], [ 335168.03230206342414, 8623454.094093702733517 ], [ 335175.000836864521261, 8623461.266228860244155 ], [ 335181.96937166567659, 8623468.438364017754793 ], [ 335188.937906466831919, 8623475.610499177128077 ], [ 335195.906441267987248, 8623482.782634334638715 ], [ 335202.405801366956439, 8623490.336107637733221 ], [ 335208.002400888246484, 8623498.623331164941192 ], [ 335213.599000409478322, 8623506.910554692149162 ], [ 335219.195599930768367, 8623515.197778219357133 ], [ 335224.792199452000204, 8623523.485001748427749 ], [ 335230.38879897329025, 8623531.772225275635719 ], [ 335235.985398494522087, 8623540.05944880284369 ], [ 335241.581998015812133, 8623548.346672331914306 ], [ 335247.17859753704397, 8623556.633895859122276 ], [ 335252.775197058334015, 8623564.921119386330247 ], [ 335258.371796579565853, 8623573.208342913538218 ], [ 335264.305298699997365, 8623581.230633394792676 ], [ 335271.039196555444505, 8623588.623509673401713 ], [ 335277.773094410949852, 8623596.016385952010751 ], [ 335284.506992266396992, 8623603.409262230619788 ], [ 335291.240890121844131, 8623610.802138509228826 ], [ 335297.974787977291271, 8623618.195014789700508 ], [ 335304.708685832738411, 8623625.587891068309546 ], [ 335311.44258368818555, 8623632.980767346918583 ], [ 335318.17648154363269, 8623640.37364362552762 ], [ 335326.565935206657741, 8623645.43391508795321 ], [ 335335.766931711696088, 8623649.350758628919721 ], [ 335344.967928216734435, 8623653.267602168023586 ], [ 335354.16892472183099, 8623657.184445707127452 ], [ 335363.369921226869337, 8623661.101289248093963 ], [ 335372.570917731907684, 8623665.018132787197828 ], [ 335381.771914236946031, 8623668.934976326301694 ], [ 335391.360429696331266, 8623670.745841341093183 ], [ 335401.353013677988201, 8623670.360788917168975 ], [ 335411.345597659586929, 8623669.975736491382122 ], [ 335421.338181641243864, 8623669.590684065595269 ], [ 335431.330765622842591, 8623669.205631641671062 ], [ 335441.323349604499526, 8623668.820579215884209 ], [ 335451.315933586098254, 8623668.435526790097356 ], [ 335461.308517567755189, 8623668.050474366173148 ], [ 335471.301101549353916, 8623667.665421940386295 ], [ 335480.746178941393737, 8623665.151515185832977 ], [ 335489.68465574469883, 8623660.6678077429533 ], [ 335498.623132548003923, 8623656.184100298210979 ], [ 335507.561609351309016, 8623651.700392855331302 ], [ 335516.50008615461411, 8623647.216685412451625 ], [ 335525.438562957919203, 8623642.732977969571948 ], [ 335534.377039761224296, 8623638.249270526692271 ], [ 335543.315516564471181, 8623633.765563081949949 ], [ 335552.253993367776275, 8623629.281855639070272 ], [ 335561.192470171081368, 8623624.798148196190596 ], [ 335570.130946974386461, 8623620.314440753310919 ], [ 335579.069423777691554, 8623615.830733308568597 ], [ 335588.007900580996647, 8623611.34702586568892 ], [ 335596.946377384301741, 8623606.863318422809243 ], [ 335605.884854187606834, 8623602.379610979929566 ], [ 335614.823330990911927, 8623597.89590353704989 ], [ 335623.761807794158813, 8623593.412196092307568 ], [ 335632.700284597463906, 8623588.928488649427891 ], [ 335640.618495710659772, 8623583.618863917887211 ], [ 335643.142629402107559, 8623573.942668948322535 ], [ 335645.666763093497138, 8623564.266473976895213 ], [ 335648.190896784944925, 8623554.590279007330537 ], [ 335650.715030476334505, 8623544.914084035903215 ], [ 335653.239164167782292, 8623535.237889064475894 ], [ 335655.763297859171871, 8623525.561694094911218 ], [ 335658.287431550619658, 8623515.885499123483896 ], [ 335660.811565242009237, 8623506.20930415391922 ], [ 335663.335698933398817, 8623496.533109182491899 ], [ 335665.859832624846604, 8623486.856914212927222 ], [ 335668.412412048492115, 8623477.188538204878569 ], [ 335671.18867747974582, 8623467.581647435203195 ], [ 335673.964942910941318, 8623457.974756665527821 ], [ 335676.741208342195023, 8623448.367865897715092 ], [ 335679.517473773448728, 8623438.760975128039718 ], [ 335682.293739204644226, 8623429.154084358364344 ], [ 335685.070004635897931, 8623419.54719358868897 ], [ 335687.846270067093428, 8623409.940302819013596 ], [ 335690.622535498347133, 8623400.333412049338222 ], [ 335693.398800929542631, 8623390.726521279662848 ], [ 335696.175066360796336, 8623381.119630511850119 ], [ 335698.951331791991834, 8623371.512739742174745 ], [ 335701.727597223245539, 8623361.905848972499371 ], [ 335704.503862654441036, 8623352.298958202823997 ], [ 335707.280128085694741, 8623342.692067433148623 ], [ 335710.056393516890239, 8623333.085176663473248 ], [ 335712.832658948143944, 8623323.478285893797874 ], [ 335715.608924379339442, 8623313.871395125985146 ], [ 335718.385189810593147, 8623304.264504356309772 ], [ 335721.161455241788644, 8623294.657613586634398 ], [ 335723.93772067304235, 8623285.050722816959023 ], [ 335726.713986104237847, 8623275.443832047283649 ], [ 335729.490251535491552, 8623265.836941277608275 ], [ 335732.266516966745257, 8623256.230050507932901 ], [ 335735.042782397940755, 8623246.623159740120173 ], [ 335737.81904782919446, 8623237.016268970444798 ], [ 335740.595313260389958, 8623227.409378200769424 ], [ 335743.371578691643663, 8623217.80248743109405 ], [ 335746.14784412283916, 8623208.195596661418676 ], [ 335748.924109554092865, 8623198.588705891743302 ], [ 335751.700374985288363, 8623188.981815122067928 ], [ 335754.476640416542068, 8623179.374924354255199 ], [ 335757.252905847737566, 8623169.768033584579825 ], [ 335760.029171278991271, 8623160.161142814904451 ], [ 335762.805436710186768, 8623150.554252045229077 ] ] ] } }
]
}
