{
"type": "FeatureCollection",
"crs": { "type": "name", "properties": { "name": "urn:ogc:def:crs:OGC:1.3:CRS84" } },
"features": [
{ "type": "Feature", "properties": { "id": 1 }, "geometry": { "type": "MultiLineString", "coordinates": [ [ [ 278981.427364954841323, 8569389.999561520293355 ], [ 278986.833535556215793, 8569398.412249522283673 ], [ 278992.23970615764847, 8569406.824937526136637 ], [ 278997.64587675902294, 8569415.237625528126955 ], [ 279003.052047360455617, 8569423.650313530117273 ], [ 279008.458217961830087, 8569432.063001533970237 ], [ 279013.864388563262764, 8569440.475689535960555 ], [ 279019.270559164637234, 8569448.888377537950873 ], [ 279024.676729766069911, 8569457.301065539941192 ], [ 279030.082900367444381, 8569465.713753543794155 ], [ 279035.489070968877058, 8569474.126441545784473 ], [ 279040.895241570251528, 8569482.539129547774792 ], [ 279046.301412171684206, 8569490.951817551627755 ], [ 279051.707582773058675, 8569499.364505553618073 ], [ 279057.113753374491353, 8569507.777193555608392 ], [ 279062.519923975865822, 8569516.189881559461355 ], [ 279067.9260945772985, 8569524.602569561451674 ], [ 279073.332265178672969, 8569533.015257563441992 ], [ 279078.738435780105647, 8569541.427945567294955 ], [ 279084.144606381480116, 8569549.840633569285274 ], [ 279089.550776982912794, 8569558.253321571275592 ], [ 279094.956947584287263, 8569566.66600957326591 ], [ 279100.363118185719941, 8569575.078697577118874 ], [ 279105.769288787094411, 8569583.491385579109192 ], [ 279111.175459388527088, 8569591.90407358109951 ], [ 279116.581629989901558, 8569600.316761584952474 ], [ 279121.987800591334235, 8569608.729449586942792 ], [ 279127.393971192708705, 8569617.14213758893311 ], [ 279132.800141794141382, 8569625.554825592786074 ], [ 279138.206312395515852, 8569633.967513594776392 ], [ 279143.612482996948529, 8569642.38020159676671 ], [ 279149.018653598322999, 8569650.792889600619674 ], [ 279154.424824199755676, 8569659.205577602609992 ], [ 279159.830994801130146, 8569667.61826560460031 ], [ 279165.237165402562823, 8569676.030953608453274 ], [ 279170.643336003937293, 8569684.443641610443592 ], [ 279176.04950660536997, 8569692.85632961243391 ], [ 279181.45567720674444, 8569701.269017614424229 ], [ 279186.861847808177117, 8569709.681705618277192 ], [ 279192.268018409551587, 8569718.09439362026751 ], [ 279197.674189010926057, 8569726.507081622257829 ], [ 279203.080359612358734, 8569734.919769626110792 ], [ 279208.486530213733204, 8569743.33245762810111 ], [ 279213.892700815165881, 8569751.745145630091429 ], [ 279219.298871416540351, 8569760.157833633944392 ], [ 279224.705042017973028, 8569768.570521635934711 ], [ 279230.111212619347498, 8569776.983209637925029 ], [ 279235.517383220780175, 8569785.395897641777992 ], [ 279240.923553822154645, 8569793.808585643768311 ], [ 279245.858346052351408, 8569802.462153038010001 ], [ 279249.508638486324344, 8569811.772113570943475 ], [ 279253.158930920239072, 8569821.082074105739594 ], [ 279256.809223354212008, 8569830.392034640535712 ], [ 279260.459515788184945, 8569839.701995173469186 ], [ 279264.109808222099673, 8569849.011955708265305 ], [ 279267.760100656072609, 8569858.321916243061423 ], [ 279271.410393090045545, 8569867.631876775994897 ], [ 279275.060685523960274, 8569876.941837310791016 ], [ 279278.71097795793321, 8569886.251797843724489 ], [ 279282.361270391847938, 8569895.561758378520608 ], [ 279286.011562825820874, 8569904.871718913316727 ], [ 279289.661855259793811, 8569914.1816794462502 ], [ 279293.312147693708539, 8569923.491639981046319 ], [ 279296.962440127681475, 8569932.801600515842438 ], [ 279300.612732561654411, 8569942.111561048775911 ], [ 279304.26302499556914, 8569951.42152158357203 ], [ 279307.913317429542076, 8569960.731482116505504 ], [ 279311.563609863515012, 8569970.041442651301622 ], [ 279315.21390229742974, 8569979.351403186097741 ], [ 279318.864194731402677, 8569988.661363719031215 ], [ 279322.514487165317405, 8569997.971324253827333 ], [ 279326.164779599290341, 8570007.281284788623452 ], [ 279329.815072033263277, 8570016.591245321556926 ], [ 279333.465364467178006, 8570025.901205856353045 ], [ 279337.115656901150942, 8570035.211166389286518 ], [ 279340.765949335123878, 8570044.521126924082637 ], [ 279344.416241769038606, 8570053.831087458878756 ], [ 279348.066534203011543, 8570063.141047991812229 ], [ 279351.716826636926271, 8570072.451008526608348 ], [ 279355.367119070899207, 8570081.760969061404467 ], [ 279359.017411504872143, 8570091.07092959433794 ], [ 279362.667703938786872, 8570100.380890129134059 ], [ 279366.317996372759808, 8570109.690850663930178 ], [ 279369.968288806732744, 8570119.000811196863651 ], [ 279373.618581240647472, 8570128.31077173165977 ], [ 279377.268873674620409, 8570137.620732264593244 ], [ 279380.919166108535137, 8570146.930692799389362 ], [ 279384.569458542508073, 8570156.240653334185481 ], [ 279388.219750976481009, 8570165.550613867118955 ], [ 279391.870043410395738, 8570174.860574401915073 ], [ 279395.520335844368674, 8570184.170534936711192 ], [ 279399.17062827834161, 8570193.480495469644666 ], [ 279402.820920712256338, 8570202.790456004440784 ], [ 279406.471213146229275, 8570212.100416537374258 ], [ 279410.121505580202211, 8570221.410377072170377 ], [ 279413.771798014116939, 8570230.720337606966496 ], [ 279417.422090448089875, 8570240.030298139899969 ], [ 279421.072382882004604, 8570249.340258674696088 ], [ 279424.72267531597754, 8570258.650219209492207 ], [ 279428.372967749950476, 8570267.96017974242568 ], [ 279432.023260183865204, 8570277.270140277221799 ], [ 279435.673552617838141, 8570286.580100812017918 ], [ 279439.323845051811077, 8570295.890061344951391 ], [ 279442.974137485725805, 8570305.20002187974751 ], [ 279446.624429919698741, 8570314.509982412680984 ], [ 279450.27472235361347, 8570323.819942947477102 ], [ 279453.925014787586406, 8570333.129903482273221 ], [ 279457.575307221559342, 8570342.439864015206695 ], [ 279461.22559965547407, 8570351.749824550002813 ], [ 279464.875892089447007, 8570361.059785084798932 ], [ 279468.526184523419943, 8570370.369745617732406 ], [ 279472.176476957334671, 8570379.679706152528524 ], [ 279475.826769391307607, 8570388.989666685461998 ], [ 279479.477061825222336, 8570398.299627220258117 ], [ 279483.127354259195272, 8570407.609587755054235 ], [ 279486.777646693168208, 8570416.919548287987709 ], [ 279490.427939127082936, 8570426.229508822783828 ], [ 279494.078231561055873, 8570435.539469357579947 ], [ 279497.728523995028809, 8570444.84942989051342 ], [ 279501.378816428943537, 8570454.159390425309539 ], [ 279505.029108862916473, 8570463.469350958243012 ], [ 279508.679401296889409, 8570472.779311493039131 ], [ 279512.329693730804138, 8570482.08927202783525 ], [ 279515.979986164777074, 8570491.399232560768723 ], [ 279525.327924446610268, 8570492.426037790253758 ], [ 279535.327609981701244, 8570492.505342267453671 ], [ 279545.327295516734011, 8570492.584646744653583 ], [ 279555.326981051766779, 8570492.663951221853495 ], [ 279565.326666586799547, 8570492.743255700916052 ], [ 279575.326352121890523, 8570492.822560178115964 ], [ 279585.32603765692329, 8570492.901864655315876 ], [ 279595.325723191956058, 8570492.981169132515788 ], [ 279605.325408726988826, 8570493.060473611578345 ], [ 279615.325094262079801, 8570493.139778088778257 ], [ 279625.324779797112569, 8570493.219082565978169 ], [ 279635.324465332145337, 8570493.298387043178082 ], [ 279645.324150867178105, 8570493.377691522240639 ], [ 279655.32383640226908, 8570493.45699599944055 ], [ 279665.323521937301848, 8570493.536300476640463 ], [ 279675.323207472334616, 8570493.615604953840375 ], [ 279685.322893007367384, 8570493.694909432902932 ], [ 279695.322578542458359, 8570493.774213910102844 ], [ 279705.322264077491127, 8570493.853518387302756 ], [ 279715.321949612523895, 8570493.932822864502668 ], [ 279725.321635147556663, 8570494.012127343565226 ], [ 279735.321320682647638, 8570494.091431820765138 ], [ 279745.321006217680406, 8570494.17073629796505 ], [ 279755.320691752713174, 8570494.250040775164962 ], [ 279765.320377287745941, 8570494.329345252364874 ], [ 279775.320062822836917, 8570494.408649731427431 ], [ 279785.319748357869685, 8570494.487954208627343 ], [ 279794.965690723794978, 8570493.414446862414479 ], [ 279803.199837406747974, 8570487.74004571326077 ], [ 279811.433984089700971, 8570482.06564456410706 ], [ 279819.668130772653967, 8570476.391243414953351 ], [ 279827.902277455606963, 8570470.716842265799642 ], [ 279836.136424138618167, 8570465.042441116645932 ], [ 279844.370570821571164, 8570459.368039967492223 ], [ 279852.60471750452416, 8570453.693638818338513 ], [ 279860.838864187477157, 8570448.019237669184804 ], [ 279869.073010870430153, 8570442.344836520031095 ], [ 279877.307157553441357, 8570436.67043536901474 ], [ 279885.541304236394353, 8570430.996034219861031 ], [ 279893.77545091934735, 8570425.321633070707321 ], [ 279902.009597602300346, 8570419.647231921553612 ], [ 279910.24374428531155, 8570413.972830772399902 ], [ 279918.477890968264546, 8570408.298429623246193 ], [ 279926.712037651217543, 8570402.624028474092484 ], [ 279934.946184334170539, 8570396.949627324938774 ], [ 279943.180331017123535, 8570391.275226175785065 ], [ 279951.414477700134739, 8570385.600825026631355 ], [ 279959.919205930898897, 8570380.973499240353703 ], [ 279969.871590421360452, 8570381.948200710117817 ], [ 279979.823974911822006, 8570382.92290217988193 ], [ 279989.77635940228356, 8570383.897603647783399 ], [ 279999.728743892745115, 8570384.872305117547512 ], [ 280009.681128383206669, 8570385.847006587311625 ], [ 280019.633512873668224, 8570386.821708055213094 ], [ 280029.585897364129778, 8570387.796409524977207 ], [ 280039.538281854591332, 8570388.771110994741321 ], [ 280049.490666345052887, 8570389.745812462642789 ], [ 280059.443050835514441, 8570390.720513932406902 ], [ 280069.395435325975996, 8570391.695215402171016 ], [ 280079.34781981643755, 8570392.669916870072484 ], [ 280089.300204306899104, 8570393.644618339836597 ], [ 280099.252588797418866, 8570394.619319809600711 ], [ 280109.204973287880421, 8570395.594021277502179 ], [ 280119.157357778341975, 8570396.568722747266293 ], [ 280129.109742268803529, 8570397.543424217030406 ], [ 280139.062126759265084, 8570398.518125684931874 ], [ 280149.014511249726638, 8570399.492827154695988 ], [ 280158.966895740188193, 8570400.467528624460101 ], [ 280168.919280230649747, 8570401.442230092361569 ], [ 280178.871664721111301, 8570402.416931562125683 ], [ 280188.824049211572856, 8570403.391633031889796 ], [ 280198.77643370203441, 8570404.366334499791265 ], [ 280208.728818192495964, 8570405.341035969555378 ], [ 280218.681202682957519, 8570406.315737439319491 ], [ 280228.633587173419073, 8570407.290438909083605 ], [ 280238.585971663880628, 8570408.265140376985073 ], [ 280248.538356154342182, 8570409.239841846749187 ], [ 280258.490740644803736, 8570410.2145433165133 ], [ 280268.443125135265291, 8570411.189244784414768 ], [ 280278.395509625726845, 8570412.163946254178882 ], [ 280288.347894116188399, 8570413.138647723942995 ], [ 280298.300278606649954, 8570414.113349191844463 ], [ 280308.017557916115038, 8570414.168539909645915 ], [ 280316.280673384957481, 8570408.536406856030226 ], [ 280324.543788853799924, 8570402.904273800551891 ], [ 280332.806904322642367, 8570397.272140745073557 ], [ 280341.070019791543018, 8570391.640007691457868 ], [ 280349.333135260385461, 8570386.007874635979533 ], [ 280357.596250729227904, 8570380.375741580501199 ], [ 280365.859366198128555, 8570374.743608525022864 ], [ 280374.122481666970998, 8570369.111475471407175 ], [ 280382.385597135813441, 8570363.479342415928841 ], [ 280390.648712604714092, 8570357.847209360450506 ], [ 280398.911828073556535, 8570352.215076306834817 ], [ 280407.174943542398978, 8570346.582943251356483 ], [ 280415.438059011241421, 8570340.950810195878148 ], [ 280423.701174480142072, 8570335.318677142262459 ], [ 280431.964289948984515, 8570329.686544086784124 ], [ 280440.227405417826958, 8570324.05441103130579 ], [ 280448.490520886727609, 8570318.422277975827456 ], [ 280456.753636355570052, 8570312.790144922211766 ], [ 280465.016751824412495, 8570307.158011866733432 ], [ 280473.279867293313146, 8570301.525878811255097 ], [ 280481.542982762155589, 8570295.893745757639408 ], [ 280489.806098230998032, 8570290.261612702161074 ], [ 280498.069213699840475, 8570284.629479646682739 ], [ 280506.332329168741126, 8570278.99734659306705 ], [ 280514.595444637583569, 8570273.365213537588716 ], [ 280522.858560106426012, 8570267.733080482110381 ], [ 280531.121675575326663, 8570262.100947426632047 ], [ 280539.384791044169106, 8570256.468814373016357 ], [ 280547.647906513011549, 8570250.836681317538023 ], [ 280555.911021981912199, 8570245.204548262059689 ], [ 280564.174137450754642, 8570239.572415208443999 ], [ 280573.288340423023328, 8570235.484214842319489 ], [ 280582.462217136926483, 8570231.504266848787665 ], [ 280591.636093850887846, 8570227.524318853393197 ], [ 280600.809970564791001, 8570223.544370859861374 ], [ 280609.983847278694157, 8570219.564422864466906 ], [ 280619.157723992597312, 8570215.584474870935082 ], [ 280628.331600706500467, 8570211.604526875540614 ], [ 280637.505477420403622, 8570207.624578882008791 ], [ 280646.679354134364985, 8570203.644630886614323 ], [ 280655.85323084826814, 8570199.6646828930825 ], [ 280665.027107562171295, 8570195.684734897688031 ], [ 280674.20098427607445, 8570191.704786904156208 ], [ 280683.374860989977606, 8570187.724838910624385 ], [ 280692.548737703880761, 8570183.744890915229917 ], [ 280701.722614417783916, 8570179.764942921698093 ], [ 280710.896491131745279, 8570175.784994926303625 ], [ 280720.070367845648434, 8570171.805046932771802 ], [ 280729.244244559551589, 8570167.825098937377334 ], [ 280738.418121273454744, 8570163.84515094384551 ], [ 280747.5919979873579, 8570159.865202948451042 ], [ 280756.765874701261055, 8570155.885254954919219 ], [ 280765.939751415222418, 8570151.905306959524751 ], [ 280775.113628129125573, 8570147.925358965992928 ], [ 280784.287504843028728, 8570143.945410972461104 ], [ 280793.461381556931883, 8570139.965462977066636 ], [ 280802.661057919554878, 8570136.93480047211051 ], [ 280812.037566325161606, 8570140.410586731508374 ], [ 280821.414074730710126, 8570143.886372990906239 ], [ 280830.790583136316855, 8570147.362159250304103 ], [ 280840.167091541923583, 8570150.837945509701967 ], [ 280849.543599947472103, 8570154.313731769099832 ], [ 280858.920108353078831, 8570157.789518028497696 ], [ 280868.296616758685559, 8570161.26530428789556 ], [ 280877.673125164234079, 8570164.741090545430779 ], [ 280887.049633569840807, 8570168.216876804828644 ], [ 280896.426141975447536, 8570171.692663064226508 ], [ 280905.802650380996056, 8570175.168449323624372 ], [ 280915.179158786602784, 8570178.644235583022237 ], [ 280924.555667192209512, 8570182.120021842420101 ], [ 280933.932175597758032, 8570185.595808101817966 ], [ 280943.30868400336476, 8570189.07159436121583 ], [ 280952.685192408971488, 8570192.547380620613694 ], [ 280962.061700814520009, 8570196.023166880011559 ], [ 280971.438209220126737, 8570199.498953139409423 ], [ 280980.814717625733465, 8570202.974739398807287 ], [ 280990.191226031281985, 8570206.450525656342506 ], [ 280999.567734436888713, 8570209.926311915740371 ], [ 281008.944242842495441, 8570213.402098175138235 ], [ 281018.320751248043962, 8570216.877884434536099 ], [ 281027.69725965365069, 8570220.353670693933964 ], [ 281037.073768059257418, 8570223.829456953331828 ], [ 281046.450276464805938, 8570227.305243212729692 ], [ 281055.826784870412666, 8570230.781029472127557 ], [ 281065.203293276019394, 8570234.256815731525421 ], [ 281074.579801681567915, 8570237.732601990923285 ], [ 281083.956310087174643, 8570241.20838825032115 ], [ 281093.332818492781371, 8570244.684174509719014 ], [ 281102.709326898329891, 8570248.159960767254233 ], [ 281112.085835303936619, 8570251.635747026652098 ], [ 281121.498651831585448, 8570253.053651781752706 ], [ 281130.991935934114736, 8570249.910793697461486 ], [ 281140.485220036585815, 8570246.767935611307621 ], [ 281149.978504139115103, 8570243.625077525153756 ], [ 281159.47178824164439, 8570240.482219438999891 ], [ 281168.96507234411547, 8570237.339361352846026 ], [ 281178.458356446644757, 8570234.196503266692162 ], [ 281187.951640549174044, 8570231.053645180538297 ], [ 281197.444924651645124, 8570227.910787094384432 ], [ 281206.938208754174411, 8570224.767929008230567 ], [ 281216.431492856703699, 8570221.625070922076702 ], [ 281225.924776959174778, 8570218.482212835922837 ], [ 281235.418061061704066, 8570215.339354749768972 ], [ 281244.911345164175145, 8570212.196496663615108 ], [ 281254.404629266704433, 8570209.053638577461243 ], [ 281263.89791336923372, 8570205.910780491307378 ], [ 281273.3911974717048, 8570202.767922405153513 ], [ 281282.884481574234087, 8570199.625064318999648 ], [ 281292.377765676763374, 8570196.482206232845783 ], [ 281301.871049779234454, 8570193.339348146691918 ], [ 281310.945422800199594, 8570196.309953976422548 ], [ 281319.921273375162855, 8570200.71836712025106 ], [ 281328.897123950184323, 8570205.126780265942216 ], [ 281337.872974525147583, 8570209.535193409770727 ], [ 281346.848825100169051, 8570213.943606555461884 ], [ 281355.82467567519052, 8570218.352019699290395 ], [ 281364.80052625015378, 8570222.760432844981551 ], [ 281373.776376825175248, 8570227.168845990672708 ], [ 281382.752227400138509, 8570231.577259134501219 ], [ 281391.728077975159977, 8570235.985672280192375 ], [ 281400.703928550181445, 8570240.394085424020886 ], [ 281409.679779125144705, 8570244.802498569712043 ], [ 281418.655629700166173, 8570249.210911713540554 ], [ 281427.631480275129434, 8570253.61932485923171 ], [ 281436.607330850150902, 8570258.027738003060222 ], [ 281445.58318142517237, 8570262.436151148751378 ], [ 281454.55903200013563, 8570266.844564292579889 ], [ 281463.534882575157098, 8570271.252977438271046 ], [ 281472.510733150120359, 8570275.661390582099557 ], [ 281481.486583725141827, 8570280.069803727790713 ], [ 281490.462434300163295, 8570284.478216871619225 ], [ 281499.438284875126556, 8570288.886630017310381 ], [ 281508.414135450148024, 8570293.295043161138892 ], [ 281517.389986025111284, 8570297.703456306830049 ], [ 281526.365836600132752, 8570302.11186945065856 ], [ 281535.34168717515422, 8570306.520282596349716 ], [ 281544.317537750117481, 8570310.928695740178227 ], [ 281553.293388325138949, 8570315.337108885869384 ], [ 281562.269238900102209, 8570319.74552203156054 ], [ 281571.245089475123677, 8570324.153935175389051 ], [ 281580.220940050145146, 8570328.562348321080208 ], [ 281589.196790625108406, 8570332.970761464908719 ], [ 281598.172641200129874, 8570337.379174610599875 ], [ 281607.148491775093134, 8570341.787587754428387 ], [ 281616.124342350114603, 8570346.196000900119543 ], [ 281625.100192925136071, 8570350.604414043948054 ], [ 281634.076043500099331, 8570355.012827189639211 ], [ 281643.051894075120799, 8570359.421240333467722 ], [ 281652.02774465008406, 8570363.829653479158878 ], [ 281661.003595225105528, 8570368.23806662298739 ], [ 281669.979445800126996, 8570372.646479768678546 ], [ 281679.278966886457056, 8570370.537135871127248 ], [ 281688.647420481545851, 8570367.039697203785181 ], [ 281698.015874076692853, 8570363.542258536443114 ], [ 281707.384327671781648, 8570360.044819867238402 ], [ 281716.75278126692865, 8570356.547381199896336 ], [ 281726.121234862017445, 8570353.049942532554269 ], [ 281735.489688457164448, 8570349.552503865212202 ], [ 281744.858142052253243, 8570346.05506519600749 ], [ 281754.202159778214991, 8570342.88189747557044 ], [ 281762.940683215274476, 8570347.743811516091228 ], [ 281771.67920665233396, 8570352.605725556612015 ], [ 281780.417730089393444, 8570357.467639597132802 ], [ 281789.156253526452929, 8570362.329553639516234 ], [ 281797.894776963512413, 8570367.191467680037022 ], [ 281806.633300400571898, 8570372.053381720557809 ], [ 281815.371823837631382, 8570376.915295761078596 ], [ 281824.110347274690866, 8570381.777209801599383 ], [ 281832.848870711750351, 8570386.639123842120171 ], [ 281841.587394148809835, 8570391.501037882640958 ], [ 281850.32591758586932, 8570396.36295192502439 ], [ 281859.064441022928804, 8570401.224865965545177 ], [ 281867.802964459988289, 8570406.086780006065965 ], [ 281876.541487897047773, 8570410.948694046586752 ], [ 281885.280011334107257, 8570415.810608087107539 ], [ 281894.018534771166742, 8570420.672522127628326 ], [ 281902.757058208226226, 8570425.534436168149114 ], [ 281911.495581645285711, 8570430.396350210532546 ], [ 281920.234105082345195, 8570435.258264251053333 ], [ 281928.97262851940468, 8570440.120178291574121 ], [ 281937.711151956464164, 8570444.982092332094908 ], [ 281946.449675393523648, 8570449.844006372615695 ], [ 281955.188198830583133, 8570454.705920413136482 ], [ 281963.926722267642617, 8570459.567834453657269 ], [ 281972.665245704702102, 8570464.429748496040702 ], [ 281981.403769141761586, 8570469.291662536561489 ], [ 281990.14229257882107, 8570474.153576577082276 ], [ 281998.880816015880555, 8570479.015490617603064 ], [ 282007.619339452940039, 8570483.877404658123851 ], [ 282016.357862889999524, 8570488.739318698644638 ], [ 282025.096386327059008, 8570493.601232739165425 ], [ 282033.834909764118493, 8570498.463146781548858 ], [ 282041.198677441745531, 8570504.620257725939155 ], [ 282045.531648771895561, 8570513.63276899978518 ], [ 282049.864620102045592, 8570522.64528027176857 ], [ 282054.197591432195622, 8570531.6577915456146 ], [ 282058.530562762345653, 8570540.67030281946063 ], [ 282062.863534092437476, 8570549.682814093306661 ], [ 282067.196505422587506, 8570558.695325365290046 ], [ 282071.529476752737537, 8570567.707836639136076 ], [ 282075.862448082887568, 8570576.720347912982106 ], [ 282080.19541941297939, 8570585.732859184965491 ], [ 282084.528390743129421, 8570594.745370458811522 ], [ 282088.861362073279452, 8570603.757881732657552 ], [ 282093.194333403429482, 8570612.770393006503582 ], [ 282097.527304733579513, 8570621.782904278486967 ], [ 282101.860276063671336, 8570630.795415552332997 ], [ 282106.193247393821366, 8570639.807926826179028 ], [ 282110.526218723971397, 8570648.820438100025058 ], [ 282114.859190054121427, 8570657.832949372008443 ], [ 282119.192161384271458, 8570666.845460645854473 ], [ 282123.525132714363281, 8570675.857971919700503 ], [ 282127.858104044513311, 8570684.870483193546534 ], [ 282132.191075374663342, 8570693.882994465529919 ], [ 282136.524046704813372, 8570702.895505739375949 ], [ 282140.857018034905195, 8570711.908017013221979 ], [ 282145.189989365055226, 8570720.920528285205364 ], [ 282149.522960695205256, 8570729.933039559051394 ], [ 282153.855932025355287, 8570738.945550832897425 ], [ 282158.188903355505317, 8570747.958062106743455 ], [ 282162.52187468559714, 8570756.97057337872684 ], [ 282166.854846015747171, 8570765.98308465257287 ], [ 282171.187817345897201, 8570774.9955959264189 ], [ 282175.520788676047232, 8570784.008107200264931 ], [ 282179.853760006139055, 8570793.020618472248316 ], [ 282184.186731336289085, 8570802.033129746094346 ], [ 282188.519702666439116, 8570811.045641019940376 ], [ 282192.852673996589147, 8570820.058152293786407 ], [ 282197.185645326739177, 8570829.070663565769792 ], [ 282201.518616656831, 8570838.083174839615822 ], [ 282205.851587986981031, 8570847.095686113461852 ], [ 282210.184559317131061, 8570856.108197385445237 ], [ 282214.517530647281092, 8570865.120708659291267 ], [ 282218.850501977431122, 8570874.133219933137298 ], [ 282223.183473307522945, 8570883.145731206983328 ], [ 282227.516444637672976, 8570892.158242478966713 ], [ 282231.849415967823006, 8570901.170753752812743 ], [ 282236.182387297973037, 8570910.183265026658773 ], [ 282240.51535862806486, 8570919.195776300504804 ], [ 282244.84832995821489, 8570928.208287572488189 ], [ 282249.181301288364921, 8570937.220798846334219 ], [ 282253.514272618514951, 8570946.233310120180249 ], [ 282257.847243948664982, 8570955.245821394026279 ], [ 282262.180215278756805, 8570964.258332666009665 ], [ 282266.513186608906835, 8570973.270843939855695 ], [ 282270.846157939056866, 8570982.283355213701725 ], [ 282275.179129269206896, 8570991.29586648568511 ], [ 282279.512100599356927, 8571000.30837775953114 ], [ 282283.84507192944875, 8571009.320889033377171 ], [ 282288.17804325959878, 8571018.333400307223201 ], [ 282292.927080459368881, 8571026.711170937865973 ], [ 282302.91993675759295, 8571027.089090244844556 ], [ 282312.912793055817019, 8571027.467009551823139 ], [ 282322.905649354099296, 8571027.844928860664368 ], [ 282332.898505652323365, 8571028.222848167642951 ], [ 282342.891361950547434, 8571028.600767474621534 ], [ 282352.884218248829711, 8571028.978686781600118 ], [ 282362.87707454705378, 8571029.356606088578701 ], [ 282372.86993084527785, 8571029.734525395557284 ], [ 282382.862787143501919, 8571030.112444702535868 ], [ 282392.855643441784196, 8571030.490364009514451 ], [ 282402.848499740008265, 8571030.868283316493034 ], [ 282412.841356038232334, 8571031.246202623471618 ], [ 282422.834212336514611, 8571031.624121932312846 ], [ 282432.82706863473868, 8571032.00204123929143 ], [ 282442.819924932962749, 8571032.379960546270013 ], [ 282452.812781231186818, 8571032.757879853248596 ], [ 282462.805637529469095, 8571033.13579916022718 ], [ 282472.798493827693164, 8571033.513718467205763 ], [ 282482.791350125917234, 8571033.891637774184346 ], [ 282492.784206424141303, 8571034.26955708116293 ], [ 282502.77706272242358, 8571034.647476388141513 ], [ 282512.769919020647649, 8571035.025395695120096 ], [ 282522.762775318871718, 8571035.40331500209868 ], [ 282532.755631617153995, 8571035.781234310939908 ], [ 282542.748487915378064, 8571036.159153617918491 ], [ 282552.741344213602133, 8571036.537072924897075 ], [ 282562.734200511826202, 8571036.914992231875658 ], [ 282572.727056810108479, 8571037.292911538854241 ], [ 282582.719913108332548, 8571037.670830845832825 ], [ 282592.712769406556617, 8571038.048750152811408 ], [ 282602.705625704838894, 8571038.426669459789991 ], [ 282612.698482003062963, 8571038.804588766768575 ], [ 282622.691338301287033, 8571039.182508073747158 ], [ 282632.684194599511102, 8571039.560427380725741 ], [ 282642.625993829104118, 8571039.439358657225966 ], [ 282652.335238012601621, 8571037.04549621604383 ], [ 282662.044482196157333, 8571034.651633774861693 ], [ 282671.753726379654836, 8571032.257771335542202 ], [ 282681.462970563152339, 8571029.863908894360065 ], [ 282691.17221474670805, 8571027.470046453177929 ], [ 282700.881458930205554, 8571025.076184011995792 ], [ 282710.590703113761265, 8571022.682321572676301 ], [ 282720.299947297258768, 8571020.288459131494164 ], [ 282730.009191480756272, 8571017.894596690312028 ], [ 282739.718435664311983, 8571015.500734249129891 ], [ 282749.427679847809486, 8571013.1068718098104 ], [ 282759.136924031306989, 8571010.713009368628263 ], [ 282768.846168214862701, 8571008.319146927446127 ], [ 282778.555412398360204, 8571005.925284488126636 ], [ 282788.264656581857707, 8571003.531422046944499 ], [ 282797.973900765413418, 8571001.137559605762362 ], [ 282807.683144948910922, 8570998.743697164580226 ], [ 282817.392389132466633, 8570996.349834725260735 ], [ 282827.101633315964136, 8570993.955972284078598 ], [ 282836.81087749946164, 8570991.562109842896461 ], [ 282846.520121683017351, 8570989.16824740357697 ], [ 282856.229365866514854, 8570986.774384962394834 ], [ 282865.938610050012358, 8570984.380522521212697 ], [ 282875.647854233568069, 8570981.98666008003056 ], [ 282885.357098417065572, 8570979.592797640711069 ], [ 282895.066342600621283, 8570977.198935199528933 ], [ 282904.775586784118786, 8570974.805072758346796 ], [ 282914.48483096761629, 8570972.41121031716466 ], [ 282924.194075151172001, 8570970.017347877845168 ], [ 282933.903319334669504, 8570967.623485436663032 ], [ 282943.612563518167008, 8570965.229622995480895 ], [ 282953.321807701722719, 8570962.835760556161404 ], [ 282963.031051885220222, 8570960.441898114979267 ], [ 282972.60315250401618, 8570959.92804529517889 ], [ 282981.862201153417118, 8570963.705613046884537 ], [ 282991.121249802759849, 8570967.483180796727538 ], [ 283000.380298452102579, 8570971.260748546570539 ], [ 283009.639347101503517, 8570975.038316296413541 ], [ 283018.898395750846248, 8570978.815884048119187 ], [ 283028.157444400247186, 8570982.593451797962189 ], [ 283037.416493049589917, 8570986.37101954780519 ], [ 283046.675541698932648, 8570990.148587299510837 ], [ 283055.934590348333586, 8570993.926155049353838 ], [ 283065.193638997676317, 8570997.703722799196839 ], [ 283074.452687647077255, 8571001.481290549039841 ], [ 283083.711736296419986, 8571005.258858300745487 ], [ 283092.970784945762716, 8571009.036426050588489 ], [ 283102.229833595163655, 8571012.81399380043149 ], [ 283111.488882244506385, 8571016.591561552137136 ], [ 283120.747930893907323, 8571020.369129301980138 ], [ 283130.006979543250054, 8571024.146697051823139 ], [ 283139.266028192592785, 8571027.924264801666141 ], [ 283148.525076841993723, 8571031.701832553371787 ], [ 283157.784125491336454, 8571035.479400303214788 ], [ 283167.043174140737392, 8571039.25696805305779 ], [ 283176.302222790080123, 8571043.034535804763436 ], [ 283185.561271439422853, 8571046.812103554606438 ], [ 283194.820320088823792, 8571050.589671304449439 ], [ 283204.079368738166522, 8571054.36723905429244 ], [ 283213.778071252629161, 8571056.756202733144164 ], [ 283223.524028065497987, 8571058.995918296277523 ], [ 283233.269984878366813, 8571061.235633859410882 ], [ 283243.015941691177431, 8571063.475349422544241 ], [ 283252.761898504046258, 8571065.7150649856776 ], [ 283262.507855316915084, 8571067.954780546948314 ], [ 283272.25381212978391, 8571070.194496110081673 ], [ 283281.999768942652736, 8571072.434211673215032 ], [ 283291.745725755463354, 8571074.673927236348391 ], [ 283301.49168256833218, 8571076.913642797619104 ], [ 283311.237639381201006, 8571079.153358360752463 ], [ 283320.983596194069833, 8571081.393073923885822 ], [ 283330.729553006938659, 8571083.632789487019181 ], [ 283340.475509819807485, 8571085.87250505015254 ], [ 283350.221466632618103, 8571088.112220611423254 ], [ 283359.967423445486929, 8571090.351936174556613 ], [ 283369.713380258355755, 8571092.591651737689972 ], [ 283379.459337071224581, 8571094.831367300823331 ], [ 283389.205293884093408, 8571097.071082862094045 ], [ 283398.951250696962234, 8571099.310798425227404 ], [ 283408.697207509772852, 8571101.550513988360763 ], [ 283418.443164322641678, 8571103.790229551494122 ], [ 283428.189121135510504, 8571106.029945114627481 ], [ 283437.93507794837933, 8571108.269660675898194 ], [ 283446.112264850642532, 8571113.633212456479669 ], [ 283453.728938222920988, 8571120.11289506778121 ], [ 283461.345611595141236, 8571126.592577679082751 ], [ 283468.962284967419691, 8571133.072260288521647 ], [ 283476.578958339698147, 8571139.551942899823189 ], [ 283484.195631711976603, 8571146.03162551112473 ], [ 283491.812305084196851, 8571152.511308122426271 ], [ 283499.428978456475306, 8571158.990990733727813 ], [ 283507.045651828753762, 8571165.470673345029354 ], [ 283514.662325201032218, 8571171.950355956330895 ], [ 283522.278998573310673, 8571178.430038567632437 ], [ 283529.895671945530921, 8571184.909721177071333 ], [ 283537.512345317809377, 8571191.389403788372874 ], [ 283545.129018690087833, 8571197.869086399674416 ], [ 283552.745692062366288, 8571204.348769010975957 ], [ 283560.362365434586536, 8571210.828451622277498 ], [ 283567.979038806864992, 8571217.30813423357904 ], [ 283575.595712179143447, 8571223.787816844880581 ], [ 283583.212385551421903, 8571230.267499456182122 ], [ 283590.829058923700359, 8571236.747182065621018 ], [ 283598.445732295920607, 8571243.22686467692256 ], [ 283606.062405668199062, 8571249.706547288224101 ], [ 283613.679079040477518, 8571256.186229899525642 ], [ 283621.295752412755974, 8571262.665912510827184 ], [ 283628.912425784976222, 8571269.145595122128725 ], [ 283636.529099157254677, 8571275.625277733430266 ], [ 283644.145772529533133, 8571282.104960344731808 ], [ 283651.762445901811589, 8571288.584642954170704 ], [ 283659.379119274090044, 8571295.064325565472245 ], [ 283666.995792646310292, 8571301.544008176773787 ], [ 283674.612466018588748, 8571308.023690788075328 ], [ 283682.229139390867203, 8571314.503373399376869 ], [ 283689.845812763145659, 8571320.983056010678411 ], [ 283697.462486135365907, 8571327.462738621979952 ], [ 283705.079159507644363, 8571333.942421233281493 ], [ 283712.695832879922818, 8571340.422103842720389 ], [ 283720.312506252201274, 8571346.901786454021931 ], [ 283728.58010143309366, 8571351.632777184247971 ], [ 283738.579799392726272, 8571351.710499227046967 ], [ 283748.579497352358885, 8571351.788221271708608 ], [ 283758.579195311991498, 8571351.865943314507604 ], [ 283768.578893271624111, 8571351.943665359169245 ], [ 283778.578591231256723, 8571352.021387401968241 ], [ 283788.578289190889336, 8571352.099109446629882 ], [ 283798.577987150521949, 8571352.176831491291523 ], [ 283808.577685110154562, 8571352.254553534090519 ], [ 283818.577383069787174, 8571352.33227557875216 ], [ 283828.577081029419787, 8571352.409997621551156 ], [ 283838.5767789890524, 8571352.487719666212797 ], [ 283848.576476948685013, 8571352.565441709011793 ], [ 283858.576174908317626, 8571352.643163753673434 ], [ 283868.575872867950238, 8571352.720885798335075 ], [ 283878.575570827582851, 8571352.798607841134071 ], [ 283888.575268787215464, 8571352.876329885795712 ], [ 283898.574966746848077, 8571352.954051928594708 ], [ 283908.574664706480689, 8571353.03177397325635 ], [ 283918.574362666113302, 8571353.109496016055346 ], [ 283928.574060625745915, 8571353.187218060716987 ], [ 283938.573758585378528, 8571353.264940105378628 ], [ 283948.57345654501114, 8571353.342662148177624 ], [ 283958.573154504643753, 8571353.420384192839265 ], [ 283968.572852464276366, 8571353.498106235638261 ], [ 283978.572550423908979, 8571353.575828280299902 ], [ 283988.572248383541591, 8571353.653550323098898 ], [ 283998.571946343174204, 8571353.731272367760539 ], [ 284008.571644302806817, 8571353.80899441242218 ], [ 284018.57134226243943, 8571353.886716455221176 ], [ 284028.571040222072043, 8571353.964438499882817 ], [ 284038.570738181704655, 8571354.042160542681813 ], [ 284048.570436141337268, 8571354.119882587343454 ], [ 284058.570134100969881, 8571354.19760463014245 ], [ 284068.569832060602494, 8571354.275326674804091 ], [ 284078.569530020235106, 8571354.353048719465733 ], [ 284088.569227979867719, 8571354.430770762264729 ], [ 284098.568925939500332, 8571354.50849280692637 ], [ 284108.568623899132945, 8571354.586214849725366 ], [ 284118.215805792831816, 8571356.032084936276078 ], [ 284127.007993733976036, 8571360.796267049387097 ], [ 284135.800181675062049, 8571365.560449162498116 ], [ 284144.59236961620627, 8571370.324631275609136 ], [ 284153.38455755735049, 8571375.088813388720155 ], [ 284162.176745498436503, 8571379.852995501831174 ], [ 284170.968933439580724, 8571384.617177614942193 ], [ 284179.761121380724944, 8571389.381359728053212 ], [ 284188.553309321810957, 8571394.145541841164231 ], [ 284197.345497262955178, 8571398.90972395427525 ], [ 284206.137685204099398, 8571403.67390606738627 ], [ 284214.929873145243619, 8571408.438088180497289 ], [ 284223.722061086329632, 8571413.202270293608308 ], [ 284232.514249027473852, 8571417.966452406719327 ], [ 284241.306436968618073, 8571422.730634519830346 ], [ 284250.098624909704085, 8571427.494816632941365 ], [ 284258.890812850848306, 8571432.258998746052384 ], [ 284267.683000791992527, 8571437.023180861026049 ], [ 284276.475188733078539, 8571441.787362974137068 ], [ 284285.26737667422276, 8571446.551545087248087 ], [ 284294.05956461536698, 8571451.315727200359106 ], [ 284302.851752556511201, 8571456.079909313470125 ], [ 284311.643940497597214, 8571460.844091426581144 ], [ 284320.436128438741434, 8571465.608273539692163 ], [ 284329.228316379885655, 8571470.372455652803183 ], [ 284338.020504320971668, 8571475.136637765914202 ], [ 284346.812692262115888, 8571479.900819879025221 ], [ 284355.604880203260109, 8571484.66500199213624 ], [ 284364.397068144346122, 8571489.429184105247259 ], [ 284373.189256085490342, 8571494.193366218358278 ], [ 284381.981444026634563, 8571498.957548331469297 ], [ 284390.773631967778783, 8571503.721730444580317 ], [ 284399.565819908864796, 8571508.485912557691336 ], [ 284408.358007850009017, 8571513.250094670802355 ], [ 284417.150195791153237, 8571518.014276785776019 ], [ 284425.94238373223925, 8571522.778458898887038 ], [ 284434.734571673383471, 8571527.542641011998057 ], [ 284443.526759614527691, 8571532.306823125109076 ], [ 284452.318947555613704, 8571537.071005238220096 ], [ 284461.111135496757925, 8571541.835187351331115 ], [ 284469.903323437902145, 8571546.599369464442134 ], [ 284478.695511379046366, 8571551.363551577553153 ], [ 284487.487699320132378, 8571556.127733690664172 ], [ 284496.279887261276599, 8571560.891915803775191 ], [ 284505.07207520242082, 8571565.65609791688621 ], [ 284513.864263143506832, 8571570.42028002999723 ], [ 284522.656451084651053, 8571575.184462143108249 ], [ 284531.448639025795273, 8571579.948644256219268 ], [ 284540.240826966881286, 8571584.712826369330287 ], [ 284549.033014908025507, 8571589.477008482441306 ], [ 284557.825202849169727, 8571594.241190595552325 ], [ 284566.617390790313948, 8571599.005372708663344 ], [ 284575.409578731399961, 8571603.769554823637009 ], [ 284584.201766672544181, 8571608.533736936748028 ], [ 284586.234228312037885, 8571617.694268373772502 ], [ 284587.023965427302755, 8571627.663035362958908 ], [ 284587.813702542625833, 8571637.631802352145314 ], [ 284588.603439657890704, 8571647.60056934133172 ], [ 284589.393176773155574, 8571657.569336330518126 ], [ 284590.182913888420444, 8571667.538103319704533 ], [ 284590.972651003743522, 8571677.506870308890939 ], [ 284591.762388119008392, 8571687.475637298077345 ], [ 284592.552125234273262, 8571697.444404287263751 ], [ 284593.34186234959634, 8571707.413171278312802 ], [ 284594.13159946486121, 8571717.381938267499208 ], [ 284594.921336580126081, 8571727.350705256685615 ], [ 284595.711073695449159, 8571737.319472245872021 ], [ 284596.500810810714029, 8571747.288239235058427 ], [ 284597.290547925978899, 8571757.257006224244833 ], [ 284598.080285041243769, 8571767.225773213431239 ], [ 284598.870022156566847, 8571777.194540202617645 ], [ 284599.659759271831717, 8571787.163307191804051 ], [ 284600.449496387096588, 8571797.132074182853103 ], [ 284601.239233502419665, 8571807.100841172039509 ], [ 284602.028970617684536, 8571817.069608161225915 ], [ 284602.818707732949406, 8571827.038375150412321 ], [ 284603.608444848272484, 8571837.007142139598727 ], [ 284604.398181963537354, 8571846.975909128785133 ], [ 284605.187919078802224, 8571856.944676117971539 ], [ 284605.977656194067094, 8571866.913443107157946 ], [ 284606.767393309390172, 8571876.882210096344352 ], [ 284607.557130424655043, 8571886.850977087393403 ], [ 284608.346867539919913, 8571896.819744076579809 ], [ 284609.136604655242991, 8571906.788511065766215 ], [ 284609.926341770507861, 8571916.757278054952621 ], [ 284610.716078885772731, 8571926.726045044139028 ], [ 284610.692680932639632, 8571936.649805435910821 ], [ 284608.807606285088696, 8571946.470523005351424 ], [ 284606.922531637537759, 8571956.291240574792027 ], [ 284605.037456989986822, 8571966.111958144232631 ], [ 284603.152382342494093, 8571975.932675713673234 ], [ 284601.267307694943156, 8571985.753393281251192 ], [ 284599.382233047392219, 8571995.574110850691795 ], [ 284597.497158399841283, 8572005.394828420132399 ], [ 284595.612083752290346, 8572015.215545989573002 ], [ 284593.727009104797617, 8572025.036263559013605 ], [ 284591.84193445724668, 8572034.856981128454208 ], [ 284589.956859809695743, 8572044.677698697894812 ], [ 284588.071785162144806, 8572054.49841626547277 ], [ 284586.186710514652077, 8572064.319133834913373 ], [ 284584.30163586710114, 8572074.139851404353976 ], [ 284582.416561219550204, 8572083.96056897379458 ], [ 284580.531486571999267, 8572093.781286543235183 ], [ 284580.458384626661427, 8572103.366377806290984 ], [ 284584.79243744444102, 8572112.378369050100446 ], [ 284589.126490262162406, 8572121.390360293909907 ], [ 284593.460543079941999, 8572130.402351537719369 ], [ 284597.794595897721592, 8572139.414342781528831 ], [ 284602.128648715442978, 8572148.426334025338292 ], [ 284606.462701533222571, 8572157.438325267285109 ], [ 284610.796754350943957, 8572166.45031651109457 ], [ 284615.13080716872355, 8572175.462307754904032 ], [ 284619.464859986503143, 8572184.474298998713493 ], [ 284623.798912804224528, 8572193.486290242522955 ], [ 284628.132965622004122, 8572202.498281484469771 ], [ 284632.467018439783715, 8572211.510272728279233 ], [ 284636.8010712575051, 8572220.522263972088695 ], [ 284641.135124075284693, 8572229.534255215898156 ], [ 284645.469176893006079, 8572238.546246459707618 ], [ 284649.803229710785672, 8572247.558237703517079 ], [ 284654.137282528565265, 8572256.570228945463896 ], [ 284658.471335346286651, 8572265.582220189273357 ], [ 284662.805388164066244, 8572274.594211433082819 ], [ 284667.139440981845837, 8572283.606202676892281 ], [ 284671.473493799567223, 8572292.618193920701742 ], [ 284675.807546617346816, 8572301.630185164511204 ], [ 284680.141599435068201, 8572310.64217640645802 ], [ 284684.475652252847794, 8572319.654167650267482 ], [ 284688.809705070627388, 8572328.666158894076943 ], [ 284693.143757888348773, 8572337.678150137886405 ], [ 284697.477810706128366, 8572346.690141381695867 ], [ 284701.811863523907959, 8572355.702132625505328 ], [ 284706.145916341629345, 8572364.714123867452145 ], [ 284710.479969159408938, 8572373.726115111261606 ], [ 284714.814021977130324, 8572382.738106355071068 ], [ 284719.148074794909917, 8572391.750097598880529 ], [ 284723.48212761268951, 8572400.762088842689991 ], [ 284727.816180430410895, 8572409.774080086499453 ], [ 284732.150233248190489, 8572418.786071328446269 ], [ 284736.484286065970082, 8572427.798062572255731 ], [ 284740.818338883691467, 8572436.810053816065192 ], [ 284745.152391701471061, 8572445.822045059874654 ], [ 284749.486444519192446, 8572454.834036303684115 ], [ 284757.591015822486952, 8572458.991656301543117 ], [ 284767.395148853771389, 8572460.96116778999567 ], [ 284777.199281885055825, 8572462.930679278448224 ], [ 284787.003414916340262, 8572464.900190768763423 ], [ 284796.807547947624698, 8572466.869702257215977 ], [ 284806.611680978909135, 8572468.83921374566853 ], [ 284816.415814010193571, 8572470.808725234121084 ], [ 284826.219947041478008, 8572472.778236724436283 ], [ 284836.024080072762445, 8572474.747748212888837 ], [ 284845.828213104046881, 8572476.717259701341391 ], [ 284855.632346135331318, 8572478.686771189793944 ], [ 284865.436479166615754, 8572480.656282680109143 ], [ 284875.240612197900191, 8572482.625794168561697 ], [ 284885.044745229184628, 8572484.595305657014251 ], [ 284894.848878260469064, 8572486.564817145466805 ], [ 284904.653011291753501, 8572488.534328635782003 ], [ 284914.457144323037937, 8572490.503840124234557 ], [ 284924.261277354322374, 8572492.473351612687111 ], [ 284934.06541038560681, 8572494.442863101139665 ], [ 284943.869543416891247, 8572496.412374591454864 ], [ 284953.673676448175684, 8572498.381886079907417 ], [ 284963.47780947946012, 8572500.351397568359971 ], [ 284973.281942510686349, 8572502.320909056812525 ], [ 284983.086075541970786, 8572504.290420545265079 ], [ 284992.890208573255222, 8572506.259932035580277 ], [ 285002.694341604539659, 8572508.229443524032831 ], [ 285012.498474635824095, 8572510.198955012485385 ], [ 285022.302607667108532, 8572512.168466500937939 ], [ 285032.106740698392969, 8572514.137977991253138 ], [ 285041.910873729677405, 8572516.107489479705691 ], [ 285051.715006760961842, 8572518.077000968158245 ], [ 285061.519139792246278, 8572520.046512456610799 ], [ 285071.323272823530715, 8572522.016023946925998 ], [ 285081.127405854815152, 8572523.985535435378551 ], [ 285090.931538886099588, 8572525.955046923831105 ], [ 285100.735671917384025, 8572527.924558412283659 ], [ 285110.539804948668461, 8572529.894069902598858 ], [ 285120.343937979952898, 8572531.863581391051412 ], [ 285129.93115235294681, 8572534.081094956025481 ], [ 285133.188260114227887, 8572543.5357895065099 ], [ 285136.445367875450756, 8572552.990484056994319 ], [ 285139.702475636673626, 8572562.445178607478738 ], [ 285142.959583397954702, 8572571.899873156100512 ], [ 285146.216691159177572, 8572581.35456770658493 ], [ 285149.473798920400441, 8572590.809262257069349 ], [ 285152.730906681681518, 8572600.263956805691123 ], [ 285155.988014442904387, 8572609.718651356175542 ], [ 285159.245122204127256, 8572619.173345906659961 ], [ 285162.502229965350125, 8572628.628040455281734 ], [ 285165.759337726631202, 8572638.082735005766153 ], [ 285169.016445487854071, 8572647.537429556250572 ], [ 285172.27355324907694, 8572656.992124104872346 ], [ 285175.530661010358017, 8572666.446818655356765 ], [ 285178.787768771580886, 8572675.901513205841184 ], [ 285182.044876532803755, 8572685.356207754462957 ], [ 285185.301984294084832, 8572694.810902304947376 ], [ 285188.559092055307701, 8572704.265596855431795 ], [ 285191.81619981653057, 8572713.720291404053569 ], [ 285195.073307577811647, 8572723.174985954537988 ], [ 285198.330415339034516, 8572732.629680505022407 ], [ 285201.587523100257386, 8572742.08437505364418 ], [ 285204.844630861538462, 8572751.539069604128599 ], [ 285208.101738622761331, 8572760.993764154613018 ], [ 285211.358846383984201, 8572770.448458703234792 ], [ 285214.615954145265277, 8572779.903153253719211 ], [ 285217.873061906488147, 8572789.357847804203629 ], [ 285222.450480338535272, 8572797.920493807643652 ], [ 285230.006735772534739, 8572804.470532266423106 ], [ 285237.562991206592415, 8572811.02057072520256 ], [ 285245.119246640591882, 8572817.570609183982015 ], [ 285252.675502074649557, 8572824.120647644624114 ], [ 285260.231757508649025, 8572830.670686103403568 ], [ 285267.7880129427067, 8572837.220724562183022 ], [ 285275.344268376706168, 8572843.770763020962477 ], [ 285282.900523810763843, 8572850.320801479741931 ], [ 285290.456779244763311, 8572856.870839938521385 ], [ 285298.013034678820986, 8572863.420878399163485 ], [ 285305.569290112820454, 8572869.970916857942939 ], [ 285313.125545546878129, 8572876.520955316722393 ], [ 285320.681800980877597, 8572883.070993775501847 ], [ 285328.238056414877065, 8572889.621032234281301 ], [ 285335.79431184893474, 8572896.171070694923401 ], [ 285343.350567282934207, 8572902.721109153702855 ], [ 285350.906822716991883, 8572909.271147612482309 ], [ 285358.46307815099135, 8572915.821186071261764 ], [ 285366.019333585049026, 8572922.371224530041218 ], [ 285373.575589019048493, 8572928.921262988820672 ], [ 285381.131844453106169, 8572935.471301449462771 ], [ 285388.688099887105636, 8572942.021339908242226 ], [ 285396.244355321163312, 8572948.57137836702168 ], [ 285403.800610755162779, 8572955.121416825801134 ], [ 285411.356866189220455, 8572961.671455284580588 ], [ 285418.913121623219922, 8572968.221493743360043 ], [ 285426.46937705721939, 8572974.771532204002142 ], [ 285434.025632491277065, 8572981.321570662781596 ], [ 285441.581887925276533, 8572987.87160912156105 ], [ 285449.138143359334208, 8572994.421647580340505 ], [ 285456.694398793333676, 8573000.971686039119959 ], [ 285464.250654227391351, 8573007.521724497899413 ], [ 285471.806909661390819, 8573014.071762958541512 ], [ 285479.363165095448494, 8573020.621801417320967 ], [ 285486.919420529447962, 8573027.171839876100421 ], [ 285494.475675963505637, 8573033.721878334879875 ], [ 285502.031931397505105, 8573040.271916793659329 ], [ 285509.58818683156278, 8573046.821955254301429 ], [ 285517.144442265562247, 8573053.371993713080883 ], [ 285524.700697699619923, 8573059.922032171860337 ], [ 285532.25695313361939, 8573066.472070630639791 ], [ 285539.813208567618858, 8573073.022109089419246 ], [ 285547.369464001676533, 8573079.5721475481987 ], [ 285554.925719435676001, 8573086.122186008840799 ], [ 285562.481974869733676, 8573092.672224467620254 ], [ 285570.038230303733144, 8573099.222262926399708 ], [ 285577.594485737790819, 8573105.772301385179162 ], [ 285585.150741171790287, 8573112.322339843958616 ], [ 285592.706996605847962, 8573118.87237830273807 ], [ 285600.26325203984743, 8573125.42241676338017 ], [ 285607.819507473905105, 8573131.972455222159624 ], [ 285615.375762907904573, 8573138.522493680939078 ], [ 285622.932018341962248, 8573145.072532139718533 ], [ 285630.488273775961716, 8573151.622570598497987 ], [ 285638.044529210019391, 8573158.172609059140086 ], [ 285645.600784644018859, 8573164.72264751791954 ], [ 285653.157040078018326, 8573171.272685976698995 ], [ 285658.571883174066897, 8573178.897695749998093 ], [ 285659.309920044208411, 8573188.870423641055822 ], [ 285660.047956914408132, 8573198.843151532113552 ], [ 285660.785993784549646, 8573208.815879423171282 ], [ 285661.52403065469116, 8573218.788607312366366 ], [ 285662.262067524890881, 8573228.761335203424096 ], [ 285663.000104395032395, 8573238.734063094481826 ], [ 285663.738141265232116, 8573248.70679098367691 ], [ 285664.47617813537363, 8573258.67951887473464 ], [ 285665.214215005515143, 8573268.65224676579237 ], [ 285665.952251875714865, 8573278.6249746568501 ], [ 285666.690288745856378, 8573288.597702546045184 ], [ 285667.4283256160561, 8573298.570430437102914 ], [ 285668.166362486197613, 8573308.543158328160644 ], [ 285668.904399356339127, 8573318.515886217355728 ], [ 285669.642436226538848, 8573328.488614108413458 ], [ 285670.380473096680362, 8573338.46134199947119 ], [ 285671.118509966880083, 8573348.434069890528917 ], [ 285671.856546837021597, 8573358.406797779724002 ], [ 285672.59458370716311, 8573368.379525670781732 ], [ 285673.332620577362832, 8573378.352253561839461 ], [ 285674.070657447504345, 8573388.324981451034546 ], [ 285674.808694317704067, 8573398.297709342092276 ], [ 285675.54673118784558, 8573408.270437233150005 ], [ 285676.284768057987094, 8573418.24316512234509 ], [ 285678.206910554901697, 8573427.231173792853951 ], [ 285687.877916472614743, 8573429.775116506963968 ], [ 285697.548922390327789, 8573432.31905922293663 ], [ 285707.219928308040835, 8573434.863001938909292 ], [ 285716.890934225753881, 8573437.406944654881954 ], [ 285726.561940143466927, 8573439.950887368991971 ], [ 285736.232946061179973, 8573442.494830084964633 ], [ 285745.903951978893019, 8573445.038772800937295 ], [ 285755.574957896606065, 8573447.582715515047312 ], [ 285765.245963814319111, 8573450.126658231019974 ], [ 285774.916969732032157, 8573452.670600946992636 ], [ 285784.587975649745204, 8573455.214543662965298 ], [ 285794.25898156745825, 8573457.758486377075315 ], [ 285803.929987485229503, 8573460.302429093047976 ], [ 285813.600993402942549, 8573462.846371809020638 ], [ 285823.271999320655596, 8573465.390314523130655 ], [ 285832.943005238368642, 8573467.934257239103317 ], [ 285840.599040460190736, 8573471.917581230401993 ], [ 285839.869693877582904, 8573481.890948442742229 ], [ 285839.140347294916864, 8573491.864315656945109 ], [ 285838.411000712250825, 8573501.837682869285345 ], [ 285837.681654129642993, 8573511.811050081625581 ], [ 285836.952307546976954, 8573521.784417293965816 ], [ 285836.222960964369122, 8573531.757784508168697 ], [ 285835.493614381703082, 8573541.731151720508933 ], [ 285834.764267799037043, 8573551.704518932849169 ], [ 285834.034921216429211, 8573561.67788614705205 ], [ 285833.305574633763172, 8573571.651253359392285 ], [ 285832.576228051097132, 8573581.624620571732521 ], [ 285831.8468814684893, 8573591.597987784072757 ], [ 285831.117534885823261, 8573601.571354998275638 ], [ 285830.388188303157222, 8573611.544722210615873 ], [ 285829.65884172054939, 8573621.518089422956109 ], [ 285828.92949513788335, 8573631.49145663715899 ], [ 285828.200148555275518, 8573641.464823849499226 ], [ 285827.470801972609479, 8573651.438191061839461 ], [ 285826.74145538994344, 8573661.411558274179697 ], [ 285826.012108807335608, 8573671.384925488382578 ], [ 285825.282762224669568, 8573681.358292700722814 ], [ 285824.553415642003529, 8573691.331659913063049 ], [ 285823.824069059395697, 8573701.305027125403285 ], [ 285823.094722476729658, 8573711.278394339606166 ], [ 285822.365375894063618, 8573721.251761551946402 ], [ 285821.636029311455786, 8573731.225128764286637 ], [ 285820.906682728789747, 8573741.198495978489518 ], [ 285820.177336146181915, 8573751.171863190829754 ], [ 285819.447989563515875, 8573761.14523040316999 ], [ 285818.718642980849836, 8573771.118597615510225 ], [ 285817.989296398242004, 8573781.091964829713106 ], [ 285825.271818488254212, 8573784.660126283764839 ], [ 285835.161066193250008, 8573786.144302764907479 ], [ 285845.050313898245804, 8573787.628479247912765 ], [ 285854.9395616032416, 8573789.112655729055405 ], [ 285864.828809308295604, 8573790.596832210198045 ], [ 285874.7180570132914, 8573792.08100869320333 ], [ 285884.607304718287196, 8573793.56518517434597 ], [ 285894.496552423282992, 8573795.04936165548861 ], [ 285904.385800128336996, 8573796.533538138493896 ], [ 285914.275047833332792, 8573798.017714619636536 ], [ 285924.164295538328588, 8573799.501891100779176 ], [ 285934.053543243324384, 8573800.986067583784461 ], [ 285943.94279094832018, 8573802.470244064927101 ], [ 285953.832038653374184, 8573803.954420546069741 ], [ 285963.72128635836998, 8573805.438597029075027 ], [ 285973.610534063365776, 8573806.922773510217667 ], [ 285983.499781768361572, 8573808.406949991360307 ], [ 285993.389029473357368, 8573809.891126474365592 ], [ 286003.278277178411372, 8573811.375302955508232 ], [ 286013.167524883407168, 8573812.859479436650872 ], [ 286023.056772588402964, 8573814.343655919656157 ], [ 286032.94602029339876, 8573815.827832400798798 ], [ 286042.835267998394556, 8573817.312008881941438 ], [ 286052.72451570344856, 8573818.796185364946723 ], [ 286062.613763408444356, 8573820.280361846089363 ], [ 286072.503011113440152, 8573821.764538327232003 ], [ 286082.392258818435948, 8573823.248714810237288 ], [ 286092.281506523431744, 8573824.732891291379929 ], [ 286102.170754228485748, 8573826.217067772522569 ], [ 286112.060001933481544, 8573827.701244255527854 ], [ 286121.94924963847734, 8573829.185420736670494 ], [ 286131.838497343473136, 8573830.669597217813134 ], [ 286141.72774504852714, 8573832.153773698955774 ], [ 286151.616992753522936, 8573833.63795018196106 ], [ 286161.506240458518732, 8573835.1221266631037 ], [ 286171.395488163514528, 8573836.60630314424634 ], [ 286181.284735868510325, 8573838.090479627251625 ], [ 286191.173983573564328, 8573839.574656108394265 ], [ 286201.063231278560124, 8573841.058832589536905 ], [ 286210.95247898355592, 8573842.543009072542191 ], [ 286220.841726688551717, 8573844.027185553684831 ], [ 286230.730974393547513, 8573845.511362034827471 ], [ 286240.620222098601516, 8573846.995538517832756 ], [ 286250.509469803597312, 8573848.479714998975396 ], [ 286260.35577532928437, 8573850.172431048005819 ], [ 286270.026855811884161, 8573852.716090282425284 ], [ 286279.697936294483952, 8573855.259749516844749 ], [ 286289.369016777083743, 8573857.803408751264215 ], [ 286299.040097259625327, 8573860.34706798568368 ], [ 286308.711177742225118, 8573862.890727220103145 ], [ 286318.382258224824909, 8573865.43438645452261 ], [ 286328.053338707366493, 8573867.97804568707943 ], [ 286337.724419189966284, 8573870.521704921498895 ], [ 286347.395499672566075, 8573873.06536415591836 ], [ 286357.066580155107658, 8573875.609023390337825 ], [ 286366.737660637707449, 8573878.15268262475729 ], [ 286376.408741120307241, 8573880.696341859176755 ], [ 286386.079821602907032, 8573883.240001091733575 ], [ 286395.750902085448615, 8573885.78366032615304 ], [ 286405.421982568048406, 8573888.327319560572505 ], [ 286415.093063050648198, 8573890.87097879499197 ], [ 286424.764143533189781, 8573893.414638029411435 ], [ 286434.435224015789572, 8573895.9582972638309 ], [ 286444.106304498389363, 8573898.501956498250365 ], [ 286453.777384980930947, 8573901.045615730807185 ], [ 286463.448465463530738, 8573903.58927496522665 ], [ 286473.119545946130529, 8573906.132934199646115 ], [ 286482.79062642873032, 8573908.67659343406558 ], [ 286492.461706911271904, 8573911.220252668485045 ], [ 286502.132787393871695, 8573913.76391190290451 ], [ 286511.803867876471486, 8573916.307571137323976 ], [ 286521.474948359013069, 8573918.851230369880795 ], [ 286531.146028841612861, 8573921.394889604300261 ], [ 286540.817109324212652, 8573923.938548838719726 ], [ 286546.814751703350339, 8573930.348697418347001 ], [ 286549.849987621360924, 8573939.876936653628945 ], [ 286552.885223539429717, 8573949.40517588891089 ], [ 286555.920459457440302, 8573958.933415124192834 ], [ 286558.955695375450887, 8573968.461654359474778 ], [ 286561.990931293519679, 8573977.989893594756722 ], [ 286565.026167211530264, 8573987.518132830038667 ], [ 286568.061403129540849, 8573997.046372065320611 ], [ 286571.096639047551434, 8574006.574611300602555 ], [ 286574.131874965620227, 8574016.1028505358845 ], [ 286577.167110883630812, 8574025.631089771166444 ], [ 286580.202346801641397, 8574035.159329006448388 ], [ 286583.23758271971019, 8574044.687568241730332 ], [ 286586.272818637720775, 8574054.215807475149632 ], [ 286589.30805455573136, 8574063.744046710431576 ], [ 286592.343290473800153, 8574073.27228594571352 ], [ 286595.378526391810738, 8574082.800525180995464 ], [ 286598.413762309821323, 8574092.328764416277409 ], [ 286601.448998227890115, 8574101.857003651559353 ], [ 286604.4842341459007, 8574111.385242886841297 ], [ 286610.171944015775807, 8574119.41964859329164 ], [ 286616.74645346228499, 8574126.954622086137533 ], [ 286623.32096290885238, 8574134.489595578983426 ], [ 286629.89547235541977, 8574142.024569071829319 ], [ 286636.46998180198716, 8574149.559542564675212 ], [ 286643.04449124855455, 8574157.094516057521105 ], [ 286649.61900069512194, 8574164.629489550366998 ], [ 286656.19351014168933, 8574172.164463043212891 ], [ 286662.76801958825672, 8574179.699436536058784 ], [ 286669.342529034824111, 8574187.234410028904676 ], [ 286675.917038481333293, 8574194.769383521750569 ], [ 286682.491547927900683, 8574202.304357014596462 ], [ 286689.066057374468073, 8574209.839330507442355 ], [ 286695.640566821035463, 8574217.374304 ], [ 286702.215076267602853, 8574224.909277493134141 ], [ 286708.789585714170244, 8574232.444250985980034 ], [ 286715.364095160737634, 8574239.979224478825927 ], [ 286721.938604607305024, 8574247.51419797167182 ], [ 286728.513114053872414, 8574255.049171464517713 ], [ 286735.087623500439804, 8574262.584144957363605 ], [ 286741.662132946948987, 8574270.119118450209498 ], [ 286748.236642393516377, 8574277.654091943055391 ], [ 286754.811151840083767, 8574285.189065435901284 ], [ 286761.385661286651157, 8574292.724038928747177 ], [ 286767.960170733218547, 8574300.25901242159307 ], [ 286774.534680179785937, 8574307.793985914438963 ], [ 286781.109189626353327, 8574315.328959407284856 ], [ 286787.683699072920717, 8574322.863932900130749 ], [ 286794.258208519488107, 8574330.398906392976642 ], [ 286800.83271796599729, 8574337.933879885822535 ], [ 286807.40722741256468, 8574345.468853378668427 ], [ 286813.98173685913207, 8574353.00382687151432 ], [ 286820.55624630569946, 8574360.538800364360213 ], [ 286827.13075575226685, 8574368.073773857206106 ], [ 286833.70526519883424, 8574375.608747348189354 ], [ 286840.279774645401631, 8574383.143720841035247 ], [ 286846.854284091969021, 8574390.67869433388114 ], [ 286853.428793538536411, 8574398.213667826727033 ], [ 286860.003302985045593, 8574405.748641319572926 ], [ 286866.577812431612983, 8574413.283614812418818 ], [ 286873.152321878180373, 8574420.818588305264711 ], [ 286879.726831324747764, 8574428.353561798110604 ], [ 286886.301340771315154, 8574435.888535290956497 ], [ 286894.363086181692779, 8574439.917645031586289 ], [ 286904.350106228492223, 8574439.408301742747426 ], [ 286914.337126275291666, 8574438.898958455771208 ], [ 286924.32414632209111, 8574438.389615166932344 ], [ 286934.311166368890554, 8574437.880271879956126 ], [ 286944.298186415689997, 8574437.370928591117263 ], [ 286954.285206462489441, 8574436.861585304141045 ], [ 286964.272226509288885, 8574436.352242015302181 ], [ 286974.259246556088328, 8574435.842898728325963 ], [ 286984.246266602829564, 8574435.3335554394871 ], [ 286994.233286649629008, 8574434.824212152510881 ], [ 287004.220306696428452, 8574434.314868863672018 ], [ 287014.207326743227895, 8574433.8055255766958 ], [ 287024.194346790027339, 8574433.296182287856936 ], [ 287034.181366836826783, 8574432.786839 ], [ 287044.168386883626226, 8574432.277495712041855 ], [ 287054.15540693042567, 8574431.768152425065637 ], [ 287064.142426977225114, 8574431.258809136226773 ], [ 287074.129447024024557, 8574430.749465849250555 ], [ 287084.116467070765793, 8574430.240122560411692 ], [ 287094.103487117565237, 8574429.730779273435473 ], [ 287104.090507164364681, 8574429.22143598459661 ], [ 287114.077527211164124, 8574428.712092697620392 ], [ 287124.064547257963568, 8574428.202749408781528 ], [ 287134.051567304763012, 8574427.69340612180531 ], [ 287144.038587351562455, 8574427.184062832966447 ], [ 287154.025607398361899, 8574426.674719545990229 ], [ 287164.012627445161343, 8574426.165376257151365 ], [ 287173.999647491960786, 8574425.656032970175147 ], [ 287183.986667538702022, 8574425.146689681336284 ], [ 287193.973687585501466, 8574424.637346394360065 ], [ 287203.96070763230091, 8574424.128003105521202 ], [ 287213.947727679100353, 8574423.618659818544984 ], [ 287223.934747725899797, 8574423.10931652970612 ], [ 287233.921767772699241, 8574422.599973242729902 ], [ 287243.908787819498684, 8574422.090629953891039 ], [ 287250.152163157181349, 8574415.605526385828853 ], [ 287254.967807357374113, 8574406.841419419273734 ], [ 287259.783451557625085, 8574398.077312452718616 ], [ 287264.59909575781785, 8574389.313205484300852 ], [ 287269.414739958068822, 8574380.549098517745733 ], [ 287274.230384158261586, 8574371.78499154932797 ], [ 287279.046028358512558, 8574363.020884582772851 ], [ 287283.861672558705322, 8574354.256777614355087 ], [ 287288.677316758956295, 8574345.492670647799969 ], [ 287293.492960959149059, 8574336.728563679382205 ], [ 287298.308605159400031, 8574327.964456712827086 ], [ 287303.124249359592795, 8574319.200349744409323 ], [ 287307.939893559843767, 8574310.436242777854204 ], [ 287312.755537760036532, 8574301.67213580943644 ], [ 287317.571181960287504, 8574292.908028842881322 ], [ 287322.386826160480268, 8574284.143921874463558 ], [ 287327.20247036073124, 8574275.37981490790844 ], [ 287332.018114560924005, 8574266.615707939490676 ], [ 287336.833758761174977, 8574257.851600972935557 ], [ 287341.649402961367741, 8574249.087494004517794 ], [ 287346.465047161618713, 8574240.323387037962675 ], [ 287351.280691361811478, 8574231.559280069544911 ], [ 287356.09633556206245, 8574222.795173102989793 ], [ 287360.911979762255214, 8574214.031066134572029 ], [ 287370.693364204780664, 8574213.337503846734762 ], [ 287380.687303382670507, 8574212.989395089447498 ], [ 287390.681242560560349, 8574212.641286330297589 ], [ 287400.6751817385084, 8574212.29317757114768 ], [ 287410.669120916398242, 8574211.945068811997771 ], [ 287420.663060094346292, 8574211.596960052847862 ], [ 287430.656999272236135, 8574211.248851293697953 ], [ 287440.650938450125977, 8574210.900742534548044 ], [ 287450.644877628074028, 8574210.552633775398135 ], [ 287460.63881680596387, 8574210.204525016248226 ], [ 287470.63275598391192, 8574209.856416257098317 ], [ 287480.626695161801763, 8574209.508307497948408 ], [ 287490.620634339691605, 8574209.160198738798499 ], [ 287500.614573517639656, 8574208.81208997964859 ], [ 287510.608512695529498, 8574208.463981220498681 ], [ 287520.602451873477548, 8574208.115872461348772 ], [ 287530.596391051367391, 8574207.767763702198863 ], [ 287540.590330229257233, 8574207.419654943048954 ], [ 287550.584269407205284, 8574207.071546183899045 ], [ 287560.578208585095126, 8574206.723437424749136 ], [ 287570.572147763043176, 8574206.375328665599227 ], [ 287580.566086940933019, 8574206.027219906449318 ], [ 287590.560026118822861, 8574205.679111147299409 ], [ 287600.553965296770912, 8574205.3310023881495 ], [ 287609.873393972811755, 8574203.142167832702398 ], [ 287617.726075688377023, 8574196.950609879568219 ], [ 287625.578757403942291, 8574190.759051928296685 ], [ 287633.431439119449351, 8574184.567493977025151 ], [ 287641.284120835014619, 8574178.375936023890972 ], [ 287649.136802550579887, 8574172.184378072619438 ], [ 287656.989484266086947, 8574165.992820119485259 ], [ 287664.842165981652215, 8574159.801262168213725 ], [ 287672.694847697217483, 8574153.609704215079546 ], [ 287680.547529412724543, 8574147.418146263808012 ], [ 287688.400211128289811, 8574141.226588310673833 ], [ 287696.252892843855079, 8574135.035030359402299 ], [ 287704.105574559420347, 8574128.843472408130765 ], [ 287711.958256274927408, 8574122.651914454996586 ], [ 287719.810937990492675, 8574116.460356503725052 ], [ 287727.663619706057943, 8574110.268798550590873 ], [ 287735.516301421565004, 8574104.077240599319339 ], [ 287743.368983137130272, 8574097.88568264618516 ], [ 287751.22166485269554, 8574091.694124694913626 ], [ 287760.403779652609956, 8574094.501505376771092 ], [ 287769.711327756638639, 8574098.157944668084383 ], [ 287779.018875860667322, 8574101.814383959397674 ], [ 287788.326423964696005, 8574105.470823250710964 ], [ 287797.63397206866648, 8574109.127262542024255 ], [ 287806.941520172695164, 8574112.783701833337545 ], [ 287816.249068276723847, 8574116.440141124650836 ], [ 287825.55661638075253, 8574120.096580415964127 ], [ 287834.864164484781213, 8574123.753019707277417 ], [ 287844.171712588809896, 8574127.409458998590708 ], [ 287853.479260692838579, 8574131.065898289903998 ], [ 287862.786808796867263, 8574134.722337581217289 ], [ 287872.094356900895946, 8574138.37877687253058 ], [ 287881.401905004924629, 8574142.03521616384387 ], [ 287890.709453108953312, 8574145.691655455157161 ], [ 287900.017001212981995, 8574149.348094746470451 ], [ 287909.324549317010678, 8574153.004534037783742 ], [ 287918.632097421039362, 8574156.660973329097033 ], [ 287927.939645525068045, 8574160.317412620410323 ], [ 287937.247193629096728, 8574163.973851911723614 ], [ 287946.554741733125411, 8574167.630291203036904 ], [ 287955.862289837154094, 8574171.286730494350195 ], [ 287965.169837941182777, 8574174.943169785663486 ], [ 287974.47738604521146, 8574178.599609076976776 ], [ 287983.784934149240144, 8574182.256048368290067 ], [ 287993.092482253268827, 8574185.912487659603357 ], [ 288002.40003035729751, 8574189.568926950916648 ], [ 288011.707578461326193, 8574193.225366242229939 ], [ 288021.015126565354876, 8574196.881805533543229 ], [ 288030.322674669383559, 8574200.53824482485652 ], [ 288039.630222773412243, 8574204.19468411616981 ], [ 288048.937770877440926, 8574207.851123407483101 ], [ 288058.245318981469609, 8574211.507562698796391 ], [ 288067.552867085498292, 8574215.164001990109682 ], [ 288076.860415189526975, 8574218.820441281422973 ], [ 288086.167963293555658, 8574222.476880572736263 ], [ 288095.475511397584341, 8574226.133319864049554 ], [ 288104.783059501613025, 8574229.789759155362844 ], [ 288114.0906076055835, 8574233.446198446676135 ], [ 288123.398155709612183, 8574237.102637737989426 ], [ 288132.705703813640866, 8574240.759077029302716 ], [ 288142.01325191766955, 8574244.415516320616007 ], [ 288151.320800021698233, 8574248.071955611929297 ], [ 288160.628348125726916, 8574251.728394903242588 ], [ 288169.935896229755599, 8574255.384834194555879 ], [ 288179.243444333784282, 8574259.041273485869169 ], [ 288188.550992437812965, 8574262.69771277718246 ], [ 288197.858540541841649, 8574266.35415206849575 ], [ 288207.166088645870332, 8574270.010591359809041 ], [ 288216.473636749899015, 8574273.667030651122332 ], [ 288225.781184853927698, 8574277.323469942435622 ], [ 288235.088732957956381, 8574280.979909233748913 ], [ 288244.396281061985064, 8574284.636348525062203 ], [ 288253.703829166013747, 8574288.292787816375494 ], [ 288263.011377270042431, 8574291.949227107688785 ], [ 288272.318925374071114, 8574295.605666399002075 ], [ 288281.626473478099797, 8574299.262105690315366 ], [ 288290.93402158212848, 8574302.918544981628656 ], [ 288300.241569686157163, 8574306.574984272941947 ], [ 288309.549117790185846, 8574310.231423564255238 ], [ 288318.85666589421453, 8574313.887862855568528 ], [ 288328.164213998243213, 8574317.544302146881819 ], [ 288337.471762102271896, 8574321.200741438195109 ], [ 288346.779310206300579, 8574324.8571807295084 ], [ 288356.086858310329262, 8574328.513620020821691 ], [ 288365.394406414357945, 8574332.170059312134981 ], [ 288374.701954518386628, 8574335.826498603448272 ], [ 288384.009502622415312, 8574339.482937894761562 ], [ 288393.317050726443995, 8574343.139377187937498 ], [ 288402.624598830472678, 8574346.795816479250789 ], [ 288411.932146934501361, 8574350.452255770564079 ], [ 288421.239695038530044, 8574354.10869506187737 ], [ 288430.54724314250052, 8574357.76513435319066 ], [ 288439.854791246529203, 8574361.421573644503951 ], [ 288449.162339350557886, 8574365.078012935817242 ], [ 288458.418769428622909, 8574368.009418027475476 ], [ 288467.121203151124064, 8574363.083197640255094 ], [ 288475.823636873625219, 8574358.156977253034711 ], [ 288484.526070596126374, 8574353.230756865814328 ], [ 288493.228504318627529, 8574348.304536478593946 ], [ 288501.930938041128684, 8574343.378316091373563 ], [ 288510.633371763629839, 8574338.45209570415318 ], [ 288519.335805486189201, 8574333.525875315070152 ], [ 288528.038239208690356, 8574328.59965492784977 ], [ 288536.740672931191511, 8574323.673434540629387 ], [ 288545.443106653692666, 8574318.747214153409004 ], [ 288554.145540376193821, 8574313.820993766188622 ], [ 288562.847974098694976, 8574308.894773378968239 ], [ 288571.550407821196131, 8574303.968552991747856 ], [ 288580.252841543755494, 8574299.042332604527473 ], [ 288588.955275266256649, 8574294.116112217307091 ], [ 288597.657708988757804, 8574289.189891830086708 ], [ 288606.360142711258959, 8574284.26367144100368 ], [ 288615.062576433760114, 8574279.337451053783298 ], [ 288623.765010156261269, 8574274.411230666562915 ], [ 288632.467443878762424, 8574269.485010279342532 ], [ 288641.169877601263579, 8574264.558789892122149 ], [ 288649.872311323822942, 8574259.632569504901767 ], [ 288658.574745046324097, 8574254.706349117681384 ], [ 288667.277178768825252, 8574249.780128730461001 ], [ 288675.979612491326407, 8574244.853908343240619 ], [ 288684.682046213827562, 8574239.927687954157591 ], [ 288693.384479936328717, 8574235.001467566937208 ], [ 288702.752740098163486, 8574236.981512855738401 ], [ 288712.236007482744753, 8574240.154467269778252 ], [ 288721.719274867326021, 8574243.327421683818102 ], [ 288731.202542251907289, 8574246.500376097857952 ], [ 288740.685809636488557, 8574249.673330511897802 ], [ 288750.169077021069825, 8574252.846284925937653 ], [ 288759.652344405651093, 8574256.019239339977503 ], [ 288769.135611790174153, 8574259.192193754017353 ], [ 288778.618879174755421, 8574262.365148168057203 ], [ 288788.102146559336688, 8574265.538102582097054 ], [ 288797.585413943917956, 8574268.711056996136904 ], [ 288807.068681328499224, 8574271.884011408314109 ], [ 288816.551948713080492, 8574275.056965822353959 ], [ 288826.03521609766176, 8574278.229920236393809 ], [ 288835.518483482243028, 8574281.40287465043366 ], [ 288845.001750866824295, 8574284.57582906447351 ], [ 288854.485018251405563, 8574287.74878347851336 ], [ 288863.968285635986831, 8574290.92173789255321 ], [ 288873.451553020568099, 8574294.09469230659306 ], [ 288882.934820405149367, 8574297.267646720632911 ], [ 288892.418087789730635, 8574300.440601134672761 ], [ 288901.901355174311902, 8574303.613555548712611 ], [ 288911.38462255889317, 8574306.786509962752461 ], [ 288920.867889943474438, 8574309.959464374929667 ], [ 288930.351157328055706, 8574313.132418788969517 ], [ 288939.834424712636974, 8574316.305373203009367 ], [ 288949.317692097218242, 8574319.478327617049217 ], [ 288958.800959481799509, 8574322.651282031089067 ], [ 288968.284226866380777, 8574325.824236445128918 ], [ 288977.767494250962045, 8574328.997190859168768 ], [ 288987.250761635543313, 8574332.170145273208618 ], [ 288996.734029020124581, 8574335.343099687248468 ], [ 289006.217296404705849, 8574338.516054101288319 ], [ 289015.700563789287116, 8574341.689008515328169 ], [ 289025.183831173868384, 8574344.861962927505374 ], [ 289034.667098558449652, 8574348.034917341545224 ], [ 289044.150365942972712, 8574351.207871755585074 ], [ 289053.63363332755398, 8574354.380826169624925 ], [ 289063.116900712135248, 8574357.553780583664775 ], [ 289072.600168096716516, 8574360.726734997704625 ], [ 289082.083435481297784, 8574363.899689411744475 ], [ 289091.566702865879051, 8574367.072643825784326 ], [ 289101.049970250460319, 8574370.245598239824176 ], [ 289110.533237635041587, 8574373.418552653864026 ], [ 289120.016505019622855, 8574376.591507067903876 ], [ 289129.499772404204123, 8574379.764461481943727 ], [ 289138.983039788785391, 8574382.937415894120932 ], [ 289148.466307173366658, 8574386.110370308160782 ], [ 289157.949574557947926, 8574389.283324722200632 ], [ 289167.432841942529194, 8574392.456279136240482 ], [ 289176.916109327110462, 8574395.629233550280333 ], [ 289186.39937671169173, 8574398.802187964320183 ], [ 289195.882644096272998, 8574401.975142378360033 ], [ 289205.365911480854265, 8574405.148096792399883 ], [ 289214.813742680824362, 8574408.424850707873702 ], [ 289224.257540156366304, 8574411.713420189917088 ], [ 289233.701337631850038, 8574415.001989673823118 ], [ 289243.14513510739198, 8574418.290559155866504 ], [ 289252.588932582933921, 8574421.579128637909889 ], [ 289262.032730058417656, 8574424.86769812181592 ], [ 289271.476527533959597, 8574428.156267603859305 ], [ 289280.920325009443332, 8574431.444837085902691 ], [ 289290.364122484985273, 8574434.733406567946076 ], [ 289299.807919960527215, 8574438.021976051852107 ], [ 289309.251717436010949, 8574441.310545533895493 ], [ 289318.695514911552891, 8574444.599115015938878 ], [ 289328.139312387036625, 8574447.887684497982264 ], [ 289337.583109862578567, 8574451.176253981888294 ], [ 289347.026907338120509, 8574454.46482346393168 ], [ 289356.470704813604243, 8574457.753392945975065 ], [ 289365.914502289146185, 8574461.041962428018451 ], [ 289375.358299764629919, 8574464.330531911924481 ], [ 289384.802097240171861, 8574467.619101393967867 ], [ 289394.245894715713803, 8574470.907670876011252 ], [ 289403.689692191197537, 8574474.196240358054638 ], [ 289413.133489666739479, 8574477.484809841960669 ], [ 289422.577287142223213, 8574480.773379324004054 ], [ 289432.021084617765155, 8574484.06194880604744 ], [ 289441.464882093307097, 8574487.350518288090825 ], [ 289450.908679568790831, 8574490.639087771996856 ], [ 289460.352477044332772, 8574493.927657254040241 ], [ 289469.796274519816507, 8574497.216226736083627 ], [ 289479.240071995358448, 8574500.504796218127012 ], [ 289488.68386947090039, 8574503.793365702033043 ], [ 289498.127666946384124, 8574507.081935184076428 ], [ 289507.571464421926066, 8574510.370504666119814 ], [ 289517.0152618974098, 8574513.659074148163199 ], [ 289526.459059372951742, 8574516.94764363206923 ], [ 289535.902856848493684, 8574520.236213114112616 ], [ 289545.396278718020767, 8574522.769721332937479 ], [ 289555.189249365532305, 8574520.745437286794186 ], [ 289564.982220013102051, 8574518.721153240650892 ], [ 289574.775190660613589, 8574516.696869196370244 ], [ 289584.568161308183335, 8574514.672585150226951 ], [ 289594.361131955694873, 8574512.648301105946302 ], [ 289604.154102603264619, 8574510.624017059803009 ], [ 289613.947073250776157, 8574508.599733013659716 ], [ 289623.740043898345903, 8574506.575448969379067 ], [ 289633.533014545857441, 8574504.551164923235774 ], [ 289643.325985193368979, 8574502.526880878955126 ], [ 289653.118955840938725, 8574500.502596832811832 ], [ 289662.911926488450263, 8574498.478312786668539 ], [ 289672.704897136020008, 8574496.454028742387891 ], [ 289682.497867783531547, 8574494.429744696244597 ], [ 289692.290838431101292, 8574492.405460651963949 ], [ 289702.08380907861283, 8574490.381176605820656 ], [ 289711.876779726182576, 8574488.356892559677362 ], [ 289721.669750373694114, 8574486.332608515396714 ], [ 289731.46272102126386, 8574484.308324469253421 ], [ 289741.293157064181287, 8574482.847990460693836 ], [ 289751.267846031521913, 8574483.559031954035163 ], [ 289761.242534998804331, 8574484.27007344737649 ], [ 289771.217223966086749, 8574484.981114940717816 ], [ 289781.191912933369167, 8574485.692156434059143 ], [ 289791.166601900651585, 8574486.403197929263115 ], [ 289801.141290867934003, 8574487.114239422604442 ], [ 289811.115979835216422, 8574487.825280915945768 ], [ 289821.09066880249884, 8574488.536322409287095 ], [ 289831.065357769781258, 8574489.247363904491067 ], [ 289841.040046737063676, 8574489.958405397832394 ], [ 289851.014735704404302, 8574490.66944689117372 ], [ 289860.98942467168672, 8574491.380488384515047 ], [ 289870.964113638969138, 8574492.091529879719019 ], [ 289880.938802606251556, 8574492.802571373060346 ], [ 289890.913491573533975, 8574493.513612866401672 ], [ 289900.888180540816393, 8574494.224654359742999 ], [ 289908.568161038099788, 8574499.850326929241419 ], [ 289915.517302998923697, 8574507.041253574192524 ], [ 289922.466444959747605, 8574514.232180219143629 ], [ 289929.415586920571513, 8574521.423106864094734 ], [ 289936.364728881395422, 8574528.614033509045839 ], [ 289943.313870842161123, 8574535.804960153996944 ], [ 289950.263012802985031, 8574542.995886797085404 ], [ 289957.21215476380894, 8574550.18681344203651 ], [ 289964.161296724632848, 8574557.377740086987615 ], [ 289971.110438685456757, 8574564.56866673193872 ], [ 289978.059580646280665, 8574571.759593376889825 ], [ 289985.008722607104573, 8574578.95052002184093 ], [ 289991.957864567928482, 8574586.14144666492939 ], [ 289998.90700652875239, 8574593.332373309880495 ], [ 290005.856148489576299, 8574600.523299954832 ], [ 290012.805290450400207, 8574607.714226599782705 ], [ 290019.754432411165908, 8574614.90515324473381 ], [ 290026.703574371989816, 8574622.09607988782227 ], [ 290033.652716332813725, 8574629.287006532773376 ], [ 290040.601858293637633, 8574636.477933177724481 ], [ 290047.551000254461542, 8574643.668859822675586 ], [ 290054.50014221528545, 8574650.859786467626691 ], [ 290061.449284176109359, 8574658.050713112577796 ], [ 290068.398426136933267, 8574665.241639755666256 ], [ 290075.347568097757176, 8574672.432566400617361 ], [ 290082.296710058581084, 8574679.623493045568466 ], [ 290089.245852019346785, 8574686.814419690519571 ], [ 290096.194993980170693, 8574694.005346335470676 ], [ 290103.144135940994602, 8574701.196272980421782 ], [ 290110.09327790181851, 8574708.387199623510242 ], [ 290117.042419862642419, 8574715.578126268461347 ], [ 290123.991561823466327, 8574722.769052913412452 ], [ 290131.239508333615959, 8574722.649832030758262 ], [ 290138.75235005968716, 8574716.050043458119035 ], [ 290146.265191785758361, 8574709.450254885479808 ], [ 290153.778033511829562, 8574702.850466312840581 ], [ 290161.290875237900764, 8574696.250677740201354 ], [ 290168.803716963913757, 8574689.650889169424772 ], [ 290176.316558689984959, 8574683.051100596785545 ], [ 290183.82940041605616, 8574676.451312024146318 ], [ 290191.342242142127361, 8574669.851523451507092 ], [ 290198.855083868198562, 8574663.251734878867865 ], [ 290206.367925594269764, 8574656.651946306228638 ], [ 290213.880767320340965, 8574650.052157735452056 ], [ 290221.393609046353959, 8574643.452369162812829 ], [ 290228.90645077242516, 8574636.852580590173602 ], [ 290236.419292498496361, 8574630.252792017534375 ], [ 290243.932134224567562, 8574623.653003444895148 ], [ 290251.444975950638764, 8574617.053214874118567 ], [ 290258.957817676709965, 8574610.45342630147934 ], [ 290266.470659402781166, 8574603.853637728840113 ], [ 290273.983501128852367, 8574597.253849156200886 ], [ 290281.496342854865361, 8574590.654060583561659 ], [ 290289.009184580936562, 8574584.054272010922432 ], [ 290296.220274164108559, 8574584.83782560005784 ], [ 290303.169502193224616, 8574592.028669068589807 ], [ 290310.118730222340673, 8574599.219512537121773 ], [ 290317.06795825145673, 8574606.410356007516384 ], [ 290324.017186280572787, 8574613.60119947604835 ], [ 290330.966414309630636, 8574620.792042946442962 ], [ 290337.915642338746693, 8574627.982886414974928 ], [ 290344.86487036786275, 8574635.173729883506894 ], [ 290351.814098396978807, 8574642.364573353901505 ], [ 290358.763326426094864, 8574649.555416822433472 ], [ 290365.71255445521092, 8574656.746260290965438 ], [ 290372.661782484326977, 8574663.937103761360049 ], [ 290379.611010513384826, 8574671.127947229892015 ], [ 290386.267246737435926, 8574678.572215737774968 ], [ 290392.381918496277649, 8574686.484913716092706 ], [ 290398.49659025517758, 8574694.397611692547798 ], [ 290404.611262014019303, 8574702.310309670865536 ], [ 290410.725933772861026, 8574710.223007649183273 ], [ 290416.840605531702749, 8574718.135705625638366 ], [ 290422.955277290544473, 8574726.048403603956103 ], [ 290429.069949049386196, 8574733.961101580411196 ], [ 290435.184620808227919, 8574741.873799558728933 ], [ 290441.299292567069642, 8574749.786497535184026 ], [ 290447.413964325911365, 8574757.699195513501763 ], [ 290453.528636084753089, 8574765.611893489956856 ], [ 290459.643307843594812, 8574773.524591468274593 ], [ 290465.967917044123169, 8574781.10920237749815 ], [ 290475.714567005517893, 8574783.345899615436792 ], [ 290485.461216966912616, 8574785.58259685151279 ], [ 290495.207866928365547, 8574787.819294089451432 ], [ 290504.954516889760271, 8574790.05599132552743 ], [ 290514.701166851154994, 8574792.292688563466072 ], [ 290524.447816812549718, 8574794.529385799542069 ], [ 290534.194466773944441, 8574796.766083037480712 ], [ 290543.941116735339165, 8574799.002780273556709 ], [ 290553.687766696733888, 8574801.239477511495352 ], [ 290563.434416658128612, 8574803.476174747571349 ], [ 290573.181066619581543, 8574805.712871985509992 ], [ 290582.927716580976266, 8574807.949569221585989 ], [ 290592.67436654237099, 8574810.186266459524632 ], [ 290602.421016503765713, 8574812.422963695600629 ], [ 290612.167666465160437, 8574814.659660933539271 ], [ 290621.91431642655516, 8574816.896358169615269 ], [ 290631.660966387949884, 8574819.133055407553911 ], [ 290641.407616349344607, 8574821.369752643629909 ], [ 290651.154266310797539, 8574823.606449881568551 ], [ 290660.900916272192262, 8574825.843147117644548 ], [ 290670.647566233586986, 8574828.079844355583191 ], [ 290680.394216194981709, 8574830.316541591659188 ], [ 290690.140866156376433, 8574832.553238829597831 ], [ 290699.887516117771156, 8574834.789936065673828 ], [ 290709.855850368912797, 8574835.292628420516849 ], [ 290719.851722725841682, 8574835.579918906092644 ], [ 290729.847595082770567, 8574835.867209393531084 ], [ 290739.84346743975766, 8574836.154499879106879 ], [ 290749.839339796686545, 8574836.44179036654532 ], [ 290759.83521215361543, 8574836.729080852121115 ], [ 290769.831084510602523, 8574837.016371339559555 ], [ 290779.826956867531408, 8574837.30366182513535 ], [ 290789.822829224460293, 8574837.590952310711145 ], [ 290799.818701581389178, 8574837.878242798149586 ], [ 290809.81457393837627, 8574838.165533283725381 ], [ 290819.810446295305155, 8574838.452823771163821 ], [ 290829.80631865223404, 8574838.740114256739616 ], [ 290839.802191009221133, 8574839.027404744178057 ], [ 290849.798063366150018, 8574839.314695229753852 ], [ 290859.793935723078903, 8574839.601985717192292 ], [ 290869.789808080065995, 8574839.889276202768087 ], [ 290879.78568043699488, 8574840.176566690206528 ], [ 290889.781552793923765, 8574840.463857175782323 ], [ 290899.77742515085265, 8574840.751147663220763 ], [ 290909.773297507839743, 8574841.038438148796558 ], [ 290919.769169864768628, 8574841.325728636234999 ], [ 290929.765042221697513, 8574841.613019121810794 ], [ 290939.760914578684606, 8574841.900309609249234 ], [ 290949.756786935613491, 8574842.187600094825029 ], [ 290959.752659292542376, 8574842.47489058226347 ], [ 290969.748531649529468, 8574842.762181067839265 ], [ 290979.744404006458353, 8574843.049471555277705 ], [ 290989.740276363387238, 8574843.3367620408535 ], [ 290999.736148720374331, 8574843.624052528291941 ], [ 291009.732021077303216, 8574843.911343013867736 ], [ 291019.727893434232101, 8574844.198633501306176 ], [ 291029.723765791160986, 8574844.485923986881971 ], [ 291039.719638148148078, 8574844.773214474320412 ], [ 291049.715510505076963, 8574845.060504959896207 ], [ 291059.711382862005848, 8574845.347795447334647 ], [ 291069.707255218992941, 8574845.635085932910442 ], [ 291079.703127575921826, 8574845.922376420348883 ], [ 291089.698999932850711, 8574846.209666905924678 ], [ 291099.694872289837804, 8574846.496957393363118 ], [ 291109.690744646766689, 8574846.784247878938913 ], [ 291119.686617003695574, 8574847.071538366377354 ], [ 291129.682489360682666, 8574847.358828851953149 ], [ 291139.678361717611551, 8574847.646119339391589 ], [ 291149.674234074540436, 8574847.933409824967384 ], [ 291159.670106431469321, 8574848.220700312405825 ], [ 291169.665978788456414, 8574848.50799079798162 ], [ 291179.661851145385299, 8574848.79528128542006 ], [ 291189.657723502314184, 8574849.082571770995855 ], [ 291199.65603777760407, 8574849.235046116635203 ], [ 291209.655757357715629, 8574849.30993483401835 ], [ 291219.655476937768981, 8574849.384823549538851 ], [ 291229.655196517822333, 8574849.459712266921997 ], [ 291239.654916097933892, 8574849.534600984305143 ], [ 291249.654635677987244, 8574849.60948970168829 ], [ 291259.654355258040596, 8574849.684378419071436 ], [ 291269.654074838152155, 8574849.759267136454582 ], [ 291279.653794418205507, 8574849.834155851975083 ], [ 291289.653513998258859, 8574849.90904456935823 ], [ 291299.653233578312211, 8574849.983933286741376 ], [ 291309.65295315842377, 8574850.058822004124522 ], [ 291319.652672738477122, 8574850.133710721507668 ], [ 291329.652392318530474, 8574850.208599438890815 ], [ 291339.652111898642033, 8574850.283488156273961 ], [ 291349.651831478695385, 8574850.358376871794462 ], [ 291359.651551137678325, 8574850.433255050331354 ], [ 291369.651271076116245, 8574850.50809589959681 ], [ 291379.650991014554165, 8574850.582936748862267 ], [ 291389.650710952992085, 8574850.657777598127723 ], [ 291399.650430891430005, 8574850.732618447393179 ], [ 291409.650150829867925, 8574850.807459296658635 ], [ 291419.649870768305846, 8574850.882300147786736 ], [ 291429.649590706743766, 8574850.957140997052193 ], [ 291439.649310645181686, 8574851.031981846317649 ] ] ] } }
]
}
