{
"type": "FeatureCollection",
"crs": { "type": "name", "properties": { "name": "urn:ogc:def:crs:EPSG::32615" } },
"features": [
{ "type": "Feature", "properties": { "id": 1 }, "geometry": { "type": "MultiLineString", "coordinates": [ [ [ 630674.755076772882603, 1569318.976148010464385 ], [ 630684.495351511286572, 1569316.71184943895787 ], [ 630694.23562624969054, 1569314.447550867684186 ], [ 630703.975900988094509, 1569312.18325229617767 ], [ 630713.716175726498477, 1569309.918953724903986 ], [ 630723.456450464902446, 1569307.654655153397471 ], [ 630733.196725203306414, 1569305.390356582123786 ], [ 630742.936999941710383, 1569303.126058010617271 ], [ 630752.677274680114351, 1569300.861759439110756 ], [ 630762.41754941851832, 1569298.597460867837071 ], [ 630772.157824156922288, 1569296.333162296330556 ], [ 630781.898098895326257, 1569294.068863725056872 ], [ 630791.638373633730225, 1569291.804565153550357 ], [ 630801.378648372134194, 1569289.540266582043841 ], [ 630811.118923110538162, 1569287.275968010770157 ], [ 630820.859197848942131, 1569285.011669439263642 ], [ 630830.599472587229684, 1569282.747370867989957 ], [ 630840.339747325633653, 1569280.483072296483442 ], [ 630850.080022064037621, 1569278.218773725209758 ], [ 630859.82029680244159, 1569275.954475153703243 ], [ 630869.560571540845558, 1569273.690176582196727 ], [ 630879.300846279249527, 1569271.425878010923043 ], [ 630889.041121017653495, 1569269.161579439416528 ], [ 630898.781395756057464, 1569266.897280868142843 ], [ 630908.521670494461432, 1569264.632982296636328 ], [ 630918.261945232865401, 1569262.368683725129813 ], [ 630928.002219971269369, 1569260.104385153856128 ], [ 630937.742494709673338, 1569257.840086582349613 ], [ 630947.482769448077306, 1569255.575788011075929 ], [ 630957.223044186481275, 1569253.311489439569414 ], [ 630966.963318924885243, 1569251.047190868295729 ], [ 630976.703593663289212, 1569248.782892296789214 ], [ 630986.44386840169318, 1569246.518593725282699 ], [ 630996.193417263450101, 1569244.296186817577109 ], [ 631005.979260831489228, 1569242.237724852515385 ], [ 631015.765104399528354, 1569240.17926288745366 ], [ 631025.550947967567481, 1569238.120800922391936 ], [ 631035.336791535606608, 1569236.062338957330212 ], [ 631045.122635103645734, 1569234.003876992035657 ], [ 631054.908478671684861, 1569231.945415026973933 ], [ 631064.694322239723988, 1569229.886953061912209 ], [ 631074.480165807763115, 1569227.828491096850485 ], [ 631084.266009375802241, 1569225.77002913155593 ], [ 631094.051852943841368, 1569223.711567166494206 ], [ 631103.837696511880495, 1569221.653105201432481 ], [ 631113.623540079919621, 1569219.594643236370757 ], [ 631123.409383648075163, 1569217.536181271076202 ], [ 631133.19522721611429, 1569215.477719306014478 ], [ 631142.981070784153417, 1569213.419257340952754 ], [ 631152.766914352192543, 1569211.36079537589103 ], [ 631162.55275792023167, 1569209.302333410596475 ], [ 631172.338601488270797, 1569207.243871445534751 ], [ 631182.124445056309924, 1569205.185409480473027 ], [ 631191.91028862434905, 1569203.126947515411302 ], [ 631201.696132192388177, 1569201.068485550116748 ], [ 631211.463503292994574, 1569198.943391415756196 ], [ 631220.912366874050349, 1569195.669406530912966 ], [ 631230.361230455106124, 1569192.395421646069735 ], [ 631239.8100940361619, 1569189.121436761459336 ], [ 631249.25895761733409, 1569185.847451876616105 ], [ 631258.707821198389865, 1569182.573466991772875 ], [ 631268.156684779445641, 1569179.299482106929645 ], [ 631277.605548360501416, 1569176.025497222086415 ], [ 631287.054411941557191, 1569172.751512337243184 ], [ 631296.503275522729382, 1569169.477527452399954 ], [ 631305.952139103785157, 1569166.203542567556724 ], [ 631315.401002684840932, 1569162.929557682713494 ], [ 631324.849866265896708, 1569159.655572797870263 ], [ 631334.298729846952483, 1569156.381587913027033 ], [ 631343.747593428124674, 1569153.107603028183803 ], [ 631353.196457009180449, 1569149.833618143340573 ], [ 631362.645320590236224, 1569146.559633258497342 ], [ 631372.094184171292, 1569143.285648373654112 ], [ 631381.543047752347775, 1569140.011663488810882 ], [ 631390.991911333519965, 1569136.737678603967652 ], [ 631400.531057745916769, 1569133.742344472557306 ], [ 631410.104570788796991, 1569130.853080203291029 ], [ 631419.678083831677213, 1569127.963815934024751 ], [ 631429.251596874557436, 1569125.074551664758474 ], [ 631438.825109917554073, 1569122.185287395725027 ], [ 631448.398622960434295, 1569119.296023126458749 ], [ 631457.972136003314517, 1569116.406758857192472 ], [ 631467.54564904619474, 1569113.517494588159025 ], [ 631477.119162089191377, 1569110.628230318892747 ], [ 631486.692675132071599, 1569107.73896604962647 ], [ 631496.266188174951822, 1569104.849701780360192 ], [ 631505.839701217832044, 1569101.960437511326745 ], [ 631515.755467818700708, 1569101.432412136811763 ], [ 631525.755331733613275, 1569101.484581895638257 ], [ 631535.755195648525842, 1569101.536751654464751 ], [ 631545.755059563438408, 1569101.588921413291246 ], [ 631555.754923478350975, 1569101.64109117211774 ], [ 631565.754787393147126, 1569101.693260930944234 ], [ 631575.754651308059692, 1569101.745430689770728 ], [ 631585.754515222972259, 1569101.797600448597223 ], [ 631595.754379137884825, 1569101.849770207423717 ], [ 631605.754243052797392, 1569101.901939966250211 ], [ 631615.671152537921444, 1569102.875217602355406 ], [ 631625.51943094166927, 1569104.610559782478958 ], [ 631635.367709345417097, 1569106.345901962602511 ], [ 631645.215987749164924, 1569108.081244142726064 ], [ 631655.064266152912751, 1569109.816586322616786 ], [ 631664.912544556660578, 1569111.551928502740338 ], [ 631674.760822960408404, 1569113.287270682863891 ], [ 631684.409137327107601, 1569115.830726434476674 ], [ 631693.930247549898922, 1569118.888251597993076 ], [ 631703.451357772806659, 1569121.945776761276647 ], [ 631712.972467995597981, 1569125.003301924560219 ], [ 631722.493578218505718, 1569128.060827087843791 ], [ 631732.014688441297039, 1569131.118352251127362 ], [ 631741.535798664204776, 1569134.175877414410934 ], [ 631751.056908886996098, 1569137.233402577927336 ], [ 631756.701136100688018, 1569145.057054739212617 ], [ 631761.633262976654805, 1569153.756142305210233 ], [ 631766.565389852505177, 1569162.455229871207848 ], [ 631771.497516728355549, 1569171.154317437205464 ], [ 631776.429643604322337, 1569179.853405002970248 ], [ 631781.361770480172709, 1569188.552492568967864 ], [ 631786.293897356023081, 1569197.251580134965479 ], [ 631791.226024231989868, 1569205.950667700963095 ], [ 631796.15815110784024, 1569214.64975526696071 ], [ 631801.090277983807027, 1569223.348842832725495 ], [ 631806.022404859657399, 1569232.047930398723111 ], [ 631809.784486343734898, 1569241.185186720918864 ], [ 631811.779662331915461, 1569250.984129152260721 ], [ 631813.774838320212439, 1569260.783071583835408 ], [ 631815.770014308393002, 1569270.582014015410095 ], [ 631817.76519029668998, 1569280.380956446751952 ], [ 631819.760366284870543, 1569290.17989887832664 ], [ 631821.755542273167521, 1569299.978841309901327 ], [ 631823.750718261348084, 1569309.777783741476014 ], [ 631825.701431350782514, 1569319.583528351504356 ], [ 631826.727137530688196, 1569329.530785603215918 ], [ 631827.752843710593879, 1569339.47804285492748 ], [ 631828.778549890499562, 1569349.425300106871873 ], [ 631829.804256070405245, 1569359.372557358583435 ], [ 631830.829962250310928, 1569369.319814610294998 ], [ 631831.85566843021661, 1569379.26707186200656 ], [ 631832.881374610122293, 1569389.214329113718122 ], [ 631833.907080790027976, 1569399.161586365429685 ], [ 631834.932786969933659, 1569409.108843617374077 ], [ 631835.958493149839342, 1569419.05610086908564 ], [ 631836.984199329628609, 1569429.003358120797202 ], [ 631838.009905509534292, 1569438.950615372508764 ], [ 631839.035611689439975, 1569448.897872624220327 ], [ 631840.061317869345658, 1569458.845129876164719 ], [ 631841.08702404925134, 1569468.792387127876282 ], [ 631841.961300810566172, 1569478.749036164255813 ], [ 631842.17260245361831, 1569488.746803495800123 ], [ 631842.383904096554033, 1569498.744570827344432 ], [ 631842.595205739606172, 1569508.742338158888742 ], [ 631842.806507382541895, 1569518.740105490433052 ], [ 631843.017809025477618, 1569528.737872821977362 ], [ 631843.229110668529756, 1569538.735640153521672 ], [ 631843.440412311465479, 1569548.733407485065982 ], [ 631843.651713954517618, 1569558.731174816610292 ], [ 631843.863015597453341, 1569568.728942148154601 ], [ 631844.074317240389064, 1569578.726709479698911 ], [ 631844.285618883441202, 1569588.724476811243221 ], [ 631844.496920526376925, 1569598.722244142787531 ], [ 631844.708222169312648, 1569608.720011474331841 ], [ 631844.919523812364787, 1569618.717778805876151 ], [ 631845.13082545530051, 1569628.715546137420461 ], [ 631845.342127098352648, 1569638.71331346896477 ], [ 631845.553428741288371, 1569648.71108080050908 ], [ 631845.764730384224094, 1569658.70884813205339 ], [ 631845.976032027276233, 1569668.7066154635977 ], [ 631846.187333670211956, 1569678.70438279514201 ], [ 631846.398635313147679, 1569688.70215012668632 ], [ 631847.329128381446935, 1569698.63909416552633 ], [ 631848.799876473029144, 1569708.530347880441695 ], [ 631850.270624564494938, 1569718.42160159535706 ], [ 631851.741372655960731, 1569728.312855310039595 ], [ 631853.212120747426525, 1569738.20410902495496 ], [ 631854.682868838892318, 1569748.095362739870325 ], [ 631856.153616930358112, 1569757.986616454552859 ], [ 631857.624365021823905, 1569767.877870169468224 ], [ 631859.095113113289699, 1569777.769123884383589 ], [ 631860.565861204871908, 1569787.660377599066123 ], [ 631862.036609296337701, 1569797.551631313981488 ], [ 631862.814888611668721, 1569807.47532922658138 ], [ 631862.275421962724067, 1569817.460767410928383 ], [ 631861.735955313779414, 1569827.446205595275387 ], [ 631861.196488664951175, 1569837.431643779855222 ], [ 631860.657022016006522, 1569847.417081964202225 ], [ 631860.117555367061868, 1569857.402520148549229 ], [ 631859.578088718117215, 1569867.387958332896233 ], [ 631859.038622069172561, 1569877.373396517476067 ], [ 631858.499155420227908, 1569887.358834701823071 ], [ 631857.959688771399669, 1569897.344272886170074 ], [ 631857.420222122455016, 1569907.329711070517078 ], [ 631856.880755473510362, 1569917.315149255096912 ], [ 631856.658380028558895, 1569927.309976837597787 ], [ 631856.606061261962168, 1569937.309839973924682 ], [ 631856.553742495481856, 1569947.309703110251576 ], [ 631856.501423729001544, 1569957.309566246811301 ], [ 631856.449104962404817, 1569967.309429383138195 ], [ 631856.396786195924506, 1569977.309292519465089 ], [ 631856.344467429327779, 1569987.309155655791983 ], [ 631856.292148662847467, 1569997.309018792351708 ], [ 631856.239829896367155, 1570007.308881928678602 ], [ 631856.187511129770428, 1570017.308745065005496 ], [ 631856.135192363290116, 1570027.308608201565221 ], [ 631856.082873596693389, 1570037.308471337892115 ], [ 631856.030554830213077, 1570047.308334474219009 ], [ 631855.97823606361635, 1570057.308197610778734 ], [ 631855.925917297136039, 1570067.308060747105628 ], [ 631855.873598530655727, 1570077.307923883432522 ], [ 631863.520675944397226, 1570082.885731437243521 ] ] ] } }
]
}
