{
"type": "FeatureCollection",
"crs": { "type": "name", "properties": { "name": "urn:ogc:def:crs:EPSG::32636" } },
"features": [
{ "type": "Feature", "properties": { "id": 1 }, "geometry": { "type": "MultiLineString", "coordinates": [ [ [ 218280.683329545136075, 140466.26548941177316 ], [ 218272.522604725905694, 140460.485993722308194 ], [ 218264.361879906646209, 140454.706498032814125 ], [ 218256.201155087415827, 140448.927002343349159 ], [ 218248.040430268185446, 140443.147506653884193 ], [ 218239.879705448925961, 140437.368010964390123 ], [ 218231.718980629695579, 140431.588515274925157 ], [ 218223.558255810465198, 140425.809019585460192 ], [ 218215.397530991234817, 140420.029523895966122 ], [ 218207.236806171975331, 140414.250028206501156 ], [ 218199.07608135274495, 140408.47053251703619 ], [ 218190.915356533514569, 140402.691036827542121 ], [ 218182.754631714255083, 140396.911541138077155 ], [ 218174.593906895024702, 140391.132045448612189 ], [ 218166.433182075794321, 140385.352549759147223 ], [ 218158.272457256534835, 140379.573054069653153 ], [ 218148.599598061904544, 140378.134634402289521 ], [ 218138.614261940005235, 140377.59328189943335 ], [ 218128.628925818076823, 140377.051929396577179 ], [ 218118.643589696177514, 140376.510576893691905 ], [ 218108.658253574249102, 140375.969224390835734 ], [ 218098.672917452320689, 140375.427871887979563 ], [ 218088.687581330421381, 140374.886519385123393 ], [ 218078.702245208492968, 140374.345166882267222 ], [ 218068.71690908659366, 140373.803814379411051 ], [ 218058.731572964665247, 140373.26246187655488 ], [ 218048.746236842765938, 140372.72110937369871 ], [ 218038.760900720837526, 140372.179756870813435 ], [ 218028.775564598909114, 140371.638404367957264 ], [ 218018.790228477009805, 140371.097051865101093 ], [ 218008.804892355081392, 140370.555699362244923 ], [ 217998.819556233182084, 140370.014346859388752 ], [ 217992.86956983312848, 140362.457656424870947 ], [ 217987.381289318698691, 140354.098303758830298 ], [ 217981.893008804268902, 140345.738951092818752 ], [ 217976.404728289839113, 140337.379598426778102 ], [ 217970.916447775409324, 140329.020245760766556 ], [ 217965.428167260979535, 140320.660893094755011 ], [ 217959.939886746549746, 140312.301540428714361 ], [ 217954.451606232149061, 140303.942187762702815 ], [ 217948.963325717719272, 140295.582835096662166 ], [ 217940.317532810149714, 140290.624445310560986 ], [ 217931.574295931844972, 140285.771012619137764 ], [ 217922.83105905354023, 140280.917579927743645 ], [ 217914.087822175264591, 140276.064147236320423 ], [ 217905.344585296959849, 140271.210714544926304 ], [ 217896.601348418655107, 140266.357281853532186 ], [ 217887.858111540350365, 140261.503849162108963 ], [ 217879.114874662074726, 140256.650416470714845 ], [ 217870.371637783769984, 140251.796983779291622 ], [ 217861.628400905465242, 140246.943551087897504 ], [ 217852.885164027189603, 140242.090118396474281 ], [ 217845.874258006428136, 140235.460286584304413 ], [ 217840.80276770243654, 140226.841702820325736 ], [ 217835.731277398444945, 140218.223119056376163 ], [ 217830.65978709445335, 140209.604535292397486 ], [ 217825.588296790461754, 140200.985951528447913 ], [ 217820.516806486470159, 140192.367367764469236 ], [ 217815.445316182478564, 140183.748784000519663 ], [ 217810.373825878457865, 140175.130200236540986 ], [ 217805.302335574466269, 140166.511616472562309 ], [ 217800.230845270474674, 140157.893032708612736 ], [ 217795.159354966483079, 140149.274448944634059 ], [ 217790.087864662491484, 140140.655865180684486 ], [ 217785.016374358499888, 140132.03728141670581 ], [ 217779.944884054508293, 140123.418697652756236 ], [ 217774.873393750516698, 140114.80011388877756 ], [ 217769.801903446525102, 140106.181530124827987 ], [ 217764.730413142533507, 140097.56294636084931 ], [ 217759.658922838541912, 140088.944362596899737 ], [ 217754.587432534521213, 140080.32577883292106 ], [ 217749.515942230529618, 140071.707195068942383 ], [ 217744.246891693910584, 140063.242173971317243 ], [ 217737.146093984891195, 140056.200961583119351 ], [ 217730.04529627590091, 140049.159749194950564 ], [ 217722.944498566881521, 140042.118536806752672 ], [ 217715.843700857862132, 140035.077324418554781 ], [ 217708.742903148842743, 140028.03611203035689 ], [ 217701.642105439852457, 140020.994899642158998 ], [ 217694.541307730833068, 140013.953687253961107 ], [ 217687.440510021813679, 140006.912474865763215 ], [ 217680.33971231279429, 139999.871262477565324 ], [ 217673.836579680588329, 139992.569607386132702 ], [ 217673.51365252234973, 139982.574822843656875 ], [ 217673.190725364111131, 139972.580038301181048 ], [ 217672.867798205872532, 139962.585253758705221 ], [ 217672.544871047633933, 139952.590469216229394 ], [ 217672.221943889395334, 139942.595684673753567 ], [ 217671.899016731127631, 139932.60090013127774 ], [ 217671.576089572889032, 139922.606115588801913 ], [ 217671.253162414650433, 139912.61133104635519 ], [ 217674.455300115805585, 139903.80391369498102 ], [ 217680.759520728926873, 139896.041388174169697 ], [ 217687.063741342048161, 139888.278862653358374 ], [ 217693.367961955169449, 139880.516337132576155 ], [ 217699.672182568261633, 139872.753811611764831 ], [ 217705.976403181382921, 139864.991286090953508 ], [ 217712.280623794504208, 139857.228760570171289 ], [ 217718.584844407625496, 139849.466235049359966 ], [ 217721.512264154152945, 139840.680942620325368 ], [ 217720.574621335748816, 139830.724998368503293 ], [ 217719.636978517373791, 139820.769054116710322 ], [ 217718.699335698969662, 139810.813109864888247 ], [ 217717.761692880565533, 139800.857165613095276 ], [ 217716.824050062190508, 139790.901221361273201 ], [ 217715.88640724378638, 139780.94527710948023 ], [ 217713.7830412411422, 139771.4110590404307 ], [ 217708.133770863933023, 139763.159650420973776 ], [ 217702.48450048675295, 139754.908241801487748 ], [ 217696.835230109572876, 139746.656833182030823 ], [ 217691.185959732363699, 139738.405424562573899 ], [ 217685.536689355183626, 139730.15401594308787 ], [ 217679.887418978003552, 139721.902607323630946 ], [ 217674.238148600794375, 139713.651198704174021 ], [ 217668.588878223614302, 139705.399790084687993 ], [ 217662.939607846434228, 139697.148381465231068 ], [ 217657.290337469225051, 139688.896972845774144 ], [ 217651.641067092044977, 139680.645564226288116 ], [ 217645.991796714864904, 139672.394155606831191 ], [ 217640.342526337684831, 139664.142746987374267 ], [ 217634.693255960475653, 139655.891338367888238 ], [ 217629.04398558329558, 139647.639929748431314 ], [ 217623.394715206115507, 139639.388521128974389 ], [ 217617.745444828906329, 139631.137112509488361 ], [ 217612.096174451726256, 139622.885703890031436 ], [ 217606.446904074546183, 139614.634295270574512 ], [ 217600.797633697337005, 139606.382886651088484 ], [ 217595.148363320156932, 139598.131478031631559 ], [ 217589.499092942976858, 139589.880069412174635 ], [ 217583.849822565767681, 139581.628660792688606 ], [ 217578.200552188587608, 139573.377252173231682 ], [ 217572.551281811407534, 139565.125843553745653 ], [ 217566.902011434227461, 139556.874434934288729 ], [ 217561.252741057018284, 139548.623026314831804 ], [ 217555.60347067983821, 139540.371617695345776 ], [ 217549.954200302658137, 139532.120209075888852 ], [ 217544.30492992544896, 139523.868800456431927 ], [ 217538.877174630353693, 139515.481727207195945 ], [ 217534.094441690598615, 139506.699616662051994 ], [ 217529.311708750843536, 139497.917506116937147 ], [ 217524.528975811059354, 139489.135395571793197 ], [ 217519.746242871304275, 139480.353285026649246 ], [ 217514.963509931549197, 139471.571174481534399 ], [ 217510.180776991794119, 139462.789063936390448 ], [ 217505.39804405203904, 139454.006953391275601 ], [ 217500.615311112254858, 139445.224842846131651 ], [ 217495.83257817249978, 139436.4427323009877 ], [ 217491.049845232744701, 139427.660621755872853 ], [ 217486.267112292989623, 139418.878511210728902 ], [ 217481.484379353234544, 139410.096400665614055 ], [ 217476.701646413479466, 139401.314290120470105 ], [ 217471.918913473695284, 139392.532179575326154 ], [ 217467.136180533940205, 139383.750069030211307 ], [ 217462.353447594185127, 139374.967958485067356 ], [ 217457.570714654430049, 139366.185847939952509 ], [ 217452.78798171467497, 139357.403737394808559 ], [ 217448.005248774890788, 139348.621626849664608 ], [ 217443.222515835135709, 139339.839516304549761 ], [ 217438.439782895380631, 139331.05740575940581 ], [ 217433.657049955625553, 139322.27529521426186 ], [ 217428.874317015870474, 139313.493184669147013 ], [ 217424.091584076086292, 139304.711074124003062 ], [ 217419.308851136331214, 139295.928963578888215 ], [ 217414.526118196576135, 139287.146853033744264 ], [ 217409.743385256821057, 139278.364742488600314 ], [ 217404.960652317065978, 139269.582631943485467 ], [ 217400.1779193773109, 139260.800521398341516 ], [ 217395.395186437526718, 139252.018410853226669 ], [ 217390.612453497771639, 139243.236300308082718 ], [ 217385.829720558016561, 139234.454189762938768 ], [ 217381.046987618261483, 139225.672079217823921 ], [ 217376.264254678506404, 139216.88996867267997 ], [ 217371.481521738722222, 139208.107858127565123 ], [ 217366.698788798967144, 139199.325747582421172 ], [ 217361.916055859212065, 139190.543637037277222 ], [ 217357.133322919456987, 139181.761526492162375 ], [ 217352.350589979701908, 139172.979415947018424 ], [ 217347.567857039917726, 139164.197305401874473 ], [ 217341.20681543747196, 139156.52496907080058 ], [ 217334.560691821592627, 139149.053085715015186 ], [ 217327.914568205713294, 139141.581202359229792 ], [ 217321.268444589863066, 139134.109319003444398 ], [ 217314.622320973983733, 139126.637435647659004 ], [ 217307.9761973581044, 139119.16555229187361 ], [ 217301.330073742225068, 139111.693668936088216 ] ] ] } }
]
}
