{
"type": "FeatureCollection",
"features": [
{ "type": "Feature", "properties": { "id": 1 }, "geometry": { "type": "MultiLineString", "coordinates": [ [ [ 697032.912647737539373, 4371044.050393609330058 ], [ 697028.24041566287633, 4371035.20899963285774 ], [ 697023.568183588096872, 4371026.367605657316744 ], [ 697018.895951513433829, 4371017.526211680844426 ], [ 697014.223719438654371, 4371008.684817705303431 ], [ 697009.551487363991328, 4370999.843423728831112 ], [ 697004.879255289211869, 4370991.002029753290117 ], [ 697000.207023214548826, 4370982.160635776817799 ], [ 696995.534791139885783, 4370973.31924180034548 ], [ 696990.862559065106325, 4370964.477847824804485 ], [ 696986.190326990443282, 4370955.636453848332167 ], [ 696981.518094915663823, 4370946.795059872791171 ], [ 696976.84586284100078, 4370937.953665896318853 ], [ 696972.173630766221322, 4370929.112271920777857 ], [ 696967.501398691558279, 4370920.270877944305539 ], [ 696962.829166616895236, 4370911.429483968764544 ], [ 696958.156934542115778, 4370902.588089992292225 ], [ 696953.484702467452735, 4370893.746696015819907 ], [ 696948.812470392673276, 4370884.905302040278912 ], [ 696944.140238318010233, 4370876.063908063806593 ], [ 696939.46800624334719, 4370867.222514088265598 ], [ 696934.795774168567732, 4370858.38112011179328 ], [ 696930.123542093904689, 4370849.539726136252284 ], [ 696925.451310019125231, 4370840.698332159779966 ], [ 696920.779077944462188, 4370831.856938183307648 ], [ 696916.106845869682729, 4370823.015544207766652 ], [ 696911.434613795019686, 4370814.174150231294334 ], [ 696906.762381720356643, 4370805.332756255753338 ], [ 696902.090149645577185, 4370796.49136227928102 ], [ 696897.417917570914142, 4370787.649968303740025 ], [ 696892.745685496134683, 4370778.808574327267706 ], [ 696888.07345342147164, 4370769.967180351726711 ], [ 696883.401221346692182, 4370761.125786375254393 ], [ 696878.728989272029139, 4370752.284392398782074 ], [ 696874.056757197366096, 4370743.442998423241079 ], [ 696869.384525122586638, 4370734.601604446768761 ], [ 696864.712293047923595, 4370725.760210471227765 ], [ 696860.040060973144136, 4370716.918816494755447 ], [ 696855.367828898481093, 4370708.077422519214451 ], [ 696850.695596823701635, 4370699.236028542742133 ], [ 696846.023364749038592, 4370690.394634566269815 ], [ 696841.351132674375549, 4370681.553240590728819 ], [ 696836.678900599596091, 4370672.711846614256501 ], [ 696832.006668524933048, 4370663.870452638715506 ], [ 696827.334436450153589, 4370655.029058662243187 ], [ 696822.662204375490546, 4370646.187664686702192 ], [ 696817.989972300711088, 4370637.346270710229874 ], [ 696813.317740226048045, 4370628.504876733757555 ], [ 696808.645508151385002, 4370619.66348275821656 ], [ 696803.973276076605543, 4370610.822088781744242 ], [ 696799.3010440019425, 4370601.980694806203246 ], [ 696794.628811927163042, 4370593.139300829730928 ], [ 696789.956579852499999, 4370584.297906854189932 ], [ 696785.284347777836956, 4370575.456512877717614 ], [ 696780.612115703057498, 4370566.615118902176619 ], [ 696775.939883628394455, 4370557.7737249257043 ], [ 696771.267651553614996, 4370548.932330949231982 ], [ 696766.595419478951953, 4370540.090936973690987 ], [ 696761.923187404172495, 4370531.249542997218668 ], [ 696757.250955329509452, 4370522.408149021677673 ], [ 696752.578723254846409, 4370513.566755045205355 ], [ 696747.906491180066951, 4370504.725361069664359 ], [ 696743.234259105403908, 4370495.883967093192041 ], [ 696738.562027030624449, 4370487.042573116719723 ], [ 696733.889794955961406, 4370478.201179141178727 ], [ 696729.217562881181948, 4370469.359785164706409 ], [ 696724.545330806518905, 4370460.518391189165413 ], [ 696719.873098731855862, 4370451.676997212693095 ], [ 696715.200866657076403, 4370442.8356032371521 ], [ 696710.52863458241336, 4370433.994209260679781 ], [ 696705.856402507633902, 4370425.152815284207463 ], [ 696701.184170432970859, 4370416.311421308666468 ], [ 696696.511938358191401, 4370407.470027332194149 ], [ 696691.839706283528358, 4370398.628633356653154 ], [ 696687.167474208865315, 4370389.787239380180836 ], [ 696682.495242134085856, 4370380.94584540463984 ], [ 696677.823010059422813, 4370372.104451428167522 ], [ 696673.150777984643355, 4370363.263057452626526 ], [ 696668.478545909980312, 4370354.421663476154208 ], [ 696663.806313835200854, 4370345.58026949968189 ], [ 696659.134081760537811, 4370336.738875524140894 ], [ 696654.461849685874768, 4370327.897481547668576 ], [ 696649.789617611095309, 4370319.056087572127581 ], [ 696645.117385536432266, 4370310.214693595655262 ], [ 696640.445153461652808, 4370301.373299620114267 ], [ 696635.772921386989765, 4370292.531905643641949 ], [ 696631.100689312210307, 4370283.690511667169631 ], [ 696626.428457237547264, 4370274.849117691628635 ], [ 696621.75622516288422, 4370266.007723715156317 ], [ 696617.083993088104762, 4370257.166329739615321 ], [ 696612.411761013441719, 4370248.324935763143003 ], [ 696607.739528938662261, 4370239.483541787602007 ], [ 696603.067296863999218, 4370230.642147811129689 ], [ 696598.395064789336175, 4370221.800753835588694 ], [ 696593.722832714556716, 4370212.959359859116375 ], [ 696589.050600639893673, 4370204.117965882644057 ], [ 696584.378368565114215, 4370195.276571907103062 ], [ 696579.706136490451172, 4370186.435177930630744 ], [ 696575.033904415671714, 4370177.593783955089748 ], [ 696570.361672341008671, 4370168.75238997861743 ], [ 696565.689440266345628, 4370159.910996003076434 ], [ 696561.017208191566169, 4370151.069602026604116 ], [ 696556.344976116903126, 4370142.228208050131798 ], [ 696551.672744042123668, 4370133.386814074590802 ], [ 696547.000511967460625, 4370124.545420098118484 ], [ 696542.328279892681167, 4370115.704026122577488 ], [ 696537.656047818018124, 4370106.86263214610517 ], [ 696532.98381574335508, 4370098.021238170564175 ], [ 696528.311583668575622, 4370089.179844194091856 ], [ 696523.639351593912579, 4370080.338450217619538 ], [ 696518.967119519133121, 4370071.497056242078543 ], [ 696514.294887444470078, 4370062.655662265606225 ], [ 696509.622655369690619, 4370053.814268290065229 ], [ 696504.950423295027576, 4370044.972874313592911 ], [ 696500.278191220364533, 4370036.131480338051915 ], [ 696495.605959145585075, 4370027.290086361579597 ], [ 696490.933727070922032, 4370018.448692386038601 ], [ 696486.261494996142574, 4370009.607298409566283 ], [ 696481.589262921479531, 4370000.765904433093965 ], [ 696476.917030846700072, 4369991.924510457552969 ], [ 696472.244798772037029, 4369983.083116481080651 ], [ 696467.572566697373986, 4369974.241722505539656 ], [ 696462.900334622594528, 4369965.400328529067338 ], [ 696458.228102547931485, 4369956.558934553526342 ], [ 696453.555870473152027, 4369947.717540577054024 ], [ 696448.883638398488984, 4369938.876146600581706 ], [ 696444.21140632382594, 4369930.03475262504071 ], [ 696439.539174249046482, 4369921.193358648568392 ], [ 696434.866942174383439, 4369912.351964673027396 ], [ 696430.194710099603981, 4369903.510570696555078 ], [ 696425.522478024940938, 4369894.669176721014082 ], [ 696420.850245950161479, 4369885.827782744541764 ], [ 696416.178013875498436, 4369876.986388768069446 ], [ 696411.505781800835393, 4369868.14499479252845 ], [ 696406.833549726055935, 4369859.303600816056132 ], [ 696402.161317651392892, 4369850.462206840515137 ], [ 696397.489085576613434, 4369841.620812864042819 ], [ 696392.816853501950391, 4369832.779418888501823 ], [ 696388.144621427170932, 4369823.938024912029505 ], [ 696383.472389352507889, 4369815.096630936488509 ], [ 696378.800157277844846, 4369806.255236960016191 ], [ 696374.127925203065388, 4369797.413842983543873 ], [ 696369.455693128402345, 4369788.572449008002877 ], [ 696364.783461053622887, 4369779.731055031530559 ], [ 696360.111228978959844, 4369770.889661055989563 ], [ 696355.438996904180385, 4369762.048267079517245 ], [ 696350.766764829517342, 4369753.20687310397625 ], [ 696346.094532754854299, 4369744.365479127503932 ], [ 696341.422300680074841, 4369735.524085151031613 ], [ 696336.750068605411798, 4369726.682691175490618 ], [ 696332.077836530632339, 4369717.8412971990183 ], [ 696327.405604455969296, 4369708.999903223477304 ], [ 696322.733372381189838, 4369700.158509247004986 ], [ 696318.061140306526795, 4369691.31711527146399 ], [ 696313.388908231863752, 4369682.475721294991672 ], [ 696308.716676157084294, 4369673.634327319450676 ], [ 696304.044444082421251, 4369664.792933342978358 ], [ 696299.372212007641792, 4369655.95153936650604 ], [ 696294.699979932978749, 4369647.110145390965044 ], [ 696290.027747858315706, 4369638.268751414492726 ], [ 696285.355515783536248, 4369629.427357438951731 ], [ 696280.683283708873205, 4369620.585963462479413 ], [ 696276.011051634093747, 4369611.744569486938417 ], [ 696271.338819559430704, 4369602.903175510466099 ], [ 696266.666587484651245, 4369594.061781533993781 ], [ 696261.994355409988202, 4369585.220387558452785 ], [ 696257.322123335325159, 4369576.378993581980467 ], [ 696252.649891260545701, 4369567.537599606439471 ], [ 696247.977659185882658, 4369558.696205629967153 ], [ 696243.305427111103199, 4369549.854811654426157 ], [ 696238.633195036440156, 4369541.013417677953839 ], [ 696233.960962961660698, 4369532.172023701481521 ], [ 696229.288730886997655, 4369523.330629725940526 ], [ 696224.616498812334612, 4369514.489235749468207 ], [ 696219.944266737555154, 4369505.647841773927212 ], [ 696215.272034662892111, 4369496.806447797454894 ], [ 696210.599802588112652, 4369487.965053821913898 ], [ 696205.927570513449609, 4369479.12365984544158 ], [ 696201.255338438670151, 4369470.282265869900584 ], [ 696196.583106364007108, 4369461.440871893428266 ], [ 696191.910874289344065, 4369452.599477916955948 ], [ 696185.978272329317406, 4369444.649046886712313 ], [ 696179.20190619432833, 4369437.295077753253281 ], [ 696172.425540059339255, 4369429.941108620725572 ], [ 696165.649173924233764, 4369422.587139488197863 ], [ 696158.872807789244689, 4369415.233170355670154 ], [ 696152.096441654255614, 4369407.879201223142445 ], [ 696145.320075519266538, 4369400.525232090614736 ], [ 696138.543709384277463, 4369393.171262957155704 ], [ 696131.767343249288388, 4369385.817293824627995 ], [ 696124.990977114299312, 4369378.463324692100286 ], [ 696118.214610979310237, 4369371.109355559572577 ], [ 696111.438244844321162, 4369363.755386427044868 ], [ 696104.661878709332086, 4369356.401417294517159 ], [ 696097.885512574343011, 4369349.047448161058128 ], [ 696091.109146439353935, 4369341.693479028530419 ], [ 696084.33278030436486, 4369334.33950989600271 ], [ 696077.556414169375785, 4369326.985540763475001 ], [ 696070.780048034386709, 4369319.631571630947292 ], [ 696064.003681899397634, 4369312.277602498419583 ], [ 696057.227315764408559, 4369304.923633364960551 ], [ 696050.450949629419483, 4369297.569664232432842 ], [ 696043.674583494430408, 4369290.215695099905133 ], [ 696036.898217359441333, 4369282.861725967377424 ], [ 696030.121851224452257, 4369275.507756834849715 ], [ 696023.345485089463182, 4369268.153787701390684 ], [ 696016.569118954474106, 4369260.799818568862975 ], [ 696009.792752819485031, 4369253.445849436335266 ], [ 696003.016386684495956, 4369246.091880303807557 ], [ 695996.24002054950688, 4369238.737911171279848 ], [ 695989.463654414517805, 4369231.383942038752139 ], [ 695982.68728827952873, 4369224.029972905293107 ], [ 695975.910922144539654, 4369216.676003772765398 ], [ 695969.134556009550579, 4369209.322034640237689 ], [ 695962.358189874561504, 4369201.96806550770998 ], [ 695955.581823739572428, 4369194.614096375182271 ], [ 695948.805457604583353, 4369187.260127242654562 ], [ 695942.029091469594277, 4369179.90615810919553 ], [ 695935.252725334605202, 4369172.552188976667821 ], [ 695928.476359199616127, 4369165.198219844140112 ], [ 695921.699993064627051, 4369157.844250711612403 ], [ 695914.923626929637976, 4369150.490281579084694 ], [ 695908.147260794648901, 4369143.136312446556985 ], [ 695901.370894659659825, 4369135.782343313097954 ], [ 695894.59452852467075, 4369128.428374180570245 ], [ 695887.818162389681675, 4369121.074405048042536 ], [ 695881.041796254692599, 4369113.720435915514827 ], [ 695874.265430119703524, 4369106.366466782987118 ], [ 695867.489063984714448, 4369099.012497649528086 ], [ 695860.712697849725373, 4369091.658528517000377 ], [ 695853.936331714736298, 4369084.304559384472668 ], [ 695847.159965579747222, 4369076.950590251944959 ], [ 695840.383599444758147, 4369069.59662111941725 ], [ 695833.607233309769072, 4369062.242651986889541 ], [ 695826.830867174779996, 4369054.88868285343051 ], [ 695820.054501039790921, 4369047.534713720902801 ], [ 695813.278134904801846, 4369040.180744588375092 ], [ 695806.50176876981277, 4369032.826775455847383 ], [ 695799.725402634823695, 4369025.472806323319674 ], [ 695792.949036499834619, 4369018.118837190791965 ], [ 695786.172670364845544, 4369010.764868057332933 ], [ 695779.396304229740053, 4369003.410898924805224 ], [ 695772.619938094750978, 4368996.056929792277515 ], [ 695765.843571959761903, 4368988.702960659749806 ], [ 695759.067205824772827, 4368981.348991527222097 ], [ 695752.290839689783752, 4368973.995022394694388 ], [ 695745.514473554794677, 4368966.641053261235356 ], [ 695738.738107419805601, 4368959.287084128707647 ], [ 695731.961741284816526, 4368951.933114996179938 ], [ 695725.185375149827451, 4368944.579145863652229 ], [ 695718.409009014838375, 4368937.22517673112452 ], [ 695711.6326428798493, 4368929.871207598596811 ], [ 695704.856276744860224, 4368922.51723846513778 ], [ 695698.079910609871149, 4368915.163269332610071 ], [ 695691.303544474882074, 4368907.809300200082362 ], [ 695684.527178339892998, 4368900.455331067554653 ], [ 695677.750812204903923, 4368893.101361935026944 ], [ 695670.974446069914848, 4368885.747392801567912 ], [ 695664.198079934925772, 4368878.393423669040203 ], [ 695657.421713799936697, 4368871.039454536512494 ], [ 695650.645347664947622, 4368863.685485403984785 ], [ 695643.868981529958546, 4368856.331516271457076 ], [ 695637.092615394969471, 4368848.977547138929367 ], [ 695630.316249259980395, 4368841.623578005470335 ], [ 695623.53988312499132, 4368834.269608872942626 ], [ 695616.763516990002245, 4368826.915639740414917 ], [ 695609.987150855013169, 4368819.561670607887208 ], [ 695603.210784720024094, 4368812.207701475359499 ], [ 695596.434418585035019, 4368804.85373234283179 ], [ 695589.658052450045943, 4368797.499763209372759 ], [ 695582.881686315056868, 4368790.14579407684505 ], [ 695576.105320180067793, 4368782.791824944317341 ], [ 695569.328954045078717, 4368775.437855811789632 ], [ 695562.552587910089642, 4368768.083886679261923 ], [ 695555.776221775100566, 4368760.729917546734214 ], [ 695548.999855640111491, 4368753.375948413275182 ], [ 695542.223489505122416, 4368746.021979280747473 ], [ 695535.44712337013334, 4368738.668010148219764 ], [ 695528.670757235144265, 4368731.314041015692055 ], [ 695521.89439110015519, 4368723.960071883164346 ], [ 695515.118024965166114, 4368716.606102749705315 ], [ 695508.341658830177039, 4368709.252133617177606 ], [ 695501.565292695187964, 4368701.898164484649897 ], [ 695494.788926560198888, 4368694.544195352122188 ], [ 695488.012560425209813, 4368687.190226219594479 ], [ 695481.236194290220737, 4368679.83625708706677 ], [ 695474.459828155231662, 4368672.482287953607738 ], [ 695467.683462020242587, 4368665.128318821080029 ], [ 695460.907095885253511, 4368657.77434968855232 ], [ 695454.130729750264436, 4368650.420380556024611 ], [ 695447.354363615275361, 4368643.066411423496902 ], [ 695440.577997480286285, 4368635.712442290969193 ], [ 695433.80163134529721, 4368628.358473157510161 ], [ 695427.025265210308135, 4368621.004504024982452 ], [ 695420.248899075319059, 4368613.650534892454743 ], [ 695413.472532940329984, 4368606.296565759927034 ], [ 695406.696166805340908, 4368598.942596627399325 ], [ 695399.919800670351833, 4368591.588627494871616 ], [ 695393.143434535246342, 4368584.234658361412585 ], [ 695386.367068400257267, 4368576.880689228884876 ], [ 695379.590702265268192, 4368569.526720096357167 ], [ 695372.814336130279116, 4368562.172750963829458 ], [ 695366.037969995290041, 4368554.818781831301749 ], [ 695359.261603860300966, 4368547.464812697842717 ], [ 695352.48523772531189, 4368540.110843565315008 ], [ 695345.708871590322815, 4368532.756874432787299 ], [ 695338.93250545533374, 4368525.40290530025959 ], [ 695332.156139320344664, 4368518.048936167731881 ], [ 695325.379773185355589, 4368510.694967035204172 ], [ 695318.603407050366513, 4368503.340997901745141 ], [ 695311.827040915377438, 4368495.987028769217432 ], [ 695305.050674780388363, 4368488.633059636689723 ], [ 695298.274308645399287, 4368481.279090504162014 ], [ 695291.497942510410212, 4368473.925121371634305 ], [ 695284.721576375421137, 4368466.571152239106596 ], [ 695277.945210240432061, 4368459.217183105647564 ], [ 695271.168844105442986, 4368451.863213973119855 ], [ 695264.392477970453911, 4368444.509244840592146 ], [ 695257.616111835464835, 4368437.155275708064437 ], [ 695250.83974570047576, 4368429.801306575536728 ], [ 695244.063379565486684, 4368422.447337443009019 ], [ 695237.287013430497609, 4368415.093368309549987 ], [ 695230.510647295508534, 4368407.739399177022278 ], [ 695223.734281160519458, 4368400.385430044494569 ], [ 695216.957915025530383, 4368393.03146091196686 ], [ 695210.181548890541308, 4368385.677491779439151 ], [ 695203.405182755552232, 4368378.323522646911442 ], [ 695196.628816620563157, 4368370.969553513452411 ], [ 695189.852450485574082, 4368363.615584380924702 ], [ 695183.076084350585006, 4368356.261615248396993 ], [ 695176.299718215595931, 4368348.907646115869284 ], [ 695169.523352080606855, 4368341.553676983341575 ], [ 695162.74698594561778, 4368334.199707849882543 ], [ 695155.970619810628705, 4368326.845738717354834 ], [ 695149.194253675639629, 4368319.491769584827125 ], [ 695142.417887540650554, 4368312.137800452299416 ], [ 695135.641521405661479, 4368304.783831319771707 ], [ 695128.865155270672403, 4368297.429862187243998 ], [ 695122.088789135683328, 4368290.075893053784966 ], [ 695115.312423000694253, 4368282.721923921257257 ], [ 695108.536056865705177, 4368275.367954788729548 ], [ 695101.759690730716102, 4368268.013985656201839 ], [ 695094.983324595727026, 4368260.66001652367413 ], [ 695088.206958460737951, 4368253.306047391146421 ], [ 695081.430592325748876, 4368245.95207825768739 ], [ 695074.6542261907598, 4368238.598109125159681 ], [ 695067.877860055770725, 4368231.244139992631972 ], [ 695061.10149392078165, 4368223.890170860104263 ], [ 695054.325127785792574, 4368216.536201727576554 ], [ 695047.548761650803499, 4368209.182232595048845 ], [ 695040.772395515814424, 4368201.828263461589813 ], [ 695033.996029380825348, 4368194.474294329062104 ], [ 695027.219663245836273, 4368187.120325196534395 ], [ 695020.443297110847197, 4368179.766356064006686 ], [ 695013.666930975858122, 4368172.412386931478977 ], [ 695006.890564840752631, 4368165.058417798019946 ], [ 695000.114198705763556, 4368157.704448665492237 ], [ 694993.337832570774481, 4368150.350479532964528 ], [ 694986.561466435785405, 4368142.996510400436819 ], [ 694979.78510030079633, 4368135.64254126790911 ], [ 694973.008734165807255, 4368128.288572135381401 ], [ 694966.232368030818179, 4368120.934603001922369 ], [ 694959.456001895829104, 4368113.58063386939466 ], [ 694952.679635760840029, 4368106.226664736866951 ], [ 694945.903269625850953, 4368098.872695604339242 ], [ 694939.126903490861878, 4368091.518726471811533 ], [ 694932.350537355872802, 4368084.164757339283824 ], [ 694925.574171220883727, 4368076.810788205824792 ], [ 694918.797805085894652, 4368069.456819073297083 ], [ 694912.021438950905576, 4368062.102849940769374 ], [ 694905.245072815916501, 4368054.748880808241665 ], [ 694898.468706680927426, 4368047.394911675713956 ], [ 694891.69234054593835, 4368040.040942543186247 ], [ 694884.915974410949275, 4368032.686973409727216 ], [ 694878.1396082759602, 4368025.333004277199507 ], [ 694871.363242140971124, 4368017.979035144671798 ], [ 694864.586876005982049, 4368010.625066012144089 ], [ 694857.810509870992973, 4368003.27109687961638 ], [ 694851.034143736003898, 4367995.917127746157348 ], [ 694844.257777601014823, 4367988.563158613629639 ], [ 694837.481411466025747, 4367981.20918948110193 ], [ 694830.705045331036672, 4367973.855220348574221 ], [ 694823.928679196047597, 4367966.501251216046512 ], [ 694817.152313061058521, 4367959.147282083518803 ], [ 694810.375946926069446, 4367951.793312950059772 ], [ 694803.599580791080371, 4367944.439343817532063 ], [ 694796.823214656091295, 4367937.085374685004354 ], [ 694790.04684852110222, 4367929.731405552476645 ], [ 694783.270482386113144, 4367922.377436419948936 ], [ 694776.494116251124069, 4367915.023467287421227 ], [ 694769.717750116134994, 4367907.669498153962195 ], [ 694762.941383981145918, 4367900.315529021434486 ], [ 694755.898373961914331, 4367893.461752350442111 ], [ 694746.015605607884936, 4367891.935027207247913 ], [ 694736.132837253971957, 4367890.408302064053714 ], [ 694726.250068900058977, 4367888.881576921790838 ], [ 694716.367300546029583, 4367887.35485177859664 ], [ 694706.484532192116603, 4367885.828126635402441 ], [ 694696.601763838087209, 4367884.301401493139565 ], [ 694686.718995484174229, 4367882.774676349945366 ], [ 694676.83622713026125, 4367881.247951206751168 ], [ 694666.953458776231855, 4367879.721226064488292 ], [ 694657.070690422318876, 4367878.194500921294093 ], [ 694647.187922068405896, 4367876.667775778099895 ], [ 694637.305153714376502, 4367875.141050634905696 ], [ 694627.422385360463522, 4367873.61432549264282 ], [ 694617.539617006434128, 4367872.087600349448621 ], [ 694607.656848652521148, 4367870.560875206254423 ], [ 694597.774080298608169, 4367869.034150063991547 ], [ 694587.891311944578774, 4367867.507424920797348 ], [ 694578.008543590665795, 4367865.980699777603149 ], [ 694568.1257752366364, 4367864.453974635340273 ], [ 694558.243006882723421, 4367862.927249492146075 ], [ 694548.360238528810441, 4367861.400524348951876 ], [ 694538.477470174781047, 4367859.873799206689 ], [ 694528.594701820868067, 4367858.347074063494802 ], [ 694518.711933466838673, 4367856.820348920300603 ], [ 694508.829165112925693, 4367855.293623777106404 ], [ 694498.946396759012714, 4367853.766898634843528 ], [ 694489.063628404983319, 4367852.24017349164933 ], [ 694479.18086005107034, 4367850.713448348455131 ], [ 694469.298091697157361, 4367849.186723206192255 ], [ 694459.415323343127966, 4367847.659998062998056 ], [ 694449.532554989214987, 4367846.133272919803858 ], [ 694439.649786635185592, 4367844.606547777540982 ], [ 694429.767018281272613, 4367843.079822634346783 ], [ 694419.884249927359633, 4367841.553097491152585 ], [ 694410.001481573330238, 4367840.026372347958386 ], [ 694400.118713219417259, 4367838.49964720569551 ], [ 694390.235944865387864, 4367836.972922062501311 ], [ 694380.353176511474885, 4367835.446196919307113 ], [ 694370.470408157561906, 4367833.919471777044237 ], [ 694360.587639803532511, 4367832.392746633850038 ], [ 694350.704871449619532, 4367830.866021490655839 ], [ 694340.822103095590137, 4367829.339296348392963 ], [ 694330.939334741677158, 4367827.812571205198765 ], [ 694321.056566387764178, 4367826.285846062004566 ], [ 694311.173798033734784, 4367824.759120918810368 ], [ 694301.291029679821804, 4367823.232395776547492 ], [ 694291.408261325908825, 4367821.705670633353293 ], [ 694281.52549297187943, 4367820.178945490159094 ], [ 694271.642724617966451, 4367818.652220347896218 ], [ 694261.759956263937056, 4367817.12549520470202 ], [ 694251.877187910024077, 4367815.598770061507821 ], [ 694241.994419556111097, 4367814.072044919244945 ], [ 694232.111651202081703, 4367812.545319776050746 ], [ 694222.228882848168723, 4367811.018594632856548 ], [ 694212.346114494139329, 4367809.491869489662349 ], [ 694202.463346140226349, 4367807.965144347399473 ], [ 694192.58057778631337, 4367806.438419204205275 ], [ 694182.697809432283975, 4367804.911694061011076 ], [ 694172.815041078370996, 4367803.3849689187482 ], [ 694162.932272724341601, 4367801.858243775554001 ], [ 694153.049504370428622, 4367800.331518632359803 ], [ 694143.166736016515642, 4367798.804793490096927 ], [ 694133.283967662486248, 4367797.278068346902728 ], [ 694123.401199308573268, 4367795.751343203708529 ], [ 694113.518430954660289, 4367794.224618061445653 ], [ 694103.635662600630894, 4367792.697892918251455 ], [ 694093.752894246717915, 4367791.171167775057256 ], [ 694083.87012589268852, 4367789.644442631863058 ], [ 694073.987357538775541, 4367788.117717489600182 ], [ 694064.104589184862562, 4367786.590992346405983 ], [ 694054.221820830833167, 4367785.064267203211784 ], [ 694044.339052476920187, 4367783.537542060948908 ], [ 694034.456284122890793, 4367782.01081691775471 ], [ 694024.573515768977813, 4367780.484091774560511 ], [ 694014.690747415064834, 4367778.957366632297635 ], [ 694004.807979061035439, 4367777.430641489103436 ], [ 693994.92521070712246, 4367775.903916345909238 ], [ 693985.042442353209481, 4367774.377191202715039 ], [ 693975.159673999180086, 4367772.850466060452163 ], [ 693965.276905645267107, 4367771.323740917257965 ], [ 693955.394137291237712, 4367769.797015774063766 ], [ 693945.511368937324733, 4367768.27029063180089 ], [ 693935.628600583411753, 4367766.743565488606691 ], [ 693925.745832229382358, 4367765.216840345412493 ], [ 693915.863063875469379, 4367763.690115203149617 ], [ 693905.980295521439984, 4367762.163390059955418 ], [ 693896.097527167527005, 4367760.63666491676122 ], [ 693886.214758813614026, 4367759.109939773567021 ], [ 693876.331990459584631, 4367757.583214631304145 ], [ 693866.449222105671652, 4367756.056489488109946 ], [ 693856.566453751642257, 4367754.529764344915748 ], [ 693846.683685397729278, 4367753.003039202652872 ], [ 693836.800917043816298, 4367751.476314059458673 ], [ 693826.918148689786904, 4367749.949588916264474 ], [ 693817.035380335873924, 4367748.422863774001598 ], [ 693807.152611981960945, 4367746.8961386308074 ], [ 693797.26984362793155, 4367745.369413487613201 ], [ 693787.387075274018571, 4367743.842688344419003 ], [ 693777.504306919989176, 4367742.315963202156126 ], [ 693767.621538566076197, 4367740.789238058961928 ], [ 693757.738770212163217, 4367739.262512915767729 ], [ 693747.856001858133823, 4367737.735787773504853 ], [ 693737.973233504220843, 4367736.209062630310655 ], [ 693728.090465150191449, 4367734.682337487116456 ], [ 693718.207696796278469, 4367733.15561234485358 ], [ 693708.32492844236549, 4367731.628887201659381 ], [ 693698.442160088336095, 4367730.102162058465183 ], [ 693688.559391734423116, 4367728.575436916202307 ], [ 693678.676623380393721, 4367727.048711773008108 ], [ 693668.793855026480742, 4367725.52198662981391 ], [ 693658.911086672567762, 4367723.995261486619711 ], [ 693649.028318318538368, 4367722.468536344356835 ], [ 693639.145549964625388, 4367720.941811201162636 ], [ 693629.262781610712409, 4367719.415086057968438 ], [ 693619.380013256683014, 4367717.888360915705562 ], [ 693609.497244902770035, 4367716.361635772511363 ], [ 693599.61447654874064, 4367714.834910629317164 ], [ 693589.731708194827661, 4367713.308185487054288 ], [ 693579.848939840914682, 4367711.78146034386009 ], [ 693569.966171486885287, 4367710.254735200665891 ], [ 693560.083403132972308, 4367708.728010057471693 ], [ 693550.200634778942913, 4367707.201284915208817 ], [ 693540.317866425029933, 4367705.674559772014618 ], [ 693530.435098071116954, 4367704.147834628820419 ], [ 693520.552329717087559, 4367702.621109486557543 ], [ 693510.66956136317458, 4367701.094384343363345 ], [ 693500.786793009145185, 4367699.567659200169146 ], [ 693491.769467067788355, 4367703.290988952852786 ], [ 693482.89962083438877, 4367707.908978536725044 ], [ 693474.02977460087277, 4367712.526968120597303 ], [ 693465.159928367473185, 4367717.144957703538239 ], [ 693456.290082133957185, 4367721.762947287410498 ], [ 693447.4202359005576, 4367726.380936871282756 ], [ 693438.5503896670416, 4367730.998926455155015 ], [ 693429.680543433642015, 4367735.616916038095951 ], [ 693420.810697200126015, 4367740.23490562196821 ], [ 693411.94085096672643, 4367744.852895205840468 ], [ 693403.071004733326845, 4367749.470884789712727 ], [ 693394.201158499810845, 4367754.088874373584986 ], [ 693385.33131226641126, 4367758.706863956525922 ], [ 693376.46146603289526, 4367763.32485354039818 ], [ 693367.591619799495675, 4367767.942843124270439 ], [ 693358.721773565979674, 4367772.560832708142698 ], [ 693349.85192733258009, 4367777.178822292014956 ], [ 693340.982081099180505, 4367781.796811874955893 ], [ 693332.112234865664504, 4367786.414801458828151 ], [ 693323.24238863226492, 4367791.03279104270041 ], [ 693314.372542398748919, 4367795.650780626572669 ], [ 693305.502696165349334, 4367800.268770210444927 ], [ 693296.632849931833334, 4367804.886759793385863 ] ] ] } }
]
}
