{
"type": "FeatureCollection",
"crs": { "type": "name", "properties": { "name": "urn:ogc:def:crs:EPSG::32738" } },
"features": [
{ "type": "Feature", "properties": { "id": 1 }, "geometry": { "type": "MultiLineString", "coordinates": [ [ [ 408474.252670703572221, 7734887.681690683588386 ], [ 408484.234945314645302, 7734887.086549028754234 ], [ 408494.217219925718382, 7734886.491407373920083 ], [ 408504.199494536791462, 7734885.896265719085932 ], [ 408514.181769147864543, 7734885.301124064251781 ], [ 408524.164043758879416, 7734884.705982409417629 ], [ 408534.146318369952496, 7734884.110840754583478 ], [ 408544.128592981025577, 7734883.515699099749327 ], [ 408554.110867592098657, 7734882.920557444915175 ], [ 408564.093142203171737, 7734882.325415791012347 ], [ 408574.075416814244818, 7734881.730274136178195 ], [ 408584.057691425317898, 7734881.135132481344044 ], [ 408594.039966036390979, 7734880.539990826509893 ], [ 408604.022240647464059, 7734879.944849171675742 ], [ 408614.004515258478932, 7734879.34970751684159 ], [ 408623.986789869552013, 7734878.754565862007439 ], [ 408633.969064480625093, 7734878.159424207173288 ], [ 408643.951339091698173, 7734877.564282552339137 ], [ 408653.933613702771254, 7734876.969140897504985 ], [ 408663.915888313844334, 7734876.373999242670834 ], [ 408673.898162924917415, 7734875.778857587836683 ], [ 408683.880437535990495, 7734875.183715933002532 ], [ 408693.862712147063576, 7734874.58857427816838 ], [ 408703.844986758078448, 7734873.993432623334229 ], [ 408713.827261369151529, 7734873.398290968500078 ], [ 408723.809535980224609, 7734872.803149313665926 ], [ 408733.79181059129769, 7734872.208007659763098 ], [ 408743.77408520237077, 7734871.612866004928946 ], [ 408753.756359813443851, 7734871.017724350094795 ], [ 408763.738634424516931, 7734870.422582695260644 ], [ 408773.720909035590012, 7734869.827441040426493 ], [ 408783.703183646663092, 7734869.232299385592341 ], [ 408793.685458257677965, 7734868.63715773075819 ], [ 408803.667732868751045, 7734868.042016075924039 ], [ 408813.650007479824126, 7734867.446874421089888 ], [ 408823.632282090897206, 7734866.851732766255736 ], [ 408833.614556701970287, 7734866.256591111421585 ], [ 408843.596831313043367, 7734865.661449456587434 ], [ 408853.579105924116448, 7734865.066307801753283 ], [ 408863.561380535189528, 7734864.471166146919131 ], [ 408873.543655146262608, 7734863.87602449208498 ], [ 408883.525929757277481, 7734863.280882837250829 ], [ 408893.508204368350562, 7734862.685741182416677 ], [ 408903.490478979423642, 7734862.090599528513849 ], [ 408913.472753590496723, 7734861.495457873679698 ], [ 408923.455028201569803, 7734860.900316218845546 ], [ 408933.437302812642884, 7734860.305174564011395 ], [ 408943.419577423715964, 7734859.710032909177244 ], [ 408953.401852034789044, 7734859.114891254343092 ], [ 408963.384126645862125, 7734858.519749599508941 ], [ 408973.366401256935205, 7734857.92460794467479 ], [ 408983.348675867950078, 7734857.329466289840639 ], [ 408993.330950479023159, 7734856.734324635006487 ], [ 409003.313225090096239, 7734856.139182980172336 ], [ 409013.295499701169319, 7734855.544041325338185 ], [ 409023.2777743122424, 7734854.948899670504034 ], [ 409033.26004892331548, 7734854.353758015669882 ], [ 409043.242323534388561, 7734853.758616360835731 ], [ 409053.224598145461641, 7734853.16347470600158 ], [ 409063.206872756534722, 7734852.568333051167428 ], [ 409073.189147367549594, 7734851.9731913972646 ], [ 409083.171421978622675, 7734851.378049742430449 ], [ 409093.153696589695755, 7734850.782908087596297 ], [ 409103.135971200768836, 7734850.187766432762146 ], [ 409113.118245811841916, 7734849.592624777927995 ], [ 409123.100520422914997, 7734848.997483123093843 ], [ 409133.082795033988077, 7734848.402341468259692 ], [ 409143.065069645061158, 7734847.807199813425541 ], [ 409153.047344256134238, 7734847.21205815859139 ], [ 409163.029618867149111, 7734846.616916503757238 ], [ 409173.011893478222191, 7734846.021774848923087 ], [ 409182.994168089295272, 7734845.426633194088936 ], [ 409192.976442700368352, 7734844.831491539254785 ], [ 409202.958717311441433, 7734844.236349884420633 ], [ 409212.940991922514513, 7734843.641208229586482 ], [ 409222.923266533587594, 7734843.046066574752331 ], [ 409232.905541144660674, 7734842.45092491991818 ], [ 409242.887815755733754, 7734841.855783266015351 ], [ 409252.870090366748627, 7734841.2606416111812 ], [ 409262.852364977821708, 7734840.665499956347048 ], [ 409272.834639588894788, 7734840.070358301512897 ], [ 409282.816914199967869, 7734839.475216646678746 ], [ 409292.799188811040949, 7734838.880074991844594 ], [ 409302.78146342211403, 7734838.284933337010443 ], [ 409312.76373803318711, 7734837.689791682176292 ], [ 409322.74601264426019, 7734837.094650027342141 ], [ 409332.728287255333271, 7734836.499508372507989 ], [ 409342.710561866348144, 7734835.904366717673838 ], [ 409352.692836477421224, 7734835.309225062839687 ], [ 409362.675111088494305, 7734834.714083408005536 ], [ 409372.657385699567385, 7734834.118941753171384 ], [ 409382.639660310640465, 7734833.523800098337233 ], [ 409392.621934921713546, 7734832.928658443503082 ], [ 409402.604209532786626, 7734832.333516788668931 ], [ 409412.586484143859707, 7734831.738375134766102 ], [ 409422.568758754932787, 7734831.143233479931951 ], [ 409432.55103336594766, 7734830.548091825097799 ], [ 409442.533307977020741, 7734829.952950170263648 ], [ 409452.515582588093821, 7734829.357808515429497 ], [ 409462.501270343316719, 7734829.339301412925124 ], [ 409472.48989064298803, 7734829.816233808174729 ], [ 409482.478510942659341, 7734830.293166203424335 ], [ 409492.467131242272444, 7734830.770098597742617 ], [ 409502.455751541943755, 7734831.247030992992222 ], [ 409512.444371841556858, 7734831.723963388241827 ], [ 409522.432992141228169, 7734832.200895783491433 ], [ 409532.42161244089948, 7734832.677828178741038 ], [ 409542.410232740512583, 7734833.15476057305932 ], [ 409552.398853040183894, 7734833.631692968308926 ], [ 409562.387473339796998, 7734834.108625363558531 ], [ 409572.376093639468309, 7734834.585557758808136 ], [ 409582.364713939081412, 7734835.062490154057741 ], [ 409592.353334238752723, 7734835.539422549307346 ], [ 409602.341954538424034, 7734836.016354943625629 ], [ 409612.330574838037137, 7734836.493287338875234 ], [ 409622.319195137708448, 7734836.970219734124839 ], [ 409632.307815437321551, 7734837.447152129374444 ], [ 409642.296435736992862, 7734837.92408452462405 ], [ 409652.285056036664173, 7734838.401016918942332 ], [ 409662.273676336277276, 7734838.877949314191937 ], [ 409672.262296635948587, 7734839.354881709441543 ], [ 409682.25091693556169, 7734839.831814104691148 ], [ 409692.239537235233001, 7734840.308746499940753 ], [ 409702.228157534846105, 7734840.785678895190358 ], [ 409712.216777834517416, 7734841.262611289508641 ], [ 409722.205398134188727, 7734841.739543684758246 ], [ 409732.19401843380183, 7734842.216476080007851 ], [ 409742.182638733473141, 7734842.693408475257456 ], [ 409752.171259033086244, 7734843.170340870507061 ], [ 409762.159879332757555, 7734843.647273264825344 ], [ 409772.148499632428866, 7734844.124205660074949 ], [ 409782.137119932041969, 7734844.601138055324554 ], [ 409792.12574023171328, 7734845.07807045057416 ], [ 409802.114360531326383, 7734845.555002845823765 ], [ 409812.102980830997694, 7734846.03193524107337 ], [ 409822.091601130610798, 7734846.508867635391653 ], [ 409832.080221430282108, 7734846.985800030641258 ], [ 409842.068841729953419, 7734847.462732425890863 ], [ 409852.057462029566523, 7734847.939664821140468 ], [ 409862.046082329237834, 7734848.416597216390073 ], [ 409872.034702628850937, 7734848.893529611639678 ], [ 409882.023322928522248, 7734849.370462005957961 ], [ 409892.011943228193559, 7734849.847394401207566 ], [ 409902.000563527806662, 7734850.324326796457171 ], [ 409911.989183827477973, 7734850.801259191706777 ], [ 409921.977804127091076, 7734851.278191586956382 ], [ 409931.966424426762387, 7734851.755123981274664 ], [ 409941.95504472637549, 7734852.23205637652427 ], [ 409951.943665026046801, 7734852.708988771773875 ], [ 409961.810163233487401, 7734853.961632823571563 ], [ 409971.462161181960255, 7734856.576768689788878 ], [ 409981.114159130433109, 7734859.191904556937516 ], [ 409990.766157078905962, 7734861.807040424086154 ], [ 410000.418155027378816, 7734864.422176291234791 ], [ 410010.07015297585167, 7734867.037312158383429 ], [ 410019.722150924324524, 7734869.652448024600744 ], [ 410029.374148872797377, 7734872.267583891749382 ], [ 410039.026146821270231, 7734874.88271975889802 ], [ 410048.678144769743085, 7734877.497855626046658 ], [ 410058.330142718215939, 7734880.112991493195295 ], [ 410067.982140666688792, 7734882.728127359412611 ], [ 410077.634138615161646, 7734885.343263226561248 ], [ 410087.2861365636345, 7734887.958399093709886 ], [ 410096.938134512107354, 7734890.573534960858524 ], [ 410106.590132460580207, 7734893.188670828007162 ], [ 410116.242130409053061, 7734895.803806694224477 ], [ 410125.894128357525915, 7734898.418942561373115 ], [ 410135.546126305998769, 7734901.034078428521752 ], [ 410145.198124254471622, 7734903.64921429567039 ], [ 410154.850122202944476, 7734906.264350162819028 ], [ 410164.50212015141733, 7734908.879486029036343 ], [ 410174.154118099831976, 7734911.494621896184981 ], [ 410183.80611604830483, 7734914.109757763333619 ], [ 410193.458113996777683, 7734916.724893630482256 ], [ 410203.110111945250537, 7734919.340029497630894 ], [ 410212.762109893723391, 7734921.955165364779532 ], [ 410222.414107842196245, 7734924.570301230996847 ], [ 410232.066105790669098, 7734927.185437098145485 ], [ 410241.718103739141952, 7734929.800572965294123 ], [ 410251.370101687614806, 7734932.41570883244276 ], [ 410261.02209963608766, 7734935.030844699591398 ], [ 410270.674097584560513, 7734937.645980565808713 ], [ 410280.326095533033367, 7734940.261116432957351 ], [ 410289.978093481506221, 7734942.876252300105989 ], [ 410299.630091429979075, 7734945.491388167254627 ], [ 410309.282089378451928, 7734948.106524034403265 ], [ 410318.934087326924782, 7734950.72165990062058 ], [ 410328.586085275397636, 7734953.336795767769217 ], [ 410338.23808322387049, 7734955.951931634917855 ], [ 410347.890081172343343, 7734958.567067502066493 ], [ 410357.542079120816197, 7734961.182203369215131 ], [ 410367.486171826836653, 7734961.078195795416832 ], [ 410377.473389176419005, 7734960.5727359931916 ], [ 410387.460606526001357, 7734960.067276190035045 ], [ 410397.447823875583708, 7734959.561816387809813 ], [ 410407.43504122516606, 7734959.056356584653258 ], [ 410417.422258574806619, 7734958.550896782428026 ], [ 410427.409475924388971, 7734958.045436980202794 ], [ 410437.396693273971323, 7734957.539977177046239 ], [ 410447.383910623553675, 7734957.034517374821007 ], [ 410457.371127973136026, 7734956.529057571664453 ], [ 410467.358345322718378, 7734956.02359776943922 ], [ 410477.34556267230073, 7734955.518137966282666 ], [ 410487.332780021883082, 7734955.012678164057434 ], [ 410497.319997371465433, 7734954.507218360900879 ], [ 410507.307214721047785, 7734954.001758558675647 ], [ 410517.294432070630137, 7734953.496298755519092 ], [ 410527.281649420270696, 7734952.99083895329386 ], [ 410537.268866769853048, 7734952.485379151068628 ], [ 410547.2560841194354, 7734951.979919347912073 ], [ 410557.243301469017752, 7734951.474459545686841 ], [ 410567.230518818600103, 7734950.968999742530286 ], [ 410577.217736168182455, 7734950.463539940305054 ], [ 410587.204953517764807, 7734949.958080137148499 ], [ 410597.192170867347158, 7734949.452620334923267 ], [ 410607.17938821692951, 7734948.947160531766713 ], [ 410617.166605566511862, 7734948.441700729541481 ], [ 410627.153822916094214, 7734947.936240926384926 ], [ 410637.141040265734773, 7734947.430781124159694 ], [ 410647.128257615317125, 7734946.925321321003139 ], [ 410657.115474964899477, 7734946.419861518777907 ], [ 410667.102692314481828, 7734945.914401716552675 ], [ 410677.08990966406418, 7734945.40894191339612 ], [ 410687.077127013646532, 7734944.903482111170888 ], [ 410697.064344363228884, 7734944.398022308014333 ], [ 410707.051561712811235, 7734943.892562505789101 ], [ 410717.038779062393587, 7734943.387102702632546 ], [ 410727.025996411975939, 7734942.881642900407314 ], [ 410737.013213761558291, 7734942.37618309725076 ], [ 410747.000431111140642, 7734941.870723295025527 ], [ 410756.987648460781202, 7734941.365263491868973 ], [ 410766.974865810363553, 7734940.859803689643741 ], [ 410776.962083159945905, 7734940.354343886487186 ], [ 410786.949300509528257, 7734939.848884084261954 ], [ 410796.936517859110609, 7734939.343424282036722 ], [ 410806.92373520869296, 7734938.837964478880167 ], [ 410816.910952558275312, 7734938.332504676654935 ], [ 410826.898169907857664, 7734937.82704487349838 ], [ 410836.885387257440016, 7734937.321585071273148 ], [ 410846.872604607022367, 7734936.816125268116593 ], [ 410856.859821956604719, 7734936.310665465891361 ], [ 410866.847039306245279, 7734935.805205662734807 ], [ 410876.83425665582763, 7734935.299745860509574 ], [ 410886.821474005409982, 7734934.79428605735302 ], [ 410896.808691354992334, 7734934.288826255127788 ], [ 410906.795908704574686, 7734933.783366452902555 ], [ 410916.783126054157037, 7734933.277906649746001 ], [ 410926.770343403739389, 7734932.772446847520769 ], [ 410936.757560753321741, 7734932.266987044364214 ], [ 410946.744778102904093, 7734931.761527242138982 ], [ 410956.731995452486444, 7734931.256067438982427 ], [ 410966.719212802068796, 7734930.750607636757195 ], [ 410976.706430151709355, 7734930.24514783360064 ], [ 410986.693647501291707, 7734929.739688031375408 ], [ 410996.680864850874059, 7734929.234228228218853 ], [ 411006.668082200456411, 7734928.728768425993621 ], [ 411016.655299550038762, 7734928.223308622837067 ], [ 411026.642516899621114, 7734927.717848820611835 ], [ 411036.629734249203466, 7734927.212389018386602 ], [ 411046.616951598785818, 7734926.706929215230048 ], [ 411056.604168948368169, 7734926.201469413004816 ], [ 411066.591386297950521, 7734925.696009609848261 ], [ 411076.578603647532873, 7734925.190549807623029 ], [ 411086.565820997173432, 7734924.685090004466474 ], [ 411096.553038346755784, 7734924.179630202241242 ], [ 411106.540255696338136, 7734923.674170399084687 ], [ 411116.527473045920487, 7734923.168710596859455 ], [ 411126.384501885389909, 7734921.717108852230012 ], [ 411136.137076197308488, 7734919.506386280059814 ], [ 411145.889650509227067, 7734917.295663707889616 ], [ 411155.642224821145646, 7734915.084941136650741 ], [ 411165.394799133122433, 7734912.874218564480543 ], [ 411175.147373445041012, 7734910.663495992310345 ], [ 411184.899947756959591, 7734908.452773420140147 ], [ 411194.65252206887817, 7734906.242050847969949 ], [ 411204.405096380796749, 7734904.031328276731074 ], [ 411214.157670692715328, 7734901.820605704560876 ], [ 411223.910245004692115, 7734899.609883132390678 ], [ 411233.662819316610694, 7734897.39916056022048 ], [ 411243.415393628529273, 7734895.188437988050282 ], [ 411253.167967940447852, 7734892.977715416811407 ], [ 411262.920542252366431, 7734890.766992844641209 ], [ 411272.673116564343218, 7734888.556270272471011 ], [ 411282.425690876261797, 7734886.345547700300813 ], [ 411292.178265188180376, 7734884.134825128130615 ], [ 411301.930839500098955, 7734881.924102556891739 ], [ 411311.683413812017534, 7734879.713379984721541 ], [ 411321.435988123994321, 7734877.502657412551343 ], [ 411331.1885624359129, 7734875.291934840381145 ], [ 411340.941136747831479, 7734873.081212268210948 ], [ 411350.693711059750058, 7734870.870489696972072 ], [ 411360.446285371668637, 7734868.659767124801874 ], [ 411370.198859683645424, 7734866.449044552631676 ], [ 411379.951433995564003, 7734864.238321980461478 ], [ 411389.704008307482582, 7734862.02759940829128 ], [ 411399.456582619401161, 7734859.816876837052405 ], [ 411409.20915693131974, 7734857.606154264882207 ], [ 411418.961731243238319, 7734855.395431692712009 ], [ 411428.714305555215105, 7734853.184709120541811 ], [ 411438.466879867133684, 7734850.973986548371613 ], [ 411448.219454179052263, 7734848.763263976201415 ], [ 411457.972028490970843, 7734846.55254140496254 ], [ 411467.724602802889422, 7734844.341818832792342 ], [ 411477.477177114866208, 7734842.131096260622144 ], [ 411487.229751426784787, 7734839.920373688451946 ], [ 411496.982325738703366, 7734837.709651116281748 ], [ 411506.734900050621945, 7734835.498928545042872 ], [ 411516.487474362540524, 7734833.288205972872674 ], [ 411526.240048674517311, 7734831.077483400702477 ], [ 411535.99262298643589, 7734828.866760828532279 ], [ 411545.745197298354469, 7734826.656038256362081 ], [ 411555.497771610273048, 7734824.445315685123205 ], [ 411565.250345922191627, 7734822.234593112953007 ], [ 411575.002920234110206, 7734820.023870540782809 ], [ 411584.755494546086993, 7734817.813147968612611 ], [ 411594.508068858005572, 7734815.602425396442413 ], [ 411604.260643169924151, 7734813.391702825203538 ], [ 411614.01321748184273, 7734811.18098025303334 ], [ 411623.765791793761309, 7734808.970257680863142 ], [ 411633.518366105738096, 7734806.759535108692944 ], [ 411643.270940417656675, 7734804.548812536522746 ], [ 411653.023514729575254, 7734802.338089965283871 ], [ 411662.776089041493833, 7734800.127367393113673 ], [ 411672.528663353412412, 7734797.916644820943475 ], [ 411682.281237665389199, 7734795.705922248773277 ], [ 411692.033811977307778, 7734793.495199676603079 ], [ 411701.786386289226357, 7734791.284477105364203 ], [ 411711.538960601144936, 7734789.073754533194005 ], [ 411721.291534913063515, 7734786.863031961023808 ], [ 411731.044109225040302, 7734784.65230938885361 ], [ 411740.796683536958881, 7734782.441586816683412 ], [ 411750.54925784887746, 7734780.230864245444536 ], [ 411760.301832160796039, 7734778.020141673274338 ], [ 411770.162465803616215, 7734776.409199107438326 ], [ 411780.073364848387428, 7734775.077253116294742 ], [ 411789.984263893158641, 7734773.745307124219835 ], [ 411799.895162937929854, 7734772.413361133076251 ], [ 411809.806061982701067, 7734771.081415141932666 ], [ 411819.716961027530488, 7734769.749469149857759 ], [ 411829.627860072301701, 7734768.417523158714175 ], [ 411839.538759117072914, 7734767.085577166639268 ], [ 411849.449658161844127, 7734765.753631175495684 ], [ 411859.36055720661534, 7734764.4216851843521 ], [ 411869.271456251386553, 7734763.089739192277193 ], [ 411879.182355296157766, 7734761.757793201133609 ], [ 411889.093254340928979, 7734760.425847209990025 ], [ 411899.004153385700192, 7734759.093901217915118 ], [ 411908.915052430471405, 7734757.761955226771533 ], [ 411918.825951475242618, 7734756.430009234696627 ], [ 411928.736850520013832, 7734755.098063243553042 ], [ 411938.647749564785045, 7734753.766117252409458 ], [ 411948.558648609556258, 7734752.434171260334551 ], [ 411958.469547654327471, 7734751.102225269190967 ], [ 411968.380446699098684, 7734749.77027927711606 ], [ 411978.291345743928105, 7734748.438333285972476 ], [ 411988.202244788699318, 7734747.106387294828892 ], [ 411998.113143833470531, 7734745.774441302753985 ], [ 412008.024042878241744, 7734744.442495311610401 ], [ 412017.934941923012957, 7734743.110549320466816 ], [ 412027.84584096778417, 7734741.77860332839191 ], [ 412037.756740012555383, 7734740.446657337248325 ], [ 412047.667639057326596, 7734739.114711345173419 ], [ 412057.578538102097809, 7734737.782765354029834 ], [ 412067.489437146869022, 7734736.45081936288625 ], [ 412077.400336191640235, 7734735.118873370811343 ], [ 412087.311235236411449, 7734733.786927379667759 ], [ 412097.222134281182662, 7734732.454981387592852 ], [ 412107.133033325953875, 7734731.123035396449268 ], [ 412117.043932370725088, 7734729.791089405305684 ], [ 412126.954831415496301, 7734728.459143413230777 ], [ 412136.865730460325722, 7734727.127197422087193 ], [ 412146.776629505096935, 7734725.795251430943608 ], [ 412156.687528549868148, 7734724.463305438868701 ], [ 412166.598427594639361, 7734723.131359447725117 ], [ 412176.509326639410574, 7734721.79941345565021 ], [ 412186.420225684181787, 7734720.467467464506626 ], [ 412196.331124728953, 7734719.135521473363042 ], [ 412206.242023773724213, 7734717.803575481288135 ], [ 412216.152922818495426, 7734716.471629490144551 ], [ 412226.063821863266639, 7734715.139683498069644 ], [ 412235.974720908037852, 7734713.80773750692606 ], [ 412245.885619952809066, 7734712.475791515782475 ], [ 412255.796518997580279, 7734711.143845523707569 ], [ 412265.707418042351492, 7734709.811899532563984 ], [ 412275.618317087122705, 7734708.4799535414204 ], [ 412285.529216131952126, 7734707.148007549345493 ], [ 412295.440115176723339, 7734705.816061558201909 ], [ 412305.351014221494552, 7734704.484115566127002 ], [ 412315.261913266265765, 7734703.152169574983418 ], [ 412325.172812311036978, 7734701.820223583839834 ], [ 412335.083711355808191, 7734700.488277591764927 ], [ 412344.994610400579404, 7734699.156331600621343 ], [ 412354.905509445350617, 7734697.824385608546436 ], [ 412364.81640849012183, 7734696.492439617402852 ], [ 412374.727307534893043, 7734695.160493626259267 ], [ 412384.638206579664256, 7734693.828547634184361 ], [ 412394.54910562443547, 7734692.496601643040776 ], [ 412404.460004669206683, 7734691.164655651897192 ], [ 412414.370903713977896, 7734689.832709659822285 ], [ 412424.281802758749109, 7734688.500763668678701 ], [ 412434.192701803520322, 7734687.168817676603794 ], [ 412444.103600848349743, 7734685.83687168546021 ], [ 412454.014499893120956, 7734684.504925694316626 ], [ 412463.925398937892169, 7734683.172979702241719 ], [ 412473.836297982663382, 7734681.841033711098135 ], [ 412483.747197027434595, 7734680.509087719023228 ], [ 412493.658096072205808, 7734679.177141727879643 ], [ 412503.568995116977021, 7734677.845195736736059 ], [ 412513.479894161748234, 7734676.513249744661152 ], [ 412523.390793206519447, 7734675.181303753517568 ], [ 412533.148709871456958, 7734676.641281239688396 ], [ 412542.854743112227879, 7734679.048129537142813 ], [ 412552.560776352940593, 7734681.454977835528553 ], [ 412562.266809593711514, 7734683.861826133914292 ], [ 412571.972842834424227, 7734686.268674431368709 ], [ 412581.678876075136941, 7734688.675522729754448 ], [ 412591.384909315907862, 7734691.082371028140187 ], [ 412601.090942556620575, 7734693.489219325594604 ], [ 412610.796975797333289, 7734695.896067623980343 ], [ 412620.50300903810421, 7734698.30291592143476 ], [ 412630.209042278816923, 7734700.709764219820499 ], [ 412639.915075519529637, 7734703.116612518206239 ], [ 412649.621108760300558, 7734705.523460815660655 ], [ 412659.327142001013272, 7734707.930309114046395 ], [ 412669.033175241784193, 7734710.337157412432134 ], [ 412678.739208482496906, 7734712.744005709886551 ], [ 412688.44524172320962, 7734715.15085400827229 ], [ 412698.151274963980541, 7734717.557702305726707 ], [ 412707.857308204693254, 7734719.964550604112446 ], [ 412717.563341445405968, 7734722.371398902498186 ], [ 412727.269374686176889, 7734724.778247199952602 ] ] ] } }
]
}
