{
"type": "FeatureCollection",
"crs": { "type": "name", "properties": { "name": "urn:ogc:def:crs:EPSG::32637" } },
"features": [
{ "type": "Feature", "properties": { "id": 1 }, "geometry": { "type": "MultiLineString", "coordinates": [ [ [ 534818.890096168033779, 1757239.856758609646931 ], [ 534813.951091244351119, 1757231.161574289435521 ], [ 534809.012086320668459, 1757222.46638996899128 ], [ 534804.073081396985799, 1757213.771205648779869 ], [ 534799.134076473303139, 1757205.076021328568459 ], [ 534794.195071549620479, 1757196.380837008124217 ], [ 534789.256066625937819, 1757187.685652687912807 ], [ 534784.317061702371575, 1757178.990468367468566 ], [ 534779.378056778688915, 1757170.295284047257155 ], [ 534774.439051855006255, 1757161.600099727045745 ], [ 534769.500046931323595, 1757152.904915406601503 ], [ 534764.561042007640935, 1757144.209731086390093 ], [ 534759.622037083958276, 1757135.514546766178682 ], [ 534754.683032160275616, 1757126.819362445734441 ], [ 534749.744027236592956, 1757118.124178125523031 ], [ 534744.805022312910296, 1757109.42899380531162 ], [ 534739.866017389227636, 1757100.733809484867379 ], [ 534734.927012465544976, 1757092.038625164655969 ], [ 534729.988007541862316, 1757083.343440844211727 ], [ 534725.049002618179657, 1757074.648256524000317 ], [ 534720.109997694613412, 1757065.953072203788906 ], [ 534715.170992770930752, 1757057.257887883344665 ], [ 534710.231987847248092, 1757048.562703563133255 ], [ 534705.292982923565432, 1757039.867519242921844 ], [ 534700.353977999882773, 1757031.172334922477603 ], [ 534695.414973076200113, 1757022.477150602266192 ], [ 534690.475968152517453, 1757013.781966282054782 ], [ 534685.536963228834793, 1757005.086781961610541 ], [ 534680.597958305152133, 1756996.39159764139913 ], [ 534675.658953381469473, 1756987.696413320954889 ], [ 534670.719948457786813, 1756979.001229000743479 ], [ 534665.780943534104154, 1756970.306044680532068 ], [ 534660.841938610421494, 1756961.610860360087827 ], [ 534655.902933686738834, 1756952.915676039876416 ], [ 534650.963928763172589, 1756944.220491719665006 ], [ 534646.024923839489929, 1756935.525307399220765 ], [ 534641.08591891580727, 1756926.830123079009354 ], [ 534636.14691399212461, 1756918.134938758797944 ], [ 534631.20790906844195, 1756909.439754438353702 ], [ 534626.26890414475929, 1756900.744570118142292 ], [ 534621.32989922107663, 1756892.049385797698051 ], [ 534616.39089429739397, 1756883.35420147748664 ], [ 534611.45188937371131, 1756874.65901715727523 ], [ 534606.51288445002865, 1756865.963832836830989 ], [ 534601.573879526345991, 1756857.268648516619578 ], [ 534596.634874602663331, 1756848.573464196408167 ], [ 534591.695869678980671, 1756839.878279875963926 ], [ 534586.756864755414426, 1756831.183095555752516 ], [ 534581.817859831731766, 1756822.487911235541105 ], [ 534576.878854908049107, 1756813.792726915096864 ], [ 534571.939849984366447, 1756805.097542594885454 ], [ 534567.000845060683787, 1756796.402358274441212 ], [ 534562.061840137001127, 1756787.707173954229802 ], [ 534557.122835213318467, 1756779.011989634018391 ], [ 534552.183830289635807, 1756770.31680531357415 ], [ 534547.244825365953147, 1756761.62162099336274 ], [ 534542.305820442270488, 1756752.926436673151329 ], [ 534537.366815518587828, 1756744.231252352707088 ], [ 534532.427810594905168, 1756735.536068032495677 ], [ 534527.488805671222508, 1756726.840883712284267 ], [ 534522.549800747656263, 1756718.145699391840026 ], [ 534517.610795823973604, 1756709.450515071628615 ], [ 534512.671790900290944, 1756700.755330751184374 ], [ 534507.732785976608284, 1756692.060146430972964 ], [ 534502.793781052925624, 1756683.364962110761553 ], [ 534497.854776129242964, 1756674.669777790317312 ], [ 534492.915771205560304, 1756665.974593470105901 ], [ 534487.976766281877644, 1756657.279409149894491 ], [ 534483.037761358194984, 1756648.58422482945025 ], [ 534478.098756434512325, 1756639.889040509238839 ], [ 534473.159751510829665, 1756631.193856189027429 ], [ 534468.220746587147005, 1756622.498671868583187 ], [ 534463.281741663464345, 1756613.803487548371777 ], [ 534458.342736739781685, 1756605.108303227927536 ], [ 534453.403731816215441, 1756596.413118907716125 ], [ 534448.464726892532781, 1756587.717934587504715 ], [ 534443.525721968850121, 1756579.022750267060474 ], [ 534438.586717045167461, 1756570.327565946849063 ], [ 534433.250507125281729, 1756561.919527126010507 ], [ 534426.542331330943853, 1756554.5033031872008 ], [ 534419.834155536605977, 1756547.087079248158261 ], [ 534413.1259797422681, 1756539.670855309348553 ], [ 534406.417803947930224, 1756532.254631370306015 ], [ 534399.709628153592348, 1756524.838407431496307 ], [ 534393.001452359254472, 1756517.422183492453769 ], [ 534386.293276564916596, 1756510.005959553644061 ], [ 534379.58510077057872, 1756502.589735614601523 ], [ 534372.876924976240844, 1756495.173511675791815 ], [ 534366.168749181902967, 1756487.757287736749277 ], [ 534359.460573387565091, 1756480.341063797939569 ], [ 534352.752397593227215, 1756472.92483985889703 ], [ 534346.044221798889339, 1756465.508615920087323 ], [ 534339.336046004551463, 1756458.092391981044784 ], [ 534332.627870210213587, 1756450.676168042235076 ], [ 534325.919694415875711, 1756443.259944103192538 ], [ 534319.211518621537834, 1756435.84372016438283 ], [ 534312.503342827199958, 1756428.427496225340292 ], [ 534305.795167032862082, 1756421.011272286530584 ], [ 534299.086991238524206, 1756413.595048347488046 ], [ 534292.37881544418633, 1756406.178824408678338 ], [ 534285.670639649848454, 1756398.7626004696358 ], [ 534278.962463855510578, 1756391.346376530826092 ], [ 534272.254288061172701, 1756383.930152591783553 ], [ 534265.546112266834825, 1756376.513928652973846 ], [ 534258.837936472496949, 1756369.097704713931307 ], [ 534252.129760678159073, 1756361.681480775121599 ], [ 534245.421584883821197, 1756354.265256836079061 ], [ 534238.713409089483321, 1756346.849032897269353 ], [ 534232.005233295145445, 1756339.432808958226815 ], [ 534225.297057500807568, 1756332.016585019417107 ], [ 534218.588881706469692, 1756324.600361080374569 ], [ 534211.880705912131816, 1756317.184137141564861 ], [ 534205.17253011779394, 1756309.767913202522323 ], [ 534198.464354323456064, 1756302.351689263712615 ], [ 534191.756178529118188, 1756294.935465324670076 ], [ 534185.048002734780312, 1756287.519241385860369 ], [ 534178.339826940442435, 1756280.10301744681783 ], [ 534171.631651146104559, 1756272.686793508008122 ], [ 534164.357955766026862, 1756266.05429052351974 ], [ 534155.205356744118035, 1756262.025651653530076 ], [ 534146.052757722209208, 1756257.997012783540413 ], [ 534136.900158700416796, 1756253.96837391378358 ], [ 534127.747559678507969, 1756249.939735043793917 ], [ 534118.594960656599142, 1756245.911096173804253 ], [ 534109.442361634690315, 1756241.88245730381459 ], [ 534100.289762612781487, 1756237.853818433824927 ], [ 534091.13716359087266, 1756233.825179564068094 ], [ 534081.984564568963833, 1756229.796540694078431 ], [ 534072.831965547055006, 1756225.767901824088767 ], [ 534063.679366525262594, 1756221.739262954099104 ], [ 534054.526767503353767, 1756217.71062408410944 ], [ 534045.37416848144494, 1756213.681985214352608 ], [ 534036.221569459536113, 1756209.653346344362944 ], [ 534027.068970437627286, 1756205.624707474373281 ], [ 534017.916371415718459, 1756201.596068604383618 ], [ 534008.763772393809631, 1756197.567429734393954 ], [ 533999.611173371900804, 1756193.538790864637122 ], [ 533990.458574350108393, 1756189.510151994647458 ], [ 533981.305975328199565, 1756185.481513124657795 ], [ 533972.153376306290738, 1756181.452874254668131 ], [ 533963.000777284381911, 1756177.424235384678468 ], [ 533953.848178262473084, 1756173.395596514921635 ], [ 533944.695579240564257, 1756169.366957644931972 ], [ 533935.54298021865543, 1756165.338318774942309 ], [ 533926.390381196746603, 1756161.309679904952645 ], [ 533917.237782174954191, 1756157.281041034962982 ], [ 533908.085183153045364, 1756153.252402165206149 ], [ 533898.932584131136537, 1756149.223763295216486 ], [ 533889.779985109227709, 1756145.195124425226822 ], [ 533880.627386087318882, 1756141.166485555237159 ], [ 533871.474787065410055, 1756137.137846685247496 ], [ 533864.696344397612847, 1756129.838533001253381 ], [ 533858.030219638021663, 1756122.384488415205851 ], [ 533851.364094878546894, 1756114.930443829158321 ], [ 533844.697970118955709, 1756107.476399243110791 ], [ 533838.031845359364524, 1756100.022354657063261 ], [ 533831.365720599889755, 1756092.568310071248561 ], [ 533824.699595840298571, 1756085.114265485201031 ], [ 533818.033471080707386, 1756077.660220899153501 ], [ 533811.367346321116202, 1756070.206176313105971 ], [ 533804.701221561641432, 1756062.752131727291271 ], [ 533798.035096802050248, 1756055.298087141243741 ], [ 533791.368972042459063, 1756047.844042555196211 ], [ 533784.702847282984294, 1756040.389997969148681 ], [ 533778.036722523393109, 1756032.93595338310115 ], [ 533771.370597763801925, 1756025.481908797286451 ], [ 533764.704473004327156, 1756018.027864211238921 ], [ 533758.038348244735971, 1756010.573819625191391 ], [ 533751.372223485144787, 1756003.11977503914386 ], [ 533744.706098725670017, 1755995.66573045309633 ], [ 533738.039973966078833, 1755988.211685867281631 ], [ 533731.373849206487648, 1755980.7576412812341 ], [ 533724.707724446896464, 1755973.30359669518657 ], [ 533718.041599687421694, 1755965.84955210913904 ], [ 533711.37547492783051, 1755958.395507523324341 ], [ 533704.709350168239325, 1755950.94146293727681 ], [ 533698.043225408764556, 1755943.48741835122928 ], [ 533691.377100649173371, 1755936.03337376518175 ], [ 533684.710975889582187, 1755928.57932917913422 ], [ 533678.044851130107418, 1755921.12528459331952 ], [ 533671.378726370516233, 1755913.67124000727199 ], [ 533664.712601610925049, 1755906.21719542122446 ], [ 533658.046476851450279, 1755898.76315083517693 ], [ 533651.380352091859095, 1755891.3091062491294 ], [ 533644.71422733226791, 1755883.8550616633147 ], [ 533638.048102572676726, 1755876.40101707726717 ], [ 533631.381977813201956, 1755868.94697249121964 ], [ 533624.715853053610772, 1755861.49292790517211 ], [ 533618.049728294019587, 1755854.03888331935741 ], [ 533611.383603534544818, 1755846.58483873330988 ], [ 533604.717478774953634, 1755839.13079414726235 ], [ 533598.051354015362449, 1755831.67674956121482 ], [ 533591.38522925588768, 1755824.222704975167289 ], [ 533584.719104496296495, 1755816.76866038935259 ], [ 533578.052979736705311, 1755809.31461580330506 ], [ 533571.386854977230541, 1755801.860571217257529 ], [ 533564.720730217639357, 1755794.406526631209999 ], [ 533558.054605458048172, 1755786.952482045162469 ], [ 533551.388480698456988, 1755779.49843745934777 ], [ 533544.722355938982219, 1755772.044392873300239 ], [ 533538.056231179391034, 1755764.590348287252709 ], [ 533531.390106419799849, 1755757.136303701205179 ], [ 533527.437017681542784, 1755747.964829687727615 ], [ 533523.551597126293927, 1755738.750519778346643 ], [ 533519.666176571045071, 1755729.53620986873284 ], [ 533515.780756015796214, 1755720.321899959119037 ], [ 533511.895335460547358, 1755711.107590049738064 ], [ 533508.009914905298501, 1755701.893280140124261 ], [ 533504.124494350049645, 1755692.678970230510458 ], [ 533500.239073794800788, 1755683.464660321129486 ], [ 533496.353653239551932, 1755674.250350411515683 ], [ 533492.46823268441949, 1755665.03604050190188 ], [ 533488.582812129170634, 1755655.821730592520908 ], [ 533484.697391573921777, 1755646.607420682907104 ], [ 533480.811971018672921, 1755637.393110773293301 ], [ 533476.926550463424064, 1755628.178800863912329 ], [ 533473.041129908175208, 1755618.964490954298526 ], [ 533469.155709352926351, 1755609.750181044684723 ], [ 533465.270288797677495, 1755600.535871135303751 ], [ 533461.384868242428638, 1755591.321561225689948 ], [ 533457.499447687179781, 1755582.107251316076145 ], [ 533453.61402713204734, 1755572.892941406695172 ], [ 533449.728606576798484, 1755563.678631497081369 ], [ 533445.843186021549627, 1755554.464321587467566 ], [ 533441.957765466300771, 1755545.250011678086594 ], [ 533438.072344911051914, 1755536.035701768472791 ], [ 533434.186924355803058, 1755526.821391858858988 ], [ 533430.301503800554201, 1755517.607081949478015 ], [ 533426.416083245305344, 1755508.392772039864212 ], [ 533422.530662690056488, 1755499.17846213048324 ], [ 533418.645242134807631, 1755489.964152220869437 ], [ 533414.75982157967519, 1755480.749842311255634 ], [ 533410.874401024426334, 1755471.535532401874661 ], [ 533406.988980469177477, 1755462.321222492260858 ], [ 533403.103559913928621, 1755453.106912582647055 ], [ 533399.218139358679764, 1755443.892602673266083 ], [ 533395.332718803430907, 1755434.67829276365228 ], [ 533391.447298248182051, 1755425.463982854038477 ], [ 533387.561877692933194, 1755416.249672944657505 ], [ 533383.676457137684338, 1755407.035363035043702 ], [ 533379.791036582435481, 1755397.821053125429899 ], [ 533375.90561602730304, 1755388.606743216048926 ], [ 533372.020195472054183, 1755379.392433306435123 ], [ 533368.134774916805327, 1755370.17812339682132 ], [ 533364.24935436155647, 1755360.963813487440348 ], [ 533360.363933806307614, 1755351.749503577826545 ], [ 533356.478513251058757, 1755342.535193668212742 ], [ 533352.593092695809901, 1755333.320883758831769 ], [ 533348.707672140561044, 1755324.106573849217966 ], [ 533344.822251585312188, 1755314.892263939604163 ], [ 533343.779906585928984, 1755305.105241612764075 ], [ 533343.794776629772969, 1755295.105252668494359 ], [ 533343.809646673616953, 1755285.105263724457473 ], [ 533343.824516717344522, 1755275.105274780420586 ], [ 533343.839386761188507, 1755265.1052858363837 ], [ 533343.854256805032492, 1755255.105296892346814 ], [ 533343.869126848876476, 1755245.105307948077098 ], [ 533343.883996892720461, 1755235.105319004040211 ], [ 533343.898866936564445, 1755225.105330060003325 ], [ 533343.91373698040843, 1755215.105341115966439 ], [ 533343.928607024252415, 1755205.105352171929553 ], [ 533343.943477068096399, 1755195.105363227659836 ], [ 533343.958347111940384, 1755185.10537428362295 ], [ 533343.973217155667953, 1755175.105385339586064 ], [ 533343.988087199511938, 1755165.105396395549178 ], [ 533344.002957243355922, 1755155.105407451512292 ], [ 533344.017827287199907, 1755145.105418507242575 ], [ 533344.032697331043892, 1755135.105429563205689 ], [ 533344.047567374887876, 1755125.105440619168803 ], [ 533344.062437418731861, 1755115.105451675131917 ], [ 533344.077307462575845, 1755105.105462731095031 ], [ 533344.09217750641983, 1755095.105473786825314 ], [ 533344.107047550147399, 1755085.105484842788428 ], [ 533344.121917593991384, 1755075.105495898751542 ], [ 533344.136787637835369, 1755065.105506954714656 ], [ 533348.919720545178279, 1755056.861297369003296 ], [ 533355.39373865921516, 1755049.239808704936877 ], [ 533361.867756773368455, 1755041.618320040637627 ], [ 533368.341774887405336, 1755033.996831376571208 ], [ 533374.815793001558632, 1755026.375342712271959 ], [ 533381.289811115711927, 1755018.75385404820554 ], [ 533387.763829229748808, 1755011.13236538390629 ], [ 533394.237847343902104, 1755003.510876719839871 ], [ 533400.711865457938984, 1754995.889388055540621 ], [ 533407.18588357209228, 1754988.267899391474202 ], [ 533413.65990168612916, 1754980.646410727174953 ], [ 533420.133919800282456, 1754973.024922063108534 ], [ 533426.607937914319336, 1754965.403433398809284 ], [ 533433.081956028472632, 1754957.781944734742865 ], [ 533439.555974142625928, 1754950.160456070443615 ], [ 533446.029992256662808, 1754942.538967406377196 ], [ 533452.504010370816104, 1754934.917478742077947 ], [ 533458.978028484852985, 1754927.295990078011528 ], [ 533465.45204659900628, 1754919.674501413712278 ], [ 533469.703353058663197, 1754911.264918709406629 ], [ 533469.476370965479873, 1754901.267495084786788 ], [ 533469.249388872180134, 1754891.270071460166946 ], [ 533469.022406778880395, 1754881.272647835779935 ], [ 533468.795424685697071, 1754871.275224211160094 ], [ 533468.568442592397332, 1754861.277800586540252 ], [ 533468.341460499097593, 1754851.28037696192041 ], [ 533468.114478405797854, 1754841.282953337300569 ], [ 533467.88749631261453, 1754831.285529712680727 ], [ 533467.660514219314791, 1754821.288106088293716 ], [ 533467.433532126015052, 1754811.290682463673875 ], [ 533467.206550032831728, 1754801.293258839054033 ], [ 533466.979567939531989, 1754791.295835214434192 ], [ 533466.75258584623225, 1754781.29841158981435 ], [ 533466.525603753048927, 1754771.300987965194508 ], [ 533466.298621659749188, 1754761.303564340807498 ], [ 533466.071639566449448, 1754751.306140716187656 ], [ 533465.844657473266125, 1754741.308717091567814 ], [ 533465.617675379966386, 1754731.311293466947973 ], [ 533465.390693286666647, 1754721.313869842328131 ], [ 533465.163711193483323, 1754711.31644621770829 ], [ 533464.936729100183584, 1754701.319022593321279 ], [ 533464.709747006883845, 1754691.321598968701437 ], [ 533464.482764913700521, 1754681.324175344081596 ], [ 533464.255782820400782, 1754671.326751719461754 ], [ 533464.028800727101043, 1754661.329328094841912 ], [ 533463.801818633917719, 1754651.331904470222071 ], [ 533463.57483654061798, 1754641.33448084583506 ], [ 533463.347854447318241, 1754631.337057221215218 ], [ 533463.120872354134917, 1754621.339633596595377 ], [ 533462.893890260835178, 1754611.342209971975535 ], [ 533462.666908167535439, 1754601.344786347355694 ], [ 533462.439926074352115, 1754591.347362722735852 ], [ 533462.212943981052376, 1754581.349939098348841 ], [ 533461.985961887752637, 1754571.352515473728999 ], [ 533461.758979794452898, 1754561.355091849109158 ], [ 533461.531997701269574, 1754551.357668224489316 ], [ 533460.978724271990359, 1754541.3856571840588 ], [ 533459.655097473645583, 1754531.473643660079688 ], [ 533458.331470675300807, 1754521.561630136100575 ], [ 533457.007843876956031, 1754511.649616612354293 ], [ 533455.684217078611255, 1754501.737603088375181 ], [ 533454.360590280266479, 1754491.825589564396068 ], [ 533453.036963482038118, 1754481.913576040416956 ], [ 533451.713336683693342, 1754472.001562516437843 ], [ 533450.389709885348566, 1754462.089548992458731 ], [ 533449.06608308700379, 1754452.177535468712449 ], [ 533447.742456288659014, 1754442.265521944733337 ], [ 533446.418829490314238, 1754432.353508420754224 ], [ 533445.095202691969462, 1754422.441494896775112 ], [ 533443.771575893624686, 1754412.529481372795999 ], [ 533442.44794909527991, 1754402.617467849049717 ], [ 533441.124322297051549, 1754392.705454325070605 ], [ 533439.800695498706773, 1754382.793440801091492 ], [ 533438.477068700361997, 1754372.88142727711238 ], [ 533437.153441902017221, 1754362.969413753133267 ], [ 533435.829815103672445, 1754353.057400229154155 ], [ 533434.506188305327669, 1754343.145386705407873 ], [ 533433.182561506982893, 1754333.23337318142876 ], [ 533431.858934708638117, 1754323.321359657449648 ], [ 533430.535307910293341, 1754313.409346133470535 ], [ 533429.21168111206498, 1754303.497332609491423 ], [ 533427.888054313720204, 1754293.58531908551231 ], [ 533426.564427515375428, 1754283.673305561766028 ], [ 533425.240800717030652, 1754273.761292037786916 ], [ 533423.917173918685876, 1754263.849278513807803 ], [ 533422.5935471203411, 1754253.937264989828691 ], [ 533421.269920321996324, 1754244.025251465849578 ], [ 533419.946293523651548, 1754234.113237942103297 ], [ 533418.622666725306772, 1754224.201224418124184 ], [ 533417.299039927078411, 1754214.289210894145072 ], [ 533415.975413128733635, 1754204.377197370165959 ], [ 533414.651786330388859, 1754194.465183846186846 ], [ 533413.328159532044083, 1754184.553170322207734 ], [ 533412.004532733699307, 1754174.641156798461452 ], [ 533410.680905935354531, 1754164.72914327448234 ], [ 533409.357279137009755, 1754154.817129750503227 ], [ 533407.622605308773927, 1754145.02822547336109 ], [ 533403.279734006267972, 1754136.020480536390096 ], [ 533398.936862703762017, 1754127.012735599419102 ], [ 533394.593991401372477, 1754118.004990662448108 ], [ 533390.251120098866522, 1754108.997245725477114 ], [ 533385.908248796360567, 1754099.98950078827329 ], [ 533381.565377493854612, 1754090.981755851302296 ], [ 533377.222506191348657, 1754081.974010914331302 ], [ 533372.879634888959117, 1754072.966265977360308 ], [ 533368.536763586453162, 1754063.958521040389314 ], [ 533364.193892283947207, 1754054.95077610341832 ], [ 533359.851020981441252, 1754045.943031166447327 ], [ 533355.508149678935297, 1754036.935286229476333 ], [ 533351.165278376545757, 1754027.927541292272508 ], [ 533346.822407074039802, 1754018.919796355301514 ], [ 533342.479535771533847, 1754009.91205141833052 ], [ 533338.136664469027892, 1754000.904306481359527 ], [ 533333.793793166521937, 1753991.896561544388533 ], [ 533329.450921864132397, 1753982.888816607417539 ], [ 533325.108050561626442, 1753973.881071670446545 ], [ 533320.765179259120487, 1753964.873326733475551 ], [ 533316.422307956614532, 1753955.865581796271726 ], [ 533312.079436654108576, 1753946.857836859300733 ], [ 533307.736565351602621, 1753937.850091922329739 ], [ 533303.393694049213082, 1753928.842346985358745 ], [ 533299.050822746707126, 1753919.834602048387751 ], [ 533294.707951444201171, 1753910.826857111416757 ], [ 533290.365080141695216, 1753901.819112174445763 ], [ 533286.022208839189261, 1753892.811367237241939 ], [ 533281.679337536799721, 1753883.803622300270945 ], [ 533277.336466234293766, 1753874.795877363299951 ], [ 533272.993594931787811, 1753865.788132426328957 ], [ 533268.650723629281856, 1753856.780387489357963 ], [ 533264.307852326775901, 1753847.772642552386969 ], [ 533259.964981024386361, 1753838.764897615415975 ], [ 533255.622109721880406, 1753829.757152678444982 ], [ 533251.279238419374451, 1753820.749407741241157 ], [ 533246.936367116868496, 1753811.741662804270163 ], [ 533242.593495814362541, 1753802.733917867299169 ], [ 533238.250624511973001, 1753793.726172930328175 ], [ 533233.907753209467046, 1753784.718427993357182 ], [ 533229.564881906961091, 1753775.710683056386188 ], [ 533225.222010604455136, 1753766.702938119415194 ], [ 533220.879139301949181, 1753757.6951931824442 ], [ 533216.536267999443226, 1753748.687448245240375 ], [ 533212.193396697053686, 1753739.679703308269382 ], [ 533207.850525394547731, 1753730.671958371298388 ], [ 533203.507654092041776, 1753721.664213434327394 ], [ 533199.16478278953582, 1753712.6564684973564 ], [ 533194.821911487029865, 1753703.648723560385406 ], [ 533190.479040184640326, 1753694.640978623414412 ], [ 533186.136168882134371, 1753685.633233686443418 ], [ 533181.793297579628415, 1753676.625488749239594 ], [ 533177.45042627712246, 1753667.6177438122686 ], [ 533171.727732470724732, 1753659.500046000350267 ], [ 533165.312204697169363, 1753651.829257032601163 ], [ 533158.896676923613995, 1753644.158468064852059 ], [ 533152.481149150175042, 1753636.487679097335786 ], [ 533146.065621376619674, 1753628.816890129586682 ], [ 533139.650093603064306, 1753621.146101161837578 ], [ 533133.234565829625353, 1753613.475312194088474 ], [ 533126.819038056069985, 1753605.80452322633937 ], [ 533120.403510282631032, 1753598.133734258590266 ], [ 533113.987982509075664, 1753590.462945290841162 ], [ 533107.572454735520296, 1753582.792156323092058 ], [ 533101.156926962081343, 1753575.121367355575785 ], [ 533094.741399188525975, 1753567.450578387826681 ], [ 533088.325871414970607, 1753559.779789420077577 ], [ 533081.910343641531654, 1753552.109000452328473 ], [ 533075.494815867976286, 1753544.438211484579369 ], [ 533069.079288094420917, 1753536.767422516830266 ], [ 533062.663760320981964, 1753529.096633549081162 ], [ 533060.134331861045212, 1753520.173578900285065 ], [ 533060.864177473587915, 1753510.200248193694279 ], [ 533061.594023086130619, 1753500.226917487103492 ], [ 533062.323868698673323, 1753490.253586780745536 ], [ 533063.053714311216027, 1753480.28025607415475 ], [ 533063.783559923875146, 1753470.306925367563963 ], [ 533064.513405536417849, 1753460.333594660973176 ], [ 533065.243251148960553, 1753450.36026395461522 ], [ 533065.973096761503257, 1753440.386933248024434 ], [ 533066.702942374045961, 1753430.413602541433647 ], [ 533067.432787986588664, 1753420.440271834842861 ], [ 533068.162633599131368, 1753410.466941128484905 ], [ 533068.892479211674072, 1753400.493610421894118 ], [ 533069.622324824216776, 1753390.520279715303332 ], [ 533070.352170436759479, 1753380.546949008712545 ], [ 533071.082016049302183, 1753370.573618302354589 ], [ 533071.811861661844887, 1753360.600287595763803 ], [ 533072.541707274387591, 1753350.626956889173016 ], [ 533073.271552886930294, 1753340.653626182582229 ], [ 533074.001398499472998, 1753330.680295476224273 ], [ 533074.731244112132117, 1753320.706964769633487 ], [ 533075.461089724674821, 1753310.7336340630427 ], [ 533076.190935337217525, 1753300.760303356451914 ], [ 533076.920780949760228, 1753290.786972650093958 ], [ 533077.650626562302932, 1753280.813641943503171 ], [ 533078.030781857436523, 1753270.827275245683268 ], [ 533078.045515119214542, 1753260.827286099083722 ], [ 533078.060248380992562, 1753250.827296952717006 ], [ 533078.074981642770581, 1753240.82730780611746 ], [ 533078.0897149045486, 1753230.827318659517914 ], [ 533078.10444816632662, 1753220.827329512918368 ], [ 533078.119181428104639, 1753210.827340366318822 ], [ 533078.133914689882658, 1753200.827351219952106 ], [ 533078.148647951660678, 1753190.82736207335256 ], [ 533078.163381213438697, 1753180.827372926753014 ], [ 533078.178114475216717, 1753170.827383780153468 ], [ 533078.192847736994736, 1753160.827394633786753 ], [ 533078.20758099865634, 1753150.827405487187207 ], [ 533078.222314260434359, 1753140.827416340587661 ], [ 533078.237047522212379, 1753130.827427193988115 ], [ 533078.251780783990398, 1753120.827438047621399 ], [ 533078.266514045768417, 1753110.827448901021853 ], [ 533078.281247307546437, 1753100.827459754422307 ], [ 533078.295980569324456, 1753090.827470607822761 ], [ 533078.310713831102476, 1753080.827481461456046 ], [ 533078.325447092880495, 1753070.827492314856499 ], [ 533078.340180354658514, 1753060.827503168256953 ], [ 533078.354913616436534, 1753050.827514021657407 ], [ 533078.369646878214553, 1753040.827524875290692 ], [ 533078.384380139992572, 1753030.827535728691146 ], [ 533078.399113401770592, 1753020.8275465820916 ], [ 533078.413846663548611, 1753010.827557435492054 ], [ 533078.42857992532663, 1753000.827568289125338 ], [ 533078.44331318710465, 1752990.827579142525792 ], [ 533078.458046448882669, 1752980.827589995926246 ], [ 533078.472779710660689, 1752970.8276008493267 ], [ 533078.506067620008253, 1752960.82853660127148 ], [ 533079.485880663385615, 1752950.876654045656323 ], [ 533080.465693706646562, 1752940.924771490273997 ], [ 533081.445506750023924, 1752930.97288893465884 ], [ 533082.425319793284871, 1752921.021006379043683 ], [ 533083.405132836662233, 1752911.069123823428527 ], [ 533084.38494587992318, 1752901.11724126781337 ], [ 533085.364758923300542, 1752891.165358712198213 ], [ 533086.344571966561489, 1752881.213476156583056 ], [ 533087.324385009938851, 1752871.261593600967899 ], [ 533088.304198053199798, 1752861.309711045585573 ], [ 533089.28401109657716, 1752851.357828489970416 ], [ 533090.263824139838107, 1752841.405945934355259 ], [ 533091.243637183215469, 1752831.454063378740102 ], [ 533092.223450226476416, 1752821.502180823124945 ], [ 533091.167662734165788, 1752811.617883985862136 ], [ 533089.529893251601607, 1752801.752910031238571 ], [ 533087.892123769037426, 1752791.887936076847836 ], [ 533086.254354286473244, 1752782.022962122457102 ], [ 533084.616584803909063, 1752772.157988168066368 ], [ 533082.978815321344882, 1752762.293014213442802 ], [ 533081.341045838780701, 1752752.428040259052068 ], [ 533079.70327635621652, 1752742.563066304661334 ], [ 533078.065506873652339, 1752732.698092350270599 ], [ 533076.427737391088158, 1752722.833118395647034 ], [ 533074.789967908523977, 1752712.9681444412563 ], [ 533073.152198425959796, 1752703.103170486865565 ], [ 533071.514428943395615, 1752693.238196532474831 ], [ 533069.876659460831434, 1752683.373222577851266 ], [ 533068.238889978267252, 1752673.508248623460531 ], [ 533066.601120495703071, 1752663.643274669069797 ], [ 533064.96335101313889, 1752653.778300714679062 ], [ 533063.325581530574709, 1752643.913326760055497 ], [ 533061.687812048010528, 1752634.048352805664763 ], [ 533060.050042565446347, 1752624.183378851274028 ], [ 533058.412273082882166, 1752614.318404896883294 ], [ 533056.774503600317985, 1752604.453430942259729 ], [ 533055.351728893932886, 1752594.603935899678618 ], [ 533058.385772824170999, 1752585.075317037058994 ], [ 533061.419816754292697, 1752575.546698174439371 ], [ 533064.45386068453081, 1752566.018079311819747 ], [ 533067.487904614652507, 1752556.489460448967293 ], [ 533070.52194854489062, 1752546.960841586347669 ], [ 533073.555992475012317, 1752537.432222723728046 ], [ 533076.59003640525043, 1752527.903603861108422 ], [ 533079.624080335372128, 1752518.374984998488799 ], [ 533082.65812426561024, 1752508.846366135869175 ], [ 533085.692168195848353, 1752499.317747273016721 ], [ 533088.726212125970051, 1752489.789128410397097 ], [ 533091.760256056208163, 1752480.260509547777474 ], [ 533094.794299986329861, 1752470.73189068515785 ], [ 533097.828343916567974, 1752461.203271822538227 ], [ 533100.862387846689671, 1752451.674652959918603 ], [ 533103.896431776927784, 1752442.14603409729898 ], [ 533106.930475707049482, 1752432.617415234446526 ], [ 533109.964519637287594, 1752423.088796371826902 ], [ 533112.998563567409292, 1752413.560177509207278 ], [ 533116.032607497647405, 1752404.031558646587655 ], [ 533119.066651427769102, 1752394.502939783968031 ], [ 533122.100695358007215, 1752384.974320921348408 ], [ 533125.134739288128912, 1752375.445702058728784 ], [ 533128.168783218367025, 1752365.91708319587633 ], [ 533131.589329643757083, 1752356.566814593737945 ], [ 533136.870661501423456, 1752348.075199093203992 ], [ 533142.151993359089829, 1752339.583583592670038 ], [ 533147.433325216756202, 1752331.091968092136085 ], [ 533152.714657074422576, 1752322.600352591602132 ], [ 533157.995988932088949, 1752314.108737090835348 ], [ 533163.277320789755322, 1752305.617121590301394 ], [ 533168.558652647421695, 1752297.125506089767441 ], [ 533173.839984505088069, 1752288.633890589233488 ], [ 533179.121316362638026, 1752280.142275088699535 ], [ 533184.4026482203044, 1752271.650659588165581 ], [ 533189.683980077970773, 1752263.159044087631628 ], [ 533194.965311935637146, 1752254.667428587097675 ], [ 533200.246643793303519, 1752246.175813086563721 ], [ 533205.527975650969893, 1752237.684197585796937 ], [ 533210.809307508636266, 1752229.192582085262984 ], [ 533216.090639366302639, 1752220.700966584729031 ], [ 533221.371971223969012, 1752212.209351084195077 ], [ 533226.653303081635386, 1752203.717735583661124 ], [ 533231.934634939301759, 1752195.226120083127171 ], [ 533237.215966796851717, 1752186.734504582593217 ], [ 533242.49729865451809, 1752178.242889082059264 ], [ 533247.778630512184463, 1752169.751273581525311 ], [ 533253.059962369850837, 1752161.259658080991358 ], [ 533258.34129422751721, 1752152.768042580224574 ], [ 533263.622626085183583, 1752144.27642707969062 ], [ 533268.903957942849956, 1752135.784811579156667 ], [ 533274.18528980051633, 1752127.293196078622714 ], [ 533279.466621658182703, 1752118.80158057808876 ], [ 533284.747953515849076, 1752110.309965077554807 ], [ 533290.029285373399034, 1752101.818349577020854 ], [ 533295.310617231065407, 1752093.3267340764869 ], [ 533300.591949088731781, 1752084.835118575952947 ], [ 533305.873280946398154, 1752076.343503075418994 ], [ 533311.154612804064527, 1752067.85188757465221 ], [ 533316.4359446617309, 1752059.360272074118257 ], [ 533321.717276519397274, 1752050.868656573584303 ], [ 533326.998608377063647, 1752042.37704107305035 ], [ 533332.27994023473002, 1752033.885425572516397 ], [ 533337.561272092396393, 1752025.393810071982443 ], [ 533342.842603950062767, 1752016.90219457144849 ], [ 533348.123935807612725, 1752008.410579070914537 ], [ 533353.405267665279098, 1751999.918963570380583 ], [ 533358.686599522945471, 1751991.427348069613799 ], [ 533363.967931380611844, 1751982.935732569079846 ], [ 533369.249263238278218, 1751974.444117068545893 ], [ 533374.530595095944591, 1751965.95250156801194 ], [ 533379.811926953610964, 1751957.460886067477986 ], [ 533385.093258811277337, 1751948.969270566944033 ], [ 533390.374590668943711, 1751940.47765506641008 ], [ 533395.655922526610084, 1751931.986039565876126 ], [ 533400.937254384160042, 1751923.494424065342173 ], [ 533401.753129706834443, 1751914.021048092283309 ], [ 533400.520538000040688, 1751904.097302948357537 ], [ 533399.287946293130517, 1751894.173557804198936 ], [ 533398.055354586336762, 1751884.249812660273165 ], [ 533396.822762879426591, 1751874.326067516114563 ], [ 533395.590171172632836, 1751864.402322372188792 ], [ 533394.357579465722665, 1751854.47857722803019 ], [ 533393.12498775892891, 1751844.554832083871588 ], [ 533391.892396052018739, 1751834.631086939945817 ], [ 533390.659804345224984, 1751824.707341795787215 ], [ 533389.427212638314813, 1751814.783596651861444 ], [ 533388.194620931521058, 1751804.859851507702842 ], [ 533386.962029224610887, 1751794.936106363777071 ], [ 533385.729437517817132, 1751785.012361219618469 ], [ 533384.496845810906962, 1751775.088616075459868 ], [ 533383.264254104113206, 1751765.164870931534097 ], [ 533382.031662397203036, 1751755.241125787375495 ], [ 533380.79907069040928, 1751745.317380643449724 ], [ 533379.56647898349911, 1751735.393635499291122 ], [ 533378.333887276705354, 1751725.469890355365351 ], [ 533377.101295569795184, 1751715.546145211206749 ], [ 533375.868703863001429, 1751705.622400067048147 ], [ 533374.636112156091258, 1751695.698654923122376 ], [ 533373.403520449297503, 1751685.774909778963774 ], [ 533372.170928742387332, 1751675.851164635038003 ], [ 533370.938337035593577, 1751665.927419490879402 ], [ 533369.705745328683406, 1751656.00367434695363 ], [ 533368.473153621889651, 1751646.079929202795029 ], [ 533367.24056191497948, 1751636.156184058869258 ], [ 533366.007970208185725, 1751626.232438914710656 ], [ 533364.775378501275554, 1751616.308693770552054 ], [ 533363.542786794481799, 1751606.384948626626283 ], [ 533362.310195087571628, 1751596.461203482467681 ], [ 533360.837936518131755, 1751586.580409854417667 ], [ 533358.547564976732247, 1751576.846233042655513 ], [ 533356.257193435216323, 1751567.112056230893359 ], [ 533353.966821893816814, 1751557.377879419364035 ], [ 533351.67645035230089, 1751547.643702607601881 ], [ 533349.386078810784966, 1751537.909525795839727 ], [ 533347.095707269385457, 1751528.175348984077573 ], [ 533344.805335727869533, 1751518.441172172315419 ], [ 533342.514964186353609, 1751508.706995360553265 ], [ 533340.2245926449541, 1751498.972818548791111 ], [ 533337.934221103438176, 1751489.238641737028956 ], [ 533335.643849562038668, 1751479.504464925499633 ], [ 533333.353478020522743, 1751469.770288113737479 ], [ 533331.063106479006819, 1751460.036111301975325 ], [ 533328.772734937607311, 1751450.301934490213171 ], [ 533326.482363396091387, 1751440.567757678451017 ], [ 533324.191991854575463, 1751430.833580866688862 ], [ 533321.901620313175954, 1751421.099404054926708 ], [ 533319.61124877166003, 1751411.365227243397385 ], [ 533317.320877230260521, 1751401.631050431635231 ], [ 533315.030505688744597, 1751391.896873619873077 ], [ 533312.740134147228673, 1751382.162696808110923 ], [ 533310.449762605829164, 1751372.428519996348768 ], [ 533308.15939106431324, 1751362.694343184586614 ], [ 533305.869019522797316, 1751352.96016637282446 ], [ 533303.578647981397808, 1751343.225989561295137 ], [ 533301.288276439881884, 1751333.491812749532983 ], [ 533298.99790489836596, 1751323.757635937770829 ], [ 533296.707533356966451, 1751314.023459126008675 ], [ 533294.417161815450527, 1751304.28928231424652 ], [ 533292.126790274051018, 1751294.555105502484366 ], [ 533289.836418732535094, 1751284.820928690722212 ], [ 533287.54604719101917, 1751275.086751879192889 ], [ 533285.255675649619661, 1751265.352575067430735 ], [ 533282.965304108103737, 1751255.618398255668581 ], [ 533280.674932566587813, 1751245.884221443906426 ], [ 533278.384561025188304, 1751236.150044632144272 ], [ 533276.09418948367238, 1751226.415867820382118 ], [ 533273.803817942272872, 1751216.681691008619964 ], [ 533271.513446400756948, 1751206.947514197090641 ], [ 533269.223074859241024, 1751197.213337385328487 ], [ 533266.932703317841515, 1751187.479160573566332 ], [ 533264.236643740907311, 1751177.856154944049194 ], [ 533261.244757729000412, 1751168.314214989775792 ], [ 533258.252871717093512, 1751158.772275035269558 ], [ 533255.260985705186613, 1751149.230335080996156 ], [ 533252.269099693396129, 1751139.688395126722753 ], [ 533249.277213681489229, 1751130.14645517244935 ], [ 533246.28532766958233, 1751120.604515218175948 ], [ 533243.29344165767543, 1751111.062575263669714 ], [ 533240.301555645884946, 1751101.520635309396312 ], [ 533237.309669633978046, 1751091.978695355122909 ], [ 533234.317783622071147, 1751082.436755400849506 ], [ 533231.325897610164247, 1751072.894815446576104 ], [ 533228.334011598373763, 1751063.35287549206987 ], [ 533225.342125586466864, 1751053.810935537796468 ], [ 533222.350239574559964, 1751044.268995583523065 ], [ 533219.358353562653065, 1751034.727055629249662 ], [ 533216.366467550862581, 1751025.185115674743429 ], [ 533213.374581538955681, 1751015.643175720470026 ], [ 533210.382695527048782, 1751006.101235766196623 ], [ 533207.390809515141882, 1750996.559295811923221 ], [ 533204.398923503351398, 1750987.017355857649818 ], [ 533201.407037491444498, 1750977.475415903143585 ], [ 533198.415151479537599, 1750967.933475948870182 ], [ 533195.423265467630699, 1750958.391535994596779 ], [ 533192.431379455840215, 1750948.849596040323377 ], [ 533189.439493443933316, 1750939.307656085817143 ], [ 533186.447607432026416, 1750929.765716131543741 ], [ 533183.455721420119517, 1750920.223776177270338 ], [ 533180.463835408329032, 1750910.681836222996935 ], [ 533177.222015472478233, 1750901.226973350392655 ], [ 533173.637058518826962, 1750891.891659555956721 ], [ 533170.05210156517569, 1750882.556345761520788 ], [ 533166.467144611524418, 1750873.221031967084855 ], [ 533162.882187657873146, 1750863.885718172648922 ], [ 533159.297230704105459, 1750854.550404378445819 ], [ 533155.712273750454187, 1750845.215090584009886 ], [ 533152.127316796802916, 1750835.879776789573953 ], [ 533148.542359843151644, 1750826.544462995138019 ], [ 533144.957402889500372, 1750817.209149200702086 ], [ 533141.372445935732685, 1750807.873835406266153 ], [ 533137.787488982081413, 1750798.53852161183022 ], [ 533134.202532028430142, 1750789.203207817394286 ], [ 533130.61757507477887, 1750779.867894022958353 ], [ 533127.032618121127598, 1750770.53258022852242 ], [ 533123.447661167476326, 1750761.197266434086487 ], [ 533119.862704213708639, 1750751.861952639650553 ], [ 533116.277747260057367, 1750742.52663884521462 ], [ 533112.692790306406096, 1750733.191325050778687 ], [ 533109.107833352754824, 1750723.856011256342754 ], [ 533105.522876399103552, 1750714.520697461906821 ], [ 533101.937919445335865, 1750705.185383667703718 ], [ 533098.352962491684593, 1750695.850069873267785 ], [ 533094.768005538033321, 1750686.514756078831851 ], [ 533091.18304858438205, 1750677.179442284395918 ], [ 533087.598091630730778, 1750667.844128489959985 ], [ 533084.013134676963091, 1750658.508814695524052 ], [ 533080.428177723311819, 1750649.173500901088119 ], [ 533076.843220769660547, 1750639.838187106652185 ], [ 533073.258263816009276, 1750630.502873312216252 ], [ 533069.673306862358004, 1750621.167559517780319 ], [ 533066.088349908706732, 1750611.832245723344386 ], [ 533062.503392954939045, 1750602.496931928908452 ], [ 533058.918436001287773, 1750593.161618134472519 ], [ 533055.333479047636501, 1750583.826304340036586 ], [ 533051.74852209398523, 1750574.490990545600653 ], [ 533048.163565140333958, 1750565.15567675139755 ], [ 533044.578608186566271, 1750555.820362956961617 ], [ 533040.993651232914999, 1750546.485049162525684 ], [ 533037.408694279263727, 1750537.14973536808975 ], [ 533033.823737325612456, 1750527.814421573653817 ], [ 533030.238780371961184, 1750518.479107779217884 ], [ 533026.653823418193497, 1750509.143793984781951 ], [ 533023.068866464542225, 1750499.808480190346017 ], [ 533019.483909510890953, 1750490.473166395910084 ], [ 533015.898952557239681, 1750481.137852601474151 ], [ 533012.31399560358841, 1750471.802538807038218 ], [ 533008.729038649820723, 1750462.467225012602285 ], [ 533005.144081696169451, 1750453.131911218166351 ], [ 533001.559124742518179, 1750443.796597423730418 ], [ 532997.974167788866907, 1750434.461283629294485 ], [ 532994.389210835215636, 1750425.125969834858552 ], [ 532990.804253881564364, 1750415.790656040655449 ], [ 532987.219296927796677, 1750406.455342246219516 ], [ 532983.634339974145405, 1750397.120028451783583 ], [ 532980.049383020494133, 1750387.784714657347649 ], [ 532976.464426066842861, 1750378.449400862911716 ], [ 532972.87946911319159, 1750369.114087068475783 ], [ 532969.294512159423903, 1750359.77877327403985 ], [ 532965.317979783285409, 1750350.630795774050057 ], [ 532960.298850481049158, 1750341.981614249292761 ], [ 532955.279721178696491, 1750333.332432724768296 ], [ 532950.260591876460239, 1750324.683251200011 ], [ 532945.241462574107572, 1750316.034069675253704 ], [ 532940.222333271871321, 1750307.384888150729239 ], [ 532935.203203969518654, 1750298.735706625971943 ], [ 532930.184074667282403, 1750290.086525101214647 ], [ 532925.164945364929736, 1750281.437343576690182 ], [ 532920.145816062693484, 1750272.788162051932886 ], [ 532915.126686760340817, 1750264.13898052717559 ], [ 532910.107557458104566, 1750255.489799002651125 ], [ 532905.088428155751899, 1750246.840617477893829 ], [ 532900.069298853515647, 1750238.191435953136533 ], [ 532895.05016955116298, 1750229.542254428612068 ], [ 532890.031040248926729, 1750220.893072903854772 ], [ 532885.011910946574062, 1750212.243891379097477 ], [ 532879.992781644337811, 1750203.594709854573011 ], [ 532874.973652341985144, 1750194.945528329815716 ], [ 532869.954523039748892, 1750186.29634680505842 ], [ 532864.935393737396225, 1750177.647165280533955 ], [ 532859.916264435159974, 1750168.997983755776659 ], [ 532854.897135132807307, 1750160.348802231019363 ], [ 532849.878005830571055, 1750151.699620706494898 ], [ 532844.858876528218389, 1750143.050439181737602 ], [ 532839.839747225982137, 1750134.401257656980306 ], [ 532834.82061792362947, 1750125.752076132455841 ], [ 532829.801488621393219, 1750117.102894607698545 ], [ 532824.782359319040552, 1750108.453713082941249 ], [ 532819.7632300168043, 1750099.804531558416784 ], [ 532814.744100714451633, 1750091.155350033659488 ], [ 532809.724971412215382, 1750082.506168508902192 ], [ 532804.705842109862715, 1750073.856986984377727 ], [ 532799.686712807626463, 1750065.207805459620431 ], [ 532794.667583505273797, 1750056.558623934863135 ], [ 532789.648454203037545, 1750047.90944241033867 ], [ 532784.629324900684878, 1750039.260260885581374 ], [ 532779.610195598448627, 1750030.611079360824078 ], [ 532774.59106629609596, 1750021.961897836299613 ], [ 532769.571936993859708, 1750013.312716311542317 ], [ 532764.552807691507041, 1750004.663534786785021 ], [ 532759.53367838927079, 1749996.014353262260556 ], [ 532754.514549086918123, 1749987.36517173750326 ], [ 532749.495419784681872, 1749978.715990212745965 ], [ 532744.476290482329205, 1749970.066808688221499 ], [ 532739.457161180092953, 1749961.417627163464203 ], [ 532734.438031877740286, 1749952.768445638706908 ], [ 532729.418902575504035, 1749944.119264114182442 ], [ 532724.399773273151368, 1749935.470082589425147 ], [ 532719.380643970915116, 1749926.820901064667851 ], [ 532714.36151466856245, 1749918.171719540143386 ], [ 532709.342385366326198, 1749909.52253801538609 ], [ 532704.323256063973531, 1749900.873356490628794 ], [ 532699.30412676173728, 1749892.224174966104329 ], [ 532694.284997459384613, 1749883.574993441347033 ], [ 532689.265868157148361, 1749874.925811916589737 ], [ 532684.246738854795694, 1749866.276630392065272 ], [ 532679.227609552559443, 1749857.627448867307976 ], [ 532674.208480250206776, 1749848.978267342783511 ], [ 532669.189350947970524, 1749840.329085818026215 ], [ 532664.170221645617858, 1749831.679904293268919 ], [ 532659.151092343381606, 1749823.030722768744454 ], [ 532654.131963041028939, 1749814.381541243987158 ], [ 532649.112833738792688, 1749805.732359719229862 ], [ 532644.093704436440021, 1749797.083178194705397 ], [ 532639.074575134203769, 1749788.433996669948101 ], [ 532634.055445831851102, 1749779.784815145190805 ], [ 532629.036316529614851, 1749771.13563362066634 ], [ 532624.017187227262184, 1749762.486452095909044 ], [ 532618.271062094601803, 1749754.369402732467279 ], [ 532611.543691994971596, 1749746.970585830975324 ], [ 532604.816321895341389, 1749739.571768929483369 ], [ 532598.088951795594767, 1749732.172952027991414 ], [ 532591.36158169596456, 1749724.774135126499459 ] ] ] } }
]
}
