{
"type": "FeatureCollection",
"crs": { "type": "name", "properties": { "name": "urn:ogc:def:crs:EPSG::32738" } },
"features": [
{ "type": "Feature", "properties": { "id": 1 }, "geometry": { "type": "MultiLineString", "coordinates": [ [ [ 381371.311102334875613, 7671693.314803959801793 ], [ 381381.25652826653095, 7671692.271490469574928 ], [ 381391.201954198128078, 7671691.228176980279386 ], [ 381401.147380129783414, 7671690.184863490052521 ], [ 381411.09280606143875, 7671689.1415499998257 ], [ 381421.038231993094087, 7671688.098236510530114 ], [ 381430.983657924691215, 7671687.054923020303249 ], [ 381440.929083856346551, 7671686.011609530076385 ], [ 381450.874509788001888, 7671684.968296040780842 ], [ 381460.819935719657224, 7671683.924982550553977 ], [ 381470.765361651254352, 7671682.881669060327113 ], [ 381480.710787582909688, 7671681.83835557103157 ], [ 381490.656213514565025, 7671680.795042080804706 ], [ 381500.601639446220361, 7671679.751728590577841 ], [ 381510.547065377817489, 7671678.708415101282299 ], [ 381520.492491309472825, 7671677.665101611055434 ], [ 381530.437917241128162, 7671676.621788120828569 ], [ 381540.383343172783498, 7671675.578474630601704 ], [ 381550.328769104380626, 7671674.535161141306162 ], [ 381560.274195036035962, 7671673.491847651079297 ], [ 381570.219620967691299, 7671672.448534160852432 ], [ 381580.165046899288427, 7671671.40522067155689 ], [ 381590.110472830943763, 7671670.361907181330025 ], [ 381600.055898762599099, 7671669.31859369110316 ], [ 381610.001324694254436, 7671668.275280201807618 ], [ 381619.946750625851564, 7671667.231966711580753 ], [ 381629.8921765575069, 7671666.188653221353889 ], [ 381639.837602489162236, 7671665.145339732058346 ], [ 381649.783028420817573, 7671664.102026241831481 ], [ 381659.728454352414701, 7671663.058712751604617 ], [ 381669.673880284070037, 7671662.015399262309074 ], [ 381679.619306215725373, 7671660.97208577208221 ], [ 381689.56473214738071, 7671659.928772281855345 ], [ 381699.510158078977838, 7671658.885458792559803 ], [ 381709.455584010633174, 7671657.842145302332938 ], [ 381719.401009942288511, 7671656.798831812106073 ], [ 381729.346435873943847, 7671655.755518322810531 ], [ 381739.291861805540975, 7671654.712204832583666 ], [ 381749.237287737196311, 7671653.668891342356801 ], [ 381759.182713668851648, 7671652.625577853061259 ], [ 381769.128139600506984, 7671651.582264362834394 ], [ 381779.073565532104112, 7671650.538950872607529 ], [ 381789.018991463759448, 7671649.495637383311987 ], [ 381798.964417395414785, 7671648.452323893085122 ], [ 381808.909843327011913, 7671647.409010402858257 ], [ 381818.855269258667249, 7671646.365696913562715 ], [ 381828.800695190322585, 7671645.32238342333585 ], [ 381837.557614803663455, 7671641.863208217546344 ], [ 381844.453557582048234, 7671634.621249007992446 ], [ 381851.34950036049122, 7671627.379289797507226 ], [ 381858.245443138934206, 7671620.137330587953329 ], [ 381865.141385917377193, 7671612.895371378399432 ], [ 381872.037328695820179, 7671605.653412167914212 ], [ 381878.933271474263165, 7671598.411452958360314 ], [ 381885.829214252647944, 7671591.169493748806417 ], [ 381892.72515703109093, 7671583.92753453925252 ], [ 381899.621099809533916, 7671576.6855753287673 ], [ 381906.517042587976903, 7671569.443616119213402 ], [ 381913.412985366419889, 7671562.201656909659505 ], [ 381920.308928144862875, 7671554.959697700105608 ], [ 381927.204870923247654, 7671547.717738489620388 ], [ 381934.10081370169064, 7671540.47577928006649 ], [ 381940.996756480133627, 7671533.233820070512593 ], [ 381947.892699258576613, 7671525.991860860027373 ], [ 381954.788642037019599, 7671518.749901650473475 ], [ 381961.684584815462586, 7671511.507942440919578 ], [ 381968.580527593847364, 7671504.265983231365681 ], [ 381975.47647037229035, 7671497.024024020880461 ], [ 381982.372413150733337, 7671489.782064811326563 ], [ 381989.268355929176323, 7671482.540105601772666 ], [ 381996.164298707619309, 7671475.298146391287446 ], [ 382003.060241486062296, 7671468.056187181733549 ], [ 382009.956184264447074, 7671460.814227972179651 ], [ 382016.852127042890061, 7671453.572268762625754 ], [ 382023.748069821333047, 7671446.330309552140534 ], [ 382030.644012599776033, 7671439.088350342586637 ], [ 382036.216986999788787, 7671430.805484149605036 ], [ 382041.63305582042085, 7671422.399165186099708 ], [ 382047.049124641111121, 7671413.992846221663058 ], [ 382052.465193461801391, 7671405.586527257226408 ], [ 382057.881262282491662, 7671397.180208292789757 ], [ 382063.297331103181932, 7671388.773889328353107 ], [ 382068.713399923872203, 7671380.367570363916457 ], [ 382074.129468744562473, 7671371.961251399479806 ], [ 382079.545537565252744, 7671363.554932435974479 ], [ 382084.961606385943014, 7671355.148613471537828 ], [ 382090.377675206633285, 7671346.742294507101178 ], [ 382095.793744027323555, 7671338.335975542664528 ], [ 382101.209812847955618, 7671329.929656578227878 ], [ 382106.625881668645889, 7671321.523337613791227 ], [ 382112.041950489336159, 7671313.117018649354577 ], [ 382117.45801931002643, 7671304.710699685849249 ], [ 382122.8740881307167, 7671296.304380721412599 ], [ 382128.290156951406971, 7671287.898061756975949 ], [ 382133.706225772097241, 7671279.491742792539299 ], [ 382139.122294592787512, 7671271.085423828102648 ], [ 382144.538363413477782, 7671262.679104863665998 ], [ 382149.954432234168053, 7671254.272785899229348 ], [ 382155.370501054858323, 7671245.86646693572402 ], [ 382160.786569875490386, 7671237.46014797128737 ], [ 382166.202638696180657, 7671229.053829006850719 ], [ 382171.618707516870927, 7671220.647510042414069 ], [ 382177.034776337561198, 7671212.241191077977419 ], [ 382182.450845158251468, 7671203.834872113540769 ], [ 382187.866913978941739, 7671195.428553149104118 ], [ 382193.282982799632009, 7671187.022234185598791 ], [ 382198.69905162032228, 7671178.61591522116214 ], [ 382204.11512044101255, 7671170.20959625672549 ], [ 382209.531189261702821, 7671161.80327729228884 ], [ 382214.947258082393091, 7671153.39695832785219 ], [ 382220.363326903025154, 7671144.990639363415539 ], [ 382225.779395723715425, 7671136.584320398978889 ], [ 382231.195464544405695, 7671128.178001435473561 ], [ 382236.611533365095966, 7671119.771682471036911 ], [ 382245.808648157573771, 7671116.015542602166533 ], [ 382255.143075924541336, 7671112.428279262967408 ], [ 382264.4775036915089, 7671108.841015923768282 ], [ 382273.811931458534673, 7671105.253752584569156 ], [ 382283.146359225502238, 7671101.666489246301353 ], [ 382292.480786992469802, 7671098.079225907102227 ], [ 382301.815214759495575, 7671094.491962567903101 ], [ 382311.14964252646314, 7671090.904699229635298 ], [ 382320.484070293430705, 7671087.317435890436172 ], [ 382329.818498060456477, 7671083.730172551237047 ], [ 382339.152925827424042, 7671080.142909212037921 ], [ 382348.487353594391607, 7671076.555645873770118 ], [ 382357.821781361417379, 7671072.968382534570992 ], [ 382367.156209128384944, 7671069.381119195371866 ], [ 382376.490636895352509, 7671065.79385585617274 ], [ 382385.825064662378281, 7671062.206592517904937 ], [ 382395.149295752693433, 7671061.36449996009469 ], [ 382404.45681722095469, 7671065.021007052622736 ], [ 382413.764338689274155, 7671068.677514144219458 ], [ 382423.071860157593619, 7671072.334021236747503 ], [ 382432.379381625913084, 7671075.990528329275548 ], [ 382441.686903094232548, 7671079.647035421803594 ], [ 382450.994424562552013, 7671083.303542514331639 ], [ 382460.301946030871477, 7671086.960049606859684 ], [ 382469.609467499190941, 7671090.616556699387729 ], [ 382478.916988967452198, 7671094.273063791915774 ], [ 382488.224510435771663, 7671097.92957088444382 ], [ 382497.532031904091127, 7671101.586077976040542 ], [ 382506.839553372410592, 7671105.242585068568587 ], [ 382516.147074840730056, 7671108.899092161096632 ], [ 382525.454596309049521, 7671112.555599253624678 ], [ 382534.762117777368985, 7671116.212106346152723 ], [ 382544.069639245630242, 7671119.868613438680768 ], [ 382553.377160713949706, 7671123.525120531208813 ], [ 382562.684682182269171, 7671127.181627623736858 ], [ 382571.992203650588635, 7671130.838134715333581 ], [ 382581.2997251189081, 7671134.494641807861626 ], [ 382590.607246587227564, 7671138.151148900389671 ], [ 382599.914768055547029, 7671141.807655992917717 ], [ 382609.222289523808286, 7671145.464163085445762 ], [ 382618.52981099212775, 7671149.120670177973807 ], [ 382627.837332460447215, 7671152.777177270501852 ], [ 382637.144853928766679, 7671156.433684363029897 ], [ 382646.452375397086143, 7671160.090191455557942 ], [ 382655.759896865405608, 7671163.746698547154665 ], [ 382665.067418333725072, 7671167.40320563968271 ], [ 382674.374939802044537, 7671171.059712732210755 ], [ 382683.697828637377825, 7671174.666719448752701 ], [ 382693.439711236511357, 7671176.924090358428657 ], [ 382703.181593835586682, 7671179.181461269035935 ], [ 382712.923476434720214, 7671181.438832178711891 ], [ 382722.665359033853747, 7671183.696203088387847 ], [ 382732.407241632987279, 7671185.953573998995125 ], [ 382742.149124232062604, 7671188.210944908671081 ], [ 382751.891006831196137, 7671190.468315818347037 ], [ 382761.632889430329669, 7671192.725686728022993 ], [ 382771.374772029404994, 7671194.983057638630271 ], [ 382781.116654628538527, 7671197.240428548306227 ], [ 382790.858537227672059, 7671199.497799457982183 ], [ 382800.600419826805592, 7671201.755170367658138 ], [ 382810.342302425880916, 7671204.012541278265417 ], [ 382820.084185025014449, 7671206.269912187941372 ], [ 382829.826067624147981, 7671208.527283097617328 ], [ 382839.622713337070309, 7671210.320263172499835 ], [ 382849.622463736624923, 7671210.390916876494884 ], [ 382859.622214136237744, 7671210.461570580489933 ], [ 382869.621964535792358, 7671210.532224285416305 ], [ 382879.62171493540518, 7671210.602877989411354 ], [ 382889.621465335018001, 7671210.673531693406403 ], [ 382899.621215734572615, 7671210.744185397401452 ], [ 382909.620966134185437, 7671210.814839101396501 ], [ 382919.620716533740051, 7671210.88549280539155 ], [ 382929.620466933352873, 7671210.956146509386599 ], [ 382939.620217332965694, 7671211.026800213381648 ], [ 382949.619967732520308, 7671211.097453917376697 ], [ 382959.61971813213313, 7671211.168107621371746 ], [ 382969.619468531745952, 7671211.238761325366795 ], [ 382979.619218931300566, 7671211.309415029361844 ], [ 382989.618969330913387, 7671211.380068733356893 ], [ 382999.618719730468001, 7671211.450722437351942 ], [ 383009.618470130080823, 7671211.521376141346991 ], [ 383019.618220529693644, 7671211.59202984534204 ], [ 383029.617970929248258, 7671211.662683549337089 ], [ 383039.61772132886108, 7671211.733337253332138 ], [ 383049.617471728415694, 7671211.803990957327187 ], [ 383059.617222128028516, 7671211.874644662253559 ], [ 383068.226204473525286, 7671208.619529357179999 ], [ 383075.198834874259774, 7671201.451375809498131 ], [ 383082.171465275052469, 7671194.283222260884941 ], [ 383089.144095675786957, 7671187.11506871227175 ], [ 383096.116726076579653, 7671179.946915163658559 ], [ 383103.089356477314141, 7671172.778761615045369 ], [ 383110.061986878048629, 7671165.610608066432178 ], [ 383117.034617278841324, 7671158.44245451875031 ], [ 383124.007247679575812, 7671151.274300970137119 ], [ 383130.9798780803103, 7671144.106147421523929 ], [ 383137.952508481102996, 7671136.937993872910738 ], [ 383144.925138881837483, 7671129.769840324297547 ], [ 383151.897769282571971, 7671122.601686775684357 ], [ 383158.870399683364667, 7671115.433533227071166 ], [ 383165.843030084099155, 7671108.265379679389298 ], [ 383172.815660484833643, 7671101.097226130776107 ], [ 383179.788290885626338, 7671093.929072582162917 ], [ 383186.760921286360826, 7671086.760919033549726 ], [ 383193.733551687153522, 7671079.592765484936535 ], [ 383200.70618208788801, 7671072.424611936323345 ], [ 383207.678812488622498, 7671065.256458387710154 ], [ 383214.651442889415193, 7671058.088304840028286 ], [ 383221.624073290149681, 7671050.920151291415095 ], [ 383228.596703690884169, 7671043.751997742801905 ], [ 383235.569334091676865, 7671036.583844194188714 ], [ 383242.541964492411353, 7671029.415690645575523 ], [ 383249.514594893145841, 7671022.247537096962333 ], [ 383256.487225293938536, 7671015.079383549280465 ], [ 383263.459855694673024, 7671007.91123 ], [ 383270.43248609546572, 7671000.743076452054083 ], [ 383277.405116496200208, 7670993.574922903440893 ], [ 383284.377746896934696, 7670986.406769354827702 ], [ 383291.350377297727391, 7670979.238615806214511 ], [ 383298.323007698461879, 7670972.070462257601321 ], [ 383305.295638099196367, 7670964.902308709919453 ], [ 383312.268268499989063, 7670957.734155161306262 ], [ 383319.24089890072355, 7670950.566001612693071 ], [ 383326.213529301458038, 7670943.397848064079881 ], [ 383333.186159702250734, 7670936.22969451546669 ], [ 383340.158790102985222, 7670929.061540966853499 ], [ 383347.13142050371971, 7670921.893387419171631 ], [ 383354.104050904512405, 7670914.725233870558441 ], [ 383361.076681305246893, 7670907.55708032194525 ], [ 383368.049311706039589, 7670900.388926773332059 ], [ 383375.021942106774077, 7670893.220773224718869 ], [ 383381.994572507508565, 7670886.052619676105678 ], [ 383388.96720290830126, 7670878.884466127492487 ], [ 383395.939833309035748, 7670871.716312579810619 ], [ 383402.912463709770236, 7670864.548159031197429 ], [ 383409.885094110562932, 7670857.380005482584238 ], [ 383416.85772451129742, 7670850.211851933971047 ], [ 383423.830354912031908, 7670843.043698385357857 ], [ 383430.802985312824603, 7670835.875544836744666 ], [ 383437.775615713559091, 7670828.707391289062798 ], [ 383444.748246114293579, 7670821.539237740449607 ], [ 383452.079921724100132, 7670814.796350524760783 ], [ 383460.31569252157351, 7670809.124306856654584 ], [ 383468.551463319046889, 7670803.452263188548386 ], [ 383476.787234116462059, 7670797.780219520442188 ], [ 383485.023004913935438, 7670792.108175853267312 ], [ 383493.258775711408816, 7670786.436132185161114 ], [ 383501.494546508882195, 7670780.764088517054915 ], [ 383509.730317306297366, 7670775.092044848948717 ], [ 383517.966088103770744, 7670769.420001180842519 ], [ 383526.201858901244123, 7670763.74795751273632 ], [ 383534.437629698717501, 7670758.075913844630122 ], [ 383542.673400496132672, 7670752.403870176523924 ], [ 383550.90917129360605, 7670746.731826508417726 ], [ 383559.144942091079429, 7670741.059782840311527 ], [ 383567.3807128884946, 7670735.387739173136652 ], [ 383575.616483685967978, 7670729.715695505030453 ], [ 383583.852254483441357, 7670724.043651836924255 ], [ 383592.088025280914735, 7670718.371608168818057 ], [ 383600.323796078329906, 7670712.699564500711858 ], [ 383608.559566875803284, 7670707.02752083260566 ], [ 383616.795337673276663, 7670701.355477164499462 ], [ 383625.031108470691834, 7670695.683433496393263 ], [ 383633.266879268165212, 7670690.011389828287065 ], [ 383641.502650065638591, 7670684.339346161112189 ], [ 383649.738420863111969, 7670678.667302493005991 ], [ 383657.97419166052714, 7670672.995258824899793 ], [ 383666.209962458000518, 7670667.323215156793594 ], [ 383674.445733255473897, 7670661.651171488687396 ], [ 383682.681504052889068, 7670655.979127820581198 ], [ 383690.917274850362446, 7670650.307084152474999 ], [ 383699.153045647835825, 7670644.635040484368801 ], [ 383707.388816445309203, 7670638.962996816262603 ], [ 383716.577755818783771, 7670637.027354422956705 ], [ 383726.524185230955482, 7670638.061057450249791 ], [ 383736.470614643185399, 7670639.094760476611555 ], [ 383746.417044055415317, 7670640.128463503904641 ], [ 383756.363473467645235, 7670641.162166530266404 ], [ 383766.309902879875153, 7670642.19586955755949 ], [ 383776.256332292046864, 7670643.229572583921254 ], [ 383786.202761704276782, 7670644.26327561121434 ], [ 383796.149191116506699, 7670645.296978638507426 ], [ 383806.095620528736617, 7670646.330681664869189 ], [ 383816.042049940966535, 7670647.364384692162275 ], [ 383825.988479353138246, 7670648.398087718524039 ], [ 383835.934908765368164, 7670649.431790745817125 ], [ 383845.881338177598082, 7670650.465493772178888 ], [ 383855.827767589827999, 7670651.499196799471974 ], [ 383865.774197002057917, 7670652.532899825833738 ], [ 383875.720626414229628, 7670653.566602853126824 ], [ 383885.667055826459546, 7670654.60030588041991 ], [ 383895.613485238689464, 7670655.634008906781673 ], [ 383905.559914650919382, 7670656.667711934074759 ], [ 383915.506344063149299, 7670657.701414960436523 ], [ 383925.45277347532101, 7670658.735117987729609 ], [ 383935.399202887550928, 7670659.768821014091372 ], [ 383945.345632299780846, 7670660.802524041384459 ], [ 383955.292061712010764, 7670661.836227067746222 ], [ 383965.238491124182474, 7670662.869930095039308 ], [ 383975.184920536412392, 7670663.903633122332394 ], [ 383985.13134994864231, 7670664.937336148694158 ], [ 383995.077779360872228, 7670665.971039175987244 ], [ 384005.024208773102146, 7670667.004742202349007 ], [ 384014.970638185273856, 7670668.038445229642093 ], [ 384024.917067597503774, 7670669.072148256003857 ], [ 384034.863497009733692, 7670670.105851283296943 ], [ 384044.80992642196361, 7670671.139554309658706 ], [ 384054.756355834193528, 7670672.173257336951792 ], [ 384064.702785246365238, 7670673.206960363313556 ], [ 384074.649214658595156, 7670674.240663390606642 ], [ 384084.595644070825074, 7670675.274366417899728 ], [ 384094.542073483054992, 7670676.308069444261491 ], [ 384104.48850289528491, 7670677.341772471554577 ], [ 384114.43493230745662, 7670678.375475497916341 ], [ 384124.381361719686538, 7670679.409178525209427 ], [ 384134.327791131916456, 7670680.44288155157119 ], [ 384144.274220544146374, 7670681.476584578864276 ], [ 384154.220649956318084, 7670682.51028760522604 ], [ 384163.216358072648291, 7670686.325455146841705 ], [ 384171.714531451754738, 7670691.596228260546923 ], [ 384180.212704830919392, 7670696.867001375183463 ], [ 384188.71087821002584, 7670702.137774488888681 ], [ 384197.209051589190494, 7670707.408547602593899 ], [ 384205.707224968296941, 7670712.679320716299117 ], [ 384214.205398347461596, 7670717.950093830004334 ], [ 384222.703571726568043, 7670723.220866944640875 ], [ 384231.201745105732698, 7670728.491640058346093 ], [ 384239.699918484839145, 7670733.762413172051311 ], [ 384248.1980918640038, 7670739.033186285756528 ], [ 384256.696265243110247, 7670744.303959399461746 ], [ 384265.194438622274902, 7670749.574732514098287 ], [ 384273.692612001381349, 7670754.845505627803504 ], [ 384282.190785380546004, 7670760.116278741508722 ], [ 384290.688958759652451, 7670765.38705185521394 ], [ 384299.187132138817105, 7670770.657824969850481 ], [ 384307.685305517923553, 7670775.928598083555698 ], [ 384316.183478897088207, 7670781.199371197260916 ], [ 384324.681652276194654, 7670786.470144310966134 ], [ 384333.179825655359309, 7670791.740917424671352 ], [ 384341.677999034465756, 7670797.011690539307892 ], [ 384350.176172413630411, 7670802.28246365301311 ], [ 384358.674345792736858, 7670807.553236766718328 ], [ 384367.172519171901513, 7670812.824009880423546 ], [ 384375.67069255100796, 7670818.094782994128764 ], [ 384384.168865930172615, 7670823.365556108765304 ], [ 384392.667039309279062, 7670828.636329222470522 ], [ 384401.165212688385509, 7670833.90710233617574 ], [ 384409.663386067550164, 7670839.177875449880958 ], [ 384418.161559446656611, 7670844.448648563586175 ], [ 384426.659732825821266, 7670849.719421678222716 ], [ 384435.157906204927713, 7670854.990194791927934 ], [ 384443.656079584092367, 7670860.260967905633152 ], [ 384452.154252963198815, 7670865.531741019338369 ], [ 384460.652426342363469, 7670870.802514133043587 ], [ 384469.150599721469916, 7670876.073287247680128 ], [ 384477.648773100634571, 7670881.344060361385345 ], [ 384486.146946479741018, 7670886.614833475090563 ], [ 384494.645119858905673, 7670891.885606588795781 ], [ 384503.14329323801212, 7670897.156379702500999 ], [ 384511.641466617176775, 7670902.427152817137539 ], [ 384520.139639996283222, 7670907.697925930842757 ], [ 384528.637813375447877, 7670912.968699044547975 ], [ 384537.135986754554324, 7670918.239472158253193 ], [ 384545.634160133718979, 7670923.510245271958411 ], [ 384554.132333512825426, 7670928.781018386594951 ], [ 384562.63050689199008, 7670934.051791500300169 ], [ 384571.128680271096528, 7670939.322564614005387 ], [ 384579.626853650261182, 7670944.593337727710605 ], [ 384588.125027029367629, 7670949.864110841415823 ], [ 384596.623200408532284, 7670955.134883956052363 ], [ 384605.121373787638731, 7670960.405657069757581 ], [ 384613.619547166803386, 7670965.676430183462799 ], [ 384622.117720545909833, 7670970.947203297168016 ], [ 384630.615893925074488, 7670976.217976410873234 ], [ 384639.114067304180935, 7670981.488749525509775 ], [ 384647.612240683287382, 7670986.759522639214993 ], [ 384656.110414062452037, 7670992.03029575292021 ], [ 384664.608587441558484, 7670997.301068866625428 ], [ 384673.106760820723139, 7671002.571841981261969 ], [ 384681.604934199829586, 7671007.842615094967186 ], [ 384690.103107578994241, 7671013.113388208672404 ], [ 384698.601280958100688, 7671018.384161322377622 ], [ 384707.099454337265342, 7671023.65493443608284 ], [ 384715.59762771637179, 7671028.92570755071938 ], [ 384724.095801095536444, 7671034.196480664424598 ], [ 384732.593974474642891, 7671039.467253778129816 ], [ 384741.092147853807546, 7671044.738026891835034 ], [ 384749.590321232913993, 7671050.008800005540252 ], [ 384758.088494612078648, 7671055.279573120176792 ], [ 384766.586667991185095, 7671060.55034623388201 ], [ 384775.08484137034975, 7671065.821119347587228 ] ] ] } }
]
}
