{
"type": "FeatureCollection",
"crs": { "type": "name", "properties": { "name": "urn:ogc:def:crs:EPSG::32749" } },
"features": [
{ "type": "Feature", "properties": { "id": 1 }, "geometry": { "type": "MultiLineString", "coordinates": [ [ [ 450178.815039620443713, 9257715.294528754428029 ], [ 450181.128079999762122, 9257705.565713604912162 ], [ 450183.441120379138738, 9257695.83689845725894 ], [ 450185.754160758457147, 9257686.108083307743073 ], [ 450188.067201137775555, 9257676.379268158227205 ], [ 450190.380241517093964, 9257666.650453008711338 ], [ 450192.69328189647058, 9257656.921637861058116 ], [ 450195.006322275788989, 9257647.192822711542249 ], [ 450197.319362655107398, 9257637.464007562026381 ], [ 450199.632403034484014, 9257627.735192412510514 ], [ 450201.945443413802423, 9257618.006377264857292 ], [ 450204.258483793120831, 9257608.277562115341425 ], [ 450206.571524172497448, 9257598.548746965825558 ], [ 450208.884564551815856, 9257588.819931818172336 ], [ 450211.197604931134265, 9257579.091116668656468 ], [ 450213.510645310452674, 9257569.362301519140601 ], [ 450215.82368568982929, 9257559.633486369624734 ], [ 450218.136726069147699, 9257549.904671221971512 ], [ 450220.449766448466107, 9257540.175856072455645 ], [ 450222.762806827842724, 9257530.447040922939777 ], [ 450225.075847207161132, 9257520.71822577342391 ], [ 450227.388887586479541, 9257510.989410625770688 ], [ 450229.701927965856157, 9257501.260595476254821 ], [ 450232.014968345174566, 9257491.531780326738954 ], [ 450234.328008724492975, 9257481.802965179085732 ], [ 450236.641049103811383, 9257472.074150029569864 ], [ 450238.954089483188, 9257462.345334880053997 ], [ 450241.267129862506408, 9257452.61651973053813 ], [ 450243.580170241824817, 9257442.887704582884908 ], [ 450245.893210621201433, 9257433.15888943336904 ], [ 450248.206251000519842, 9257423.430074283853173 ], [ 450250.519291379838251, 9257413.701259134337306 ], [ 450252.832331759156659, 9257403.972443986684084 ], [ 450253.294848132354673, 9257393.992254232987761 ], [ 450253.660853697627317, 9257383.99895448051393 ], [ 450254.026859262899961, 9257374.005654729902744 ], [ 450254.392864828230813, 9257364.012354977428913 ], [ 450254.758870393503457, 9257354.019055226817727 ], [ 450255.124875958776101, 9257344.025755474343896 ], [ 450255.490881524048746, 9257334.032455721870065 ], [ 450255.856887089379597, 9257324.039155971258879 ], [ 450256.222892654652242, 9257314.045856218785048 ], [ 450256.588898219924886, 9257304.052556468173862 ], [ 450256.95490378519753, 9257294.05925671570003 ], [ 450257.320909350470174, 9257284.065956965088844 ], [ 450257.686914915801026, 9257274.072657212615013 ], [ 450258.05292048107367, 9257264.079357462003827 ], [ 450258.418926046346314, 9257254.086057709529996 ], [ 450258.784931611618958, 9257244.092757957056165 ], [ 450259.15093717694981, 9257234.099458206444979 ], [ 450259.516942742222454, 9257224.106158453971148 ], [ 450259.882948307495099, 9257214.112858703359962 ], [ 450260.248953872767743, 9257204.11955895088613 ], [ 450260.614959438040387, 9257194.126259200274944 ], [ 450260.980965003371239, 9257184.132959447801113 ], [ 450261.346970568643883, 9257174.139659697189927 ], [ 450258.959851625899319, 9257164.447070475667715 ], [ 450256.445173020183574, 9257154.768413983285427 ], [ 450253.930494414526038, 9257145.089757489040494 ], [ 450251.415815808868501, 9257135.411100996658206 ], [ 450248.901137203210965, 9257125.732444504275918 ], [ 450246.386458597495221, 9257116.053788010030985 ], [ 450243.871779991837684, 9257106.375131517648697 ], [ 450241.357101386180148, 9257096.696475025266409 ], [ 450238.842422780522611, 9257087.017818531021476 ], [ 450236.327744174806867, 9257077.339162038639188 ], [ 450233.81306556914933, 9257067.6605055462569 ], [ 450231.298386963491794, 9257057.981849052011967 ], [ 450228.783708357834257, 9257048.303192559629679 ], [ 450226.269029752176721, 9257038.624536067247391 ], [ 450223.754351146460976, 9257028.945879573002458 ], [ 450221.23967254080344, 9257019.26722308062017 ], [ 450218.724993935145903, 9257009.588566586375237 ], [ 450216.210315329488367, 9256999.909910093992949 ], [ 450213.695636723772623, 9256990.231253601610661 ], [ 450210.851475777861197, 9256980.651861531659961 ], [ 450207.601079632237088, 9256971.194857519119978 ], [ 450204.350683486554772, 9256961.737853506579995 ], [ 450201.100287340872455, 9256952.280849494040012 ], [ 450197.849891195248347, 9256942.82384548150003 ], [ 450194.599495049566031, 9256933.366841468960047 ], [ 450191.349098903883714, 9256923.909837456420064 ], [ 450188.098702758259606, 9256914.452833443880081 ], [ 450184.848306612577289, 9256904.995829431340098 ], [ 450181.597910466894973, 9256895.538825418800116 ], [ 450178.347514321270864, 9256886.081821404397488 ], [ 450175.097118175588548, 9256876.624817391857505 ], [ 450171.846722029906232, 9256867.167813379317522 ], [ 450168.596325884282123, 9256857.710809366777539 ], [ 450165.345929738599807, 9256848.253805354237556 ], [ 450162.095533592917491, 9256838.796801341697574 ], [ 450158.845137447293382, 9256829.339797329157591 ], [ 450155.594741301611066, 9256819.882793316617608 ], [ 450152.34434515592875, 9256810.425789304077625 ], [ 450149.093949010304641, 9256800.968785291537642 ], [ 450145.843552864622325, 9256791.51178127899766 ], [ 450142.593156718940008, 9256782.054777264595032 ], [ 450139.3427605733159, 9256772.597773252055049 ], [ 450136.092364427633584, 9256763.140769239515066 ], [ 450132.841968281951267, 9256753.683765226975083 ], [ 450131.937023294798564, 9256744.502807192504406 ], [ 450137.294256106833927, 9256736.058871107175946 ], [ 450142.651488918811083, 9256727.614935023710132 ], [ 450148.008721730846446, 9256719.170998938381672 ], [ 450153.365954542881809, 9256710.727062854915857 ], [ 450158.723187354917172, 9256702.283126769587398 ], [ 450164.080420166952536, 9256693.839190686121583 ], [ 450169.437652978987899, 9256685.395254600793123 ], [ 450174.794885790965054, 9256676.951318517327309 ], [ 450180.152118603000417, 9256668.507382431998849 ], [ 450185.509351415035781, 9256660.063446346670389 ], [ 450190.866584227071144, 9256651.619510263204575 ], [ 450196.223817039106507, 9256643.175574177876115 ], [ 450201.58104985114187, 9256634.7316380944103 ], [ 450206.938282663119026, 9256626.287702009081841 ], [ 450212.295515475154389, 9256617.843765925616026 ], [ 450217.652748287189752, 9256609.399829840287566 ], [ 450223.009981099225115, 9256600.955893756821752 ], [ 450228.367213911260478, 9256592.511957671493292 ], [ 450233.724446723237634, 9256584.068021588027477 ], [ 450239.081679535272997, 9256575.624085502699018 ], [ 450244.43891234730836, 9256567.180149419233203 ], [ 450249.796145159343723, 9256558.736213333904743 ], [ 450255.153377971379086, 9256550.292277250438929 ], [ 450260.51061078341445, 9256541.848341165110469 ], [ 450265.867843595391605, 9256533.404405081644654 ], [ 450271.225076407426968, 9256524.960468996316195 ], [ 450276.582309219462331, 9256516.51653291285038 ], [ 450281.939542031497695, 9256508.07259682752192 ], [ 450287.773517897992861, 9256500.163916470482945 ], [ 450296.778620167460758, 9256495.815568150952458 ], [ 450305.783722436928656, 9256491.467219829559326 ], [ 450314.788824706396554, 9256487.118871510028839 ], [ 450323.793926975864451, 9256482.770523188635707 ], [ 450332.799029245332349, 9256478.42217486910522 ], [ 450341.804131514800247, 9256474.073826547712088 ], [ 450350.809233784268145, 9256469.725478228181601 ], [ 450359.814336053736042, 9256465.377129906788468 ], [ 450368.819438323145732, 9256461.028781587257981 ], [ 450377.82454059261363, 9256456.680433265864849 ], [ 450386.829642862081528, 9256452.332084946334362 ], [ 450395.834745131549425, 9256447.98373662494123 ], [ 450404.839847401017323, 9256443.635388305410743 ], [ 450413.844949670485221, 9256439.287039984017611 ], [ 450422.850051939953119, 9256434.938691662624478 ], [ 450431.855154209421016, 9256430.590343343093991 ], [ 450440.860256478888914, 9256426.241995021700859 ], [ 450449.865358748356812, 9256421.893646702170372 ], [ 450458.870461017824709, 9256417.54529838077724 ], [ 450467.875563287292607, 9256413.196950061246753 ], [ 450476.880665556760505, 9256408.848601739853621 ], [ 450485.885767826228403, 9256404.500253420323133 ], [ 450494.8908700956963, 9256400.151905098930001 ], [ 450503.895972365164198, 9256395.803556779399514 ], [ 450512.901074634632096, 9256391.455208458006382 ], [ 450521.906176904099993, 9256387.106860138475895 ], [ 450530.911279173567891, 9256382.758511817082763 ], [ 450539.916381443035789, 9256378.410163497552276 ], [ 450548.376084888004698, 9256373.094702685251832 ], [ 450556.756465333921369, 9256367.6385846901685 ], [ 450565.13684577983804, 9256362.182466695085168 ], [ 450573.517226225696504, 9256356.726348700001836 ], [ 450581.897606671613175, 9256351.270230703055859 ], [ 450590.277987117529847, 9256345.814112707972527 ], [ 450598.65836756338831, 9256340.357994712889194 ], [ 450607.038748009304982, 9256334.901876715943217 ], [ 450615.419128455221653, 9256329.445758720859885 ], [ 450623.799508901138324, 9256323.989640725776553 ], [ 450632.179889346996788, 9256318.533522730693221 ], [ 450640.560269792913459, 9256313.077404733747244 ], [ 450648.940650238830131, 9256307.621286738663912 ], [ 450657.321030684688594, 9256302.16516874358058 ], [ 450665.701411130605265, 9256296.709050746634603 ], [ 450674.081791576521937, 9256291.25293275155127 ], [ 450682.4621720223804, 9256285.796814756467938 ], [ 450690.842552468297072, 9256280.340696761384606 ], [ 450699.222932914213743, 9256274.884578764438629 ], [ 450707.603313360072207, 9256269.428460769355297 ], [ 450715.983693805988878, 9256263.972342774271965 ], [ 450724.364074251905549, 9256258.516224779188633 ], [ 450730.642699176445603, 9256251.594271520152688 ], [ 450732.867190367658623, 9256241.844828512519598 ], [ 450735.091681558871642, 9256232.095385506749153 ], [ 450737.316172750084661, 9256222.345942499116063 ], [ 450739.540663941239472, 9256212.596499493345618 ], [ 450741.765155132452492, 9256202.847056485712528 ], [ 450743.989646323665511, 9256193.097613479942083 ], [ 450746.21413751487853, 9256183.348170472308993 ], [ 450748.438628706033342, 9256173.598727466538548 ], [ 450750.663119897246361, 9256163.849284458905458 ], [ 450752.88761108845938, 9256154.099841453135014 ], [ 450755.112102279672399, 9256144.350398445501924 ], [ 450757.336593470827211, 9256134.600955439731479 ], [ 450759.56108466204023, 9256124.851512432098389 ], [ 450761.785575853253249, 9256115.102069426327944 ], [ 450764.010067044466268, 9256105.352626418694854 ], [ 450766.23455823562108, 9256095.603183412924409 ], [ 450768.459049426834099, 9256085.853740405291319 ], [ 450770.683540618047118, 9256076.104297399520874 ], [ 450769.628490624949336, 9256066.275180175900459 ], [ 450767.88005645404337, 9256056.429217655211687 ], [ 450766.131622283079196, 9256046.583255134522915 ], [ 450764.383188112173229, 9256036.737292613834143 ], [ 450762.634753941267263, 9256026.89133009314537 ], [ 450760.886319770303089, 9256017.045367574319243 ], [ 450759.137885599397123, 9256007.199405053630471 ], [ 450757.389451428491157, 9255997.353442532941699 ], [ 450755.641017257526983, 9255987.507480012252927 ], [ 450753.892583086621016, 9255977.6615174934268 ], [ 450752.14414891571505, 9255967.815554972738028 ], [ 450750.395714744750876, 9255957.969592452049255 ], [ 450748.64728057384491, 9255948.123629931360483 ], [ 450746.898846402938943, 9255938.277667412534356 ], [ 450745.150412232032977, 9255928.431704891845584 ], [ 450743.401978061068803, 9255918.585742371156812 ], [ 450741.653543890162837, 9255908.73977985046804 ], [ 450739.90510971925687, 9255898.893817331641912 ], [ 450738.156675548292696, 9255889.04785481095314 ], [ 450736.40824137738673, 9255879.201892290264368 ], [ 450734.659807206480764, 9255869.355929769575596 ], [ 450732.91137303551659, 9255859.509967250749469 ], [ 450731.162938864610624, 9255849.664004730060697 ], [ 450733.39768882835051, 9255840.906807055696845 ], [ 450739.911413542402443, 9255833.319225732237101 ], [ 450746.425138256454375, 9255825.731644408777356 ], [ 450752.938862970506307, 9255818.144063083454967 ], [ 450759.452587684616446, 9255810.556481759995222 ], [ 450765.966312398668379, 9255802.968900436535478 ], [ 450772.480037112720311, 9255795.381319111213088 ], [ 450778.993761826772243, 9255787.793737787753344 ], [ 450785.507486540824175, 9255780.206156464293599 ], [ 450792.021211254876107, 9255772.61857513897121 ], [ 450798.534935968928039, 9255765.030993815511465 ], [ 450805.048660683038179, 9255757.443412492051721 ], [ 450811.562385397090111, 9255749.855831166729331 ], [ 450818.076110111142043, 9255742.268249843269587 ], [ 450824.589834825193975, 9255734.680668519809842 ], [ 450832.165581145556644, 9255730.803652230650187 ], [ 450841.707413075317163, 9255733.795882740989327 ], [ 450851.249245005019475, 9255736.788113251328468 ], [ 450860.791076934721787, 9255739.780343759804964 ], [ 450870.332908864482306, 9255742.772574270144105 ], [ 450879.874740794184618, 9255745.764804780483246 ], [ 450889.416572723945137, 9255748.757035290822387 ], [ 450898.958404653647449, 9255751.749265801161528 ], [ 450908.500236583349761, 9255754.741496309638023 ], [ 450918.04206851311028, 9255757.733726819977164 ], [ 450927.583900442812592, 9255760.725957330316305 ], [ 450937.125732372573111, 9255763.718187840655446 ], [ 450946.667564302275423, 9255766.710418350994587 ], [ 450956.209396231977735, 9255769.702648861333728 ], [ 450965.927345880831126, 9255771.982439376413822 ], [ 450975.76432632340584, 9255773.780720714479685 ], [ 450985.601306765980553, 9255775.579002052545547 ], [ 450995.438287208555266, 9255777.377283392474055 ], [ 451005.27526765112998, 9255779.175564730539918 ], [ 451015.112248093704693, 9255780.973846068605781 ], [ 451024.949228536221199, 9255782.772127406671643 ], [ 451034.786208978795912, 9255784.570408746600151 ], [ 451044.623189421370625, 9255786.368690084666014 ], [ 451054.460169863945339, 9255788.166971422731876 ], [ 451064.297150306520052, 9255789.965252760797739 ], [ 451074.134130749036558, 9255791.763534100726247 ], [ 451083.971111191611271, 9255793.561815438792109 ], [ 451093.808091634185985, 9255795.360096776857972 ], [ 451103.645072076760698, 9255797.158378114923835 ], [ 451113.482052519335411, 9255798.956659454852343 ], [ 451123.319032961851917, 9255800.754940792918205 ], [ 451133.156013404426631, 9255802.553222130984068 ], [ 451142.906040066154674, 9255803.112450946122408 ], [ 451152.395441712171305, 9255799.957889741286635 ], [ 451161.884843358129729, 9255796.803328534588218 ], [ 451171.37424500414636, 9255793.648767329752445 ], [ 451180.863646650104783, 9255790.494206123054028 ], [ 451190.353048296121415, 9255787.339644918218255 ], [ 451199.842449942079838, 9255784.185083711519837 ], [ 451209.331851588038262, 9255781.03052250482142 ], [ 451218.821253234054893, 9255777.875961299985647 ], [ 451228.310654880013317, 9255774.72140009328723 ], [ 451237.800056526029948, 9255771.566838888451457 ], [ 451247.289458171988372, 9255768.412277681753039 ], [ 451256.778859817946795, 9255765.257716476917267 ], [ 451266.268261463963427, 9255762.103155270218849 ], [ 451275.75766310992185, 9255758.948594065383077 ], [ 451285.247064755938482, 9255755.794032858684659 ], [ 451294.736466401896905, 9255752.639471653848886 ], [ 451304.225868047855329, 9255749.484910447150469 ], [ 451313.71526969387196, 9255746.330349242314696 ], [ 451323.204671339830384, 9255743.175788035616279 ], [ 451332.694072985847015, 9255740.021226830780506 ], [ 451342.183474631805439, 9255736.866665624082088 ], [ 451351.67287627782207, 9255733.712104419246316 ], [ 451361.162277923780493, 9255730.557543212547898 ], [ 451370.651679569738917, 9255727.402982007712126 ], [ 451380.141081215755548, 9255724.248420801013708 ], [ 451389.630482861713972, 9255721.093859596177936 ], [ 451399.119884507730603, 9255717.939298389479518 ], [ 451408.609286153689027, 9255714.7847371827811 ], [ 451418.09868779964745, 9255711.630175977945328 ], [ 451427.588089445664082, 9255708.47561477124691 ], [ 451436.863205036264844, 9255704.94053546525538 ], [ 451444.480499337951187, 9255698.461582809686661 ], [ 451452.097793639579322, 9255691.982630154117942 ], [ 451459.715087941207457, 9255685.503677496686578 ], [ 451467.3323822428938, 9255679.024724841117859 ], [ 451474.949676544521935, 9255672.545772183686495 ], [ 451482.566970846208278, 9255666.066819528117776 ], [ 451490.184265147836413, 9255659.587866872549057 ], [ 451497.801559449522756, 9255653.108914215117693 ], [ 451505.418853751150891, 9255646.629961559548974 ], [ 451513.036148052779026, 9255640.151008903980255 ], [ 451520.653442354465369, 9255633.672056246548891 ], [ 451528.270736656093504, 9255627.193103590980172 ], [ 451535.888030957779847, 9255620.714150935411453 ], [ 451543.505325259407982, 9255614.235198277980089 ], [ 451551.122619561094325, 9255607.75624562241137 ], [ 451558.73991386272246, 9255601.277292964980006 ], [ 451566.357208164350595, 9255594.798340309411287 ], [ 451573.974502466036938, 9255588.319387653842568 ], [ 451581.591796767665073, 9255581.840434996411204 ], [ 451589.209091069351416, 9255575.361482340842485 ], [ 451596.826385370979551, 9255568.882529685273767 ], [ 451604.443679672665894, 9255562.403577027842402 ], [ 451612.060973974294029, 9255555.924624372273684 ], [ 451619.678268275922164, 9255549.445671714842319 ], [ 451627.295562577608507, 9255542.966719059273601 ], [ 451634.912856879236642, 9255536.487766403704882 ], [ 451642.530151180922985, 9255530.008813746273518 ], [ 451650.14744548255112, 9255523.529861090704799 ], [ 451657.74760214111302, 9255517.034951459616423 ], [ 451663.667272004822735, 9255508.975329341366887 ], [ 451669.586941868474241, 9255500.915707221254706 ], [ 451675.506611732183956, 9255492.856085103005171 ], [ 451681.426281595835462, 9255484.79646298289299 ], [ 451687.345951459545176, 9255476.736840864643455 ], [ 451693.265621323196683, 9255468.677218744531274 ], [ 451699.185291186906397, 9255460.617596626281738 ], [ 451705.104961050557904, 9255452.557974506169558 ], [ 451711.024630914267618, 9255444.498352387920022 ], [ 451716.944300777919125, 9255436.438730267807841 ], [ 451722.863970641628839, 9255428.379108149558306 ], [ 451728.783640505338553, 9255420.319486029446125 ], [ 451734.70331036899006, 9255412.259863909333944 ], [ 451740.622980232699774, 9255404.200241791084409 ], [ 451746.542650096351281, 9255396.140619670972228 ], [ 451752.462319960060995, 9255388.080997552722692 ], [ 451758.381989823712502, 9255380.021375432610512 ], [ 451764.301659687422216, 9255371.961753314360976 ], [ 451770.221329551073723, 9255363.902131194248796 ], [ 451776.140999414783437, 9255355.84250907599926 ], [ 451782.060669278434943, 9255347.782886955887079 ], [ 451787.980339142144658, 9255339.723264837637544 ], [ 451793.900009005796164, 9255331.663642717525363 ], [ 451799.819678869505879, 9255323.604020599275827 ], [ 451805.739348733215593, 9255315.544398479163647 ], [ 451811.659018596867099, 9255307.484776360914111 ], [ 451817.578688460576814, 9255299.42515424080193 ], [ 451823.49835832422832, 9255291.36553212068975 ], [ 451829.418028187938035, 9255283.305910002440214 ], [ 451835.337698051589541, 9255275.246287882328033 ], [ 451841.257367915299255, 9255267.186665764078498 ], [ 451847.177037778950762, 9255259.127043643966317 ], [ 451853.096707642660476, 9255251.067421525716782 ], [ 451859.016377506311983, 9255243.007799405604601 ], [ 451864.936047370021697, 9255234.948177287355065 ], [ 451870.855717233673204, 9255226.888555167242885 ], [ 451876.775387097382918, 9255218.828933048993349 ], [ 451882.695056961092632, 9255210.769310928881168 ], [ 451888.614726824744139, 9255202.709688810631633 ], [ 451894.534396688453853, 9255194.650066690519452 ], [ 451900.45406655210536, 9255186.590444572269917 ], [ 451906.373736415815074, 9255178.530822452157736 ], [ 451912.293406279466581, 9255170.471200332045555 ], [ 451918.213076143176295, 9255162.41157821379602 ], [ 451924.132746006827801, 9255154.351956093683839 ], [ 451930.042897373088636, 9255146.285382617264986 ], [ 451935.918574277660809, 9255138.193632440641522 ], [ 451941.794251182232983, 9255130.101882264018059 ], [ 451947.669928086805157, 9255122.010132087394595 ], [ 451953.545604991435539, 9255113.918381912633777 ], [ 451959.421281896007713, 9255105.826631736010313 ], [ 451965.296958800579887, 9255097.734881559386849 ], [ 451971.172635705152061, 9255089.643131384626031 ], [ 451977.048312609782442, 9255081.551381208002567 ], [ 451982.923989514354616, 9255073.459631031379104 ], [ 451988.79966641892679, 9255065.36788085475564 ], [ 451994.675343323498964, 9255057.276130679994822 ], [ 452000.551020228129346, 9255049.184380503371358 ], [ 452006.42669713270152, 9255041.092630326747894 ], [ 452012.302374037273694, 9255033.000880150124431 ], [ 452018.178050941845868, 9255024.909129975363612 ], [ 452024.053727846476249, 9255016.817379798740149 ], [ 452029.929404751048423, 9255008.725629622116685 ], [ 452035.805081655620597, 9255000.633879445493221 ], [ 452041.680758560250979, 9254992.542129270732403 ], [ 452047.556435464823153, 9254984.450379094108939 ], [ 452053.432112369395327, 9254976.358628917485476 ], [ 452059.307789273967501, 9254968.266878742724657 ], [ 452065.183466178597882, 9254960.175128566101193 ], [ 452071.059143083170056, 9254952.08337838947773 ], [ 452076.93481998774223, 9254943.991628212854266 ], [ 452082.810496892314404, 9254935.899878038093448 ], [ 452088.686173796944786, 9254927.808127861469984 ], [ 452094.56185070151696, 9254919.71637768484652 ], [ 452100.437527606089134, 9254911.624627508223057 ], [ 452106.313204510661308, 9254903.532877333462238 ], [ 452112.188881415291689, 9254895.441127156838775 ], [ 452118.064558319863863, 9254887.349376980215311 ], [ 452123.940235224436037, 9254879.257626803591847 ], [ 452129.815912129008211, 9254871.165876628831029 ], [ 452135.691589033638593, 9254863.074126452207565 ], [ 452141.567265938210767, 9254854.982376275584102 ], [ 452147.442942842782941, 9254846.890626098960638 ], [ 452153.318619747355115, 9254838.79887592419982 ], [ 452159.194296651985496, 9254830.707125747576356 ], [ 452165.06997355655767, 9254822.615375570952892 ], [ 452173.386259464256, 9254817.878283556550741 ], [ 452182.893664633505978, 9254814.778405020013452 ], [ 452192.401069802697748, 9254811.678526481613517 ], [ 452201.908474971947726, 9254808.578647943213582 ], [ 452211.415880141197704, 9254805.478769406676292 ], [ 452220.923285310447682, 9254802.378890868276358 ], [ 452230.430690479639452, 9254799.279012331739068 ], [ 452239.93809564888943, 9254796.179133793339133 ], [ 452249.445500818139408, 9254793.079255254939198 ], [ 452258.952905987389386, 9254789.979376718401909 ], [ 452268.460311156581156, 9254786.879498180001974 ], [ 452277.967716325831134, 9254783.779619643464684 ], [ 452287.475121495081112, 9254780.67974110506475 ], [ 452296.982526664272882, 9254777.57986256852746 ], [ 452306.48993183352286, 9254774.479984030127525 ], [ 452315.997337002772838, 9254771.380105491727591 ], [ 452325.504742172022816, 9254768.280226955190301 ], [ 452335.012147341214586, 9254765.180348416790366 ], [ 452344.519552510464564, 9254762.080469880253077 ], [ 452354.026957679714542, 9254758.980591341853142 ], [ 452363.53436284896452, 9254755.880712805315852 ], [ 452373.04176801815629, 9254752.780834266915917 ], [ 452382.549173187406268, 9254749.680955728515983 ], [ 452392.056578356656246, 9254746.581077191978693 ], [ 452401.563983525906224, 9254743.481198653578758 ], [ 452411.071388695097994, 9254740.381320117041469 ], [ 452420.578793864347972, 9254737.281441578641534 ], [ 452430.08619903359795, 9254734.181563040241599 ], [ 452439.593604202847928, 9254731.081684503704309 ], [ 452449.101009372039698, 9254727.981805965304375 ], [ 452458.608414541289676, 9254724.881927428767085 ], [ 452468.115819710539654, 9254721.78204889036715 ], [ 452477.623224879731424, 9254718.682170353829861 ], [ 452487.130630048981402, 9254715.582291815429926 ], [ 452496.63803521823138, 9254712.482413277029991 ], [ 452506.145440387481358, 9254709.382534740492702 ], [ 452515.652845556673128, 9254706.282656202092767 ], [ 452525.160250725923106, 9254703.182777665555477 ], [ 452534.667655895173084, 9254700.082899127155542 ], [ 452544.175061064423062, 9254696.983020588755608 ], [ 452553.682466233614832, 9254693.883142052218318 ], [ 452563.18987140286481, 9254690.783263513818383 ], [ 452572.697276572114788, 9254687.683384977281094 ], [ 452582.204681741364766, 9254684.583506438881159 ], [ 452591.712086910556536, 9254681.483627902343869 ], [ 452601.197421541204676, 9254678.317072289064527 ], [ 452610.67670494352933, 9254675.132235372439027 ], [ 452620.155988345795777, 9254671.947398457676172 ], [ 452629.635271748120431, 9254668.762561542913318 ], [ 452639.114555150445085, 9254665.577724626287818 ], [ 452648.593838552769739, 9254662.392887711524963 ], [ 452658.073121955094393, 9254659.208050794899464 ], [ 452667.552405357419048, 9254656.023213880136609 ], [ 452677.031688759743702, 9254652.838376965373755 ], [ 452686.510972162010148, 9254649.653540048748255 ], [ 452695.990255564334802, 9254646.4687031339854 ], [ 452705.469538966659456, 9254643.2838662173599 ], [ 452714.948822368984111, 9254640.099029302597046 ], [ 452724.428105771308765, 9254636.914192385971546 ], [ 452733.907389173633419, 9254633.729355471208692 ], [ 452743.386672575958073, 9254630.544518556445837 ], [ 452752.865955978282727, 9254627.359681639820337 ], [ 452762.345239380549174, 9254624.174844725057483 ], [ 452771.824522782873828, 9254620.990007808431983 ], [ 452781.303806185198482, 9254617.805170893669128 ], [ 452790.783089587523136, 9254614.620333978906274 ], [ 452800.26237298984779, 9254611.435497062280774 ], [ 452809.741656392172445, 9254608.25066014751792 ], [ 452819.220939794497099, 9254605.06582323089242 ], [ 452828.700223196763545, 9254601.880986316129565 ], [ 452838.179506599088199, 9254598.696149401366711 ], [ 452847.658790001412854, 9254595.511312484741211 ], [ 452857.138073403737508, 9254592.326475569978356 ], [ 452866.617356806062162, 9254589.141638653352857 ], [ 452876.096640208386816, 9254585.956801738590002 ], [ 452885.57592361071147, 9254582.771964821964502 ], [ 452895.055207013036124, 9254579.587127907201648 ], [ 452904.534490415302571, 9254576.402290992438793 ], [ 452914.013773817627225, 9254573.217454075813293 ], [ 452923.493057219951879, 9254570.032617161050439 ], [ 452932.972340622276533, 9254566.847780244424939 ], [ 452942.451624024601188, 9254563.662943329662085 ], [ 452951.930907426925842, 9254560.47810641489923 ], [ 452961.410190829250496, 9254557.29326949827373 ], [ 452970.889474231516942, 9254554.108432583510876 ], [ 452980.368757633841597, 9254550.923595666885376 ], [ 452989.848041036166251, 9254547.738758752122521 ], [ 452999.327324438490905, 9254544.553921835497022 ], [ 453008.806607840815559, 9254541.369084920734167 ], [ 453018.285891243140213, 9254538.184248005971313 ], [ 453027.765174645464867, 9254534.999411089345813 ], [ 453037.244458047789522, 9254531.814574174582958 ], [ 453046.723741450055968, 9254528.629737257957458 ], [ 453056.203024852380622, 9254525.444900343194604 ], [ 453065.682308254705276, 9254522.260063428431749 ], [ 453075.161591657029931, 9254519.07522651180625 ], [ 453084.640875059354585, 9254515.890389597043395 ], [ 453094.120158461679239, 9254512.705552680417895 ], [ 453103.599441864003893, 9254509.520715765655041 ], [ 453113.078725266270339, 9254506.335878849029541 ], [ 453122.558008668594994, 9254503.151041934266686 ], [ 453132.037292070919648, 9254499.966205019503832 ], [ 453141.516575473244302, 9254496.781368102878332 ], [ 453150.995858875568956, 9254493.596531188115478 ], [ 453160.47514227789361, 9254490.411694271489978 ], [ 453169.954425680218264, 9254487.226857356727123 ], [ 453179.433709082542919, 9254484.042020441964269 ], [ 453188.912992484809365, 9254480.857183525338769 ], [ 453198.392275887134019, 9254477.672346610575914 ], [ 453207.871559289458673, 9254474.487509693950415 ], [ 453217.350842691783328, 9254471.30267277918756 ], [ 453226.830126094107982, 9254468.117835864424706 ], [ 453236.309409496432636, 9254464.932998947799206 ], [ 453245.78869289875729, 9254461.748162033036351 ], [ 453255.267976301023737, 9254458.563325116410851 ], [ 453264.747259703348391, 9254455.378488201647997 ], [ 453274.226543105673045, 9254452.193651285022497 ], [ 453283.705826507997699, 9254449.008814370259643 ], [ 453293.185109910322353, 9254445.823977455496788 ], [ 453302.664393312647007, 9254442.639140538871288 ], [ 453312.143676714971662, 9254439.454303624108434 ], [ 453321.622960117296316, 9254436.269466707482934 ], [ 453331.102243519562762, 9254433.084629792720079 ], [ 453340.581526921887416, 9254429.899792877957225 ], [ 453350.060810324212071, 9254426.714955961331725 ], [ 453359.540093726536725, 9254423.530119046568871 ], [ 453369.019377128861379, 9254420.345282129943371 ], [ 453377.919923800509423, 9254415.958872102200985 ], [ 453386.319509109656792, 9254410.53236616961658 ], [ 453394.719094418745954, 9254405.105860237032175 ], [ 453403.118679727835115, 9254399.679354306310415 ], [ 453411.518265036924277, 9254394.25284837372601 ], [ 453419.917850346071646, 9254388.826342441141605 ], [ 453428.317435655160807, 9254383.3998365085572 ], [ 453436.717020964249969, 9254377.973330575972795 ], [ 453445.116606273397338, 9254372.546824643388391 ], [ 453453.516191582486499, 9254367.120318710803986 ], [ 453461.915776891575661, 9254361.693812778219581 ], [ 453470.315362200664822, 9254356.267306845635176 ], [ 453478.714947509812191, 9254350.840800913050771 ], [ 453487.114532818901353, 9254345.414294980466366 ], [ 453495.514118127990514, 9254339.987789047881961 ], [ 453503.913703437079675, 9254334.561283115297556 ], [ 453512.313288746227045, 9254329.134777182713151 ], [ 453520.712874055316206, 9254323.708271250128746 ], [ 453529.112459364405368, 9254318.281765317544341 ], [ 453537.512044673552737, 9254312.855259386822581 ], [ 453545.911629982641898, 9254307.428753454238176 ], [ 453554.31121529173106, 9254302.002247521653771 ], [ 453562.710800600820221, 9254296.575741589069366 ], [ 453571.11038590996759, 9254291.149235656484962 ], [ 453579.509971219056752, 9254285.722729723900557 ], [ 453587.909556528145913, 9254280.296223791316152 ], [ 453596.309141837235074, 9254274.869717858731747 ], [ 453604.708727146382444, 9254269.443211926147342 ], [ 453613.108312455471605, 9254264.016705993562937 ], [ 453621.507897764560767, 9254258.590200060978532 ], [ 453629.907483073708136, 9254253.163694128394127 ], [ 453638.307068382797297, 9254247.737188195809722 ], [ 453646.706653691886459, 9254242.310682263225317 ], [ 453654.608711604552809, 9254236.293110866099596 ], [ 453661.388575181539636, 9254228.942366013303399 ], [ 453668.168438758468255, 9254221.591621162369847 ], [ 453674.948302335396875, 9254214.24087630957365 ], [ 453681.728165912325494, 9254206.890131458640099 ], [ 453688.508029489312321, 9254199.539386605843902 ], [ 453695.28789306624094, 9254192.18864175491035 ], [ 453702.06775664316956, 9254184.837896902114153 ], [ 453708.847620220156386, 9254177.487152051180601 ], [ 453715.627483797085006, 9254170.136407198384404 ], [ 453722.407347374013625, 9254162.785662347450852 ], [ 453729.187210950942244, 9254155.434917494654655 ], [ 453735.967074527929071, 9254148.084172643721104 ], [ 453742.746938104857691, 9254140.733427790924907 ], [ 453749.52680168178631, 9254133.38268293812871 ], [ 453756.306665258773137, 9254126.031938087195158 ], [ 453763.086528835701756, 9254118.681193234398961 ], [ 453769.866392412630375, 9254111.330448383465409 ], [ 453776.646255989558995, 9254103.979703530669212 ], [ 453783.426119566545822, 9254096.628958679735661 ], [ 453790.205983143474441, 9254089.278213826939464 ], [ 453796.98584672040306, 9254081.927468976005912 ], [ 453803.765710297389887, 9254074.576724123209715 ], [ 453810.545573874318507, 9254067.225979272276163 ], [ 453817.325437451247126, 9254059.875234419479966 ], [ 453824.105301028175745, 9254052.524489568546414 ], [ 453830.885164605162572, 9254045.173744715750217 ], [ 453837.665028182091191, 9254037.822999864816666 ], [ 453844.444891759019811, 9254030.472255012020469 ], [ 453851.22475533594843, 9254023.121510161086917 ], [ 453858.004618912935257, 9254015.77076530829072 ], [ 453864.784482489863876, 9254008.420020457357168 ], [ 453871.564346066792496, 9254001.069275604560971 ], [ 453878.344209643779323, 9253993.718530751764774 ], [ 453885.124073220707942, 9253986.367785900831223 ], [ 453891.903936797636561, 9253979.017041048035026 ], [ 453898.68380037456518, 9253971.666296197101474 ], [ 453905.463663951552007, 9253964.315551344305277 ], [ 453912.243527528480627, 9253956.964806493371725 ] ] ] } }
]
}
