{
"type": "FeatureCollection",
"crs": { "type": "name", "properties": { "name": "urn:ogc:def:crs:EPSG::32748" } },
"features": [
{ "type": "Feature", "properties": { "id": 1 }, "geometry": { "type": "MultiLineString", "coordinates": [ [ [ 718555.867574544856325, 9331195.27324646525085 ], [ 718561.755961619550362, 9331187.190740810707211 ], [ 718567.644348694360815, 9331179.108235156163573 ], [ 718573.532735769054852, 9331171.025729501619935 ], [ 718579.421122843865305, 9331162.943223847076297 ], [ 718585.309509918559343, 9331154.860718192532659 ], [ 718591.197896993369795, 9331146.77821253798902 ], [ 718597.086284068063833, 9331138.695706881582737 ], [ 718602.974671142874286, 9331130.613201227039099 ], [ 718608.863058217568323, 9331122.530695572495461 ], [ 718614.751445292378776, 9331114.448189917951822 ], [ 718620.639832367072813, 9331106.365684263408184 ], [ 718626.528219441883266, 9331098.283178608864546 ], [ 718632.416606516577303, 9331090.200672954320908 ], [ 718638.304993591387756, 9331082.118167299777269 ], [ 718644.193380666081794, 9331074.035661645233631 ], [ 718650.081767740892246, 9331065.953155990689993 ], [ 718655.970154815586284, 9331057.870650336146355 ], [ 718661.858541890396737, 9331049.788144681602716 ], [ 718667.746928965090774, 9331041.705639027059078 ], [ 718673.635316039901227, 9331033.62313337251544 ], [ 718679.523703114595264, 9331025.540627716109157 ], [ 718685.412090189405717, 9331017.458122061565518 ], [ 718690.49997167289257, 9331008.973609354346991 ], [ 718693.46641744999215, 9330999.423729803413153 ], [ 718696.432863226975314, 9330989.873850252479315 ], [ 718699.399309004074894, 9330980.323970699682832 ], [ 718702.365754781058058, 9330970.774091148748994 ], [ 718705.332200558157638, 9330961.224211595952511 ], [ 718708.298646335140802, 9330951.674332045018673 ], [ 718711.265092112240382, 9330942.124452494084835 ], [ 718714.231537889223546, 9330932.574572941288352 ], [ 718717.197983666323125, 9330923.024693390354514 ], [ 718720.16442944330629, 9330913.474813837558031 ], [ 718723.130875220405869, 9330903.924934286624193 ], [ 718726.097320997389033, 9330894.37505473382771 ], [ 718729.063766774488613, 9330884.825175182893872 ], [ 718732.030212551471777, 9330875.275295631960034 ], [ 718734.996658328571357, 9330865.725416079163551 ], [ 718737.963104105554521, 9330856.175536528229713 ], [ 718740.929549882654101, 9330846.62565697543323 ], [ 718743.895995659637265, 9330837.075777424499393 ], [ 718746.862441436736844, 9330827.525897873565555 ], [ 718749.828887213720009, 9330817.976018320769072 ], [ 718752.795332990819588, 9330808.426138769835234 ], [ 718755.761778767802753, 9330798.876259217038751 ], [ 718758.381526064593345, 9330789.226535154506564 ], [ 718760.948671213467605, 9330779.561662377789617 ], [ 718763.515816362341866, 9330769.896789601072669 ], [ 718766.082961511216126, 9330760.231916824355721 ], [ 718768.650106660090387, 9330750.567044049501419 ], [ 718771.217251808964647, 9330740.902171272784472 ], [ 718773.784396957838908, 9330731.237298496067524 ], [ 718776.351542106829584, 9330721.572425719350576 ], [ 718778.918687255703844, 9330711.907552942633629 ], [ 718781.485832404578105, 9330702.242680165916681 ], [ 718784.052977553452365, 9330692.577807389199734 ], [ 718786.620122702326626, 9330682.912934614345431 ], [ 718789.187267851200886, 9330673.248061837628484 ], [ 718791.754412999958731, 9330663.583189060911536 ], [ 718794.321558148949407, 9330653.918316284194589 ], [ 718796.888703297823668, 9330644.253443507477641 ], [ 718800.752879551262595, 9330635.180688582360744 ], [ 718806.373696892173029, 9330626.90987166762352 ], [ 718811.994514233083464, 9330618.63905475474894 ], [ 718817.615331573877484, 9330610.368237841874361 ], [ 718823.236148914787918, 9330602.097420927137136 ], [ 718828.856966255698353, 9330593.826604014262557 ], [ 718834.477783596608788, 9330585.555787099525332 ], [ 718840.098600937519222, 9330577.284970186650753 ], [ 718845.719418278313242, 9330569.014153271913528 ], [ 718851.340235619223677, 9330560.743336359038949 ], [ 718856.961052960134111, 9330552.472519444301724 ], [ 718862.581870301044546, 9330544.201702531427145 ], [ 718868.202687641954981, 9330535.93088561668992 ], [ 718873.823504982865416, 9330527.660068703815341 ], [ 718880.977059645694681, 9330521.773921126499772 ], [ 718890.835228720097803, 9330520.095677252858877 ], [ 718900.693397794500925, 9330518.417433377355337 ], [ 718910.551566868904047, 9330516.739189503714442 ], [ 718920.409735943190753, 9330515.060945630073547 ], [ 718930.267905017593876, 9330513.382701756432652 ], [ 718940.126074091996998, 9330511.704457882791758 ], [ 718949.98424316640012, 9330510.026214007288218 ], [ 718959.842412240803242, 9330508.347970133647323 ], [ 718969.700581315089948, 9330506.669726260006428 ], [ 718979.558750389493071, 9330504.991482386365533 ], [ 718989.416919463896193, 9330503.313238510861993 ], [ 718999.275088538299315, 9330501.634994637221098 ], [ 719009.133257612702437, 9330499.956750763580203 ], [ 719018.991426687105559, 9330498.278506889939308 ], [ 719028.849595761392266, 9330496.600263014435768 ], [ 719038.707764835795388, 9330494.922019140794873 ], [ 719048.56593391019851, 9330493.243775267153978 ], [ 719058.424102984601632, 9330491.565531393513083 ], [ 719068.282272059004754, 9330489.887287518009543 ], [ 719078.140441133291461, 9330488.209043644368649 ], [ 719087.998610207694583, 9330486.530799770727754 ], [ 719097.856779282097705, 9330484.852555897086859 ], [ 719107.714948356500827, 9330483.174312021583319 ], [ 719117.573117430903949, 9330481.496068147942424 ], [ 719127.431286505190656, 9330479.817824274301529 ], [ 719137.289455579593778, 9330478.139580400660634 ], [ 719147.1476246539969, 9330476.461336525157094 ], [ 719157.005793728400022, 9330474.783092651516199 ], [ 719166.863962802803144, 9330473.104848777875304 ], [ 719176.722131877206266, 9330471.426604904234409 ], [ 719186.580300951492973, 9330469.748361030593514 ], [ 719196.438470025896095, 9330468.070117155089974 ], [ 719206.296639100299217, 9330466.39187328144908 ], [ 719216.109317732043564, 9330467.971888836473227 ], [ 719225.91679160296917, 9330469.924696113914251 ], [ 719235.72426547401119, 9330471.877503393217921 ], [ 719245.531739344936796, 9330473.830310672521591 ], [ 719255.339213215978816, 9330475.783117951825261 ], [ 719265.146687087020837, 9330477.735925231128931 ], [ 719274.954160957946442, 9330479.688732510432601 ], [ 719284.761634828988463, 9330481.641539789736271 ], [ 719294.569108699914068, 9330483.594347069039941 ], [ 719304.376582570956089, 9330485.547154348343611 ], [ 719314.184056441998109, 9330487.499961627647281 ], [ 719323.991530312923715, 9330489.452768906950951 ], [ 719333.799004183965735, 9330491.405576186254621 ], [ 719343.60647805489134, 9330493.35838346555829 ], [ 719353.413951925933361, 9330495.31119074486196 ], [ 719363.221425796975382, 9330497.26399802416563 ], [ 719373.028899667900987, 9330499.2168053034693 ], [ 719382.836373538943008, 9330501.16961258277297 ], [ 719392.643847409868613, 9330503.12241986207664 ], [ 719402.451321280910634, 9330505.07522714138031 ], [ 719412.258795151952654, 9330507.02803442068398 ], [ 719422.066269022878259, 9330508.980841698125005 ], [ 719431.87374289392028, 9330510.933648977428675 ], [ 719441.681216764845885, 9330512.886456256732345 ], [ 719451.488690635887906, 9330514.839263536036015 ], [ 719461.296164506929927, 9330516.792070815339684 ], [ 719471.103638377855532, 9330518.744878094643354 ], [ 719480.911112248897552, 9330520.697685373947024 ], [ 719490.718586119823158, 9330522.650492653250694 ], [ 719500.526059990865178, 9330524.603299932554364 ], [ 719510.333533861907199, 9330526.556107211858034 ], [ 719520.141007732832804, 9330528.508914491161704 ], [ 719529.948481603874825, 9330530.461721770465374 ], [ 719539.75595547480043, 9330532.414529049769044 ], [ 719549.563429345842451, 9330534.367336329072714 ], [ 719559.370903216884471, 9330536.320143608376384 ], [ 719569.178377087810077, 9330538.272950887680054 ], [ 719578.985850958852097, 9330540.225758166983724 ], [ 719588.793324829777703, 9330542.178565446287394 ], [ 719598.600798700819723, 9330544.131372725591063 ], [ 719604.654607102274895, 9330552.017472594976425 ], [ 719610.620019743102603, 9330560.043296664953232 ], [ 719616.585432383930311, 9330568.069120736792684 ], [ 719622.550845024874434, 9330576.094944808632135 ], [ 719628.516257665702142, 9330584.120768880471587 ], [ 719634.48167030652985, 9330592.146592950448394 ], [ 719640.447082947357558, 9330600.172417022287846 ], [ 719646.412495588185266, 9330608.198241094127297 ], [ 719652.377908229012974, 9330616.224065165966749 ], [ 719658.343320869957097, 9330624.249889235943556 ], [ 719664.308733510784805, 9330632.275713307783008 ], [ 719670.274146151612513, 9330640.301537379622459 ], [ 719676.239558792440221, 9330648.327361451461911 ], [ 719682.204971433267929, 9330656.353185521438718 ], [ 719688.170384074095637, 9330664.37900959327817 ], [ 719694.135796714923345, 9330672.404833665117621 ], [ 719700.101209355867468, 9330680.430657736957073 ], [ 719706.066621996695176, 9330688.45648180693388 ], [ 719712.032034637522884, 9330696.482305878773332 ], [ 719717.997447278350592, 9330704.508129950612783 ], [ 719723.9628599191783, 9330712.533954022452235 ], [ 719729.928272560006008, 9330720.559778092429042 ], [ 719735.893685200950131, 9330728.585602164268494 ], [ 719741.859097841777839, 9330736.611426236107945 ], [ 719747.824510482605547, 9330744.637250306084752 ], [ 719753.789923123433255, 9330752.663074377924204 ], [ 719759.755335764260963, 9330760.688898449763656 ], [ 719765.720748405088671, 9330768.714722521603107 ], [ 719771.686161046032794, 9330776.740546591579914 ], [ 719777.651573686860502, 9330784.766370663419366 ], [ 719783.61698632768821, 9330792.792194735258818 ], [ 719789.582398968515918, 9330800.818018807098269 ], [ 719795.547811609343626, 9330808.843842877075076 ], [ 719801.513224250171334, 9330816.869666948914528 ], [ 719807.478636890999041, 9330824.89549102075398 ], [ 719813.444049531943165, 9330832.921315092593431 ], [ 719819.409462172770873, 9330840.947139162570238 ], [ 719825.374874813598581, 9330848.97296323440969 ], [ 719831.340287454426289, 9330856.998787306249142 ], [ 719837.305700095253997, 9330865.024611378088593 ], [ 719843.271112736081704, 9330873.0504354480654 ], [ 719849.236525377025828, 9330881.076259519904852 ], [ 719855.201938017853536, 9330889.102083591744304 ], [ 719863.973574793082662, 9330890.005068918690085 ], [ 719873.81020306807477, 9330888.204862212762237 ], [ 719883.646831343066879, 9330886.404655508697033 ] ] ] } }
]
}
