{
"type": "FeatureCollection",
"crs": { "type": "name", "properties": { "name": "urn:ogc:def:crs:EPSG::32736" } },
"features": [
{ "type": "Feature", "properties": { "id": 1 }, "geometry": { "type": "MultiLineString", "coordinates": [ [ [ 672340.191628416301683, 8464987.695233585312963 ], [ 672331.891434766701423, 8464993.272579314187169 ], [ 672323.591241116984747, 8464998.849925043061376 ], [ 672315.291047467384487, 8465004.427270771935582 ], [ 672306.990853817667812, 8465010.004616500809789 ], [ 672298.690660168067552, 8465015.581962229683995 ], [ 672290.390466518467292, 8465021.159307958558202 ], [ 672282.090272868750617, 8465026.736653687432408 ], [ 672273.790079219150357, 8465032.313999416306615 ], [ 672265.489885569433682, 8465037.891345145180821 ], [ 672257.189691919833422, 8465043.468690874055028 ], [ 672248.889498270233162, 8465049.046036601066589 ], [ 672240.589304620516486, 8465054.623382329940796 ], [ 672232.289110970916227, 8465060.200728058815002 ], [ 672223.988917321199551, 8465065.778073787689209 ], [ 672215.688723671599291, 8465071.355419516563416 ], [ 672207.388530021999031, 8465076.932765245437622 ], [ 672199.088336372282356, 8465082.510110974311829 ], [ 672190.788142722682096, 8465088.087456703186035 ], [ 672182.487949073081836, 8465093.664802432060242 ], [ 672174.187755423365161, 8465099.242148160934448 ], [ 672165.887561773764901, 8465104.819493889808655 ], [ 672157.587368124048226, 8465110.396839618682861 ], [ 672149.287174474447966, 8465115.974185347557068 ], [ 672140.986980824847706, 8465121.551531076431274 ], [ 672132.68678717513103, 8465127.128876805305481 ], [ 672124.38659352553077, 8465132.706222534179688 ], [ 672116.086399875814095, 8465138.283568263053894 ], [ 672107.786206226213835, 8465143.860913991928101 ], [ 672099.486012576613575, 8465149.438259720802307 ], [ 672091.1858189268969, 8465155.015605449676514 ], [ 672082.88562527729664, 8465160.592951176688075 ], [ 672074.585431627579965, 8465166.170296905562282 ], [ 672066.285237977979705, 8465171.747642634436488 ], [ 672057.985044328379445, 8465177.324988363310695 ], [ 672049.684850678662769, 8465182.902334092184901 ], [ 672041.38465702906251, 8465188.479679821059108 ], [ 672034.524741402361542, 8465195.467353021726012 ], [ 672029.123023513937369, 8465203.882900767028332 ], [ 672023.721305625396781, 8465212.298448512330651 ], [ 672018.319587736856192, 8465220.713996257632971 ], [ 672012.917869848315604, 8465229.12954400293529 ], [ 672007.516151959775016, 8465237.54509174823761 ], [ 672002.114434071234427, 8465245.960639491677284 ], [ 671996.712716182693839, 8465254.376187236979604 ], [ 671991.310998294153251, 8465262.791734982281923 ], [ 671985.909280405612662, 8465271.207282727584243 ], [ 671980.507562517188489, 8465279.622830472886562 ], [ 671975.105844628647901, 8465288.038378218188882 ], [ 671969.704126740107313, 8465296.453925963491201 ], [ 671964.302408851566724, 8465304.869473708793521 ], [ 671958.900690963026136, 8465313.28502145409584 ], [ 671953.498973074485548, 8465321.70056919939816 ], [ 671948.09725518594496, 8465330.11611694470048 ], [ 671942.695537297404371, 8465338.531664690002799 ], [ 671937.293819408863783, 8465346.947212435305119 ], [ 671931.892101520323195, 8465355.362760180607438 ], [ 671926.490383631899022, 8465363.778307925909758 ], [ 671921.088665743358433, 8465372.193855671212077 ], [ 671915.686947854817845, 8465380.609403416514397 ], [ 671910.285229966277257, 8465389.024951161816716 ], [ 671904.883512077736668, 8465397.440498907119036 ], [ 671899.48179418919608, 8465405.856046652421355 ], [ 671894.080076300655492, 8465414.271594397723675 ], [ 671888.678358412114903, 8465422.687142143025994 ], [ 671883.276640523574315, 8465431.102689888328314 ], [ 671877.874922635033727, 8465439.518237633630633 ], [ 671872.473204746609554, 8465447.933785378932953 ], [ 671867.071486858068965, 8465456.349333124235272 ], [ 671861.669768969528377, 8465464.764880869537592 ], [ 671856.268051080987789, 8465473.180428614839911 ], [ 671850.8663331924472, 8465481.595976360142231 ], [ 671845.464615303906612, 8465490.011524105444551 ], [ 671840.062897415366024, 8465498.42707185074687 ], [ 671834.315040253452025, 8465506.586129246279597 ], [ 671827.836260247160681, 8465514.203570393845439 ], [ 671821.357480240985751, 8465521.821011541411281 ], [ 671814.878700234694406, 8465529.438452688977122 ], [ 671808.399920228519477, 8465537.055893836542964 ], [ 671801.921140222228132, 8465544.673334982246161 ], [ 671795.442360216053203, 8465552.290776129812002 ], [ 671788.963580209761858, 8465559.908217277377844 ], [ 671782.484800203586929, 8465567.525658424943686 ], [ 671776.006020197295584, 8465575.143099572509527 ], [ 671769.527240191120654, 8465582.760540718212724 ], [ 671763.04846018482931, 8465590.377981865778565 ], [ 671756.56968017865438, 8465597.995423013344407 ], [ 671750.090900172363035, 8465605.612864160910249 ], [ 671743.612120166188106, 8465613.23030530847609 ], [ 671737.133340159896761, 8465620.847746454179287 ], [ 671730.654560153721832, 8465628.465187601745129 ], [ 671724.175780147430487, 8465636.08262874931097 ], [ 671717.697000141255558, 8465643.700069896876812 ], [ 671711.218220134964213, 8465651.317511044442654 ], [ 671704.739440128789283, 8465658.93495219014585 ], [ 671698.260660122497939, 8465666.552393337711692 ], [ 671691.781880116323009, 8465674.169834485277534 ], [ 671685.30310011014808, 8465681.787275632843375 ], [ 671678.824320103856735, 8465689.404716780409217 ], [ 671672.345540097681805, 8465697.022157926112413 ], [ 671665.866760091390461, 8465704.639599073678255 ], [ 671659.387980085215531, 8465712.257040221244097 ], [ 671651.417189859552309, 8465718.252414291724563 ], [ 671643.28605634579435, 8465724.073468130081892 ], [ 671635.154922832036391, 8465729.894521966576576 ], [ 671627.023789318278432, 8465735.715575804933906 ], [ 671618.892655804520473, 8465741.53662964142859 ], [ 671610.761522290762514, 8465747.357683479785919 ], [ 671602.63038877688814, 8465753.178737318143249 ], [ 671594.499255263130181, 8465758.999791154637933 ], [ 671586.368121749372222, 8465764.820844992995262 ], [ 671578.236988235614263, 8465770.641898831352592 ], [ 671570.105854721856304, 8465776.462952667847276 ], [ 671561.974721208098345, 8465782.284006506204605 ], [ 671553.843587694340385, 8465788.105060344561934 ], [ 671545.712454180582426, 8465793.926114181056619 ], [ 671537.581320666708052, 8465799.747168019413948 ], [ 671529.450187152950093, 8465805.568221857771277 ], [ 671521.319053639192134, 8465811.389275694265962 ], [ 671513.187920125434175, 8465817.210329532623291 ], [ 671505.056786611676216, 8465823.031383369117975 ], [ 671496.925653097918257, 8465828.852437207475305 ], [ 671488.794519584160298, 8465834.673491045832634 ], [ 671479.47172342822887, 8465834.82239636965096 ], [ 671469.685530339251272, 8465832.765596713870764 ], [ 671459.899337250273675, 8465830.708797058090568 ], [ 671450.113144161296077, 8465828.651997402310371 ], [ 671440.326951072202064, 8465826.595197746530175 ], [ 671430.540757983224466, 8465824.538398090749979 ], [ 671420.754564894246869, 8465822.481598434969783 ], [ 671410.968371805269271, 8465820.424798779189587 ], [ 671401.182178716175258, 8465818.36799912340939 ], [ 671391.395985627197661, 8465816.311199467629194 ], [ 671381.609792538220063, 8465814.254399809986353 ], [ 671371.823599449242465, 8465812.197600154206157 ], [ 671362.037406360148452, 8465810.140800498425961 ], [ 671352.251213271170855, 8465808.084000842645764 ], [ 671342.465020182193257, 8465806.027201186865568 ], [ 671332.678827093215659, 8465803.970401531085372 ], [ 671322.892634004121646, 8465801.913601875305176 ], [ 671313.106440915144049, 8465799.85680221952498 ], [ 671303.320247826166451, 8465797.800002563744783 ], [ 671293.534054737188853, 8465795.743202907964587 ], [ 671285.190975708770566, 8465790.938809616491199 ], [ 671277.943259814870544, 8465784.048917431384325 ], [ 671270.695543920970522, 8465777.159025246277452 ], [ 671263.4478280270705, 8465770.269133061170578 ], [ 671256.200112133170478, 8465763.379240876063704 ], [ 671248.952396239386871, 8465756.489348690956831 ], [ 671241.70468034548685, 8465749.599456505849957 ], [ 671234.456964451586828, 8465742.709564320743084 ], [ 671227.209248557686806, 8465735.81967213563621 ], [ 671219.961532663786784, 8465728.929779950529337 ], [ 671212.713816769886762, 8465722.039887765422463 ], [ 671205.46610087598674, 8465715.14999558031559 ], [ 671198.218384982203133, 8465708.260103395208716 ], [ 671190.970669088303111, 8465701.370211210101843 ], [ 671186.651383547927253, 8465693.013844123110175 ], [ 671185.475841415813193, 8465683.083179457113147 ], [ 671184.300299283815548, 8465673.152514791116118 ], [ 671183.124757151817903, 8465663.221850126981735 ], [ 671181.949215019703843, 8465653.291185460984707 ], [ 671180.773672887706198, 8465643.360520794987679 ], [ 671179.598130755708553, 8465633.429856130853295 ], [ 671178.422588623710908, 8465623.499191464856267 ], [ 671177.247046491596848, 8465613.568526798859239 ], [ 671176.071504359599203, 8465603.637862134724855 ], [ 671174.895962227601558, 8465593.707197468727827 ], [ 671173.720420095487498, 8465583.776532802730799 ], [ 671172.544877963489853, 8465573.845868138596416 ], [ 671171.369335831492208, 8465563.915203472599387 ], [ 671170.193793699378148, 8465553.984538806602359 ], [ 671169.018251567380503, 8465544.053874142467976 ], [ 671167.842709435382858, 8465534.123209476470947 ], [ 671166.667167303385213, 8465524.192544810473919 ], [ 671165.491625171271153, 8465514.261880146339536 ], [ 671164.316083039273508, 8465504.331215480342507 ], [ 671163.140540907275863, 8465494.400550814345479 ], [ 671161.964998775161803, 8465484.469886150211096 ], [ 671154.545820329338312, 8465477.875476989895105 ], [ 671146.943550009746104, 8465471.378902046009898 ], [ 671139.341279690153897, 8465464.882327103987336 ], [ 671131.739009370561689, 8465458.385752161964774 ], [ 671124.136739050853066, 8465451.889177218079567 ], [ 671116.534468731260858, 8465445.392602276057005 ], [ 671108.932198411668651, 8465438.896027332171798 ], [ 671101.329928091960028, 8465432.399452390149236 ], [ 671093.72765777236782, 8465425.902877448126674 ], [ 671086.125387452775612, 8465419.406302504241467 ], [ 671078.523117133183405, 8465412.909727562218904 ], [ 671070.920846813474782, 8465406.413152618333697 ], [ 671063.318576493882574, 8465399.916577676311135 ], [ 671055.716306174290366, 8465393.420002732425928 ], [ 671048.114035854698159, 8465386.923427790403366 ], [ 671040.511765534989536, 8465380.426852848380804 ], [ 671032.909495215397328, 8465373.930277904495597 ], [ 671025.30722489580512, 8465367.433702962473035 ], [ 671017.704954576096497, 8465360.937128018587828 ], [ 671010.10268425650429, 8465354.440553076565266 ], [ 671002.500413936912082, 8465347.943978134542704 ], [ 670994.898143617319874, 8465341.447403190657496 ], [ 670987.295873297611251, 8465334.950828248634934 ], [ 670979.693602978019044, 8465328.454253304749727 ], [ 670972.091332658426836, 8465321.957678362727165 ], [ 670964.489062338718213, 8465315.461103418841958 ], [ 670956.886792019126005, 8465308.964528476819396 ], [ 670949.284521699533798, 8465302.467953534796834 ], [ 670941.68225137994159, 8465295.971378590911627 ], [ 670934.079981060232967, 8465289.474803648889065 ], [ 670927.430581045802683, 8465282.389339487999678 ], [ 670925.019957254524343, 8465272.684243252500892 ], [ 670922.609333463129587, 8465262.979147017002106 ], [ 670920.198709671851248, 8465253.27405078150332 ], [ 670917.788085880456492, 8465243.568954546004534 ], [ 670915.377462089178152, 8465233.863858310505748 ], [ 670912.966838297899812, 8465224.158762076869607 ], [ 670910.556214506505057, 8465214.453665841370821 ], [ 670908.145590715226717, 8465204.748569605872035 ], [ 670905.734966923948377, 8465195.043473370373249 ], [ 670903.324343132553622, 8465185.338377134874463 ], [ 670900.913719341275282, 8465175.633280899375677 ], [ 670898.503095549996942, 8465165.928184663876891 ], [ 670896.092471758602187, 8465156.223088428378105 ], [ 670893.681847967323847, 8465146.517992192879319 ], [ 670891.271224176045507, 8465136.812895957380533 ], [ 670888.860600384650752, 8465127.107799723744392 ], [ 670886.449976593372412, 8465117.402703488245606 ], [ 670884.039352802094072, 8465107.69760725274682 ], [ 670881.628729010699317, 8465097.992511017248034 ], [ 670879.218105219420977, 8465088.287414781749249 ], [ 670876.807481428142637, 8465078.582318546250463 ], [ 670874.396857636747882, 8465068.877222310751677 ], [ 670871.986233845469542, 8465059.172126075252891 ], [ 670869.575610054191202, 8465049.467029839754105 ], [ 670867.164986262796447, 8465039.761933604255319 ], [ 670864.754362471518107, 8465030.056837370619178 ], [ 670862.343738680239767, 8465020.351741135120392 ], [ 670859.933114888845012, 8465010.646644899621606 ], [ 670857.522491097566672, 8465000.94154866412282 ], [ 670855.111867306288332, 8464991.236452428624034 ], [ 670852.701243514893577, 8464981.531356193125248 ], [ 670850.290619723615237, 8464971.826259957626462 ], [ 670847.879995932336897, 8464962.121163722127676 ], [ 670845.469372140942141, 8464952.41606748662889 ], [ 670843.058748349663801, 8464942.710971251130104 ], [ 670840.648124558385462, 8464933.005875017493963 ], [ 670838.237500766990706, 8464923.300778781995177 ], [ 670835.826876975712366, 8464913.595682546496391 ], [ 670833.416253184434026, 8464903.890586310997605 ], [ 670831.005629393039271, 8464894.185490075498819 ], [ 670828.595005601760931, 8464884.480393840000033 ], [ 670826.184381810482591, 8464874.775297604501247 ], [ 670823.773758019087836, 8464865.070201369002461 ], [ 670821.363134227809496, 8464855.365105133503675 ], [ 670818.952510436531156, 8464845.660008898004889 ], [ 670816.541886645136401, 8464835.954912664368749 ], [ 670814.131262853858061, 8464826.249816428869963 ], [ 670811.720639062579721, 8464816.544720193371177 ], [ 670809.310015271184966, 8464806.839623957872391 ], [ 670806.899391479906626, 8464797.134527722373605 ], [ 670804.488767688628286, 8464787.429431486874819 ], [ 670802.078143897233531, 8464777.724335251376033 ], [ 670799.667520105955191, 8464768.019239015877247 ], [ 670793.589285279274918, 8464760.412125265225768 ], [ 670786.44548331736587, 8464753.414547575637698 ], [ 670779.301681355340406, 8464746.416969884186983 ], [ 670772.157879393431358, 8464739.419392194598913 ], [ 670765.014077431405894, 8464732.421814505010843 ], [ 670757.870275469496846, 8464725.424236815422773 ], [ 670750.726473507587798, 8464718.426659123972058 ], [ 670743.582671545562334, 8464711.429081434383988 ], [ 670736.438869583653286, 8464704.431503744795918 ], [ 670729.295067621627823, 8464697.433926055207849 ], [ 670722.151265659718774, 8464690.436348363757133 ], [ 670715.007463697693311, 8464683.438770674169064 ], [ 670707.863661735784262, 8464676.441192984580994 ], [ 670700.719859773758799, 8464669.443615294992924 ], [ 670693.576057811849751, 8464662.446037603542209 ], [ 670686.432255849940702, 8464655.448459913954139 ], [ 670679.288453887915239, 8464648.450882224366069 ], [ 670672.14465192600619, 8464641.453304534777999 ], [ 670665.000849963980727, 8464634.455726843327284 ], [ 670657.857048002071679, 8464627.458149153739214 ], [ 670650.713246040046215, 8464620.460571464151144 ], [ 670643.569444078137167, 8464613.462993774563074 ], [ 670636.425642116228119, 8464606.465416083112359 ], [ 670629.281840154202655, 8464599.467838393524289 ], [ 670622.138038192293607, 8464592.470260703936219 ], [ 670614.994236230268143, 8464585.472683014348149 ], [ 670607.850434268359095, 8464578.475105322897434 ], [ 670600.706632306333631, 8464571.477527633309364 ], [ 670593.562830344424583, 8464564.479949943721294 ], [ 670586.419028382515535, 8464557.482372254133224 ], [ 670579.275226420490071, 8464550.484794562682509 ], [ 670572.131424458581023, 8464543.48721687309444 ], [ 670564.987622496555559, 8464536.48963918350637 ], [ 670557.843820534646511, 8464529.4920614939183 ], [ 670550.700018572621047, 8464522.494483802467585 ], [ 670543.556216610711999, 8464515.496906112879515 ], [ 670536.412414648802951, 8464508.499328423291445 ], [ 670529.268612686777487, 8464501.501750733703375 ], [ 670522.124810724868439, 8464494.50417304225266 ], [ 670514.981008762842976, 8464487.50659535266459 ], [ 670507.837206800933927, 8464480.50901766307652 ], [ 670500.693404838908464, 8464473.51143997348845 ], [ 670493.549602876999415, 8464466.513862282037735 ], [ 670486.405800915090367, 8464459.516284592449665 ], [ 670479.261998953064904, 8464452.518706902861595 ], [ 670472.118196991155855, 8464445.521129213273525 ], [ 670464.974395029130392, 8464438.52355152182281 ], [ 670457.830593067221344, 8464431.52597383223474 ], [ 670450.68679110519588, 8464424.52839614264667 ], [ 670443.542989143286832, 8464417.5308184530586 ], [ 670436.399187181377783, 8464410.533240761607885 ], [ 670429.25538521935232, 8464403.535663072019815 ], [ 670422.111583257443272, 8464396.538085382431746 ], [ 670414.967781295417808, 8464389.540507692843676 ], [ 670407.82397933350876, 8464382.542930001392961 ], [ 670400.00259180937428, 8464376.669362841174006 ], [ 670390.479057790245861, 8464373.619395662099123 ], [ 670380.955523771233857, 8464370.569428484886885 ], [ 670371.431989752221853, 8464367.519461305812001 ], [ 670361.908455733093433, 8464364.469494128599763 ], [ 670352.384921714081429, 8464361.419526949524879 ], [ 670342.861387695069425, 8464358.369559772312641 ], [ 670333.337853675941005, 8464355.319592593237758 ], [ 670323.814319656929001, 8464352.269625416025519 ], [ 670314.290785637916997, 8464349.219658236950636 ], [ 670304.767251618788578, 8464346.169691059738398 ] ] ] } }
]
}
