{
"type": "FeatureCollection",
"crs": { "type": "name", "properties": { "name": "urn:ogc:def:crs:EPSG::32749" } },
"features": [
{ "type": "Feature", "properties": { "id": 1 }, "geometry": { "type": "MultiLineString", "coordinates": [ [ [ 286317.703783918637782, 9252447.529408676549792 ], [ 286313.777149440022185, 9252438.332586308941245 ], [ 286309.850514961406589, 9252429.135763939470053 ], [ 286305.923880482790992, 9252419.938941571861506 ], [ 286301.997246004175395, 9252410.742119204252958 ], [ 286298.070611525559798, 9252401.545296836644411 ], [ 286294.143977046944201, 9252392.348474467173219 ], [ 286290.217342568328604, 9252383.151652099564672 ], [ 286286.290708089713007, 9252373.954829731956124 ], [ 286282.36407361109741, 9252364.758007362484932 ], [ 286278.437439132481813, 9252355.561184994876385 ], [ 286274.510804653866217, 9252346.364362627267838 ], [ 286270.58417017525062, 9252337.167540257796645 ], [ 286266.657535696635023, 9252327.970717890188098 ], [ 286262.730901218019426, 9252318.773895522579551 ], [ 286258.804266739403829, 9252309.577073154971004 ], [ 286254.877632260788232, 9252300.380250785499811 ], [ 286250.950997782172635, 9252291.183428417891264 ], [ 286247.024363303557038, 9252281.986606050282717 ], [ 286243.097728824941441, 9252272.789783680811524 ], [ 286239.171094346325845, 9252263.592961313202977 ], [ 286235.244459867710248, 9252254.39613894559443 ], [ 286231.317825389094651, 9252245.199316577985883 ], [ 286227.391190910479054, 9252236.00249420851469 ], [ 286223.464556431863457, 9252226.805671840906143 ], [ 286219.53792195324786, 9252217.608849473297596 ], [ 286215.611287474632263, 9252208.412027103826404 ], [ 286211.684652996016666, 9252199.215204736217856 ], [ 286207.758018517401069, 9252190.018382368609309 ], [ 286203.831384038785473, 9252180.821560001000762 ], [ 286199.904749560169876, 9252171.62473763152957 ], [ 286195.978115081554279, 9252162.427915263921022 ], [ 286192.051480602938682, 9252153.231092896312475 ], [ 286188.124846124323085, 9252144.034270526841283 ], [ 286184.198211645707488, 9252134.837448159232736 ], [ 286180.271577167091891, 9252125.640625791624188 ], [ 286176.344942688476294, 9252116.443803422152996 ], [ 286172.418308209860697, 9252107.246981054544449 ], [ 286168.4916737312451, 9252098.050158686935902 ], [ 286164.565039252629504, 9252088.853336319327354 ], [ 286160.638404774013907, 9252079.656513949856162 ], [ 286156.71177029539831, 9252070.459691582247615 ], [ 286152.785135816782713, 9252061.262869214639068 ], [ 286148.858501338167116, 9252052.066046845167875 ], [ 286144.931866859551519, 9252042.869224477559328 ], [ 286141.005232380935922, 9252033.672402109950781 ], [ 286137.078597902320325, 9252024.475579742342234 ], [ 286133.151963423704728, 9252015.278757372871041 ], [ 286129.225328945089132, 9252006.081935005262494 ], [ 286125.298694466473535, 9251996.885112637653947 ], [ 286121.372059987857938, 9251987.688290268182755 ], [ 286117.445425509242341, 9251978.491467900574207 ], [ 286113.518791030626744, 9251969.29464553296566 ], [ 286109.592156552011147, 9251960.097823165357113 ], [ 286105.66552207339555, 9251950.901000795885921 ], [ 286101.738887594779953, 9251941.704178428277373 ], [ 286097.815793134330306, 9251932.505909373983741 ], [ 286094.177424019319005, 9251923.191282695159316 ], [ 286090.539054904307704, 9251913.876656014472246 ], [ 286086.900685789296404, 9251904.562029335647821 ], [ 286083.262316674285103, 9251895.247402654960752 ], [ 286079.623947559215594, 9251885.932775976136327 ], [ 286075.985578444204293, 9251876.618149295449257 ], [ 286072.347209329192992, 9251867.303522616624832 ], [ 286068.708840214181691, 9251857.988895935937762 ], [ 286065.070471099170391, 9251848.674269257113338 ], [ 286061.432101984100882, 9251839.359642576426268 ], [ 286057.793732869089581, 9251830.045015897601843 ], [ 286054.15536375407828, 9251820.730389216914773 ], [ 286050.516994639066979, 9251811.415762538090348 ], [ 286046.878625524055678, 9251802.101135857403278 ], [ 286043.24025640898617, 9251792.786509178578854 ], [ 286039.601887293974869, 9251783.471882497891784 ], [ 286035.963518178963568, 9251774.157255819067359 ], [ 286032.325149063952267, 9251764.842629138380289 ], [ 286028.686779948940966, 9251755.528002459555864 ], [ 286025.048410833871458, 9251746.213375778868794 ], [ 286021.410041718860157, 9251736.89874910004437 ], [ 286017.771672603848856, 9251727.5841224193573 ], [ 286014.133303488837555, 9251718.269495740532875 ], [ 286010.494934373826254, 9251708.954869059845805 ], [ 286006.856565258756746, 9251699.64024238102138 ], [ 286003.218196143745445, 9251690.325615700334311 ], [ 285999.579827028734144, 9251681.010989021509886 ], [ 285995.941457913722843, 9251671.696362340822816 ], [ 285992.303088798711542, 9251662.381735661998391 ], [ 285988.664719683642033, 9251653.067108981311321 ], [ 285985.026350568630733, 9251643.752482302486897 ], [ 285981.387981453619432, 9251634.437855621799827 ], [ 285977.749612338608131, 9251625.123228942975402 ], [ 285974.11124322359683, 9251615.808602262288332 ], [ 285970.472874108527321, 9251606.493975583463907 ], [ 285966.83450499351602, 9251597.179348904639482 ], [ 285963.19613587850472, 9251587.864722223952413 ], [ 285959.557766763493419, 9251578.550095545127988 ], [ 285955.919397648482118, 9251569.235468864440918 ], [ 285952.281028533412609, 9251559.920842185616493 ], [ 285948.778060305921827, 9251550.555567976087332 ], [ 285945.410195024393033, 9251541.139757683500648 ], [ 285942.04232974286424, 9251531.723947392776608 ], [ 285938.674464461335447, 9251522.308137102052569 ], [ 285935.306599179806653, 9251512.892326809465885 ], [ 285931.93873389827786, 9251503.476516518741846 ], [ 285928.570868616749067, 9251494.060706226155162 ], [ 285925.203003335220274, 9251484.644895935431123 ], [ 285921.83513805369148, 9251475.229085642844439 ], [ 285918.467272772162687, 9251465.813275352120399 ], [ 285915.099407490633894, 9251456.39746506139636 ], [ 285911.7315422091051, 9251446.981654768809676 ], [ 285908.363676927576307, 9251437.565844478085637 ], [ 285904.995811646047514, 9251428.150034185498953 ], [ 285901.627946364518721, 9251418.734223894774914 ], [ 285898.260081082989927, 9251409.318413604050875 ], [ 285894.892215801461134, 9251399.90260331146419 ], [ 285891.524350519932341, 9251390.486793020740151 ], [ 285888.156485238403548, 9251381.070982728153467 ], [ 285884.788619956874754, 9251371.655172437429428 ], [ 285881.420754675345961, 9251362.239362146705389 ], [ 285878.052889393817168, 9251352.823551854118705 ], [ 285874.685024112288374, 9251343.407741563394666 ], [ 285871.317158830759581, 9251333.991931270807981 ], [ 285867.949293549230788, 9251324.576120980083942 ], [ 285864.581428267701995, 9251315.160310687497258 ], [ 285861.213562986173201, 9251305.744500396773219 ], [ 285857.845697704644408, 9251296.32869010604918 ], [ 285854.477832423115615, 9251286.912879813462496 ], [ 285851.109967141586822, 9251277.497069522738457 ], [ 285847.742101860058028, 9251268.081259230151772 ], [ 285844.374236578529235, 9251258.665448939427733 ], [ 285841.160577763512265, 9251249.198482239618897 ], [ 285838.232813204987906, 9251239.63667306676507 ], [ 285835.305048646463547, 9251230.074863892048597 ], [ 285832.377284087939188, 9251220.513054717332125 ], [ 285829.449519529414829, 9251210.951245542615652 ], [ 285826.52175497089047, 9251201.389436367899179 ], [ 285823.593990412366111, 9251191.827627193182707 ], [ 285820.666225853841752, 9251182.265818018466234 ], [ 285817.738461295317393, 9251172.704008843749762 ], [ 285814.810696736793034, 9251163.142199669033289 ], [ 285811.882932178268675, 9251153.580390496179461 ], [ 285808.955167619744316, 9251144.018581321462989 ], [ 285806.027403061219957, 9251134.456772146746516 ], [ 285803.099638502695598, 9251124.894962972030044 ], [ 285800.171873944171239, 9251115.333153797313571 ], [ 285797.24410938564688, 9251105.771344622597098 ], [ 285794.316344827122521, 9251096.209535447880626 ], [ 285791.388580268598162, 9251086.647726273164153 ], [ 285788.460815710073803, 9251077.08591709844768 ], [ 285785.533051151549444, 9251067.524107925593853 ], [ 285782.605286593025085, 9251057.96229875087738 ], [ 285779.677522034500726, 9251048.400489576160908 ], [ 285776.749757475976367, 9251038.838680401444435 ], [ 285773.821992917452008, 9251029.276871226727962 ], [ 285770.894228358927649, 9251019.71506205201149 ], [ 285767.966463800403289, 9251010.153252877295017 ], [ 285765.03869924187893, 9251000.591443702578545 ], [ 285762.110934683354571, 9250991.029634527862072 ], [ 285759.183170124830212, 9250981.467825353145599 ], [ 285756.255405566305853, 9250971.906016180291772 ], [ 285753.327641007781494, 9250962.344207005575299 ], [ 285750.399876449257135, 9250952.782397830858827 ], [ 285746.424814509751741, 9250943.618433427065611 ], [ 285742.265645810693968, 9250934.524407051503658 ], [ 285738.106477111636195, 9250925.430380675941706 ], [ 285733.947308412578423, 9250916.336354298517108 ], [ 285729.78813971352065, 9250907.242327922955155 ], [ 285725.628971014462877, 9250898.148301545530558 ], [ 285721.469802315346897, 9250889.054275169968605 ], [ 285717.310633616289124, 9250879.960248794406652 ], [ 285713.151464917231351, 9250870.866222416982055 ], [ 285708.992296218173578, 9250861.772196041420102 ], [ 285704.833127519115806, 9250852.67816966585815 ], [ 285700.673958820058033, 9250843.584143288433552 ], [ 285696.51479012100026, 9250834.490116912871599 ], [ 285692.355621421942487, 9250825.396090535447001 ], [ 285688.196452722826507, 9250816.302064159885049 ], [ 285684.037284023768734, 9250807.208037784323096 ], [ 285679.878115324710961, 9250798.114011406898499 ], [ 285675.718946625653189, 9250789.019985031336546 ], [ 285671.559777926595416, 9250779.925958653911948 ], [ 285667.400609227537643, 9250770.831932278349996 ], [ 285663.24144052847987, 9250761.737905902788043 ], [ 285659.08227182936389, 9250752.643879525363445 ], [ 285654.923103130306117, 9250743.549853149801493 ], [ 285650.763934431248344, 9250734.455826772376895 ], [ 285646.604765732190572, 9250725.361800396814942 ], [ 285642.445597033132799, 9250716.26777402125299 ], [ 285638.286428334075026, 9250707.173747643828392 ], [ 285634.127259635017253, 9250698.079721268266439 ], [ 285629.968090935959481, 9250688.985694890841842 ], [ 285625.8089222368435, 9250679.891668515279889 ], [ 285620.837941349542234, 9250671.218480780720711 ], [ 285615.803693202789873, 9250662.578090419992805 ], [ 285610.769445055979304, 9250653.937700057402253 ], [ 285605.735196909226943, 9250645.297309696674347 ], [ 285600.700948762416374, 9250636.656919335946441 ], [ 285595.666700615664013, 9250628.016528973355889 ], [ 285590.632452468853444, 9250619.376138612627983 ], [ 285585.598204322042875, 9250610.735748251900077 ], [ 285580.563956175290514, 9250602.095357889309525 ], [ 285575.529708028479945, 9250593.454967528581619 ], [ 285570.495459881727584, 9250584.814577167853713 ], [ 285565.461211734917015, 9250576.174186805263162 ], [ 285560.426963588164654, 9250567.533796444535255 ], [ 285555.392715441354085, 9250558.893406083807349 ], [ 285550.358467294543516, 9250550.253015721216798 ], [ 285545.324219147791155, 9250541.612625360488892 ], [ 285540.289971000980586, 9250532.972234999760985 ], [ 285535.255722854228225, 9250524.331844637170434 ], [ 285530.221474707417656, 9250515.691454276442528 ], [ 285525.187226560607087, 9250507.051063915714622 ], [ 285520.152978413854726, 9250498.41067355312407 ], [ 285515.118730267044157, 9250489.770283192396164 ], [ 285510.084482120291796, 9250481.129892831668258 ], [ 285505.050233973481227, 9250472.489502469077706 ], [ 285500.015985826728866, 9250463.8491121083498 ], [ 285494.981737679918297, 9250455.208721747621894 ], [ 285489.947489533107728, 9250446.568331385031343 ], [ 285484.913241386355367, 9250437.927941024303436 ], [ 285479.895912589214277, 9250429.277863882482052 ], [ 285474.993301963899285, 9250420.562107514590025 ], [ 285470.090691338584293, 9250411.846351146697998 ], [ 285465.188080713327508, 9250403.130594778805971 ], [ 285460.285470088012516, 9250394.414838412776589 ], [ 285455.382859462755732, 9250385.699082044884562 ], [ 285450.48024883744074, 9250376.983325676992536 ], [ 285445.577638212125748, 9250368.267569309100509 ], [ 285440.675027586868964, 9250359.551812943071127 ], [ 285435.772416961553972, 9250350.8360565751791 ], [ 285430.86980633623898, 9250342.120300207287073 ], [ 285425.967195710982196, 9250333.404543839395046 ], [ 285421.064585085667204, 9250324.688787473365664 ], [ 285416.16197446041042, 9250315.973031105473638 ], [ 285411.259363835095428, 9250307.257274737581611 ], [ 285406.356753209780436, 9250298.541518369689584 ], [ 285401.454142584523652, 9250289.825762001797557 ], [ 285396.55153195920866, 9250281.110005635768175 ], [ 285391.648921333951876, 9250272.394249267876148 ], [ 285386.746310708636884, 9250263.678492899984121 ], [ 285381.843700083321892, 9250254.962736532092094 ], [ 285377.217122084053699, 9250246.129302121698856 ], [ 285374.323256276897155, 9250236.55717902071774 ], [ 285371.429390469740611, 9250226.985055917873979 ], [ 285368.535524662584066, 9250217.412932815030217 ], [ 285365.641658855427522, 9250207.840809712186456 ], [ 285362.747793048270978, 9250198.268686609342694 ], [ 285359.853927241172642, 9250188.696563506498933 ], [ 285356.960061434016097, 9250179.124440405517817 ], [ 285354.066195626859553, 9250169.552317302674055 ], [ 285351.172329819703009, 9250159.980194199830294 ], [ 285348.278464012546465, 9250150.408071096986532 ], [ 285345.384598205389921, 9250140.835947994142771 ], [ 285342.490732398233376, 9250131.263824891299009 ], [ 285339.596866591076832, 9250121.691701790317893 ], [ 285336.703000783920288, 9250112.119578687474132 ], [ 285333.809134976821952, 9250102.54745558463037 ], [ 285330.915269169665407, 9250092.975332481786609 ], [ 285328.021403362508863, 9250083.403209378942847 ], [ 285325.127537555352319, 9250073.831086276099086 ], [ 285322.233671748195775, 9250064.25896317511797 ], [ 285319.339805941039231, 9250054.686840072274208 ], [ 285316.445940133882686, 9250045.114716969430447 ], [ 285313.552074326726142, 9250035.542593866586685 ], [ 285310.658208519569598, 9250025.970470763742924 ], [ 285307.764342712413054, 9250016.398347660899162 ], [ 285304.870476905314717, 9250006.826224559918046 ], [ 285301.976611098158173, 9249997.254101457074285 ], [ 285299.357808975677472, 9249987.615287743508816 ], [ 285297.546420587459579, 9249977.780712405219674 ], [ 285295.735032199241687, 9249967.946137065067887 ], [ 285293.923643810965586, 9249958.111561724916101 ], [ 285292.112255422747694, 9249948.276986386626959 ], [ 285290.300867034529801, 9249938.442411046475172 ], [ 285288.489478646253701, 9249928.60783570818603 ], [ 285286.678090258035809, 9249918.773260368034244 ], [ 285284.866701869817916, 9249908.938685027882457 ], [ 285283.055313481541816, 9249899.104109689593315 ], [ 285281.243925093323924, 9249889.269534349441528 ], [ 285279.432536705106031, 9249879.434959011152387 ], [ 285277.621148316829931, 9249869.6003836710006 ], [ 285275.809759928612038, 9249859.765808330848813 ], [ 285273.998371540394146, 9249849.931232992559671 ], [ 285272.186983152118046, 9249840.096657652407885 ], [ 285270.375594763900153, 9249830.262082312256098 ], [ 285268.564206375682261, 9249820.427506973966956 ], [ 285266.752817987406161, 9249810.592931633815169 ], [ 285264.941429599188268, 9249800.758356295526028 ], [ 285263.130041210970376, 9249790.923780955374241 ], [ 285261.988911040418316, 9249780.996894046664238 ], [ 285261.074346906214487, 9249771.038803244009614 ], [ 285260.159782772068866, 9249761.080712439492345 ], [ 285259.245218637865037, 9249751.122621636837721 ], [ 285258.330654503661208, 9249741.164530834183097 ], [ 285257.416090369457379, 9249731.206440029665828 ], [ 285256.501526235311758, 9249721.248349227011204 ], [ 285255.586962101107929, 9249711.29025842435658 ], [ 285254.6723979669041, 9249701.332167621701956 ], [ 285253.757833832700271, 9249691.374076817184687 ], [ 285252.84326969855465, 9249681.415986014530063 ], [ 285251.928705564350821, 9249671.457895211875439 ], [ 285251.014141430146992, 9249661.49980440735817 ], [ 285250.099577295943163, 9249651.541713604703546 ], [ 285249.185013161797542, 9249641.583622802048922 ], [ 285248.270449027593713, 9249631.625531999394298 ], [ 285247.355884893389884, 9249621.667441194877028 ], [ 285246.441320759186056, 9249611.709350392222404 ], [ 285245.526756625040434, 9249601.75125958956778 ], [ 285244.612192490836605, 9249591.793168785050511 ], [ 285243.697628356632777, 9249581.835077982395887 ], [ 285242.783064222428948, 9249571.876987179741263 ], [ 285241.868500088283326, 9249561.918896377086639 ], [ 285240.953935954079498, 9249551.96080557256937 ], [ 285240.039371819875669, 9249542.002714769914746 ], [ 285239.12480768567184, 9249532.044623967260122 ], [ 285238.210243551526219, 9249522.086533162742853 ], [ 285237.29567941732239, 9249512.128442360088229 ], [ 285236.381115283118561, 9249502.170351557433605 ], [ 285235.466551148914732, 9249492.212260754778981 ], [ 285234.292462498298846, 9249482.299798641353846 ], [ 285231.75558162399102, 9249472.626937873661518 ], [ 285229.218700749624986, 9249462.954077105969191 ], [ 285226.68181987531716, 9249453.281216338276863 ], [ 285224.144939001009334, 9249443.608355570584536 ], [ 285221.608058126701508, 9249433.935494802892208 ], [ 285219.071177252335474, 9249424.262634035199881 ], [ 285216.534296378027648, 9249414.589773267507553 ], [ 285213.997415503719822, 9249404.916912499815226 ], [ 285211.460534629411995, 9249395.244051732122898 ], [ 285208.923653755045962, 9249385.571190964430571 ], [ 285206.386772880738135, 9249375.898330196738243 ], [ 285203.849892006430309, 9249366.225469429045916 ], [ 285201.313011132064275, 9249356.552608661353588 ], [ 285197.101497632917017, 9249347.630931064486504 ], [ 285191.564253844902851, 9249339.303930930793285 ], [ 285186.027010056946892, 9249330.976930797100067 ], [ 285180.489766268932726, 9249322.649930661544204 ], [ 285174.95252248091856, 9249314.322930527850986 ], [ 285169.415278692962602, 9249305.995930394157767 ], [ 285163.878034904948436, 9249297.668930260464549 ], [ 285158.34079111693427, 9249289.341930126771331 ], [ 285152.803547328978311, 9249281.014929991215467 ], [ 285147.266303540964145, 9249272.687929857522249 ], [ 285141.729059752949979, 9249264.360929723829031 ], [ 285136.191815964994021, 9249256.033929590135813 ], [ 285130.654572176979855, 9249247.706929456442595 ], [ 285125.117328388965689, 9249239.379929320886731 ], [ 285119.58008460100973, 9249231.052929187193513 ], [ 285114.042840812995564, 9249222.725929053500295 ], [ 285108.505597024981398, 9249214.398928919807076 ], [ 285102.96835323702544, 9249206.071928786113858 ], [ 285097.431109449011274, 9249197.74492865242064 ], [ 285091.893865660997108, 9249189.417928516864777 ], [ 285086.356621873041149, 9249181.090928383171558 ], [ 285080.819378085026983, 9249172.76392824947834 ], [ 285075.282134297071025, 9249164.436928115785122 ], [ 285069.744890509056859, 9249156.109927982091904 ], [ 285064.207646721042693, 9249147.78292784653604 ], [ 285058.670402933086734, 9249139.455927712842822 ], [ 285053.133159145072568, 9249131.128927579149604 ], [ 285048.41601540177362, 9249122.321905123069882 ], [ 285043.866809006140102, 9249113.416585298255086 ], [ 285039.317602610564791, 9249104.511265475302935 ], [ 285034.76839621498948, 9249095.605945650488138 ], [ 285030.219189819355961, 9249086.700625825673342 ], [ 285025.66998342378065, 9249077.79530600272119 ], [ 285021.120777028147131, 9249068.889986177906394 ], [ 285016.57157063257182, 9249059.984666353091598 ], [ 285012.022364236996509, 9249051.079346530139446 ], [ 285007.47315784136299, 9249042.17402670532465 ], [ 285002.923951445787679, 9249033.268706880509853 ], [ 284998.374745050212368, 9249024.363387057557702 ], [ 284993.82553865457885, 9249015.458067232742906 ], [ 284989.276332259003539, 9249006.552747409790754 ], [ 284984.727125863428228, 9248997.647427584975958 ], [ 284981.242214879661333, 9248988.331710986793041 ], [ 284978.634832925570663, 9248978.677615517750382 ], [ 284976.027450971479993, 9248969.023520046845078 ], [ 284973.420069017389324, 9248959.36942457780242 ], [ 284970.812687063356861, 9248949.715329106897116 ], [ 284968.205305109266192, 9248940.061233637854457 ], [ 284965.597923155175522, 9248930.407138166949153 ], [ 284962.990541201084852, 9248920.753042697906494 ], [ 284960.38315924705239, 9248911.09894722700119 ], [ 284957.77577729296172, 9248901.444851756095886 ], [ 284955.168395338871051, 9248891.790756287053227 ], [ 284952.561013384780381, 9248882.136660816147923 ], [ 284949.953631430747919, 9248872.482565347105265 ], [ 284947.346249476657249, 9248862.828469876199961 ], [ 284944.738867522566579, 9248853.174374407157302 ], [ 284942.476542581745889, 9248843.487963793799281 ], [ 284943.24606393504655, 9248833.517615912482142 ], [ 284944.015585288289003, 9248823.547268029302359 ], [ 284944.785106641531456, 9248813.57692014798522 ], [ 284945.554627994832117, 9248803.606572266668081 ], [ 284946.32414934807457, 9248793.636224383488297 ], [ 284947.093670701317023, 9248783.665876502171159 ], [ 284947.863192054617684, 9248773.69552862085402 ], [ 284948.632713407860138, 9248763.725180737674236 ], [ 284949.402234761102591, 9248753.754832856357098 ], [ 284950.171756114403252, 9248743.784484975039959 ], [ 284950.941277467645705, 9248733.814137091860175 ], [ 284951.710798820888158, 9248723.843789210543036 ], [ 284952.480320174130611, 9248713.873441329225898 ], [ 284953.249841527431272, 9248703.903093446046114 ], [ 284954.019362880673725, 9248693.932745564728975 ], [ 284954.788884233916178, 9248683.962397683411837 ], [ 284955.558405587216839, 9248673.992049800232053 ], [ 284956.327926940459292, 9248664.021701918914914 ], [ 284957.097448293701746, 9248654.051354037597775 ], [ 284957.866969647002406, 9248644.081006154417992 ], [ 284958.63649100024486, 9248634.110658273100853 ], [ 284959.406012353487313, 9248624.140310391783714 ], [ 284960.175533706729766, 9248614.16996250860393 ], [ 284961.233713591238484, 9248604.271868234500289 ], [ 284965.251965866424143, 9248595.114704445004463 ], [ 284969.270218141609803, 9248585.957540655508637 ], [ 284973.28847041685367, 9248576.800376867875457 ], [ 284977.30672269203933, 9248567.643213078379631 ], [ 284981.324974967224989, 9248558.48604929074645 ], [ 284985.343227242410649, 9248549.328885501250625 ], [ 284989.361479517596308, 9248540.171721713617444 ], [ 284993.379731792781968, 9248531.014557924121618 ], [ 284997.397984067967627, 9248521.857394134625793 ], [ 285001.416236343211494, 9248512.700230346992612 ], [ 285005.434488618397154, 9248503.543066557496786 ], [ 285009.452740893582813, 9248494.385902769863605 ], [ 285013.470993168768473, 9248485.22873898036778 ], [ 285017.489245443954132, 9248476.071575192734599 ], [ 285021.507497719139792, 9248466.914411403238773 ], [ 285025.525749994325452, 9248457.757247613742948 ], [ 285029.544002269569319, 9248448.600083826109767 ], [ 285033.562254544754978, 9248439.442920036613941 ], [ 285037.580506819940638, 9248430.285756248980761 ], [ 285041.598759095126297, 9248421.128592459484935 ], [ 285045.617011370311957, 9248411.971428671851754 ], [ 285049.635263645497616, 9248402.814264882355928 ], [ 285053.653515920741484, 9248393.657101092860103 ], [ 285057.671768195927143, 9248384.499937305226922 ], [ 285062.04890866286587, 9248375.509857496246696 ], [ 285066.469803282641806, 9248366.540147872641683 ], [ 285070.890697902417742, 9248357.570438247174025 ], [ 285075.311592522193678, 9248348.600728621706367 ], [ 285079.732487141969614, 9248339.631018996238708 ], [ 285084.15338176174555, 9248330.66130937077105 ], [ 285088.574276381521486, 9248321.691599745303392 ], [ 285092.995171001297422, 9248312.721890119835734 ], [ 285097.416065621073358, 9248303.752180496230721 ], [ 285101.836960240849294, 9248294.782470870763063 ], [ 285106.25785486062523, 9248285.812761245295405 ], [ 285110.678749480342958, 9248276.843051619827747 ], [ 285115.099644100118894, 9248267.873341994360089 ], [ 285119.52053871989483, 9248258.903632368892431 ], [ 285123.941433339670766, 9248249.933922743424773 ], [ 285128.362327959446702, 9248240.964213117957115 ], [ 285132.783222579222638, 9248231.994503494352102 ], [ 285137.204117198998574, 9248223.024793868884444 ], [ 285141.62501181877451, 9248214.055084243416786 ], [ 285146.045906438550446, 9248205.085374617949128 ], [ 285150.466801058326382, 9248196.11566499248147 ], [ 285154.887695678102318, 9248187.145955367013812 ], [ 285159.308590297820047, 9248178.176245741546154 ], [ 285163.729484917595983, 9248169.206536116078496 ], [ 285168.150379537371919, 9248160.236826492473483 ], [ 285172.571274157147855, 9248151.267116867005825 ], [ 285176.992168776923791, 9248142.297407241538167 ], [ 285182.54971707391087, 9248134.059506999328732 ], [ 285188.885127304354683, 9248126.322415994480252 ], [ 285195.220537534856703, 9248118.585324989631772 ], [ 285201.555947765358724, 9248110.848233984783292 ], [ 285207.891357995860744, 9248103.111142981797457 ], [ 285214.226768226304557, 9248095.374051976948977 ] ] ] } }
]
}
