{
"type": "FeatureCollection",
"crs": { "type": "name", "properties": { "name": "urn:ogc:def:crs:EPSG::32755" } },
"features": [
{ "type": "Feature", "properties": { "id": 1 }, "geometry": { "type": "MultiLineString", "coordinates": [ [ [ 549733.66009385487996, 9255961.50029350630939 ], [ 549728.618193747708574, 9255970.136220978572965 ], [ 549723.576293640653603, 9255978.772148450836539 ], [ 549718.534393533482216, 9255987.408075923100114 ], [ 549713.492493426427245, 9255996.044003395363688 ], [ 549708.450593319255859, 9256004.679930869489908 ], [ 549703.408693212200888, 9256013.315858341753483 ], [ 549698.366793105029501, 9256021.951785814017057 ], [ 549693.324892997858115, 9256030.587713286280632 ], [ 549688.282992890803143, 9256039.223640758544207 ], [ 549683.241092783631757, 9256047.859568230807781 ], [ 549678.199192676576786, 9256056.495495703071356 ], [ 549673.157292569405399, 9256065.13142317533493 ], [ 549668.115392462350428, 9256073.767350647598505 ], [ 549663.073492355179042, 9256082.403278121724725 ], [ 549658.03159224812407, 9256091.039205593988299 ], [ 549652.989692140952684, 9256099.675133066251874 ], [ 549647.947792033781298, 9256108.311060538515449 ], [ 549642.905891926726326, 9256116.946988010779023 ], [ 549637.86399181955494, 9256125.582915483042598 ], [ 549632.822091712499969, 9256134.218842955306172 ], [ 549627.780191605328582, 9256142.854770427569747 ], [ 549622.738291498273611, 9256151.490697899833322 ], [ 549617.696391391102225, 9256160.126625373959541 ], [ 549612.654491283930838, 9256168.762552846223116 ], [ 549607.612591176875867, 9256177.398480318486691 ], [ 549602.57069106970448, 9256186.034407790750265 ], [ 549597.528790962649509, 9256194.67033526301384 ], [ 549592.486890855478123, 9256203.306262735277414 ], [ 549587.444990748423152, 9256211.942190207540989 ], [ 549582.403090641251765, 9256220.578117679804564 ], [ 549577.361190534196794, 9256229.214045152068138 ], [ 549572.319290427025408, 9256237.849972626194358 ], [ 549567.277390319854021, 9256246.485900098457932 ], [ 549562.23549021279905, 9256255.121827570721507 ], [ 549557.193590105627663, 9256263.757755042985082 ], [ 549552.151689998572692, 9256272.393682515248656 ], [ 549547.109789891401306, 9256281.029609987512231 ], [ 549542.067889784346335, 9256289.665537459775805 ], [ 549537.025989677174948, 9256298.30146493203938 ], [ 549531.984089570003562, 9256306.9373924061656 ], [ 549526.942189462948591, 9256315.573319878429174 ], [ 549521.900289355777204, 9256324.209247350692749 ], [ 549516.858389248722233, 9256332.845174822956324 ], [ 549511.816489141550846, 9256341.481102295219898 ], [ 549506.774589034495875, 9256350.117029767483473 ], [ 549501.732688927324489, 9256358.752957239747047 ], [ 549496.690788820269518, 9256367.388884712010622 ], [ 549491.648888713098131, 9256376.024812184274197 ], [ 549486.606988605926745, 9256384.660739658400416 ], [ 549481.565088498871773, 9256393.296667130663991 ], [ 549476.523188391700387, 9256401.932594602927566 ], [ 549471.481288284645416, 9256410.56852207519114 ], [ 549466.439388177474029, 9256419.204449547454715 ], [ 549461.482618009787984, 9256427.888577641919255 ], [ 549456.671271813334897, 9256436.655044877901673 ], [ 549451.859925616765395, 9256445.421512112021446 ], [ 549447.048579420195892, 9256454.187979346141219 ], [ 549442.23723322362639, 9256462.954446582123637 ], [ 549437.425887027056888, 9256471.72091381624341 ], [ 549432.614540830603801, 9256480.487381050363183 ], [ 549427.803194634034298, 9256489.253848286345601 ], [ 549422.991848437464796, 9256498.020315520465374 ], [ 549418.180502240895294, 9256506.786782754585147 ], [ 549413.369156044325791, 9256515.55324998870492 ], [ 549408.557809847872704, 9256524.319717224687338 ], [ 549403.746463651303202, 9256533.086184458807111 ], [ 549398.9351174547337, 9256541.852651692926884 ], [ 549394.123771258164197, 9256550.619118928909302 ], [ 549389.312425061594695, 9256559.385586163029075 ], [ 549384.501078865141608, 9256568.152053397148848 ], [ 549379.689732668572105, 9256576.918520633131266 ], [ 549374.878386472002603, 9256585.684987867251039 ], [ 549370.067040275433101, 9256594.451455101370811 ], [ 549365.255694078863598, 9256603.21792233735323 ], [ 549360.444347882410511, 9256611.984389571473002 ], [ 549355.633001685841009, 9256620.750856805592775 ], [ 549350.821655489271507, 9256629.517324039712548 ], [ 549346.010309292702004, 9256638.283791275694966 ], [ 549341.198963096132502, 9256647.050258509814739 ], [ 549336.387616899563, 9256655.816725743934512 ], [ 549331.576270703109913, 9256664.58319297991693 ], [ 549326.76492450654041, 9256673.349660214036703 ], [ 549321.953578309970908, 9256682.116127448156476 ], [ 549317.142232113401406, 9256690.882594684138894 ], [ 549312.330885916831903, 9256699.649061918258667 ], [ 549307.519539720378816, 9256708.41552915237844 ], [ 549302.708193523809314, 9256717.181996388360858 ], [ 549297.896847327239811, 9256725.948463622480631 ], [ 549293.085501130670309, 9256734.714930856600404 ], [ 549288.274154934100807, 9256743.481398090720177 ], [ 549283.46280873764772, 9256752.247865326702595 ], [ 549278.651462541078217, 9256761.014332560822368 ], [ 549273.840116344508715, 9256769.780799794942141 ], [ 549269.028770147939213, 9256778.547267030924559 ], [ 549264.21742395136971, 9256787.313734265044332 ], [ 549259.406077754916623, 9256796.080201499164104 ], [ 549254.594731558347121, 9256804.846668735146523 ], [ 549248.653492326615378, 9256812.798697581514716 ], [ 549241.857880590832792, 9256820.134886043146253 ], [ 549235.062268855166622, 9256827.471074504777789 ], [ 549228.266657119384035, 9256834.807262966409326 ], [ 549221.471045383717865, 9256842.143451426178217 ], [ 549214.675433647935279, 9256849.479639887809753 ], [ 549207.879821912152693, 9256856.81582834944129 ], [ 549201.084210176486522, 9256864.152016811072826 ], [ 549194.288598440703936, 9256871.488205270841718 ], [ 549187.492986705037765, 9256878.824393732473254 ], [ 549180.697374969255179, 9256886.160582194104791 ], [ 549173.901763233589008, 9256893.496770653873682 ], [ 549167.106151497806422, 9256900.832959115505219 ], [ 549160.310539762140252, 9256908.169147577136755 ], [ 549153.514928026357666, 9256915.505336038768291 ], [ 549146.71931629057508, 9256922.841524498537183 ], [ 549139.923704554908909, 9256930.177712960168719 ], [ 549133.128092819126323, 9256937.513901421800256 ], [ 549126.332481083460152, 9256944.850089883431792 ], [ 549119.536869347677566, 9256952.186278343200684 ], [ 549112.741257612011395, 9256959.52246680483222 ], [ 549105.945645876228809, 9256966.858655266463757 ], [ 549099.150034140446223, 9256974.194843728095293 ], [ 549092.354422404780053, 9256981.531032187864184 ], [ 549085.558810668997467, 9256988.867220649495721 ], [ 549078.763198933331296, 9256996.203409111127257 ], [ 549071.96758719754871, 9257003.539597570896149 ], [ 549065.171975461882539, 9257010.875786032527685 ], [ 549058.376363726099953, 9257018.211974494159222 ], [ 549051.580751990433782, 9257025.548162955790758 ], [ 549044.785140254651196, 9257032.884351415559649 ] ] ] } }
]
}
