{
"type": "FeatureCollection",
"crs": { "type": "name", "properties": { "name": "urn:ogc:def:crs:EPSG::32755" } },
"features": [
{ "type": "Feature", "properties": { "id": 1 }, "geometry": { "type": "MultiLineString", "coordinates": [ [ [ 454199.142684269347228, 9272347.582388576120138 ], [ 454194.453647958289366, 9272356.414881909266114 ], [ 454189.764611647231504, 9272365.24737524241209 ], [ 454185.075575336173642, 9272374.079868573695421 ], [ 454180.386539025115781, 9272382.912361906841397 ], [ 454175.697502714057919, 9272391.744855239987373 ], [ 454171.008466403000057, 9272400.577348573133349 ], [ 454166.319430091883987, 9272409.409841906279325 ], [ 454161.630393780826125, 9272418.242335237562656 ], [ 454156.941357469768263, 9272427.074828570708632 ], [ 454152.252321158710402, 9272435.907321903854609 ], [ 454147.56328484765254, 9272444.739815237000585 ], [ 454142.874248536594678, 9272453.572308570146561 ], [ 454138.185212225536816, 9272462.404801901429892 ], [ 454133.496175914478954, 9272471.237295234575868 ], [ 454128.807139603421092, 9272480.069788567721844 ], [ 454124.11810329236323, 9272488.90228190086782 ], [ 454119.429066981305368, 9272497.734775234013796 ], [ 454114.740030670247506, 9272506.567268565297127 ], [ 454110.050994359131437, 9272515.399761898443103 ], [ 454105.361958048073575, 9272524.232255231589079 ], [ 454100.672921737015713, 9272533.064748564735055 ], [ 454095.983885425957851, 9272541.897241897881031 ], [ 454091.294849114899989, 9272550.729735229164362 ], [ 454086.605812803842127, 9272559.562228562310338 ], [ 454081.916776492784265, 9272568.394721895456314 ], [ 454077.227740181726404, 9272577.22721522860229 ], [ 454072.538703870668542, 9272586.059708561748266 ], [ 454067.84966755961068, 9272594.892201893031597 ], [ 454063.160631248552818, 9272603.724695226177573 ], [ 454058.471594937494956, 9272612.557188559323549 ], [ 454053.782558626437094, 9272621.389681892469525 ], [ 454049.093522315321025, 9272630.222175225615501 ], [ 454044.404486004263163, 9272639.054668556898832 ], [ 454039.715449693205301, 9272647.887161890044808 ], [ 454035.026413382147439, 9272656.719655223190784 ], [ 454030.337377071089577, 9272665.552148556336761 ], [ 454025.648340760031715, 9272674.384641889482737 ], [ 454020.959304448973853, 9272683.217135220766068 ], [ 454016.270268137915991, 9272692.049628553912044 ], [ 454011.581231826858129, 9272700.88212188705802 ], [ 454006.892195515800267, 9272709.714615220203996 ], [ 454002.203159204742406, 9272718.547108553349972 ], [ 453997.514122893684544, 9272727.379601884633303 ], [ 453992.825086582626682, 9272736.212095217779279 ], [ 453988.136050271510612, 9272745.044588550925255 ], [ 453983.44701396045275, 9272753.877081884071231 ], [ 453978.757977649394888, 9272762.709575217217207 ], [ 453974.068941338337027, 9272771.542068548500538 ], [ 453969.379905027279165, 9272780.374561881646514 ], [ 453964.690868716221303, 9272789.20705521479249 ], [ 453960.001832405163441, 9272798.039548547938466 ], [ 453955.312796094105579, 9272806.872041881084442 ], [ 453950.623759783047717, 9272815.704535212367773 ], [ 453945.934723471989855, 9272824.537028545513749 ], [ 453941.245687160931993, 9272833.369521878659725 ], [ 453936.556650849874131, 9272842.202015211805701 ], [ 453931.867614538758062, 9272851.034508544951677 ], [ 453927.1785782277002, 9272859.867001876235008 ], [ 453922.489541916642338, 9272868.699495209380984 ], [ 453917.800505605584476, 9272877.53198854252696 ], [ 453913.111469294526614, 9272886.364481875672936 ], [ 453908.422432983468752, 9272895.196975208818913 ], [ 453903.73339667241089, 9272904.029468540102243 ], [ 453899.044360361353029, 9272912.861961873248219 ], [ 453894.355324050295167, 9272921.694455206394196 ], [ 453889.666287739237305, 9272930.526948539540172 ], [ 453884.977251428179443, 9272939.359441872686148 ], [ 453880.288215117121581, 9272948.191935205832124 ], [ 453875.599178806063719, 9272957.024428537115455 ], [ 453870.91014249494765, 9272965.856921870261431 ], [ 453866.221106183889788, 9272974.689415203407407 ], [ 453861.532069872831926, 9272983.521908536553383 ], [ 453856.843033561774064, 9272992.354401869699359 ], [ 453852.153997250716202, 9273001.18689520098269 ], [ 453847.46496093965834, 9273010.019388534128666 ], [ 453842.775924628600478, 9273018.851881867274642 ], [ 453838.086888317542616, 9273027.684375200420618 ], [ 453833.397852006484754, 9273036.516868533566594 ], [ 453828.708815695426892, 9273045.349361864849925 ], [ 453824.019779384369031, 9273054.181855197995901 ], [ 453819.330743073311169, 9273063.014348531141877 ], [ 453814.641706762253307, 9273071.846841864287853 ], [ 453809.952670451137237, 9273080.679335197433829 ], [ 453805.263634140079375, 9273089.51182852871716 ], [ 453800.574597829021513, 9273098.344321861863136 ], [ 453795.885561517963652, 9273107.176815195009112 ], [ 453791.19652520690579, 9273116.009308528155088 ], [ 453786.507488895847928, 9273124.841801861301064 ], [ 453781.818452584790066, 9273133.674295192584395 ], [ 453777.129416273732204, 9273142.506788525730371 ], [ 453772.440379962674342, 9273151.339281858876348 ], [ 453767.75134365161648, 9273160.171775192022324 ], [ 453763.062307340558618, 9273169.0042685251683 ], [ 453758.373271029500756, 9273177.836761856451631 ], [ 453753.684234718384687, 9273186.669255189597607 ], [ 453748.995198407326825, 9273195.501748522743583 ], [ 453744.306162096268963, 9273204.334241855889559 ], [ 453739.617125785211101, 9273213.166735189035535 ], [ 453734.928089474153239, 9273221.999228520318866 ], [ 453730.239053163095377, 9273230.831721853464842 ], [ 453725.550016852037515, 9273239.664215186610818 ], [ 453720.860980540979654, 9273248.496708519756794 ], [ 453716.171944229921792, 9273257.32920185290277 ], [ 453711.48290791886393, 9273266.161695184186101 ], [ 453706.793871607806068, 9273274.994188517332077 ], [ 453702.104835296748206, 9273283.826681850478053 ], [ 453697.415798985690344, 9273292.659175183624029 ], [ 453692.726762674574275, 9273301.491668516770005 ], [ 453688.037726363516413, 9273310.324161848053336 ], [ 453683.348690052458551, 9273319.156655181199312 ], [ 453678.659653741400689, 9273327.989148514345288 ], [ 453673.970617430342827, 9273336.821641847491264 ], [ 453669.281581119284965, 9273345.65413518063724 ], [ 453664.592544808227103, 9273354.486628511920571 ], [ 453659.903508497169241, 9273363.319121845066547 ], [ 453655.214472186111379, 9273372.151615178212523 ], [ 453650.525435875053518, 9273380.9841085113585 ], [ 453645.836399563995656, 9273389.816601844504476 ], [ 453641.147363252937794, 9273398.649095175787807 ], [ 453636.458326941821724, 9273407.481588508933783 ], [ 453631.769290630763862, 9273416.314081842079759 ], [ 453627.080254319706, 9273425.146575175225735 ], [ 453622.391218008648138, 9273433.979068508371711 ], [ 453617.702181697590277, 9273442.811561839655042 ], [ 453613.013145386532415, 9273451.644055172801018 ], [ 453608.324109075474553, 9273460.476548505946994 ], [ 453603.635072764416691, 9273469.30904183909297 ], [ 453598.946036453358829, 9273478.141535172238946 ], [ 453594.257000142300967, 9273486.974028503522277 ], [ 453589.567963831243105, 9273495.806521836668253 ], [ 453584.878927520185243, 9273504.639015169814229 ], [ 453579.46641142340377, 9273513.021804796531796 ], [ 453573.621688084851485, 9273521.135941172018647 ], [ 453567.7769647462992, 9273529.250077545642853 ], [ 453561.932241407746915, 9273537.364213919267058 ], [ 453556.08751806919463, 9273545.478350292891264 ], [ 453550.242794730642345, 9273553.59248666651547 ], [ 453544.39807139209006, 9273561.70662304200232 ], [ 453538.553348053537775, 9273569.820759415626526 ], [ 453532.70862471498549, 9273577.934895789250731 ], [ 453526.863901376433205, 9273586.049032162874937 ], [ 453521.01917803788092, 9273594.163168536499143 ], [ 453515.174454699328635, 9273602.277304911985993 ], [ 453509.32973136077635, 9273610.391441285610199 ], [ 453503.485008022224065, 9273618.505577659234405 ], [ 453497.64028468367178, 9273626.61971403285861 ], [ 453491.795561345119495, 9273634.733850406482816 ], [ 453485.95083800656721, 9273642.847986781969666 ], [ 453480.106114668014925, 9273650.962123155593872 ], [ 453474.26139132946264, 9273659.076259529218078 ], [ 453468.416667990910355, 9273667.190395902842283 ], [ 453462.571944652416278, 9273675.304532276466489 ], [ 453456.727221313863993, 9273683.41866865195334 ], [ 453450.882497975311708, 9273691.532805025577545 ], [ 453445.037774636759423, 9273699.646941399201751 ], [ 453439.193051298207138, 9273707.761077772825956 ], [ 453433.348327959654853, 9273715.875214146450162 ], [ 453427.503604621102568, 9273723.989350521937013 ], [ 453421.658881282550283, 9273732.103486895561218 ], [ 453415.814157943997998, 9273740.217623269185424 ], [ 453409.969434605445713, 9273748.331759642809629 ], [ 453404.124711266893428, 9273756.445896016433835 ], [ 453398.279987928341143, 9273764.560032391920686 ], [ 453392.435264589788858, 9273772.674168765544891 ], [ 453386.590541251236573, 9273780.788305139169097 ], [ 453380.745817912684288, 9273788.902441512793303 ], [ 453374.901094574132003, 9273797.016577886417508 ], [ 453369.056371235579718, 9273805.130714261904359 ], [ 453363.211647897027433, 9273813.244850635528564 ], [ 453357.366924558475148, 9273821.35898700915277 ], [ 453351.522201219922863, 9273829.473123382776976 ], [ 453345.677477881370578, 9273837.587259756401181 ], [ 453339.832754542818293, 9273845.701396131888032 ], [ 453333.988031204266008, 9273853.815532505512238 ], [ 453328.143307865713723, 9273861.929668879136443 ], [ 453322.298584527161438, 9273870.043805252760649 ], [ 453316.453861188609153, 9273878.157941626384854 ], [ 453310.609137850056868, 9273886.272078 ], [ 453304.764414511504583, 9273894.386214375495911 ], [ 453298.919691172952298, 9273902.500350749120116 ], [ 453293.074967834400013, 9273910.614487122744322 ], [ 453287.230244495847728, 9273918.728623496368527 ], [ 453281.385521157295443, 9273926.842759869992733 ], [ 453275.540797818743158, 9273934.956896245479584 ], [ 453271.613741428474896, 9273944.139126339927316 ], [ 453267.792106459033675, 9273953.38007359392941 ], [ 453263.970471489534248, 9273962.621020847931504 ], [ 453260.148836520093028, 9273971.861968101933599 ], [ 453256.327201550651807, 9273981.102915357798338 ], [ 453252.505566581210587, 9273990.343862611800432 ], [ 453248.683931611769367, 9273999.584809865802526 ], [ 453244.862296642328147, 9274008.825757119804621 ], [ 453241.040661672828719, 9274018.06670437566936 ], [ 453237.219026703387499, 9274027.307651629671454 ], [ 453233.397391733946279, 9274036.548598883673549 ], [ 453229.575756764505059, 9274045.789546137675643 ], [ 453225.754121795063838, 9274055.030493393540382 ], [ 453221.932486825622618, 9274064.271440647542477 ], [ 453218.11085185612319, 9274073.512387901544571 ], [ 453214.28921688668197, 9274082.753335155546665 ], [ 453210.46758191724075, 9274091.994282411411405 ], [ 453206.64594694779953, 9274101.235229665413499 ], [ 453202.82431197835831, 9274110.476176919415593 ], [ 453199.00267700891709, 9274119.717124175280333 ], [ 453195.181042039475869, 9274128.958071429282427 ], [ 453191.359407069976442, 9274138.199018683284521 ], [ 453187.537772100535221, 9274147.439965937286615 ], [ 453183.716137131094001, 9274156.680913193151355 ], [ 453179.894502161652781, 9274165.921860447153449 ], [ 453176.072867192211561, 9274175.162807701155543 ], [ 453172.251232222770341, 9274184.403754955157638 ], [ 453168.429597253270913, 9274193.644702211022377 ], [ 453164.607962283829693, 9274202.885649465024471 ], [ 453160.786327314388473, 9274212.126596719026566 ], [ 453156.964692344947252, 9274221.36754397302866 ], [ 453153.143057375506032, 9274230.608491228893399 ], [ 453149.321422406064812, 9274239.849438482895494 ], [ 453145.499787436623592, 9274249.090385736897588 ], [ 453141.678152467124164, 9274258.331332990899682 ], [ 453137.856517497682944, 9274267.572280246764421 ], [ 453134.034882528241724, 9274276.813227500766516 ], [ 453130.213247558800504, 9274286.05417475476861 ], [ 453126.391612589359283, 9274295.295122010633349 ], [ 453122.569977619918063, 9274304.536069264635444 ], [ 453118.748342650418635, 9274313.777016518637538 ], [ 453114.926707680977415, 9274323.017963772639632 ], [ 453111.105072711536195, 9274332.258911028504372 ], [ 453107.283437742094975, 9274341.499858282506466 ], [ 453103.461802772653755, 9274350.74080553650856 ], [ 453099.640167803212535, 9274359.981752790510654 ], [ 453095.818532833771314, 9274369.222700046375394 ], [ 453091.996897864271887, 9274378.463647300377488 ], [ 453088.175262894830666, 9274387.704594554379582 ], [ 453084.353627925389446, 9274396.945541808381677 ], [ 453080.531992955948226, 9274406.186489064246416 ], [ 453076.710357986507006, 9274415.42743631824851 ], [ 453072.888723017065786, 9274424.668383572250605 ], [ 453069.067088047566358, 9274433.909330826252699 ], [ 453065.245453078125138, 9274443.150278082117438 ], [ 453061.423818108683918, 9274452.391225336119533 ], [ 453057.602183139242698, 9274461.632172590121627 ], [ 453053.780548169801477, 9274470.873119845986366 ], [ 453049.958913200360257, 9274480.114067099988461 ], [ 453046.137278230919037, 9274489.355014353990555 ], [ 453042.315643261419609, 9274498.595961607992649 ], [ 453038.494008291978389, 9274507.836908863857388 ], [ 453034.672373322537169, 9274517.077856117859483 ], [ 453030.850738353095949, 9274526.318803371861577 ], [ 453027.029103383654729, 9274535.559750625863671 ], [ 453023.207468414213508, 9274544.800697881728411 ], [ 453019.385833444714081, 9274554.041645135730505 ], [ 453015.56419847527286, 9274563.282592389732599 ], [ 453011.74256350583164, 9274572.523539643734694 ], [ 453007.92092853639042, 9274581.764486899599433 ], [ 453004.0992935669492, 9274591.005434153601527 ], [ 453000.27765859750798, 9274600.246381407603621 ], [ 452996.45602362806676, 9274609.487328661605716 ], [ 452992.634388658567332, 9274618.728275917470455 ], [ 452988.812753689126112, 9274627.969223171472549 ], [ 452984.991118719684891, 9274637.210170425474644 ], [ 452981.169483750243671, 9274646.451117679476738 ], [ 452977.347848780802451, 9274655.692064935341477 ], [ 452973.526213811361231, 9274664.933012189343572 ], [ 452969.704578841861803, 9274674.173959443345666 ], [ 452965.882943872420583, 9274683.414906699210405 ], [ 452962.061308902979363, 9274692.6558539532125 ], [ 452958.239673933538143, 9274701.896801207214594 ], [ 452954.418038964096922, 9274711.137748461216688 ], [ 452950.596403994655702, 9274720.378695717081428 ], [ 452946.774769025214482, 9274729.619642971083522 ], [ 452942.953134055715054, 9274738.860590225085616 ], [ 452939.131499086273834, 9274748.10153747908771 ], [ 452935.309864116832614, 9274757.34248473495245 ], [ 452931.488229147391394, 9274766.583431988954544 ], [ 452927.666594177950174, 9274775.824379242956638 ], [ 452923.844959208508953, 9274785.065326496958733 ], [ 452920.023324239009526, 9274794.306273752823472 ], [ 452916.201689269568305, 9274803.547221006825566 ], [ 452912.380054300127085, 9274812.788168260827661 ], [ 452908.558419330685865, 9274822.029115514829755 ], [ 452904.736784361244645, 9274831.270062770694494 ], [ 452900.915149391803425, 9274840.511010024696589 ], [ 452897.093514422362205, 9274849.751957278698683 ], [ 452893.271879452862777, 9274858.992904534563422 ], [ 452889.450244483421557, 9274868.233851788565516 ], [ 452885.628609513980336, 9274877.474799042567611 ], [ 452881.806974544539116, 9274886.715746296569705 ], [ 452877.985339575097896, 9274895.956693552434444 ], [ 452874.163704605656676, 9274905.197640806436539 ], [ 452870.342069636157248, 9274914.438588060438633 ], [ 452866.520434666716028, 9274923.679535314440727 ], [ 452862.698799697274808, 9274932.920482570305467 ], [ 452858.877164727833588, 9274942.161429824307561 ], [ 452855.055529758392368, 9274951.402377078309655 ], [ 452851.233894788951147, 9274960.643324332311749 ], [ 452847.412259819509927, 9274969.884271588176489 ], [ 452843.590624850010499, 9274979.125218842178583 ], [ 452839.768989880569279, 9274988.366166096180677 ], [ 452835.947354911128059, 9274997.607113350182772 ], [ 452832.125719941686839, 9275006.848060606047511 ], [ 452828.304084972245619, 9275016.089007860049605 ], [ 452824.482450002804399, 9275025.3299551140517 ], [ 452820.660815033304971, 9275034.570902369916439 ], [ 452816.839180063863751, 9275043.811849623918533 ], [ 452813.01754509442253, 9275053.052796877920628 ], [ 452809.19591012498131, 9275062.293744131922722 ], [ 452805.37427515554009, 9275071.534691387787461 ], [ 452801.55264018609887, 9275080.775638641789556 ], [ 452797.73100521665765, 9275090.01658589579165 ], [ 452793.909370247158222, 9275099.257533149793744 ], [ 452790.087735277717002, 9275108.498480405658484 ], [ 452786.266100308275782, 9275117.739427659660578 ], [ 452782.444465338834561, 9275126.980374913662672 ], [ 452778.622830369393341, 9275136.221322167664766 ], [ 452774.801195399952121, 9275145.462269423529506 ], [ 452770.979560430452693, 9275154.7032166775316 ], [ 452767.157925461011473, 9275163.944163931533694 ], [ 452763.336290491570253, 9275173.185111185535789 ], [ 452763.181574040558189, 9275182.622074028477073 ], [ 452765.996293971140403, 9275192.217768466100097 ], [ 452768.811013901722617, 9275201.813462901860476 ], [ 452771.625733832304832, 9275211.409157337620854 ], [ 452774.440453762887046, 9275221.004851773381233 ], [ 452777.25517369346926, 9275230.600546209141612 ], [ 452780.069893623993266, 9275240.196240646764636 ], [ 452782.884613554575481, 9275249.791935082525015 ], [ 452785.699333485157695, 9275259.387629518285394 ], [ 452788.514053415739909, 9275268.983323954045773 ], [ 452791.328773346322123, 9275278.579018391668797 ], [ 452794.143493276904337, 9275288.174712827429175 ], [ 452796.958213207486551, 9275297.770407263189554 ], [ 452799.772933138068765, 9275307.366101698949933 ], [ 452802.58765306865098, 9275316.961796134710312 ], [ 452805.402372999233194, 9275326.557490572333336 ], [ 452808.217092929815408, 9275336.153185008093715 ], [ 452811.031812860397622, 9275345.748879443854094 ], [ 452813.846532790921628, 9275355.344573879614472 ], [ 452816.661252721503843, 9275364.940268317237496 ], [ 452819.475972652086057, 9275374.535962752997875 ], [ 452822.290692582668271, 9275384.131657188758254 ], [ 452825.105412513250485, 9275393.727351624518633 ], [ 452827.920132443832699, 9275403.323046060279012 ], [ 452830.734852374414913, 9275412.918740497902036 ], [ 452833.549572304997128, 9275422.514434933662415 ], [ 452836.364292235579342, 9275432.110129369422793 ], [ 452839.179012166161556, 9275441.705823805183172 ], [ 452841.99373209674377, 9275451.301518242806196 ], [ 452844.808452027267776, 9275460.897212678566575 ], [ 452847.623171957849991, 9275470.492907114326954 ], [ 452850.437891888432205, 9275480.088601550087333 ], [ 452853.252611819014419, 9275489.684295985847712 ], [ 452856.067331749596633, 9275499.279990423470736 ], [ 452858.882051680178847, 9275508.875684859231114 ], [ 452861.696771610761061, 9275518.471379294991493 ], [ 452864.511491541343275, 9275528.067073730751872 ], [ 452867.32621147192549, 9275537.662768168374896 ], [ 452870.140931402507704, 9275547.258462604135275 ], [ 452872.955651333089918, 9275556.854157039895654 ], [ 452875.770371263672132, 9275566.449851475656033 ], [ 452878.585091194196139, 9275576.045545911416411 ], [ 452881.399811124778353, 9275585.641240349039435 ], [ 452884.214531055360567, 9275595.236934784799814 ], [ 452887.029250985942781, 9275604.832629220560193 ], [ 452889.843970916524995, 9275614.428323656320572 ], [ 452892.658690847107209, 9275624.024018093943596 ], [ 452895.473410777689423, 9275633.619712529703975 ], [ 452898.288130708271638, 9275643.215406965464354 ], [ 452901.102850638853852, 9275652.811101401224732 ], [ 452903.917570569436066, 9275662.406795836985111 ], [ 452906.73229050001828, 9275672.002490274608135 ], [ 452909.547010430542286, 9275681.598184710368514 ], [ 452912.361730361124501, 9275691.193879146128893 ], [ 452915.176450291706715, 9275700.789573581889272 ], [ 452917.991170222288929, 9275710.385268019512296 ], [ 452920.805890152871143, 9275719.980962455272675 ], [ 452923.620610083453357, 9275729.576656891033053 ], [ 452926.435330014035571, 9275739.172351326793432 ], [ 452929.250049944617786, 9275748.768045762553811 ], [ 452932.0647698752, 9275758.363740200176835 ], [ 452934.879489805782214, 9275767.959434635937214 ], [ 452937.694209736364428, 9275777.555129071697593 ], [ 452940.508929666946642, 9275787.150823507457972 ], [ 452943.323649597470649, 9275796.746517945080996 ], [ 452946.138369528052863, 9275806.342212380841374 ], [ 452948.953089458635077, 9275815.937906816601753 ], [ 452951.767809389217291, 9275825.533601252362132 ], [ 452954.582529319799505, 9275835.129295688122511 ], [ 452957.397249250381719, 9275844.724990125745535 ], [ 452960.211969180963933, 9275854.320684561505914 ], [ 452963.026689111546148, 9275863.916378997266293 ], [ 452965.841409042128362, 9275873.512073433026671 ], [ 452968.656128972710576, 9275883.107767870649695 ], [ 452971.47084890329279, 9275892.703462306410074 ], [ 452974.285568833875004, 9275902.299156742170453 ], [ 452977.100288764399011, 9275911.894851177930832 ], [ 452979.915008694981225, 9275921.490545613691211 ], [ 452982.729728625563439, 9275931.086240051314235 ], [ 452985.544448556145653, 9275940.681934487074614 ], [ 452988.359168486727867, 9275950.277628922834992 ], [ 452991.173888417310081, 9275959.873323358595371 ], [ 452993.988608347892296, 9275969.469017796218395 ], [ 452996.80332827847451, 9275979.064712231978774 ], [ 452999.618048209056724, 9275988.660406667739153 ], [ 453002.432768139638938, 9275998.256101103499532 ], [ 453005.247488070221152, 9276007.851795539259911 ], [ 453008.062208000745159, 9276017.447489976882935 ], [ 453010.876927931327373, 9276027.043184412643313 ], [ 453013.691647861909587, 9276036.638878848403692 ], [ 453016.506367792491801, 9276046.234573284164071 ], [ 453019.321087723074015, 9276055.830267721787095 ], [ 453022.135807653656229, 9276065.425962157547474 ], [ 453024.950527584238444, 9276075.021656593307853 ], [ 453027.765247514820658, 9276084.617351029068232 ], [ 453030.579967445402872, 9276094.21304546482861 ], [ 453033.394687375985086, 9276103.808739902451634 ], [ 453036.2094073065673, 9276113.404434338212013 ], [ 453039.024127237149514, 9276123.000128773972392 ], [ 453041.838847167673521, 9276132.595823209732771 ], [ 453044.653567098255735, 9276142.191517647355795 ], [ 453047.468287028837949, 9276151.787212083116174 ], [ 453050.283006959420163, 9276161.382906518876553 ], [ 453053.097726890002377, 9276170.978600954636931 ], [ 453055.912446820584591, 9276180.57429539039731 ], [ 453058.727166751166806, 9276190.169989828020334 ], [ 453061.54188668174902, 9276199.765684263780713 ], [ 453064.356606612331234, 9276209.361378699541092 ], [ 453067.171326542913448, 9276218.957073135301471 ], [ 453069.986046473495662, 9276228.552767572924495 ], [ 453072.800766404077876, 9276238.148462008684874 ], [ 453075.615486334601883, 9276247.744156444445252 ], [ 453078.430206265184097, 9276257.339850880205631 ], [ 453081.244926195766311, 9276266.93554531596601 ], [ 453084.059646126348525, 9276276.531239753589034 ], [ 453086.874366056930739, 9276286.126934189349413 ], [ 453089.689085987512954, 9276295.722628625109792 ], [ 453092.503805918095168, 9276305.318323060870171 ], [ 453095.318525848677382, 9276314.914017498493195 ], [ 453098.133245779259596, 9276324.509711934253573 ], [ 453100.94796570984181, 9276334.105406370013952 ], [ 453103.762685640424024, 9276343.701100805774331 ], [ 453106.577405570948031, 9276353.29679524153471 ], [ 453109.392125501530245, 9276362.892489679157734 ], [ 453112.206845432112459, 9276372.488184114918113 ], [ 453115.021565362694673, 9276382.083878550678492 ], [ 453117.836285293276887, 9276391.67957298643887 ], [ 453120.651005223859102, 9276401.275267424061894 ], [ 453123.465725154441316, 9276410.870961859822273 ], [ 453126.28044508502353, 9276420.466656295582652 ], [ 453129.095165015605744, 9276430.062350731343031 ], [ 453131.909884946187958, 9276439.65804516710341 ], [ 453134.724604876770172, 9276449.253739604726434 ], [ 453137.539324807352386, 9276458.849434040486813 ], [ 453140.354044737876393, 9276468.445128476247191 ], [ 453143.168764668458607, 9276478.04082291200757 ], [ 453145.983484599040821, 9276487.636517349630594 ], [ 453148.798204529623035, 9276497.232211785390973 ], [ 453147.025372759613674, 9276506.146459808573127 ], [ 453141.542990413727239, 9276514.509681902825832 ], [ 453136.060608067840803, 9276522.872903998941183 ], [ 453130.578225721954368, 9276531.236126093193889 ], [ 453125.095843376067933, 9276539.599348189309239 ], [ 453119.613461030181497, 9276547.962570283561945 ], [ 453114.131078684295062, 9276556.325792379677296 ], [ 453108.648696338408627, 9276564.689014473930001 ], [ 453103.166313992522191, 9276573.052236570045352 ], [ 453097.683931646635756, 9276581.415458664298058 ], [ 453092.201549300749321, 9276589.778680760413408 ], [ 453086.719166954862885, 9276598.141902854666114 ], [ 453081.23678460897645, 9276606.505124950781465 ], [ 453075.754402263090014, 9276614.86834704503417 ], [ 453070.272019917203579, 9276623.231569141149521 ], [ 453064.789637571317144, 9276631.594791235402226 ], [ 453059.307255225430708, 9276639.958013331517577 ], [ 453053.824872879544273, 9276648.321235425770283 ], [ 453048.342490533657838, 9276656.684457521885633 ], [ 453042.860108187771402, 9276665.047679616138339 ], [ 453037.377725841884967, 9276673.41090171225369 ], [ 453031.895343495998532, 9276681.774123806506395 ], [ 453026.412961150112096, 9276690.137345902621746 ], [ 453020.930578804225661, 9276698.500567996874452 ], [ 453015.448196458339226, 9276706.863790092989802 ], [ 453009.96581411245279, 9276715.227012187242508 ], [ 453004.483431766566355, 9276723.590234283357859 ], [ 452999.001049420679919, 9276731.953456377610564 ], [ 452993.518667074793484, 9276740.316678473725915 ], [ 452988.036284728907049, 9276748.679900567978621 ], [ 452982.553902383020613, 9276757.043122664093971 ], [ 452977.071520037134178, 9276765.406344758346677 ], [ 452971.589137691247743, 9276773.769566854462028 ], [ 452966.106755345361307, 9276782.132788948714733 ], [ 452960.624372999474872, 9276790.496011044830084 ], [ 452955.141990653588437, 9276798.859233139082789 ], [ 452949.659608307702001, 9276807.22245523519814 ], [ 452944.177225961815566, 9276815.585677329450846 ], [ 452938.69484361592913, 9276823.948899425566196 ], [ 452933.212461270042695, 9276832.312121519818902 ], [ 452927.73007892415626, 9276840.675343615934253 ], [ 452922.247696578269824, 9276849.038565710186958 ], [ 452916.765314232383389, 9276857.401787806302309 ], [ 452911.282931886496954, 9276865.765009900555015 ], [ 452905.800549540610518, 9276874.128231996670365 ], [ 452900.318167194724083, 9276882.491454090923071 ], [ 452894.835784848837648, 9276890.854676187038422 ], [ 452889.353402502951212, 9276899.217898281291127 ], [ 452883.871020157064777, 9276907.581120377406478 ], [ 452878.388637811178342, 9276915.944342473521829 ], [ 452872.906255465291906, 9276924.307564567774534 ], [ 452867.423873119405471, 9276932.670786663889885 ], [ 452861.941490773519035, 9276941.034008758142591 ], [ 452856.4591084276326, 9276949.397230854257941 ], [ 452850.976726081746165, 9276957.760452948510647 ], [ 452845.494343735859729, 9276966.123675044625998 ], [ 452840.011961389973294, 9276974.486897138878703 ], [ 452834.529579044086859, 9276982.850119234994054 ], [ 452829.047196698200423, 9276991.213341329246759 ], [ 452823.564814352313988, 9276999.57656342536211 ], [ 452818.082432006427553, 9277007.939785519614816 ], [ 452812.600049660541117, 9277016.303007615730166 ], [ 452807.117667314654682, 9277024.666229709982872 ], [ 452801.635284968768246, 9277033.029451806098223 ], [ 452796.152902622881811, 9277041.392673900350928 ], [ 452790.670520276995376, 9277049.755895996466279 ], [ 452785.18813793110894, 9277058.119118090718985 ], [ 452779.705755585222505, 9277066.482340186834335 ], [ 452774.22337323933607, 9277074.845562281087041 ], [ 452768.740990893449634, 9277083.208784377202392 ], [ 452763.258608547563199, 9277091.572006471455097 ], [ 452757.776226201676764, 9277099.935228567570448 ], [ 452752.293843855790328, 9277108.298450661823153 ], [ 452746.811461509903893, 9277116.661672757938504 ], [ 452741.329079164017458, 9277125.02489485219121 ], [ 452735.846696818131022, 9277133.388116948306561 ], [ 452730.364314472244587, 9277141.751339042559266 ], [ 452724.881932126358151, 9277150.114561138674617 ], [ 452719.399549780471716, 9277158.477783232927322 ], [ 452713.917167434585281, 9277166.841005329042673 ], [ 452708.434785088698845, 9277175.204227423295379 ], [ 452702.95240274281241, 9277183.567449519410729 ], [ 452697.470020396925975, 9277191.930671613663435 ], [ 452691.987638051039539, 9277200.293893709778786 ], [ 452686.505255705153104, 9277208.657115804031491 ], [ 452681.022873359266669, 9277217.020337900146842 ], [ 452675.540491013380233, 9277225.383559994399548 ], [ 452670.058108667493798, 9277233.746782090514898 ], [ 452664.575726321607362, 9277242.110004184767604 ], [ 452659.093343975720927, 9277250.473226280882955 ], [ 452653.610961629834492, 9277258.83644837513566 ], [ 452648.128579283948056, 9277267.199670471251011 ], [ 452642.646196938061621, 9277275.562892565503716 ], [ 452637.163814592175186, 9277283.926114661619067 ], [ 452631.68143224628875, 9277292.289336755871773 ], [ 452626.199049900402315, 9277300.652558851987123 ], [ 452620.71666755451588, 9277309.015780946239829 ], [ 452615.743317061278503, 9277317.614520158618689 ], [ 452612.917974039679393, 9277327.207092117518187 ], [ 452610.092631018022075, 9277336.79966407828033 ], [ 452607.267287996422965, 9277346.392236039042473 ], [ 452604.441944974823855, 9277355.984807997941971 ], [ 452601.616601953166537, 9277365.577379958704114 ], [ 452598.791258931567427, 9277375.169951919466257 ], [ 452595.965915909910109, 9277384.762523878365755 ], [ 452593.140572888310999, 9277394.355095839127898 ], [ 452590.315229866711888, 9277403.947667799890041 ], [ 452587.489886845054571, 9277413.540239758789539 ], [ 452584.66454382345546, 9277423.132811719551682 ], [ 452581.83920080185635, 9277432.725383680313826 ], [ 452579.013857780199032, 9277442.317955639213324 ], [ 452576.188514758599922, 9277451.910527599975467 ], [ 452573.363171737000812, 9277461.50309956073761 ], [ 452570.537828715343494, 9277471.095671519637108 ], [ 452567.712485693744384, 9277480.688243480399251 ], [ 452564.887142672145274, 9277490.280815441161394 ], [ 452562.061799650487956, 9277499.873387400060892 ], [ 452559.236456628888845, 9277509.465959360823035 ], [ 452556.411113607289735, 9277519.058531321585178 ], [ 452553.585770585632417, 9277528.651103280484676 ], [ 452550.760427564033307, 9277538.243675241246819 ], [ 452547.935084542375989, 9277547.836247200146317 ], [ 452545.109741520776879, 9277557.428819160908461 ], [ 452542.284398499177769, 9277567.021391121670604 ], [ 452539.459055477520451, 9277576.613963080570102 ], [ 452536.633712455921341, 9277586.206535041332245 ], [ 452533.808369434322231, 9277595.799107002094388 ], [ 452530.983026412664913, 9277605.391678960993886 ], [ 452528.157683391065802, 9277614.984250921756029 ], [ 452525.332340369466692, 9277624.576822882518172 ], [ 452522.506997347809374, 9277634.16939484141767 ], [ 452519.681654326210264, 9277643.761966802179813 ], [ 452516.856311304611154, 9277653.354538762941957 ], [ 452514.030968282953836, 9277662.947110721841455 ], [ 452511.205625261354726, 9277672.539682682603598 ], [ 452508.380282239697408, 9277682.132254643365741 ], [ 452505.554939218098298, 9277691.724826602265239 ], [ 452502.729596196499187, 9277701.317398563027382 ], [ 452499.90425317484187, 9277710.909970523789525 ], [ 452497.078910153242759, 9277720.502542482689023 ], [ 452494.253567131643649, 9277730.095114443451166 ], [ 452491.428224109986331, 9277739.687686404213309 ], [ 452488.602881088387221, 9277749.280258363112807 ], [ 452485.777538066788111, 9277758.87283032387495 ], [ 452482.952195045130793, 9277768.465402284637094 ], [ 452480.126852023531683, 9277778.057974243536592 ], [ 452477.301509001932573, 9277787.650546204298735 ], [ 452474.476165980275255, 9277797.243118165060878 ], [ 452471.650822958676144, 9277806.835690123960376 ], [ 452468.825479937077034, 9277816.428262084722519 ], [ 452466.000136915419716, 9277826.020834045484662 ], [ 452463.174793893820606, 9277835.61340600438416 ], [ 452460.349450872163288, 9277845.205977965146303 ], [ 452457.524107850564178, 9277854.798549925908446 ], [ 452454.698764828965068, 9277864.391121884807944 ], [ 452451.87342180730775, 9277873.983693845570087 ], [ 452449.04807878570864, 9277883.576265806332231 ], [ 452446.22273576410953, 9277893.168837765231729 ], [ 452443.397392742452212, 9277902.761409725993872 ], [ 452440.572049720853101, 9277912.35398168489337 ], [ 452437.746706699253991, 9277921.946553645655513 ], [ 452434.921363677596673, 9277931.539125606417656 ], [ 452432.096020655997563, 9277941.131697565317154 ], [ 452429.270677634398453, 9277950.724269526079297 ], [ 452426.445334612741135, 9277960.31684148684144 ], [ 452423.619991591142025, 9277969.909413445740938 ], [ 452420.794648569542915, 9277979.501985406503081 ], [ 452417.969305547885597, 9277989.094557367265224 ], [ 452415.143962526286487, 9277998.687129326164722 ], [ 452412.318619504629169, 9278008.279701286926866 ], [ 452409.493276483030058, 9278017.872273247689009 ], [ 452406.667933461430948, 9278027.464845206588507 ], [ 452403.84259043977363, 9278037.05741716735065 ], [ 452401.01724741817452, 9278046.649989128112793 ], [ 452398.19190439657541, 9278056.242561087012291 ], [ 452395.366561374918092, 9278065.835133047774434 ], [ 452392.541218353318982, 9278075.427705008536577 ], [ 452389.715875331719872, 9278085.020276967436075 ], [ 452386.890532310062554, 9278094.612848928198218 ], [ 452384.065189288463444, 9278104.205420888960361 ], [ 452381.239846266864333, 9278113.797992847859859 ], [ 452378.414503245207015, 9278123.390564808622003 ], [ 452375.589160223607905, 9278132.983136769384146 ], [ 452372.763817202008795, 9278142.575708728283644 ], [ 452369.938474180351477, 9278152.168280689045787 ], [ 452367.113131158752367, 9278161.76085264980793 ], [ 452364.287788137095049, 9278171.353424608707428 ], [ 452361.462445115495939, 9278180.945996569469571 ], [ 452358.637102093896829, 9278190.538568530231714 ], [ 452355.811759072239511, 9278200.131140489131212 ], [ 452352.9864160506404, 9278209.723712449893355 ], [ 452350.16107302904129, 9278219.316284410655499 ], [ 452347.335730007383972, 9278228.908856369554996 ], [ 452344.510386985784862, 9278238.50142833031714 ], [ 452341.685043964185752, 9278248.094000291079283 ], [ 452338.859700942528434, 9278257.686572249978781 ], [ 452336.034357920929324, 9278267.279144210740924 ], [ 452333.209014899330214, 9278276.871716171503067 ], [ 452330.383671877672896, 9278286.464288130402565 ], [ 452329.254098205128685, 9278296.053889708593488 ], [ 452332.113029304717202, 9278305.636504851281643 ], [ 452334.971960404247511, 9278315.219119993969798 ], [ 452337.830891503777821, 9278324.801735136657953 ], [ 452340.689822603366338, 9278334.384350279346108 ], [ 452343.548753702896647, 9278343.966965420171618 ], [ 452346.407684802485164, 9278353.549580562859774 ], [ 452349.266615902015474, 9278363.132195705547929 ], [ 452352.125547001545783, 9278372.714810848236084 ], [ 452354.9844781011343, 9278382.297425990924239 ], [ 452357.84340920066461, 9278391.880041133612394 ], [ 452360.702340300194919, 9278401.46265627630055 ], [ 452363.561271399783436, 9278411.04527141712606 ], [ 452366.420202499313746, 9278420.627886559814215 ], [ 452369.279133598844055, 9278430.21050170250237 ], [ 452372.138064698432572, 9278439.793116845190525 ], [ 452374.996995797962882, 9278449.37573198787868 ], [ 452377.855926897493191, 9278458.958347130566835 ], [ 452380.714857997081708, 9278468.540962273254991 ], [ 452383.573789096612018, 9278478.123577414080501 ], [ 452386.432720196200535, 9278487.706192556768656 ], [ 452389.291651295730844, 9278497.288807699456811 ], [ 452392.150582395261154, 9278506.871422842144966 ], [ 452395.009513494849671, 9278516.454037984833121 ], [ 452397.86844459437998, 9278526.036653127521276 ], [ 452400.72737569391029, 9278535.619268270209432 ], [ 452403.586306793498807, 9278545.201883412897587 ], [ 452406.445237893029116, 9278554.784498553723097 ], [ 452409.304168992559426, 9278564.367113696411252 ], [ 452412.163100092147943, 9278573.949728839099407 ], [ 452415.022031191678252, 9278583.532343981787562 ], [ 452417.880962291266769, 9278593.114959124475718 ], [ 452420.739893390797079, 9278602.697574267163873 ], [ 452423.598824490327388, 9278612.280189409852028 ], [ 452426.457755589915905, 9278621.862804550677538 ], [ 452429.316686689446215, 9278631.445419693365693 ], [ 452432.175617788976524, 9278641.028034836053848 ], [ 452435.034548888565041, 9278650.610649978742003 ], [ 452437.893479988095351, 9278660.193265121430159 ], [ 452440.75241108762566, 9278669.775880264118314 ], [ 452443.611342187214177, 9278679.358495406806469 ], [ 452446.470273286744487, 9278688.941110547631979 ], [ 452449.329204386274796, 9278698.523725690320134 ], [ 452452.188135485863313, 9278708.106340833008289 ], [ 452455.047066585393623, 9278717.688955975696445 ], [ 452457.90599768498214, 9278727.2715711183846 ], [ 452460.764928784512449, 9278736.854186261072755 ], [ 452463.623859884042758, 9278746.43680140376091 ], [ 452466.482790983631276, 9278756.019416546449065 ], [ 452469.341722083161585, 9278765.602031687274575 ], [ 452472.200653182691894, 9278775.18464682996273 ], [ 452475.059584282280412, 9278784.767261972650886 ], [ 452477.918515381810721, 9278794.349877115339041 ], [ 452480.77744648134103, 9278803.932492258027196 ], [ 452483.636377580929548, 9278813.515107400715351 ], [ 452486.495308680459857, 9278823.097722543403506 ], [ 452489.354239780048374, 9278832.680337684229016 ], [ 452492.213170879578684, 9278842.262952826917171 ], [ 452495.072101979108993, 9278851.845567969605327 ], [ 452497.93103307869751, 9278861.428183112293482 ], [ 452500.78996417822782, 9278871.010798254981637 ], [ 452503.648895277758129, 9278880.593413397669792 ], [ 452506.507826377346646, 9278890.176028540357947 ], [ 452509.366757476876955, 9278899.758643681183457 ], [ 452512.225688576407265, 9278909.341258823871613 ], [ 452515.084619675995782, 9278918.923873966559768 ], [ 452517.943550775526091, 9278928.506489109247923 ], [ 452520.802481875056401, 9278938.089104251936078 ], [ 452523.661412974644918, 9278947.671719394624233 ], [ 452526.520344074175227, 9278957.254334537312388 ], [ 452529.379275173763745, 9278966.836949680000544 ], [ 452532.238206273294054, 9278976.419564820826054 ], [ 452535.097137372824363, 9278986.002179963514209 ], [ 452537.956068472412881, 9278995.584795106202364 ], [ 452540.81499957194319, 9279005.167410248890519 ], [ 452543.673930671473499, 9279014.750025391578674 ], [ 452546.532861771062016, 9279024.332640534266829 ], [ 452549.391792870592326, 9279033.915255676954985 ], [ 452552.250723970122635, 9279043.497870817780495 ], [ 452551.798425748420414, 9279053.164020922034979 ], [ 452549.426320081111044, 9279062.878603501245379 ], [ 452547.054214413801674, 9279072.59318608045578 ], [ 452544.682108746492304, 9279082.307768661528826 ], [ 452542.310003079182934, 9279092.022351240739226 ], [ 452539.937897411873564, 9279101.736933821812272 ], [ 452537.565791744564194, 9279111.451516401022673 ], [ 452535.193686077254824, 9279121.166098980233073 ], [ 452532.821580409945454, 9279130.880681561306119 ], [ 452530.449474742636085, 9279140.59526414051652 ], [ 452528.077369075326715, 9279150.309846721589565 ], [ 452525.705263408017345, 9279160.024429300799966 ], [ 452523.333157740707975, 9279169.739011881873012 ], [ 452520.961052073398605, 9279179.453594461083412 ], [ 452518.588946406089235, 9279189.168177040293813 ], [ 452516.216840738779865, 9279198.882759621366858 ], [ 452513.844735071470495, 9279208.597342200577259 ], [ 452511.472629404161125, 9279218.311924781650305 ], [ 452509.100523736851756, 9279228.026507360860705 ], [ 452506.728418069542386, 9279237.741089940071106 ], [ 452504.356312402233016, 9279247.455672521144152 ], [ 452501.984206734923646, 9279257.170255100354552 ], [ 452499.612101067614276, 9279266.884837681427598 ], [ 452497.239995400304906, 9279276.599420260637999 ], [ 452494.867889732995536, 9279286.314002839848399 ], [ 452492.495784065686166, 9279296.028585420921445 ], [ 452490.123678398376796, 9279305.743168000131845 ], [ 452487.751572731067427, 9279315.457750581204891 ], [ 452485.379467063758057, 9279325.172333160415292 ], [ 452483.007361396448687, 9279334.886915741488338 ], [ 452480.635255729139317, 9279344.601498320698738 ], [ 452478.263150061829947, 9279354.316080899909139 ], [ 452475.891044394520577, 9279364.030663480982184 ], [ 452473.518938727211207, 9279373.745246060192585 ], [ 452471.146833059901837, 9279383.459828641265631 ], [ 452468.774727392592467, 9279393.174411220476031 ], [ 452466.402621725283097, 9279402.888993799686432 ], [ 452464.030516057973728, 9279412.603576380759478 ], [ 452461.658410390664358, 9279422.318158959969878 ], [ 452459.286304723354988, 9279432.032741541042924 ], [ 452456.914199056045618, 9279441.747324120253325 ], [ 452454.542093388736248, 9279451.461906699463725 ], [ 452452.169987721426878, 9279461.176489280536771 ], [ 452449.797882054117508, 9279470.891071859747171 ], [ 452447.425776386808138, 9279480.605654440820217 ], [ 452445.053670719498768, 9279490.320237020030618 ], [ 452442.681565052189399, 9279500.034819599241018 ], [ 452440.309459384880029, 9279509.749402180314064 ], [ 452437.937353717570659, 9279519.463984759524465 ], [ 452435.565248050261289, 9279529.17856734059751 ], [ 452433.193142382951919, 9279538.893149919807911 ], [ 452430.821036715642549, 9279548.607732500880957 ], [ 452428.448931048333179, 9279558.322315080091357 ], [ 452426.076825381023809, 9279568.036897659301758 ], [ 452423.704719713714439, 9279577.751480240374804 ], [ 452421.33261404640507, 9279587.466062819585204 ], [ 452418.9605083790957, 9279597.18064540065825 ], [ 452416.58840271178633, 9279606.89522797986865 ], [ 452414.21629704447696, 9279616.609810559079051 ], [ 452411.84419137716759, 9279626.324393140152097 ], [ 452409.47208570985822, 9279636.038975719362497 ], [ 452407.09998004254885, 9279645.753558300435543 ], [ 452404.72787437523948, 9279655.468140879645944 ], [ 452402.35576870793011, 9279665.182723458856344 ], [ 452399.983663040620741, 9279674.89730603992939 ], [ 452397.611557373311371, 9279684.611888619139791 ], [ 452395.239451706002001, 9279694.326471200212836 ], [ 452392.867346038692631, 9279704.041053779423237 ], [ 452390.495240371383261, 9279713.755636358633637 ], [ 452388.123134704073891, 9279723.470218939706683 ], [ 452385.751029036764521, 9279733.184801518917084 ], [ 452383.378923369455151, 9279742.899384099990129 ], [ 452381.006817702145781, 9279752.61396667920053 ], [ 452378.634712034836411, 9279762.328549260273576 ], [ 452376.262606367527042, 9279772.043131839483976 ], [ 452373.890500700217672, 9279781.757714418694377 ], [ 452371.518395032908302, 9279791.472296999767423 ], [ 452369.146289365598932, 9279801.186879578977823 ], [ 452366.774183698289562, 9279810.901462160050869 ], [ 452364.402078030980192, 9279820.61604473926127 ], [ 452362.029972363670822, 9279830.33062731847167 ], [ 452359.657866696361452, 9279840.045209899544716 ], [ 452357.285761029052082, 9279849.759792478755116 ], [ 452354.913655361742713, 9279859.474375059828162 ], [ 452352.541549694433343, 9279869.188957639038563 ], [ 452350.169444027123973, 9279878.903540218248963 ], [ 452347.797338359814603, 9279888.618122799322009 ], [ 452345.425232692505233, 9279898.33270537853241 ], [ 452343.053127025195863, 9279908.047287959605455 ], [ 452340.681021357886493, 9279917.761870538815856 ], [ 452338.308915690577123, 9279927.476453118026257 ], [ 452335.936810023267753, 9279937.191035699099302 ], [ 452333.564704355958384, 9279946.905618278309703 ], [ 452331.192598688649014, 9279956.620200859382749 ], [ 452328.820493021339644, 9279966.334783438593149 ], [ 452326.448387354030274, 9279976.049366019666195 ], [ 452324.076281686720904, 9279985.763948598876595 ], [ 452321.704176019411534, 9279995.478531178086996 ], [ 452319.332070352102164, 9280005.193113759160042 ], [ 452316.959964684792794, 9280014.907696338370442 ], [ 452314.587859017483424, 9280024.622278919443488 ], [ 452312.215753350174055, 9280034.336861498653889 ], [ 452309.843647682864685, 9280044.051444077864289 ], [ 452307.471542015555315, 9280053.766026658937335 ], [ 452305.099436348245945, 9280063.480609238147736 ], [ 452302.727330680936575, 9280073.195191819220781 ], [ 452300.355225013627205, 9280082.909774398431182 ], [ 452297.983119346317835, 9280092.624356977641582 ], [ 452295.611013679008465, 9280102.338939558714628 ], [ 452293.238908011699095, 9280112.053522137925029 ], [ 452290.866802344389725, 9280121.768104718998075 ], [ 452288.494696677080356, 9280131.482687298208475 ], [ 452286.122591009770986, 9280141.197269877418876 ], [ 452283.750485342461616, 9280150.911852458491921 ], [ 452281.378379675152246, 9280160.626435037702322 ], [ 452279.006274007842876, 9280170.341017618775368 ], [ 452276.634168340533506, 9280180.055600197985768 ], [ 452274.262062673224136, 9280189.770182779058814 ], [ 452271.889957005914766, 9280199.484765358269215 ], [ 452269.517851338605396, 9280209.199347937479615 ], [ 452267.145745671296027, 9280218.913930518552661 ], [ 452264.773640003986657, 9280228.628513097763062 ], [ 452262.401534336677287, 9280238.343095678836107 ], [ 452260.029428669367917, 9280248.057678258046508 ], [ 452257.657323002058547, 9280257.772260837256908 ], [ 452255.285217334749177, 9280267.486843418329954 ], [ 452252.913111667439807, 9280277.201425997540355 ], [ 452250.541006000130437, 9280286.9160085786134 ], [ 452248.168900332821067, 9280296.630591157823801 ], [ 452245.796794665511698, 9280306.345173737034202 ], [ 452243.424688998202328, 9280316.059756318107247 ], [ 452241.052583330892958, 9280325.774338897317648 ], [ 452238.680477663583588, 9280335.488921478390694 ], [ 452236.308371996274218, 9280345.203504057601094 ], [ 452233.936266328964848, 9280354.918086636811495 ], [ 452231.564160661655478, 9280364.632669217884541 ], [ 452229.192054994346108, 9280374.347251797094941 ], [ 452226.819949327036738, 9280384.061834378167987 ], [ 452224.447843659727369, 9280393.776416957378387 ], [ 452222.075737992417999, 9280403.490999538451433 ], [ 452219.703632325108629, 9280413.205582117661834 ], [ 452217.331526657799259, 9280422.920164696872234 ], [ 452214.959420990489889, 9280432.63474727794528 ], [ 452212.587315323180519, 9280442.349329857155681 ], [ 452210.215209655871149, 9280452.063912438228726 ], [ 452207.843103988561779, 9280461.778495017439127 ], [ 452205.470998321252409, 9280471.493077596649528 ], [ 452203.098892653943039, 9280481.207660177722573 ], [ 452200.72678698663367, 9280490.922242756932974 ], [ 452198.3546813193243, 9280500.63682533800602 ], [ 452195.98257565201493, 9280510.35140791721642 ], [ 452193.61046998470556, 9280520.065990496426821 ], [ 452191.23836431739619, 9280529.780573077499866 ], [ 452188.86625865008682, 9280539.495155656710267 ], [ 452186.49415298277745, 9280549.209738237783313 ], [ 452184.12204731546808, 9280558.924320816993713 ], [ 452181.74994164815871, 9280568.638903398066759 ], [ 452179.377835980849341, 9280578.35348597727716 ], [ 452177.005730313539971, 9280588.06806855648756 ], [ 452174.633624646230601, 9280597.782651137560606 ], [ 452172.261518978921231, 9280607.497233716771007 ], [ 452169.889413311611861, 9280617.211816297844052 ], [ 452167.517307644302491, 9280626.926398877054453 ], [ 452165.145201976993121, 9280636.640981456264853 ], [ 452162.773096309683751, 9280646.355564037337899 ], [ 452160.400990642374381, 9280656.0701466165483 ], [ 452158.028884975065012, 9280665.784729197621346 ], [ 452155.656779307755642, 9280675.499311776831746 ], [ 452153.284673640446272, 9280685.213894356042147 ], [ 452150.912567973136902, 9280694.928476937115192 ], [ 452148.540462305827532, 9280704.643059516325593 ], [ 452146.168356638518162, 9280714.357642097398639 ], [ 452143.796250971208792, 9280724.072224676609039 ], [ 452141.424145303899422, 9280733.78680725581944 ], [ 452139.052039636590052, 9280743.501389836892486 ], [ 452136.679933969280683, 9280753.215972416102886 ], [ 452134.307828301913105, 9280762.930554997175932 ], [ 452131.935722634603735, 9280772.645137576386333 ], [ 452129.563616967294365, 9280782.359720157459378 ], [ 452127.191511299984995, 9280792.074302736669779 ], [ 452124.819405632675625, 9280801.788885315880179 ], [ 452122.447299965366255, 9280811.503467896953225 ], [ 452120.075194298056886, 9280821.218050476163626 ], [ 452117.703088630747516, 9280830.932633057236671 ], [ 452115.330982963438146, 9280840.647215636447072 ], [ 452112.958877296128776, 9280850.361798215657473 ], [ 452110.586771628819406, 9280860.076380796730518 ], [ 452108.214665961510036, 9280869.790963375940919 ], [ 452105.842560294200666, 9280879.505545957013965 ], [ 452103.470454626891296, 9280889.220128536224365 ], [ 452101.098348959581926, 9280898.934711115434766 ], [ 452098.726243292272557, 9280908.649293696507812 ], [ 452096.354137624963187, 9280918.363876275718212 ], [ 452093.982031957653817, 9280928.078458856791258 ], [ 452091.609926290344447, 9280937.793041436001658 ], [ 452089.237820623035077, 9280947.507624015212059 ], [ 452086.865714955725707, 9280957.222206596285105 ], [ 452084.493609288416337, 9280966.936789175495505 ], [ 452082.121503621106967, 9280976.651371756568551 ], [ 452079.749397953797597, 9280986.365954335778952 ], [ 452077.377292286488228, 9280996.080536916851997 ], [ 452075.005186619178858, 9281005.795119496062398 ], [ 452072.633080951869488, 9281015.509702075272799 ], [ 452070.260975284560118, 9281025.224284656345844 ], [ 452067.888869617250748, 9281034.938867235556245 ], [ 452065.516763949941378, 9281044.653449816629291 ], [ 452063.144658282632008, 9281054.368032395839691 ], [ 452060.772552615322638, 9281064.082614975050092 ], [ 452058.400446948013268, 9281073.797197556123137 ], [ 452056.028341280703899, 9281083.511780135333538 ], [ 452053.656235613394529, 9281093.226362716406584 ], [ 452051.284129946085159, 9281102.940945295616984 ], [ 452048.912024278775789, 9281112.655527874827385 ], [ 452046.539918611466419, 9281122.370110455900431 ], [ 452044.167812944157049, 9281132.084693035110831 ], [ 452041.795707276847679, 9281141.799275616183877 ], [ 452039.423601609538309, 9281151.513858195394278 ], [ 452037.051495942228939, 9281161.228440774604678 ], [ 452034.679390274919569, 9281170.943023355677724 ], [ 452032.3072846076102, 9281180.657605934888124 ], [ 452029.93517894030083, 9281190.37218851596117 ], [ 452027.56307327299146, 9281200.086771095171571 ], [ 452025.19096760568209, 9281209.801353676244617 ], [ 452022.81886193837272, 9281219.515936255455017 ], [ 452020.44675627106335, 9281229.230518834665418 ], [ 452018.07465060375398, 9281238.945101415738463 ], [ 452015.70254493644461, 9281248.659683994948864 ], [ 452013.33043926913524, 9281258.37426657602191 ], [ 452010.958333601825871, 9281268.08884915523231 ], [ 452008.586227934516501, 9281277.803431734442711 ], [ 452006.214122267207131, 9281287.518014315515757 ], [ 452003.842016599897761, 9281297.232596894726157 ], [ 452001.469910932588391, 9281306.947179475799203 ], [ 451999.097805265279021, 9281316.661762055009604 ], [ 451996.725699597969651, 9281326.376344634220004 ], [ 451994.353593930660281, 9281336.09092721529305 ], [ 451991.981488263350911, 9281345.80550979450345 ], [ 451989.609382596041542, 9281355.520092375576496 ], [ 451987.237276928732172, 9281365.234674954786897 ], [ 451984.865171261422802, 9281374.949257533997297 ], [ 451982.493065594113432, 9281384.663840115070343 ], [ 451980.120959926804062, 9281394.378422694280744 ], [ 451977.748854259494692, 9281404.093005275353789 ], [ 451975.376748592185322, 9281413.80758785456419 ], [ 451973.004642924875952, 9281423.522170435637236 ], [ 451970.632537257566582, 9281433.236753014847636 ], [ 451968.260431590257213, 9281442.951335594058037 ], [ 451965.888325922947843, 9281452.665918175131083 ], [ 451963.516220255638473, 9281462.380500754341483 ], [ 451961.144114588329103, 9281472.095083335414529 ], [ 451958.772008921019733, 9281481.809665914624929 ], [ 451956.372878631867934, 9281491.517130352556705 ], [ 451953.651665579702239, 9281501.139759907498956 ], [ 451950.930452527594753, 9281510.762389460578561 ], [ 451948.209239475429058, 9281520.385019013658166 ], [ 451945.488026423321571, 9281530.007648566737771 ], [ 451942.766813371155877, 9281539.630278121680021 ], [ 451940.045600318990182, 9281549.252907674759626 ], [ 451937.324387266882695, 9281558.875537227839231 ], [ 451934.603174214717001, 9281568.498166780918837 ], [ 451931.881961162551306, 9281578.120796335861087 ], [ 451929.160748110443819, 9281587.743425888940692 ], [ 451926.439535058278125, 9281597.366055442020297 ], [ 451923.718322006170638, 9281606.988684995099902 ], [ 451920.997108954004943, 9281616.611314550042152 ], [ 451918.275895901839249, 9281626.233944103121758 ], [ 451915.554682849731762, 9281635.856573656201363 ], [ 451912.833469797566067, 9281645.479203209280968 ], [ 451910.112256745400373, 9281655.101832764223218 ], [ 451907.391043693292886, 9281664.724462317302823 ], [ 451904.669830641127191, 9281674.347091870382428 ], [ 451901.948617589019705, 9281683.969721423462033 ], [ 451899.22740453685401, 9281693.592350978404284 ], [ 451896.506191484688316, 9281703.214980531483889 ], [ 451893.784978432580829, 9281712.837610084563494 ], [ 451891.063765380415134, 9281722.460239637643099 ], [ 451888.34255232824944, 9281732.082869192585349 ], [ 451885.621339276141953, 9281741.705498745664954 ], [ 451882.900126223976258, 9281751.328128298744559 ], [ 451880.178913171810564, 9281760.950757851824164 ], [ 451877.457700119703077, 9281770.573387406766415 ], [ 451874.736487067537382, 9281780.19601695984602 ], [ 451872.015274015429895, 9281789.818646512925625 ], [ 451869.294060963264201, 9281799.44127606600523 ], [ 451866.572847911098506, 9281809.06390562094748 ], [ 451863.851634858991019, 9281818.686535174027085 ], [ 451861.130421806825325, 9281828.30916472710669 ], [ 451858.40920875465963, 9281837.931794280186296 ], [ 451855.687995702552143, 9281847.554423835128546 ], [ 451852.966782650386449, 9281857.177053388208151 ], [ 451850.245569598278962, 9281866.799682941287756 ], [ 451847.524356546113268, 9281876.422312494367361 ], [ 451844.803143493947573, 9281886.044942049309611 ], [ 451842.081930441840086, 9281895.667571602389216 ], [ 451839.360717389674392, 9281905.290201155468822 ], [ 451836.639504337508697, 9281914.912830708548427 ], [ 451833.91829128540121, 9281924.535460263490677 ], [ 451831.197078233235516, 9281934.158089816570282 ], [ 451828.475865181128029, 9281943.780719369649887 ], [ 451825.754652128962334, 9281953.403348922729492 ], [ 451823.03343907679664, 9281963.025978477671742 ], [ 451820.312226024689153, 9281972.648608030751348 ], [ 451817.591012972523458, 9281982.271237583830953 ], [ 451814.869799920357764, 9281991.893867136910558 ], [ 451812.148586868250277, 9282001.516496691852808 ], [ 451809.427373816084582, 9282011.139126244932413 ], [ 451806.706160763977095, 9282020.761755798012018 ], [ 451803.984947711811401, 9282030.384385351091623 ], [ 451801.263734659645706, 9282040.007014906033874 ], [ 451798.54252160753822, 9282049.629644459113479 ], [ 451795.821308555372525, 9282059.252274012193084 ], [ 451793.10009550320683, 9282068.874903565272689 ], [ 451790.378882451099344, 9282078.497533120214939 ], [ 451787.657669398933649, 9282088.120162673294544 ], [ 451784.936456346767955, 9282097.742792226374149 ], [ 451782.215243294660468, 9282107.365421779453754 ], [ 451779.494030242494773, 9282116.988051334396005 ], [ 451776.772817190387286, 9282126.61068088747561 ], [ 451774.051604138221592, 9282136.233310440555215 ], [ 451771.330391086055897, 9282145.85593999363482 ], [ 451768.60917803394841, 9282155.47856954857707 ], [ 451765.887964981782716, 9282165.101199101656675 ], [ 451763.166751929617021, 9282174.72382865473628 ], [ 451760.445538877509534, 9282184.346458207815886 ], [ 451757.72432582534384, 9282193.969087762758136 ], [ 451755.003112773236353, 9282203.591717315837741 ], [ 451752.281899721070658, 9282213.214346868917346 ], [ 451749.560686668904964, 9282222.836976421996951 ], [ 451746.839473616797477, 9282232.459605976939201 ], [ 451744.118260564631782, 9282242.082235530018806 ], [ 451741.397047512466088, 9282251.704865083098412 ], [ 451738.675834460358601, 9282261.327494636178017 ], [ 451735.954621408192907, 9282270.950124191120267 ], [ 451733.23340835608542, 9282280.572753744199872 ], [ 451730.512195303919725, 9282290.195383297279477 ], [ 451727.790982251754031, 9282299.818012850359082 ], [ 451725.069769199646544, 9282309.440642405301332 ], [ 451722.348556147480849, 9282319.063271958380938 ], [ 451719.627343095315155, 9282328.685901511460543 ], [ 451716.906130043207668, 9282338.308531064540148 ], [ 451714.184916991041973, 9282347.931160619482398 ], [ 451711.463703938934486, 9282357.553790172562003 ], [ 451708.742490886768792, 9282367.176419725641608 ], [ 451706.021277834603097, 9282376.799049278721213 ], [ 451703.30006478249561, 9282386.421678833663464 ], [ 451700.578851730329916, 9282396.044308386743069 ], [ 451697.857638678164221, 9282405.666937939822674 ], [ 451695.136425626056734, 9282415.289567492902279 ], [ 451692.41521257389104, 9282424.912197047844529 ], [ 451689.693999521783553, 9282434.534826600924134 ], [ 451686.972786469617859, 9282444.157456154003739 ], [ 451684.251573417452164, 9282453.78008570894599 ], [ 451681.530360365344677, 9282463.402715262025595 ], [ 451678.809147313178983, 9282473.0253448151052 ], [ 451676.087934261013288, 9282482.647974368184805 ], [ 451673.366721208905801, 9282492.270603923127055 ], [ 451670.645508156740107, 9282501.89323347620666 ], [ 451667.924295104574412, 9282511.515863029286265 ], [ 451665.203082052466925, 9282521.13849258236587 ], [ 451662.481869000301231, 9282530.761122137308121 ], [ 451659.760655948193744, 9282540.383751690387726 ], [ 451657.039442896028049, 9282550.006381243467331 ], [ 451654.318229843862355, 9282559.629010796546936 ], [ 451651.597016791754868, 9282569.251640351489186 ], [ 451648.875803739589173, 9282578.874269904568791 ], [ 451646.154590687423479, 9282588.496899457648396 ], [ 451643.433377635315992, 9282598.119529010728002 ], [ 451640.712164583150297, 9282607.742158565670252 ], [ 451637.990951531042811, 9282617.364788118749857 ], [ 451635.269738478877116, 9282626.987417671829462 ], [ 451632.548525426711421, 9282636.610047224909067 ], [ 451629.827312374603935, 9282646.232676779851317 ], [ 451627.10609932243824, 9282655.855306332930923 ], [ 451624.384886270272546, 9282665.477935886010528 ], [ 451621.663673218165059, 9282675.100565439090133 ], [ 451618.942460165999364, 9282684.723194994032383 ], [ 451616.221247113891877, 9282694.345824547111988 ], [ 451613.500034061726183, 9282703.968454100191593 ], [ 451610.778821009560488, 9282713.591083653271198 ], [ 451608.057607957453001, 9282723.213713208213449 ], [ 451605.336394905287307, 9282732.836342761293054 ], [ 451602.615181853121612, 9282742.458972314372659 ], [ 451599.893968801014125, 9282752.081601867452264 ], [ 451597.172755748848431, 9282761.704231422394514 ], [ 451594.451542696740944, 9282771.326860975474119 ], [ 451591.730329644575249, 9282780.949490528553724 ], [ 451589.009116592409555, 9282790.572120081633329 ], [ 451586.287903540302068, 9282800.19474963657558 ], [ 451583.566690488136373, 9282809.817379189655185 ], [ 451580.845477435970679, 9282819.44000874273479 ], [ 451578.124264383863192, 9282829.062638295814395 ], [ 451575.403051331697498, 9282838.685267850756645 ], [ 451572.681838279531803, 9282848.30789740383625 ], [ 451569.960625227424316, 9282857.930526956915855 ], [ 451567.239412175258622, 9282867.553156509995461 ], [ 451564.518199123151135, 9282877.175786064937711 ], [ 451561.79698607098544, 9282886.798415618017316 ], [ 451559.075773018819746, 9282896.421045171096921 ], [ 451556.354559966712259, 9282906.043674724176526 ], [ 451553.633346914546564, 9282915.666304279118776 ], [ 451550.91213386238087, 9282925.288933832198381 ], [ 451548.190920810273383, 9282934.911563385277987 ], [ 451545.469707758107688, 9282944.534192938357592 ], [ 451542.748494706000201, 9282954.156822493299842 ], [ 451540.027281653834507, 9282963.779452046379447 ], [ 451537.306068601668812, 9282973.402081599459052 ], [ 451534.584855549561325, 9282983.024711152538657 ], [ 451531.863642497395631, 9282992.647340707480907 ], [ 451529.142429445229936, 9283002.269970260560513 ], [ 451526.42121639312245, 9283011.892599813640118 ], [ 451524.361807962006424, 9283021.635710045695305 ], [ 451523.517250751028769, 9283031.599982379004359 ], [ 451522.672693540109321, 9283041.564254712313414 ], [ 451521.828136329189874, 9283051.528527043759823 ], [ 451520.983579118270427, 9283061.492799377068877 ], [ 451520.13902190735098, 9283071.457071708515286 ], [ 451519.294464696431533, 9283081.421344041824341 ], [ 451518.449907485512085, 9283091.385616375133395 ], [ 451517.605350274592638, 9283101.349888706579804 ], [ 451516.760793063673191, 9283111.314161039888859 ], [ 451515.916235852753744, 9283121.278433371335268 ], [ 451515.071678641834296, 9283131.242705704644322 ], [ 451514.227121430914849, 9283141.206978037953377 ], [ 451513.382564219995402, 9283151.171250369399786 ], [ 451512.538007009075955, 9283161.13552270270884 ], [ 451511.6934497980983, 9283171.09979503415525 ], [ 451510.848892587178852, 9283181.064067367464304 ], [ 451510.004335376259405, 9283191.028339700773358 ], [ 451509.159778165339958, 9283200.992612032219768 ], [ 451508.315220954420511, 9283210.956884365528822 ], [ 451507.470663743501063, 9283220.921156696975231 ], [ 451506.626106532581616, 9283230.885429030284286 ], [ 451505.781549321662169, 9283240.84970136359334 ], [ 451504.936992110742722, 9283250.813973695039749 ], [ 451504.092434899823274, 9283260.778246028348804 ], [ 451503.247877688903827, 9283270.742518359795213 ], [ 451502.40332047798438, 9283280.706790693104267 ], [ 451501.558763267064933, 9283290.671063026413321 ], [ 451500.714206056145485, 9283300.635335357859731 ], [ 451499.869648845167831, 9283310.599607691168785 ], [ 451499.025091634248383, 9283320.563880022615194 ], [ 451498.180534423328936, 9283330.528152355924249 ], [ 451497.335977212409489, 9283340.492424689233303 ], [ 451496.491420001490042, 9283350.456697020679712 ], [ 451495.646862790570594, 9283360.420969353988767 ], [ 451494.802305579651147, 9283370.385241685435176 ], [ 451493.9577483687317, 9283380.34951401874423 ], [ 451493.113191157812253, 9283390.313786352053285 ], [ 451492.268633946892805, 9283400.278058683499694 ], [ 451491.424076735973358, 9283410.242331016808748 ], [ 451490.579519525053911, 9283420.206603348255157 ], [ 451489.734962314134464, 9283430.170875681564212 ], [ 451488.890405103215016, 9283440.135148014873266 ], [ 451488.045847892237362, 9283450.099420346319675 ], [ 451487.201290681317914, 9283460.06369267962873 ], [ 451486.356733470398467, 9283470.027965011075139 ], [ 451485.51217625947902, 9283479.992237344384193 ], [ 451484.667619048559573, 9283489.956509677693248 ], [ 451483.823061837640125, 9283499.920782009139657 ], [ 451482.978504626720678, 9283509.885054342448711 ], [ 451482.133947415801231, 9283519.849326673895121 ], [ 451481.289390204881784, 9283529.813599007204175 ], [ 451480.444832993962336, 9283539.777871340513229 ], [ 451479.600275783042889, 9283549.742143671959639 ], [ 451478.755718572123442, 9283559.706416005268693 ], [ 451477.911161361203995, 9283569.670688336715102 ], [ 451477.06660415022634, 9283579.634960670024157 ], [ 451476.222046939306892, 9283589.599233003333211 ], [ 451475.377489728387445, 9283599.56350533477962 ], [ 451474.532932517467998, 9283609.527777668088675 ], [ 451473.688375306548551, 9283619.492049999535084 ], [ 451472.843818095629103, 9283629.456322332844138 ], [ 451471.999260884709656, 9283639.420594666153193 ], [ 451471.154703673790209, 9283649.384866997599602 ], [ 451470.310146462870762, 9283659.349139330908656 ], [ 451469.465589251951315, 9283669.313411662355065 ], [ 451468.621032041031867, 9283679.27768399566412 ], [ 451467.77647483011242, 9283689.241956328973174 ], [ 451466.931917619192973, 9283699.206228660419583 ], [ 451466.087360408273526, 9283709.170500993728638 ], [ 451465.242803197295871, 9283719.134773325175047 ], [ 451464.398245986376423, 9283729.099045658484101 ], [ 451463.553688775456976, 9283739.063317991793156 ], [ 451462.709131564537529, 9283749.027590323239565 ], [ 451461.864574353618082, 9283758.991862656548619 ], [ 451461.020017142698634, 9283768.956134987995028 ], [ 451460.175459931779187, 9283778.920407321304083 ], [ 451459.33090272085974, 9283788.884679654613137 ], [ 451458.486345509940293, 9283798.848951986059546 ], [ 451457.641788299020845, 9283808.813224319368601 ], [ 451456.797231088101398, 9283818.77749665081501 ], [ 451455.952673877181951, 9283828.741768984124064 ], [ 451455.108116666262504, 9283838.706041317433119 ], [ 451454.263559455343056, 9283848.670313648879528 ], [ 451453.419002244365402, 9283858.634585982188582 ], [ 451452.574445033445954, 9283868.598858313634992 ], [ 451451.729887822526507, 9283878.563130646944046 ], [ 451450.88533061160706, 9283888.5274029802531 ], [ 451450.040773400687613, 9283898.49167531169951 ], [ 451449.196216189768165, 9283908.455947645008564 ], [ 451448.351658978848718, 9283918.420219976454973 ], [ 451447.507101767929271, 9283928.384492309764028 ], [ 451446.662544557009824, 9283938.348764643073082 ], [ 451445.817987346090376, 9283948.313036974519491 ], [ 451444.973430135170929, 9283958.277309307828546 ], [ 451444.128872924251482, 9283968.241581639274955 ], [ 451443.284315713332035, 9283978.205853972584009 ], [ 451442.439758502412587, 9283988.170126305893064 ], [ 451441.595201291434933, 9283998.134398637339473 ], [ 451440.750644080515485, 9284008.098670970648527 ], [ 451439.906086869596038, 9284018.062943302094936 ], [ 451439.061529658676591, 9284028.027215635403991 ], [ 451438.216972447757144, 9284037.991487968713045 ], [ 451437.372415236837696, 9284047.955760300159454 ], [ 451436.527858025918249, 9284057.920032633468509 ], [ 451435.683300814998802, 9284067.884304964914918 ], [ 451434.838743604079355, 9284077.848577298223972 ], [ 451433.994186393159907, 9284087.812849629670382 ], [ 451433.14962918224046, 9284097.777121962979436 ], [ 451432.305071971321013, 9284107.74139429628849 ], [ 451431.460514760401566, 9284117.7056666277349 ], [ 451430.615957549482118, 9284127.669938961043954 ], [ 451429.771400338504463, 9284137.634211292490363 ], [ 451428.926843127585016, 9284147.598483625799417 ], [ 451428.082285916665569, 9284157.562755959108472 ], [ 451427.237728705746122, 9284167.527028290554881 ], [ 451426.393171494826674, 9284177.491300623863935 ], [ 451425.548614283907227, 9284187.455572955310345 ], [ 451424.70405707298778, 9284197.419845288619399 ], [ 451423.859499862068333, 9284207.384117621928453 ], [ 451423.014942651148885, 9284217.348389953374863 ], [ 451422.170385440229438, 9284227.312662286683917 ], [ 451421.325828229309991, 9284237.276934618130326 ], [ 451416.414328714250587, 9284245.498463574796915 ], [ 451409.781995444151107, 9284252.982590470463037 ], [ 451403.149662174051628, 9284260.46671736612916 ], [ 451396.517328903952148, 9284267.950844261795282 ], [ 451389.884995633852668, 9284275.434971157461405 ], [ 451383.252662363811396, 9284282.919098053127527 ], [ 451376.620329093711916, 9284290.403224950656295 ], [ 451369.987995823612437, 9284297.887351846322417 ], [ 451363.355662553512957, 9284305.37147874198854 ], [ 451356.723329283413477, 9284312.855605637654662 ], [ 451350.090996013313998, 9284320.339732533320785 ], [ 451343.458662743214518, 9284327.823859428986907 ], [ 451336.826329473115038, 9284335.307986324653029 ], [ 451330.193996203015558, 9284342.792113222181797 ], [ 451323.561662932916079, 9284350.276240117847919 ], [ 451316.929329662816599, 9284357.760367013514042 ], [ 451310.296996392717119, 9284365.244493909180164 ], [ 451303.66466312261764, 9284372.728620804846287 ], [ 451297.03232985251816, 9284380.212747700512409 ], [ 451290.39999658241868, 9284387.696874596178532 ], [ 451283.7676633123192, 9284395.181001493707299 ], [ 451277.135330042219721, 9284402.665128389373422 ], [ 451270.502996772120241, 9284410.149255285039544 ], [ 451263.870663502078969, 9284417.633382180705667 ], [ 451257.238330231979489, 9284425.117509076371789 ], [ 451250.60599696188001, 9284432.601635972037911 ], [ 451243.97366369178053, 9284440.085762867704034 ], [ 451237.34133042168105, 9284447.569889765232801 ], [ 451230.708997151581571, 9284455.054016660898924 ], [ 451224.076663881482091, 9284462.538143556565046 ], [ 451217.444330611382611, 9284470.022270452231169 ], [ 451210.811997341283131, 9284477.506397347897291 ], [ 451204.179664071183652, 9284484.990524243563414 ], [ 451197.547330801084172, 9284492.474651139229536 ], [ 451190.914997530984692, 9284499.958778036758304 ], [ 451184.282664260885213, 9284507.442904932424426 ], [ 451177.650330990785733, 9284514.927031828090549 ], [ 451171.017997720686253, 9284522.411158723756671 ], [ 451164.385664450586773, 9284529.895285619422793 ], [ 451157.753331180487294, 9284537.379412515088916 ], [ 451151.120997910387814, 9284544.863539410755038 ], [ 451144.488664640346542, 9284552.347666308283806 ], [ 451137.856331370247062, 9284559.831793203949928 ], [ 451131.223998100147583, 9284567.315920099616051 ], [ 451124.591664830048103, 9284574.800046995282173 ], [ 451117.959331559948623, 9284582.284173890948296 ], [ 451111.326998289849143, 9284589.768300786614418 ], [ 451104.694665019749664, 9284597.25242768228054 ], [ 451098.062331749650184, 9284604.736554579809308 ], [ 451091.429998479550704, 9284612.22068147547543 ], [ 451084.797665209451225, 9284619.704808371141553 ], [ 451078.165331939351745, 9284627.188935266807675 ], [ 451071.532998669252265, 9284634.673062162473798 ], [ 451064.900665399152786, 9284642.15718905813992 ], [ 451058.268332129053306, 9284649.641315953806043 ], [ 451051.635998858953826, 9284657.125442849472165 ], [ 451045.003665588854346, 9284664.609569747000933 ], [ 451038.371332318754867, 9284672.093696642667055 ], [ 451031.738999048655387, 9284679.577823538333178 ], [ 451025.106665778614115, 9284687.0619504339993 ], [ 451018.474332508514635, 9284694.546077329665422 ], [ 451011.841999238415156, 9284702.030204225331545 ], [ 451005.209665968315676, 9284709.514331120997667 ], [ 450998.577332698216196, 9284716.998458018526435 ], [ 450991.944999428116716, 9284724.482584914192557 ], [ 450985.312666158017237, 9284731.96671180985868 ], [ 450978.680332887917757, 9284739.450838705524802 ], [ 450972.047999617818277, 9284746.934965601190925 ], [ 450965.415666347718798, 9284754.419092496857047 ], [ 450958.783333077619318, 9284761.90321939252317 ], [ 450952.150999807519838, 9284769.387346290051937 ] ] ] } }
]
}
