{
"type": "FeatureCollection",
"crs": { "type": "name", "properties": { "name": "urn:ogc:def:crs:EPSG::32646" } },
"features": [
{ "type": "Feature", "properties": { "id": 1 }, "geometry": { "type": "MultiLineString", "coordinates": [ [ [ 502015.869146014621947, 5592476.704876695759594 ], [ 502021.315385111956857, 5592468.318072793073952 ], [ 502026.761624209291767, 5592459.931268891319633 ], [ 502032.207863306626678, 5592451.54446498863399 ], [ 502037.654102403961588, 5592443.157661086879671 ], [ 502043.100341501296498, 5592434.770857184194028 ], [ 502048.546580598631408, 5592426.384053282439709 ], [ 502053.992819695966318, 5592417.997249379754066 ], [ 502059.439058793301228, 5592409.610445477999747 ], [ 502064.885297890577931, 5592401.223641575314105 ], [ 502070.331536987912841, 5592392.836837673559785 ], [ 502075.777776085247751, 5592384.450033770874143 ], [ 502081.224015182582662, 5592376.063229869119823 ], [ 502086.670254279917572, 5592367.676425966434181 ], [ 502092.116493377252482, 5592359.289622064679861 ], [ 502097.562732474587392, 5592350.902818161994219 ], [ 502103.008971571922302, 5592342.516014260239899 ], [ 502108.455210669257212, 5592334.129210357554257 ], [ 502113.901449766592123, 5592325.742406455799937 ], [ 502120.377595796482638, 5592318.571117041632533 ], [ 502129.544834500760771, 5592314.575903086923063 ], [ 502138.712073205097113, 5592310.580689133144915 ], [ 502147.879311909375247, 5592306.585475179366767 ], [ 502157.04655061365338, 5592302.590261224657297 ], [ 502166.213789317931514, 5592298.595047270879149 ], [ 502175.381028022209648, 5592294.599833317101002 ], [ 502184.548266726487782, 5592290.604619363322854 ], [ 502193.715505430765916, 5592286.609405408613384 ], [ 502202.882744135044049, 5592282.614191454835236 ], [ 502212.049982839322183, 5592278.618977501057088 ], [ 502221.217221543600317, 5592274.623763546347618 ], [ 502230.384460247878451, 5592270.62854959256947 ], [ 502239.551698952156585, 5592266.633335638791323 ], [ 502248.718937656434719, 5592262.638121684081852 ], [ 502257.88617636077106, 5592258.642907730303705 ], [ 502267.139814913738519, 5592255.062662632204592 ], [ 502277.13981392752612, 5592255.067103743553162 ], [ 502287.139812941371929, 5592255.071544854901731 ], [ 502297.139811955217738, 5592255.0759859662503 ], [ 502307.139810969005339, 5592255.08042707759887 ], [ 502317.139809982851148, 5592255.084868189878762 ], [ 502327.139808996696956, 5592255.089309301227331 ], [ 502337.139808010484558, 5592255.093750412575901 ], [ 502347.139807024330366, 5592255.09819152392447 ], [ 502357.139806038176175, 5592255.102632635273039 ], [ 502367.139805051963776, 5592255.107073747552931 ], [ 502377.139804065809585, 5592255.111514858901501 ], [ 502387.139803079655394, 5592255.11595597025007 ], [ 502397.139802093442995, 5592255.120397081598639 ], [ 502407.139801107288804, 5592255.124838193878531 ], [ 502416.18497154378565, 5592257.234720108099282 ], [ 502422.776639312272891, 5592264.754687929525971 ], [ 502429.368307080701925, 5592272.274655750952661 ], [ 502435.959974849189166, 5592279.794623571448028 ], [ 502442.551642617676407, 5592287.314591392874718 ], [ 502449.143310386105441, 5592294.834559214301407 ], [ 502455.734978154592682, 5592302.354527034796774 ], [ 502462.326645923079923, 5592309.874494856223464 ], [ 502468.918313691508956, 5592317.394462676718831 ], [ 502475.509981459996197, 5592324.914430498145521 ], [ 502482.101649228425231, 5592332.43439831957221 ], [ 502488.693316996912472, 5592339.954366140067577 ], [ 502495.284984765399713, 5592347.474333961494267 ], [ 502501.876652533828747, 5592354.994301782920957 ], [ 502508.468320302315988, 5592362.514269603416324 ], [ 502515.059988070803229, 5592370.034237424843013 ], [ 502521.651655839232262, 5592377.554205246269703 ], [ 502528.243323607719503, 5592385.07417306676507 ], [ 502534.834991376148537, 5592392.59414088819176 ], [ 502541.426659144635778, 5592400.114108708687127 ], [ 502547.321564442769159, 5592408.162021753378212 ], [ 502552.777747744054068, 5592416.542359681800008 ], [ 502558.233931045338977, 5592424.922697609290481 ], [ 502563.690114346623886, 5592433.303035536780953 ], [ 502569.146297647908796, 5592441.683373464271426 ], [ 502574.602480949193705, 5592450.063711392693222 ], [ 502580.058664250478614, 5592458.444049320183694 ], [ 502585.514847551763523, 5592466.824387247674167 ], [ 502590.97103085310664, 5592475.20472517516464 ], [ 502596.42721415439155, 5592483.585063103586435 ], [ 502601.883397455676459, 5592491.965401031076908 ], [ 502607.339580756961368, 5592500.345738958567381 ], [ 502612.795764058246277, 5592508.726076886057854 ], [ 502618.251947359531187, 5592517.106414814479649 ], [ 502623.708130660816096, 5592525.486752741970122 ], [ 502629.164313962159213, 5592533.867090669460595 ], [ 502634.620497263444122, 5592542.247428596951067 ], [ 502640.076680564729031, 5592550.627766525372863 ], [ 502645.53286386601394, 5592559.008104452863336 ], [ 502650.98904716729885, 5592567.388442380353808 ], [ 502656.445230468583759, 5592575.768780307844281 ], [ 502661.901413769868668, 5592584.149118236266077 ], [ 502664.315660068881698, 5592593.431615022011101 ], [ 502664.310603308374994, 5592603.431613743305206 ], [ 502664.305546547810081, 5592613.431612464599311 ], [ 502664.300489787303377, 5592623.431611185893416 ], [ 502664.295433026796672, 5592633.431609908118844 ], [ 502664.29037626623176, 5592643.431608629412949 ], [ 502664.285319505725056, 5592653.431607350707054 ], [ 502664.280262745218351, 5592663.431606072001159 ], [ 502664.275205984653439, 5592673.431604793295264 ], [ 502664.270149224146735, 5592683.431603515520692 ], [ 502664.26509246364003, 5592693.431602236814797 ], [ 502664.260035703133326, 5592703.431600958108902 ], [ 502664.254978942568414, 5592713.431599679403007 ], [ 502664.249922182061709, 5592723.431598400697112 ], [ 502664.244865421555005, 5592733.431597121991217 ], [ 502664.239808660990093, 5592743.431595844216645 ], [ 502664.234751900483388, 5592753.43159456551075 ], [ 502664.229695139976684, 5592763.431593286804855 ], [ 502665.014311039994936, 5592772.550487424246967 ], [ 502674.95404207194224, 5592771.454245201312006 ], [ 502684.893773103889544, 5592770.358002977445722 ], [ 502694.833504135895055, 5592769.26176075451076 ], [ 502704.773235167842358, 5592768.165518530644476 ], [ 502714.712966199789662, 5592767.069276306778193 ], [ 502724.652697231736965, 5592765.973034083843231 ], [ 502734.592428263684269, 5592764.876791859976947 ], [ 502744.532159295631573, 5592763.780549637041986 ], [ 502751.16315924085211, 5592769.363790449686348 ], [ 502756.313934828736819, 5592777.935226202011108 ], [ 502761.464710416621529, 5592786.506661953404546 ], [ 502766.615486004506238, 5592795.078097704797983 ], [ 502771.766261592390947, 5592803.649533456191421 ], [ 502775.370106449176092, 5592812.649570673704147 ], [ 502775.364838557317853, 5592822.649569286033511 ], [ 502775.359570665459614, 5592832.649567898362875 ], [ 502775.354302773659583, 5592842.649566510692239 ], [ 502775.349034881801344, 5592852.649565123021603 ], [ 502775.343766990001313, 5592862.649563735350966 ], [ 502775.338499098143075, 5592872.64956234768033 ], [ 502775.333231206284836, 5592882.649560960941017 ], [ 502775.327963314484805, 5592892.64955957327038 ], [ 502775.322695422626566, 5592902.649558185599744 ], [ 502775.317427530826535, 5592912.649556797929108 ], [ 502775.312159638968296, 5592922.649555410258472 ], [ 502775.306891747168265, 5592932.649554022587836 ], [ 502775.301623855310027, 5592942.649552635848522 ], [ 502775.296355917525943, 5592952.649551248177886 ], [ 502775.291087921708822, 5592962.64954986050725 ], [ 502775.285819925949909, 5592972.649548472836614 ], [ 502775.280551930190995, 5592982.649547085165977 ], [ 502775.275283934373874, 5592992.649545697495341 ], [ 502775.270015938614961, 5593002.649544309824705 ], [ 502775.264747942856047, 5593012.649542922154069 ], [ 502775.259479947038926, 5593022.649541534483433 ], [ 502775.254211951280013, 5593032.649540146812797 ], [ 502775.248943955521099, 5593042.64953875914216 ], [ 502775.243675959703978, 5593052.649537372402847 ], [ 502775.238407963945065, 5593062.649535984732211 ], [ 502775.233139968186151, 5593072.649534597061574 ], [ 502775.22787197236903, 5593082.649533209390938 ], [ 502775.222603976610117, 5593092.649531821720302 ], [ 502775.217335980851203, 5593102.649530434049666 ], [ 502775.21206798509229, 5593112.64952904637903 ], [ 502783.265189297497272, 5593115.665358476340771 ], [ 502793.164460346451961, 5593117.081138367764652 ], [ 502803.063731395348441, 5593118.49691825825721 ], [ 502812.963002444244921, 5593119.912698149681091 ], [ 502822.862273493141402, 5593121.328478041104972 ], [ 502832.761544542037882, 5593122.744257932528853 ], [ 502842.660815590934362, 5593124.160037823021412 ], [ 502852.56008663988905, 5593125.575817714445293 ], [ 502862.459357688785531, 5593126.991597605869174 ], [ 502872.358628737682011, 5593128.407377497293055 ], [ 502882.257899786578491, 5593129.823157387785614 ], [ 502892.157170835474972, 5593131.238937279209495 ], [ 502902.05644188442966, 5593132.654717170633376 ], [ 502911.664276215480641, 5593130.810461645945907 ], [ 502921.15545058605494, 5593127.661238079890609 ], [ 502930.646624956687447, 5593124.512014513835311 ], [ 502940.137799327261746, 5593121.362790948711336 ], [ 502949.628973697894253, 5593118.213567382656038 ], [ 502959.120148068468552, 5593115.064343817532063 ], [ 502968.611322439101059, 5593111.915120251476765 ], [ 502978.102496809675358, 5593108.765896685421467 ], [ 502987.593671180307865, 5593105.616673120297492 ], [ 502997.55736387858633, 5593105.397286111488938 ], [ 503007.557362239633221, 5593105.403011340647936 ], [ 503017.55736060073832, 5593105.408736569806933 ], [ 503027.55735896184342, 5593105.414461798965931 ], [ 503037.557357322890311, 5593105.420187028124928 ], [ 503047.557355661410838, 5593105.425951366312802 ], [ 503057.557353961514309, 5593105.431782099418342 ], [ 503067.557352261675987, 5593105.43761283159256 ], [ 503077.557350561779458, 5593105.4434435646981 ], [ 503087.557348861882929, 5593105.44927429780364 ], [ 503097.557347162044607, 5593105.455105029977858 ], [ 503103.942700409854297, 5593112.215592891909182 ], [ 503109.495199439814314, 5593120.532428499311209 ], [ 503115.047698469774332, 5593128.849264106713235 ], [ 503120.600197499792557, 5593137.166099714115262 ], [ 503126.152696529752575, 5593145.482935321517289 ], [ 503131.705195559712593, 5593153.799770928919315 ], [ 503137.25769458967261, 5593162.116606536321342 ], [ 503142.810193619690835, 5593170.433442143723369 ], [ 503148.362692649650853, 5593178.750277752056718 ], [ 503153.915191679610871, 5593187.067113359458745 ], [ 503159.467690709570888, 5593195.383948966860771 ], [ 503165.020189739530906, 5593203.700784574262798 ], [ 503170.572688769549131, 5593212.017620181664824 ], [ 503176.125187799509149, 5593220.334455789066851 ], [ 503181.677686829469167, 5593228.651291396468878 ], [ 503187.230185859429184, 5593236.968127003870904 ], [ 503193.426752065715846, 5593244.081440352834761 ], [ 503203.426750197773799, 5593244.087552538141608 ], [ 503213.426748329831753, 5593244.093664723448455 ], [ 503223.426746461889707, 5593244.099776908755302 ], [ 503233.42674459394766, 5593244.105889094993472 ], [ 503243.426742726005614, 5593244.112001280300319 ], [ 503253.253276223840658, 5593242.698044660501182 ], [ 503262.957766933599487, 5593240.284984349273145 ], [ 503272.662257643300109, 5593237.871924038045108 ], [ 503282.36674835300073, 5593235.458863726817071 ], [ 503292.071239062701352, 5593233.045803416520357 ], [ 503301.775729772401974, 5593230.63274310529232 ], [ 503311.480220482160803, 5593228.219682794064283 ], [ 503321.184711191861425, 5593225.806622482836246 ], [ 503330.889201901562046, 5593223.39356217160821 ], [ 503340.593692611262668, 5593220.980501860380173 ], [ 503350.29818332096329, 5593218.567441549152136 ], [ 503359.609408463002183, 5593215.498086080886424 ], [ 503366.313910090830177, 5593208.078540412709117 ], [ 503373.018411718716379, 5593200.65899474453181 ], [ 503379.722913346544374, 5593193.239449076354504 ], [ 503386.427414974430576, 5593185.819903408177197 ], [ 503393.13191660225857, 5593178.40035773999989 ], [ 503399.836418230144773, 5593170.980812071822584 ], [ 503406.540919857972767, 5593163.561266403645277 ], [ 503413.245421485800762, 5593156.14172073546797 ], [ 503419.949923113686964, 5593148.722175067290664 ], [ 503426.654424741514958, 5593141.302629399113357 ], [ 503433.358926369401161, 5593133.88308373093605 ], [ 503440.063427997229155, 5593126.463538062758744 ], [ 503448.964274468948133, 5593125.119317821227014 ], [ 503458.863366190926172, 5593126.536351017653942 ], [ 503468.76245791290421, 5593127.95338421408087 ], [ 503478.661549634882249, 5593129.370417410507798 ], [ 503488.560641356860287, 5593130.787450606934726 ], [ 503498.459733078838326, 5593132.204483803361654 ], [ 503508.358824800874572, 5593133.621516999788582 ], [ 503518.257916522852611, 5593135.03855019621551 ], [ 503528.157008244830649, 5593136.455583392642438 ], [ 503538.056099966808688, 5593137.872616589069366 ], [ 503547.955191688786726, 5593139.289649785496294 ], [ 503557.854283410764765, 5593140.706682981923223 ], [ 503567.753375132801011, 5593142.123716178350151 ], [ 503577.581106440280564, 5593143.94037875905633 ], [ 503587.35885200771736, 5593146.036969233304262 ], [ 503597.136597575212363, 5593148.133559708483517 ], [ 503606.914343142649159, 5593150.23015018273145 ], [ 503616.692088710085955, 5593152.326740656979382 ], [ 503626.46983427752275, 5593154.423331132158637 ], [ 503636.247579844959546, 5593156.519921606406569 ], [ 503646.025325412396342, 5593158.616512081585824 ], [ 503655.803070979833137, 5593160.713102555833757 ], [ 503665.580816547328141, 5593162.809693030081689 ], [ 503675.358562114764936, 5593164.906283505260944 ], [ 503685.136307682201732, 5593167.002873979508877 ], [ 503694.914053249638528, 5593169.099464454688132 ], [ 503704.667926107416861, 5593169.722514714114368 ], [ 503714.37262472405564, 5593167.310290685854852 ], [ 503724.07732334069442, 5593164.898066657595336 ], [ 503733.7820219573332, 5593162.485842630267143 ], [ 503743.486720573913772, 5593160.073618602007627 ], [ 503753.191419190552551, 5593157.661394574679434 ], [ 503762.896117807191331, 5593155.249170546419919 ], [ 503772.600816423830111, 5593152.836946519091725 ], [ 503782.30551504046889, 5593150.42472249083221 ], [ 503792.01021365710767, 5593148.012498463504016 ], [ 503801.71491227374645, 5593145.600274435244501 ], [ 503811.419610890385229, 5593143.188050407916307 ], [ 503814.115596965712029, 5593134.289034021086991 ], [ 503815.771105215826537, 5593124.42702142521739 ], [ 503817.426613465882838, 5593114.565008830279112 ], [ 503819.082121715939138, 5593104.702996234409511 ], [ 503820.737629966053646, 5593094.840983639471233 ], [ 503822.393138216109946, 5593084.978971043601632 ], [ 503824.048646466224454, 5593075.116958447732031 ], [ 503825.704154716280755, 5593065.254945852793753 ], [ 503827.359662966337055, 5593055.392933256924152 ], [ 503829.015171216451563, 5593045.530920661985874 ], [ 503830.670679466507863, 5593035.668908066116273 ], [ 503837.069027674209792, 5593029.512381328269839 ], [ 503846.237564606417436, 5593025.520147551782429 ], [ 503855.40610153862508, 5593021.527913776226342 ], [ 503864.574638470832724, 5593017.535679999738932 ], [ 503873.743175403040368, 5593013.543446223251522 ], [ 503882.911712335248012, 5593009.551212447695434 ], [ 503892.080249267455656, 5593005.558978671208024 ], [ 503901.2487861996633, 5593001.566744895651937 ], [ 503910.417323131870944, 5592997.574511119164526 ], [ 503919.585860064078588, 5592993.582277343608439 ], [ 503928.754396996286232, 5592989.590043567121029 ], [ 503937.922933928493876, 5592985.597809791564941 ], [ 503947.09147086070152, 5592981.605576015077531 ], [ 503956.260007792909164, 5592977.613342239521444 ], [ 503965.428544725116808, 5592973.621108463034034 ], [ 503974.597081657324452, 5592969.628874687477946 ], [ 503983.762836754729506, 5592969.319308171980083 ], [ 503992.925331873062532, 5592973.325388951227069 ], [ 504002.087826991395559, 5592977.331469729542732 ], [ 504011.250322109728586, 5592981.337550508789718 ], [ 504020.41281722811982, 5592985.343631287105381 ], [ 504029.575312346452847, 5592989.349712066352367 ], [ 504038.737807464785874, 5592993.355792844668031 ], [ 504047.900302583118901, 5592997.361873623915017 ], [ 504057.062797701510135, 5593001.36795440223068 ], [ 504066.225292819843162, 5593005.374035181477666 ], [ 504075.387787938176189, 5593009.380115959793329 ], [ 504084.550283056509215, 5593013.386196739040315 ], [ 504093.71277817490045, 5593017.392277517355978 ], [ 504102.875273293233477, 5593021.398358296602964 ], [ 504112.037768411566503, 5593025.404439074918628 ], [ 504121.20026352989953, 5593029.410519854165614 ], [ 504129.758292545273434, 5593034.302988098934293 ], [ 504136.833388325117994, 5593041.370025646872818 ], [ 504143.908484104904346, 5593048.437063194811344 ], [ 504150.983579884690698, 5593055.50410074274987 ], [ 504158.058675664535258, 5593062.571138291619718 ], [ 504165.13377144432161, 5593069.638175839558244 ], [ 504172.208867224107962, 5593076.705213387496769 ], [ 504179.283963003952522, 5593083.772250935435295 ], [ 504186.359058783738874, 5593090.839288483373821 ], [ 504193.434154563525226, 5593097.906326032243669 ], [ 504200.509250343311578, 5593104.973363580182195 ], [ 504207.584346123156138, 5593112.04040112812072 ], [ 504214.65944190294249, 5593119.107438676059246 ], [ 504220.681136335653719, 5593126.740509330295026 ], [ 504222.669522582495119, 5593136.540831780992448 ], [ 504224.65790882933652, 5593146.34115423168987 ], [ 504226.646295076177921, 5593156.141476682387292 ], [ 504228.634681323019322, 5593165.941799132153392 ], [ 504230.623067569860723, 5593175.742121582850814 ], [ 504232.611453816702124, 5593185.542444033548236 ], [ 504234.599840063543525, 5593195.342766484245658 ], [ 504236.588226310384925, 5593205.14308893494308 ], [ 504238.576612557226326, 5593214.943411384709179 ], [ 504240.564998804067727, 5593224.743733835406601 ], [ 504242.553385050909128, 5593234.544056286104023 ], [ 504244.541771297750529, 5593244.344378736801445 ], [ 504246.53015754459193, 5593254.144701186567545 ], [ 504248.518543791433331, 5593263.945023637264967 ], [ 504250.506930038274731, 5593273.745346087962389 ], [ 504252.495316285116132, 5593283.545668538659811 ], [ 504257.848403436830267, 5593291.607402487657964 ], [ 504264.691714136803057, 5593298.899116871878505 ], [ 504271.535024836717639, 5593306.190831256099045 ], [ 504278.378335536632221, 5593313.482545640319586 ], [ 504285.221646236605011, 5593320.774260025471449 ], [ 504292.064956936519593, 5593328.065974409691989 ], [ 504298.908267636492383, 5593335.35768879391253 ], [ 504305.751578336406965, 5593342.64940317813307 ], [ 504312.594889036321547, 5593349.941117562353611 ], [ 504319.438199736294337, 5593357.232831947505474 ], [ 504326.281510436208919, 5593364.524546331726015 ], [ 504333.124821136181708, 5593371.816260715946555 ], [ 504339.96813183609629, 5593379.107975100167096 ], [ 504346.811442536010873, 5593386.399689485318959 ], [ 504353.654753235983662, 5593393.691403869539499 ], [ 504360.498063935898244, 5593400.98311825376004 ], [ 504367.341374635871034, 5593408.27483263798058 ], [ 504374.184685335785616, 5593415.566547022201121 ], [ 504381.027996035700198, 5593422.858261407352984 ], [ 504387.871306735672988, 5593430.149975791573524 ], [ 504394.71461743558757, 5593437.441690175794065 ], [ 504401.55792813556036, 5593444.733404560014606 ], [ 504408.401238835474942, 5593452.025118945166469 ], [ 504415.244549535389524, 5593459.316833329387009 ], [ 504422.087860235362314, 5593466.60854771360755 ], [ 504428.931170935276896, 5593473.90026209782809 ], [ 504436.443590612732805, 5593479.322752767242491 ], [ 504446.35971188894473, 5593478.030259504914284 ], [ 504456.275833165214863, 5593476.737766241654754 ], [ 504466.191954441484995, 5593475.445272978395224 ], [ 504476.108075717755128, 5593474.152779716067016 ], [ 504486.024196993967053, 5593472.860286452807486 ], [ 504495.940318270237185, 5593471.567793189547956 ], [ 504505.856439546507318, 5593470.275299927219748 ], [ 504515.772560822719242, 5593468.982806663960218 ], [ 504525.688682098989375, 5593467.690313401632011 ], [ 504535.604803375259507, 5593466.397820138372481 ], [ 504545.52092465152964, 5593465.105326875112951 ], [ 504555.437045927741565, 5593463.812833612784743 ], [ 504565.353167204011697, 5593462.520340349525213 ], [ 504575.26928848028183, 5593461.227847087197006 ], [ 504585.185409756551962, 5593459.935353823937476 ], [ 504595.101531032763887, 5593458.642860560677946 ], [ 504605.01765230903402, 5593457.350367298349738 ], [ 504614.933773585304152, 5593456.057874035090208 ], [ 504624.849894861516077, 5593454.765380772762001 ], [ 504634.76601613778621, 5593453.47288750950247 ], [ 504644.682137414056342, 5593452.18039424624294 ], [ 504654.598258690326475, 5593450.887900983914733 ], [ 504664.359799480007496, 5593449.289190058596432 ], [ 504671.288331031100824, 5593442.07840296253562 ], [ 504678.216862582194153, 5593434.867615866474807 ], [ 504685.145394133287482, 5593427.656828770413995 ], [ 504692.073925684380811, 5593420.446041674353182 ], [ 504699.002457235474139, 5593413.23525457829237 ], [ 504705.930988786509261, 5593406.024467482231557 ], [ 504712.859520337602589, 5593398.813680386170745 ], [ 504719.788051888695918, 5593391.602893290109932 ], [ 504726.716583439789247, 5593384.39210619404912 ], [ 504733.645114990882576, 5593377.181319097988307 ], [ 504740.573646541975904, 5593369.970532001927495 ], [ 504747.502178093069233, 5593362.759744905866683 ], [ 504754.430709644162562, 5593355.54895780980587 ], [ 504761.35924119525589, 5593348.338170712813735 ], [ 504768.287772746349219, 5593341.127383616752923 ], [ 504775.216304297442548, 5593333.91659652069211 ], [ 504782.144835848535877, 5593326.705809424631298 ], [ 504789.073367399629205, 5593319.495022328570485 ], [ 504796.001898950722534, 5593312.284235232509673 ], [ 504800.072396954987198, 5593303.269599271938205 ], [ 504803.60057883762056, 5593293.912680301815271 ], [ 504807.128760720253922, 5593284.555761332623661 ], [ 504810.656942602829076, 5593275.198842362500727 ], [ 504814.185124485462438, 5593265.841923393309116 ], [ 504817.7133063680958, 5593256.485004423186183 ], [ 504821.241488250670955, 5593247.128085453994572 ], [ 504824.769670133304317, 5593237.771166484802961 ], [ 504828.297852015937679, 5593228.414247514680028 ], [ 504831.826033898512833, 5593219.057328545488417 ], [ 504837.892917991732247, 5593211.698362809605896 ], [ 504846.158378851425368, 5593206.069672306068242 ], [ 504854.42383971111849, 5593200.440981803461909 ], [ 504862.689300570811611, 5593194.812291300855577 ], [ 504870.954761430504732, 5593189.183600798249245 ], [ 504879.220222290197853, 5593183.55491029471159 ], [ 504887.485683149890974, 5593177.926219792105258 ], [ 504895.751144009584095, 5593172.297529289498925 ], [ 504904.016604869277216, 5593166.66883878596127 ], [ 504912.282065728970338, 5593161.040148283354938 ], [ 504920.547526588663459, 5593155.411457780748606 ], [ 504928.81298744835658, 5593149.782767278142273 ], [ 504937.078448308049701, 5593144.154076774604619 ], [ 504945.343909167742822, 5593138.525386271998286 ], [ 504954.596354047767818, 5593137.619443081319332 ], [ 504964.424218118481804, 5593139.466897494159639 ], [ 504974.252082189195789, 5593141.314351906999946 ], [ 504984.079946259909775, 5593143.161806319840252 ], [ 504993.907810330623761, 5593145.009260733611882 ], [ 505003.735674401337747, 5593146.856715146452188 ], [ 505013.563538472051732, 5593148.704169559292495 ], [ 505023.39140254270751, 5593150.551623972132802 ], [ 505033.219266613421496, 5593152.399078384973109 ], [ 505043.047130684135482, 5593154.246532797813416 ], [ 505052.874994754849467, 5593156.093987210653722 ], [ 505062.702858825563453, 5593157.941441623494029 ], [ 505072.530722896277439, 5593159.788896036334336 ], [ 505082.358586966991425, 5593161.636350449174643 ], [ 505092.18645103770541, 5593163.483804862014949 ], [ 505102.014315108419396, 5593165.331259274855256 ], [ 505111.842179179133382, 5593167.178713687695563 ], [ 505121.67004324978916, 5593169.02616810053587 ], [ 505131.497907320503145, 5593170.873622513376176 ], [ 505141.325771391217131, 5593172.721076926216483 ], [ 505147.344894672045484, 5593165.066668587736785 ], [ 505153.175740112841595, 5593156.942553777247667 ], [ 505159.006585553637706, 5593148.818438967689872 ], [ 505164.837430994433817, 5593140.694324157200754 ], [ 505170.668276435288135, 5593132.570209347642958 ], [ 505176.499121876084246, 5593124.44609453715384 ], [ 505182.329967316880357, 5593116.321979727596045 ], [ 505188.160812757676467, 5593108.197864918038249 ], [ 505193.991658198472578, 5593100.073750107549131 ], [ 505199.822503639326897, 5593091.949635297991335 ], [ 505201.693052278773393, 5593082.787779069505632 ], [ 505200.595553358900361, 5593072.848186717368662 ], [ 505199.498054439027328, 5593062.908594366163015 ], [ 505198.400555519096088, 5593052.969002014026046 ], [ 505197.303056599223055, 5593043.029409661889076 ], [ 505196.205557679350022, 5593033.089817310683429 ], [ 505195.10805875947699, 5593023.15022495854646 ], [ 505194.010559839603957, 5593013.21063260640949 ], [ 505192.913060919730924, 5593003.271040255203843 ], [ 505191.815561999857891, 5592993.331447903066874 ], [ 505190.718063079984859, 5592983.391855550929904 ], [ 505189.620564160111826, 5592973.452263199724257 ], [ 505188.523065240238793, 5592963.512670847587287 ], [ 505187.42556632036576, 5592953.573078495450318 ], [ 505186.328067400492728, 5592943.633486143313348 ], [ 505185.230568480619695, 5592933.693893792107701 ], [ 505184.133069560746662, 5592923.754301439970732 ], [ 505183.03557064087363, 5592913.814709087833762 ], [ 505181.938071721000597, 5592903.875116736628115 ], [ 505180.840572801127564, 5592893.935524384491146 ], [ 505179.743073881254531, 5592883.995932032354176 ], [ 505178.645574961381499, 5592874.056339681148529 ], [ 505179.804991802666336, 5592864.217173034325242 ], [ 505181.780966987833381, 5592854.414340685121715 ], [ 505183.756942173000425, 5592844.611508335918188 ], [ 505185.73291735816747, 5592834.808675986714661 ], [ 505187.708892543334514, 5592825.005843637511134 ], [ 505189.684867728559766, 5592815.203011288307607 ], [ 505191.66084291372681, 5592805.40017893910408 ], [ 505193.636818098893855, 5592795.597346589900553 ], [ 505195.612793284060899, 5592785.794514240697026 ], [ 505197.588768469227944, 5592775.991681891493499 ], [ 505199.564743654394988, 5592766.188849542289972 ], [ 505201.540718839562032, 5592756.386017193086445 ], [ 505203.516694024729077, 5592746.583184843882918 ], [ 505205.492669209896121, 5592736.780352493748069 ], [ 505207.468644395063166, 5592726.977520144544542 ], [ 505209.44461958023021, 5592717.174687795341015 ], [ 505211.420594765397254, 5592707.371855446137488 ], [ 505213.396569950564299, 5592697.569023096933961 ], [ 505217.000437345413957, 5592688.72827847674489 ], [ 505224.635000110662077, 5592682.269683321006596 ], [ 505232.269562875851989, 5592675.811088166199625 ], [ 505239.904125641100109, 5592669.35249301046133 ], [ 505247.538688406348228, 5592662.893897854723036 ], [ 505255.173251171596348, 5592656.435302698984742 ], [ 505262.807813936844468, 5592649.976707543246448 ], [ 505270.442376702092588, 5592643.518112388439476 ], [ 505278.076939467340708, 5592637.059517232701182 ], [ 505285.711502232588828, 5592630.600922076962888 ], [ 505293.34606499777874, 5592624.142326921224594 ], [ 505300.98062776302686, 5592617.6837317654863 ], [ 505308.615190528274979, 5592611.225136609748006 ], [ 505316.249753293523099, 5592604.766541454941034 ], [ 505323.884316058771219, 5592598.30794629920274 ], [ 505331.518878824019339, 5592591.849351143464446 ], [ 505339.166455606522504, 5592585.406211860477924 ], [ 505346.830785220838152, 5592578.982968788594007 ], [ 505354.495114835212007, 5592572.559725716710091 ], [ 505362.159444449527655, 5592566.136482643894851 ], [ 505369.82377406390151, 5592559.713239572010934 ], [ 505377.488103678217158, 5592553.289996500127017 ], [ 505385.152433292591013, 5592546.866753428243101 ], [ 505392.816762906906661, 5592540.443510356359184 ], [ 505400.481092521280516, 5592534.020267283543944 ], [ 505408.145422135596164, 5592527.597024211660028 ], [ 505415.809751749970019, 5592521.173781139776111 ], [ 505423.474081364285666, 5592514.750538067892194 ], [ 505431.138410978659522, 5592508.327294996008277 ], [ 505438.802740592975169, 5592501.904051923193038 ], [ 505446.467070207290817, 5592495.480808851309121 ], [ 505449.924618203775026, 5592487.578032053075731 ], [ 505447.968427920015529, 5592477.771232392638922 ], [ 505446.012237636197824, 5592467.964432732202113 ], [ 505444.056047352438327, 5592458.157633072696626 ], [ 505442.099857068620622, 5592448.350833412259817 ], [ 505440.143666784861125, 5592438.544033751823008 ], [ 505438.187476501101628, 5592428.737234092317522 ], [ 505436.231286217283923, 5592418.930434431880713 ], [ 505434.275095933524426, 5592409.123634771443903 ], [ 505432.318905649706721, 5592399.316835111938417 ], [ 505430.362715365947224, 5592389.510035451501608 ], [ 505428.406525082187727, 5592379.703235791996121 ], [ 505426.450334798370022, 5592369.896436131559312 ], [ 505424.494144514610525, 5592360.089636471122503 ], [ 505422.53795423079282, 5592350.282836811617017 ], [ 505420.628029057057574, 5592340.468557813204825 ], [ 505419.394546023511793, 5592330.544923418201506 ], [ 505418.16106299002422, 5592320.621289023198187 ], [ 505416.927579956478439, 5592310.697654628194869 ], [ 505415.694096922990866, 5592300.77402023319155 ], [ 505414.460613889445085, 5592290.850385838188231 ], [ 505413.227130855957512, 5592280.926751443184912 ], [ 505411.993647822469939, 5592271.003117048181593 ], [ 505410.760164788924158, 5592261.079482653178275 ], [ 505409.526681755436584, 5592251.155848258174956 ], [ 505411.415024790214375, 5592242.530895311385393 ], [ 505419.322995325899683, 5592236.410110884346068 ], [ 505427.230965861584991, 5592230.28932645637542 ], [ 505435.138936397270299, 5592224.168542029336095 ], [ 505443.046906932955608, 5592218.047757601365447 ], [ 505450.954877468640916, 5592211.926973174326122 ], [ 505458.862848004326224, 5592205.806188747286797 ], [ 505466.770818540011533, 5592199.685404319316149 ], [ 505474.678789075696841, 5592193.564619892276824 ], [ 505482.586759611382149, 5592187.443835464306176 ], [ 505490.494730147067457, 5592181.32305103726685 ] ] ] } }
]
}
