{
"type": "FeatureCollection",
"crs": { "type": "name", "properties": { "name": "urn:ogc:def:crs:EPSG::32717" } },
"features": [
{ "type": "Feature", "properties": { "id": 1 }, "geometry": { "type": "MultiLineString", "coordinates": [ [ [ 555261.707294709514827, 9613195.467205226421356 ], [ 555266.577005783910863, 9613186.733024436980486 ], [ 555271.4467168583069, 9613177.998843649402261 ], [ 555276.316427932702936, 9613169.26466285996139 ], [ 555281.186139007098973, 9613160.53048207052052 ], [ 555286.055850081495009, 9613151.796301282942295 ], [ 555290.925561155891046, 9613143.062120493501425 ], [ 555295.795272230287082, 9613134.327939704060555 ], [ 555300.664983304683119, 9613125.593758916482329 ], [ 555305.534694379079156, 9613116.859578127041459 ], [ 555310.404405453475192, 9613108.125397337600589 ], [ 555315.274116527871229, 9613099.391216550022364 ], [ 555320.143827602267265, 9613090.657035760581493 ], [ 555325.013538676779717, 9613081.922854971140623 ], [ 555329.883249751175754, 9613073.188674183562398 ], [ 555334.75296082557179, 9613064.454493394121528 ], [ 555339.622671899967827, 9613055.720312604680657 ], [ 555344.492382974363863, 9613046.986131817102432 ], [ 555349.3620940487599, 9613038.251951027661562 ], [ 555354.231805123155937, 9613029.517770238220692 ], [ 555359.101516197551973, 9613020.783589450642467 ], [ 555363.97122727194801, 9613012.049408661201596 ], [ 555368.840938346344046, 9613003.315227871760726 ], [ 555373.710649420740083, 9612994.581047084182501 ], [ 555378.580360495136119, 9612985.846866294741631 ], [ 555382.662083183065988, 9612976.908081585541368 ], [ 555382.656766837462783, 9612966.908082997426391 ], [ 555382.651450491975993, 9612956.908084411174059 ], [ 555382.646134146372788, 9612946.908085824921727 ], [ 555382.640817800885998, 9612936.90808723680675 ], [ 555382.635501455282792, 9612926.908088650554419 ], [ 555382.630185109796003, 9612916.908090064302087 ], [ 555382.624868764192797, 9612906.908091478049755 ], [ 555382.619552418706007, 9612896.908092889934778 ], [ 555382.614236073102802, 9612886.908094303682446 ], [ 555382.608919727499597, 9612876.908095717430115 ], [ 555382.603603382012807, 9612866.908097129315138 ], [ 555382.598287036409602, 9612856.908098543062806 ], [ 555382.592970690922812, 9612846.908099956810474 ], [ 555382.587654345319606, 9612836.908101368695498 ], [ 555382.582337999832816, 9612826.908102782443166 ], [ 555382.577021654229611, 9612816.908104196190834 ], [ 555382.571705308742821, 9612806.908105609938502 ], [ 555382.566388963139616, 9612796.908107021823525 ], [ 555382.561072617652826, 9612786.908108435571194 ], [ 555389.011795283062384, 9612779.706558555364609 ], [ 555396.313450899790041, 9612772.873855924233794 ], [ 555403.615106516634114, 9612766.04115329310298 ], [ 555410.916762133361772, 9612759.20845066010952 ], [ 555418.218417750089429, 9612752.375748028978705 ], [ 555425.520073366817087, 9612745.543045397847891 ], [ 555432.821728983544745, 9612738.710342764854431 ], [ 555440.123384600272402, 9612731.877640133723617 ], [ 555447.42504021700006, 9612725.044937502592802 ], [ 555454.726695833727717, 9612718.212234869599342 ], [ 555462.028351450455375, 9612711.379532238468528 ], [ 555469.330007067183033, 9612704.546829607337713 ], [ 555476.63166268391069, 9612697.714126974344254 ], [ 555483.933318300638348, 9612690.881424343213439 ], [ 555491.234973917366005, 9612684.048721710219979 ], [ 555498.536629534093663, 9612677.216019079089165 ], [ 555505.838285150821321, 9612670.38331644795835 ], [ 555513.139940767548978, 9612663.55061381496489 ], [ 555520.441596384276636, 9612656.717911183834076 ], [ 555527.743252001004294, 9612649.885208552703261 ], [ 555535.044907617731951, 9612643.052505919709802 ], [ 555542.346563234459609, 9612636.219803288578987 ], [ 555549.648218851187266, 9612629.387100657448173 ], [ 555558.797647922066972, 9612625.760620268061757 ], [ 555568.370302444207482, 9612622.868512835353613 ], [ 555577.942956966347992, 9612619.976405402645469 ], [ 555587.515611488488503, 9612617.084297969937325 ], [ 555597.088266010512598, 9612614.19219053722918 ], [ 555606.660920532653108, 9612611.300083106383681 ], [ 555616.233575054793619, 9612608.407975673675537 ], [ 555625.806229576934129, 9612605.515868240967393 ], [ 555635.378884099074639, 9612602.623760808259249 ], [ 555644.95153862121515, 9612599.731653375551105 ], [ 555654.524193143239245, 9612596.839545944705606 ], [ 555664.096847665379755, 9612593.947438511997461 ], [ 555673.669502187520266, 9612591.055331079289317 ], [ 555683.242156709660776, 9612588.163223646581173 ], [ 555692.814811231801286, 9612585.271116213873029 ], [ 555702.387465753941797, 9612582.37900878302753 ], [ 555711.960120275965892, 9612579.486901350319386 ], [ 555721.532774798106402, 9612576.594793917611241 ], [ 555731.105429320246913, 9612573.702686484903097 ], [ 555740.678083842387423, 9612570.810579052194953 ], [ 555750.250738364527933, 9612567.918471621349454 ], [ 555759.823392886668444, 9612565.02636418864131 ], [ 555769.396047408808954, 9612562.134256755933166 ], [ 555778.968701930833049, 9612559.242149323225021 ], [ 555788.541356452973559, 9612556.350041892379522 ], [ 555798.11401097511407, 9612553.457934459671378 ], [ 555807.68666549725458, 9612550.565827026963234 ], [ 555817.259320019395091, 9612547.67371959425509 ], [ 555826.831974541535601, 9612544.781612161546946 ], [ 555836.404629063559696, 9612541.889504730701447 ], [ 555845.977283585700206, 9612538.997397297993302 ], [ 555855.549938107840717, 9612536.105289865285158 ], [ 555865.122592629981227, 9612533.213182432577014 ], [ 555874.695247152121738, 9612530.32107499986887 ], [ 555884.267901674262248, 9612527.428967569023371 ], [ 555893.840556196286343, 9612524.536860136315227 ], [ 555903.413210718426853, 9612521.644752703607082 ], [ 555912.985865240567364, 9612518.752645270898938 ], [ 555922.558519762707874, 9612515.860537838190794 ], [ 555932.378186102956533, 9612514.027414558455348 ], [ 555942.242516948026605, 9612512.385776054114103 ], [ 555952.106847792980261, 9612510.744137549772859 ], [ 555961.971178638050333, 9612509.102499043568969 ], [ 555971.835509483120404, 9612507.460860539227724 ], [ 555981.69984032807406, 9612505.819222034886479 ], [ 555991.564171173144132, 9612504.177583530545235 ], [ 556001.428502018214203, 9612502.53594502620399 ], [ 556011.29283286316786, 9612500.894306521862745 ], [ 556021.157163708237931, 9612499.252668017521501 ], [ 556031.021494553308003, 9612497.611029513180256 ], [ 556040.885825398261659, 9612495.969391006976366 ], [ 556050.75015624333173, 9612494.327752502635121 ], [ 556060.614487088401802, 9612492.686113998293877 ], [ 556070.478817933355458, 9612491.044475493952632 ], [ 556080.34314877842553, 9612489.402836989611387 ], [ 556090.207479623495601, 9612487.761198485270143 ], [ 556100.071810468449257, 9612486.119559980928898 ], [ 556109.936141313519329, 9612484.477921474725008 ], [ 556119.8004721585894, 9612482.836282970383763 ], [ 556129.664803003543057, 9612481.194644466042519 ], [ 556139.529133848613128, 9612479.553005961701274 ], [ 556149.3934646936832, 9612477.911367457360029 ], [ 556159.257795538636856, 9612476.269728953018785 ], [ 556169.122126383706927, 9612474.62809044867754 ], [ 556178.986457228776999, 9612472.98645194247365 ], [ 556188.850788073730655, 9612471.344813438132405 ], [ 556198.715118918800727, 9612469.703174933791161 ], [ 556208.579449763870798, 9612468.061536429449916 ], [ 556218.443780608824454, 9612466.419897925108671 ], [ 556228.308111453894526, 9612464.778259420767426 ], [ 556238.172442298964597, 9612463.136620916426182 ], [ 556248.036773143918253, 9612461.494982412084937 ], [ 556257.901103988988325, 9612459.853343905881047 ], [ 556267.765434834058397, 9612458.211705401539803 ], [ 556277.629765679012053, 9612456.570066897198558 ], [ 556287.494096524082124, 9612454.928428392857313 ], [ 556297.358427369152196, 9612453.286789888516068 ], [ 556307.222758214105852, 9612451.645151384174824 ], [ 556317.087089059175923, 9612450.003512879833579 ], [ 556326.951419904245995, 9612448.361874373629689 ], [ 556336.815750749199651, 9612446.720235869288445 ], [ 556346.680081594269723, 9612445.0785973649472 ], [ 556356.544412439339794, 9612443.436958860605955 ], [ 556366.40874328429345, 9612441.79532035626471 ], [ 556376.273074129363522, 9612440.153681851923466 ], [ 556386.137404974433593, 9612438.512043347582221 ], [ 556396.00173581938725, 9612436.870404841378331 ], [ 556405.834271477186121, 9612435.140194464474916 ], [ 556414.490579447010532, 9612430.133365895599127 ], [ 556423.146887416834943, 9612425.126537324860692 ], [ 556431.803195386659354, 9612420.119708754122257 ], [ 556440.459503356483765, 9612415.112880183383822 ], [ 556449.115811326308176, 9612410.106051614508033 ], [ 556457.772119296016172, 9612405.099223043769598 ], [ 556466.428427265840583, 9612400.092394473031163 ], [ 556475.084735235664994, 9612395.085565902292728 ], [ 556483.741043205489404, 9612390.078737333416939 ], [ 556492.397351175313815, 9612385.071908762678504 ], [ 556501.053659145021811, 9612380.065080191940069 ], [ 556509.709967114846222, 9612375.058251621201634 ], [ 556518.366275084670633, 9612370.051423052325845 ], [ 556527.022583054495044, 9612365.04459448158741 ], [ 556535.678891024319455, 9612360.037765910848975 ], [ 556544.335198994143866, 9612355.03093734011054 ], [ 556552.991506963851862, 9612350.024108771234751 ], [ 556561.647814933676273, 9612345.017280200496316 ], [ 556570.304122903500684, 9612340.010451629757881 ], [ 556578.960430873325095, 9612335.003623060882092 ], [ 556587.616738843149506, 9612329.996794490143657 ], [ 556591.596021813689731, 9612320.915004258975387 ], [ 556595.370332618593238, 9612311.654627487063408 ], [ 556599.14464342338033, 9612302.394250717014074 ], [ 556602.918954228283837, 9612293.133873945102096 ], [ 556606.693265033187345, 9612283.873497173190117 ], [ 556610.467575837974437, 9612274.613120403140783 ], [ 556614.241886642877944, 9612265.352743631228805 ], [ 556618.016197447665036, 9612256.092366859316826 ], [ 556621.790508252568543, 9612246.831990087404847 ], [ 556625.56481905747205, 9612237.571613317355514 ], [ 556629.339129862259142, 9612228.311236545443535 ], [ 556633.113440667162649, 9612219.050859773531556 ], [ 556636.887751472066157, 9612209.790483001619577 ], [ 556640.662062276853248, 9612200.530106231570244 ], [ 556644.436373081756756, 9612191.269729459658265 ], [ 556648.210683886660263, 9612182.009352687746286 ], [ 556651.984994691447355, 9612172.748975917696953 ], [ 556655.591414203401655, 9612163.484357127919793 ], [ 556652.289574502035975, 9612154.045191138982773 ], [ 556648.987734800553881, 9612144.606025148183107 ], [ 556645.685895099071786, 9612135.166859159246087 ], [ 556642.384055397589691, 9612125.727693168446422 ], [ 556639.082215696107596, 9612116.288527177646756 ], [ 556635.780375994741917, 9612106.849361188709736 ], [ 556632.478536293259822, 9612097.41019519791007 ], [ 556629.176696591777727, 9612087.97102920897305 ], [ 556625.874856890295632, 9612078.531863218173385 ], [ 556622.573017188929953, 9612069.092697229236364 ], [ 556619.271177487447858, 9612059.653531238436699 ], [ 556615.969337785965763, 9612050.214365249499679 ], [ 556612.667498084483668, 9612040.775199258700013 ], [ 556609.365658383001573, 9612031.336033269762993 ], [ 556606.063818681635894, 9612021.896867278963327 ], [ 556602.761978980153799, 9612012.457701288163662 ], [ 556597.860207480378449, 9612003.844184463843703 ], [ 556592.079879695433192, 9611995.684049006551504 ], [ 556586.29955191037152, 9611987.52391354739666 ], [ 556580.519224125426263, 9611979.363778090104461 ], [ 556574.738896340481006, 9611971.203642630949616 ], [ 556568.958568555535749, 9611963.043507173657417 ], [ 556563.178240770590492, 9611954.883371714502573 ], [ 556557.397912985645235, 9611946.723236257210374 ], [ 556551.617585200699978, 9611938.56310079805553 ], [ 556545.837257415754721, 9611930.402965338900685 ], [ 556540.056929630809464, 9611922.242829881608486 ], [ 556534.276601845864207, 9611914.082694422453642 ], [ 556528.49627406091895, 9611905.922558965161443 ], [ 556522.715946275973693, 9611897.762423506006598 ], [ 556516.935618491028436, 9611889.602288048714399 ], [ 556511.155290706083179, 9611881.442152589559555 ], [ 556505.374962921021506, 9611873.282017130404711 ], [ 556499.594635136076249, 9611865.121881673112512 ], [ 556493.814307351130992, 9611856.961746213957667 ], [ 556488.033979566185735, 9611848.801610756665468 ], [ 556482.253651781240478, 9611840.641475297510624 ], [ 556476.473323996295221, 9611832.481339840218425 ], [ 556470.692996211349964, 9611824.321204381063581 ], [ 556464.912668426404707, 9611816.161068923771381 ], [ 556459.13234064145945, 9611808.000933464616537 ], [ 556453.352012856514193, 9611799.840798005461693 ], [ 556447.571685071568936, 9611791.680662548169494 ], [ 556441.791357286623679, 9611783.520527089014649 ], [ 556436.011029501678422, 9611775.36039163172245 ], [ 556430.230701716733165, 9611767.200256172567606 ], [ 556424.450373931671493, 9611759.040120715275407 ], [ 556420.602501292712986, 9611750.200861210003495 ], [ 556420.007036164985038, 9611740.218605890870094 ], [ 556419.41157103725709, 9611730.236350569874048 ], [ 556418.816105909529142, 9611720.254095248878002 ], [ 556418.220640781801194, 9611710.271839929744601 ], [ 556417.625175654073246, 9611700.289584608748555 ], [ 556417.029710526345298, 9611690.307329287752509 ], [ 556416.434245398733765, 9611680.325073968619108 ], [ 556415.838780271005817, 9611670.342818647623062 ], [ 556415.243315143277869, 9611660.360563326627016 ], [ 556414.64785001554992, 9611650.37830800563097 ], [ 556414.052384887821972, 9611640.396052686497569 ], [ 556413.456919760094024, 9611630.413797365501523 ], [ 556412.861454632366076, 9611620.431542044505477 ], [ 556412.265989504638128, 9611610.449286725372076 ], [ 556411.67052437691018, 9611600.46703140437603 ], [ 556411.075059249182232, 9611590.484776083379984 ], [ 556410.479594121454284, 9611580.502520764246583 ], [ 556415.847785826423205, 9611573.237686621025205 ], [ 556423.771516589680687, 9611567.137318532913923 ], [ 556431.695247352938168, 9611561.036950446665287 ], [ 556439.618978116079234, 9611554.936582360416651 ], [ 556447.542708879336715, 9611548.836214274168015 ], [ 556455.466439642594196, 9611542.735846187919378 ], [ 556463.390170405851677, 9611536.635478101670742 ], [ 556471.313901169109158, 9611530.535110013559461 ], [ 556479.237631932366639, 9611524.434741927310824 ], [ 556487.161362695624121, 9611518.334373841062188 ], [ 556495.085093458881602, 9611512.234005754813552 ], [ 556503.008824222139083, 9611506.133637668564916 ], [ 556510.932554985396564, 9611500.033269582316279 ], [ 556518.856285748654045, 9611493.932901494204998 ], [ 556526.994346864172257, 9611490.305302323773503 ], [ 556535.849535543704405, 9611494.951336486265063 ], [ 556544.704724223236553, 9611499.597370650619268 ], [ 556553.559912902652286, 9611504.243404814973474 ], [ 556562.415101582184434, 9611508.889438977465034 ], [ 556571.270290261716582, 9611513.535473141819239 ], [ 556580.125478941132315, 9611518.181507306173444 ], [ 556588.980667620664462, 9611522.827541468665004 ], [ 556597.83585630019661, 9611527.473575633019209 ], [ 556606.691044979612343, 9611532.119609797373414 ], [ 556615.546233659144491, 9611536.765643959864974 ], [ 556624.628312200889923, 9611540.927048897370696 ], [ 556633.867721750983037, 9611544.752400014549494 ], [ 556643.107131301076151, 9611548.577751129865646 ], [ 556652.34654085105285, 9611552.403102247044444 ], [ 556661.585950401145965, 9611556.228453364223242 ], [ 556670.825359951239079, 9611560.05380448140204 ], [ 556680.064769501332194, 9611563.879155596718192 ], [ 556689.304179051425308, 9611567.70450671389699 ], [ 556698.543588601518422, 9611571.529857831075788 ], [ 556707.782998151611537, 9611575.355208948254585 ], [ 556717.022407701704651, 9611579.180560063570738 ], [ 556726.256285525276326, 9611583.015440978109837 ], [ 556734.16033372527454, 9611589.141289658844471 ], [ 556742.064381925272755, 9611595.267138339579105 ], [ 556749.96843012527097, 9611601.392987018451095 ], [ 556757.872478325269185, 9611607.518835699185729 ], [ 556765.7765265252674, 9611613.644684379920363 ], [ 556773.680574725149199, 9611619.770533058792353 ], [ 556781.584622925147414, 9611625.896381739526987 ], [ 556789.488671125145629, 9611632.022230420261621 ], [ 556797.392719325143844, 9611638.148079099133611 ], [ 556805.296767525142059, 9611644.273927779868245 ], [ 556813.200815725140274, 9611650.39977646060288 ], [ 556821.104863925138488, 9611656.525625139474869 ], [ 556829.008912125136703, 9611662.651473820209503 ], [ 556837.344440496293828, 9611668.128278778865933 ], [ 556846.051881378749385, 9611673.045643243938684 ], [ 556854.759322261088528, 9611677.963007709011436 ], [ 556863.466763143544085, 9611682.880372174084187 ], [ 556872.174204025999643, 9611687.797736639156938 ], [ 556880.8816449084552, 9611692.715101102367043 ], [ 556889.589085790910758, 9611697.632465567439795 ], [ 556898.2965266732499, 9611702.549830032512546 ], [ 556907.003967555705458, 9611707.467194497585297 ], [ 556915.711408438161016, 9611712.384558962658048 ], [ 556924.418849320616573, 9611717.301923425868154 ], [ 556933.126290203072131, 9611722.219287890940905 ], [ 556941.833731085411273, 9611727.136652356013656 ], [ 556950.541171967866831, 9611732.054016821086407 ], [ 556959.248612850322388, 9611736.971381286159158 ], [ 556967.956053732777946, 9611741.888745751231909 ], [ 556976.663494615233503, 9611746.806110214442015 ], [ 556985.370935497572646, 9611751.723474679514766 ], [ 556994.078376380028203, 9611756.640839144587517 ], [ 557002.785817262483761, 9611761.558203609660268 ], [ 557011.493258144939318, 9611766.475568074733019 ], [ 557020.200699027394876, 9611771.392932537943125 ], [ 557028.908139909734018, 9611776.310297003015876 ], [ 557037.615580792189576, 9611781.227661468088627 ], [ 557046.323021674645133, 9611786.145025933161378 ], [ 557055.030462557100691, 9611791.062390398234129 ], [ 557063.963321105577052, 9611794.883795253932476 ], [ 557073.904648036579601, 9611793.802121156826615 ], [ 557083.845974967582151, 9611792.7204470615834 ], [ 557093.787301898584701, 9611791.638772964477539 ], [ 557103.728628829587251, 9611790.557098867371678 ], [ 557113.669955760589801, 9611789.475424772128463 ], [ 557123.611282691592351, 9611788.393750675022602 ], [ 557133.552609622711316, 9611787.312076579779387 ], [ 557143.493936553713866, 9611786.230402482673526 ], [ 557153.435263484716415, 9611785.148728385567665 ], [ 557163.376590415718965, 9611784.06705429032445 ], [ 557173.317917346721515, 9611782.985380193218589 ], [ 557183.259244277724065, 9611781.903706096112728 ], [ 557193.200571208726615, 9611780.822032 ], [ 557203.141898139729165, 9611779.740357903763652 ], [ 557213.083225070731714, 9611778.658683808520436 ], [ 557223.024552001734264, 9611777.577009711414576 ], [ 557232.965878932736814, 9611776.495335614308715 ], [ 557242.907205863739364, 9611775.413661519065499 ], [ 557252.848532794741914, 9611774.331987421959639 ], [ 557262.789859725744464, 9611773.250313326716423 ], [ 557272.053722208249383, 9611770.502946935594082 ], [ 557279.927907306118868, 9611764.338759312406182 ], [ 557287.802092404104769, 9611758.174571691080928 ], [ 557295.676277501974255, 9611752.010384067893028 ], [ 557303.55046259984374, 9611745.846196444705129 ], [ 557311.424647697829641, 9611739.682008823379874 ], [ 557319.298832795699127, 9611733.517821200191975 ], [ 557327.173017893568613, 9611727.35363357886672 ], [ 557335.047202991554514, 9611721.189445955678821 ], [ 557342.921388089423999, 9611715.025258334353566 ], [ 557350.795573187293485, 9611708.861070711165667 ], [ 557358.669758285279386, 9611702.696883087977767 ], [ 557366.543943383148871, 9611696.532695466652513 ], [ 557374.418128481018357, 9611690.368507843464613 ], [ 557382.292313579004258, 9611684.204320222139359 ], [ 557390.166498676873744, 9611678.040132598951459 ], [ 557395.742014887160622, 9611670.274220859631896 ], [ 557398.797811421449296, 9611660.752555692568421 ], [ 557401.853607955621555, 9611651.230890525504947 ], [ 557404.90940448991023, 9611641.709225360304117 ], [ 557407.965201024082489, 9611632.187560193240643 ], [ 557411.020997558371164, 9611622.665895028039813 ], [ 557414.076794092543423, 9611613.144229860976338 ], [ 557417.132590626832098, 9611603.622564693912864 ], [ 557420.188387161004357, 9611594.100899528712034 ], [ 557423.244183695293032, 9611584.57923436164856 ], [ 557426.299980229465291, 9611575.057569194585085 ], [ 557429.355776763753965, 9611565.535904029384255 ], [ 557432.411573297926225, 9611556.014238862320781 ], [ 557435.467369832214899, 9611546.492573695257306 ], [ 557438.523166366387159, 9611536.970908530056477 ], [ 557441.578962900675833, 9611527.449243362993002 ], [ 557444.634759434848092, 9611517.927578195929527 ], [ 557447.690555969136767, 9611508.405913030728698 ], [ 557450.746352503425442, 9611498.884247863665223 ], [ 557453.802149037597701, 9611489.362582696601748 ], [ 557456.857945571886376, 9611479.840917531400919 ], [ 557459.913742106058635, 9611470.319252364337444 ], [ 557462.969538640347309, 9611460.79758719727397 ], [ 557466.061064767534845, 9611451.287832573056221 ], [ 557469.329748724005185, 9611441.837133910506964 ], [ 557472.598432680591941, 9611432.386435249820352 ], [ 557475.867116637178697, 9611422.935736587271094 ], [ 557479.135800593649037, 9611413.485037926584482 ], [ 557482.404484550235793, 9611404.034339264035225 ], [ 557485.673168506822549, 9611394.583640603348613 ], [ 557488.941852463292889, 9611385.132941940799356 ], [ 557492.210536419879645, 9611375.682243280112743 ], [ 557495.479220376466401, 9611366.231544617563486 ], [ 557498.747904332936741, 9611356.780845956876874 ], [ 557502.016588289523497, 9611347.330147294327617 ], [ 557505.285272245993838, 9611337.879448633641005 ], [ 557508.553956202580594, 9611328.428749971091747 ], [ 557511.822640159167349, 9611318.978051310405135 ], [ 557515.09132411563769, 9611309.527352647855878 ], [ 557518.360008072224446, 9611300.076653987169266 ], [ 557521.628692028811201, 9611290.625955324620008 ], [ 557524.897375985281542, 9611281.175256663933396 ], [ 557528.166059941868298, 9611271.724558001384139 ], [ 557531.434743898455054, 9611262.273859340697527 ], [ 557534.703427854925394, 9611252.82316067814827 ], [ 557537.97211181151215, 9611243.372462017461658 ], [ 557541.240795768098906, 9611233.9217633549124 ], [ 557544.509479724569246, 9611224.471064694225788 ], [ 557547.778163681156002, 9611215.020366033539176 ], [ 557551.046847637742758, 9611205.569667370989919 ], [ 557554.315531594213098, 9611196.118968710303307 ], [ 557554.553242241963744, 9611186.159783726558089 ], [ 557554.547672938555479, 9611176.159785278141499 ], [ 557554.542103635147214, 9611166.159786827862263 ], [ 557554.536534331738949, 9611156.159788379445672 ], [ 557554.530965028330684, 9611146.159789931029081 ], [ 557554.525395724922419, 9611136.159791480749846 ], [ 557554.519826421514153, 9611126.159793032333255 ], [ 557554.514257118105888, 9611116.159794582054019 ], [ 557554.508687814697623, 9611106.159796133637428 ], [ 557554.503118511289358, 9611096.159797685220838 ], [ 557554.497549207764678, 9611086.159799234941602 ], [ 557554.491979904356413, 9611076.159800786525011 ], [ 557554.486410600948147, 9611066.159802336245775 ], [ 557554.480841297539882, 9611056.159803887829185 ], [ 557554.475271994131617, 9611046.159805439412594 ], [ 557554.469702690723352, 9611036.159806989133358 ], [ 557554.464133387315087, 9611026.159808540716767 ], [ 557554.458564083906822, 9611016.159810090437531 ], [ 557554.452994780498557, 9611006.159811642020941 ], [ 557552.772235533571802, 9610996.530333073809743 ], [ 557548.559984075138345, 9610987.460772024467587 ], [ 557544.347732616704889, 9610978.391210973262787 ], [ 557540.135481158271432, 9610969.321649922057986 ], [ 557535.923229699837975, 9610960.252088872715831 ], [ 557531.710978241404518, 9610951.18252782151103 ], [ 557527.498726782971062, 9610942.11296677030623 ], [ 557523.286475324537605, 9610933.043405720964074 ], [ 557519.074223866104148, 9610923.973844669759274 ], [ 557514.861972407670692, 9610914.904283618554473 ], [ 557510.649720949237235, 9610905.834722567349672 ], [ 557506.437469490687363, 9610896.765161518007517 ], [ 557502.225218032253906, 9610887.695600466802716 ], [ 557495.522725411457941, 9610880.60403817333281 ], [ 557487.641728513059206, 9610874.448561919853091 ], [ 557479.760731614660472, 9610868.293085668236017 ], [ 557471.879734716261737, 9610862.137609416618943 ], [ 557463.998737817979418, 9610855.982133165001869 ], [ 557456.117740919580683, 9610849.826656913384795 ], [ 557448.236744021181948, 9610843.671180661767721 ], [ 557440.355747122783214, 9610837.515704408288002 ], [ 557432.474750224384479, 9610831.360228156670928 ], [ 557424.593753325985745, 9610825.204751905053854 ], [ 557416.71275642758701, 9610819.04927565343678 ], [ 557408.831759529188275, 9610812.893799401819706 ], [ 557400.950762630789541, 9610806.738323150202632 ], [ 557393.069765732390806, 9610800.582846898585558 ], [ 557385.188768833992071, 9610794.427370645105839 ], [ 557377.307771935593337, 9610788.271894393488765 ], [ 557367.959822818054818, 9610785.049347324296832 ], [ 557358.307538676192053, 9610782.435267973691225 ], [ 557348.655254534329288, 9610779.821188624948263 ], [ 557339.002970392466523, 9610777.207109276205301 ], [ 557329.350686250720173, 9610774.593029925599694 ], [ 557319.698402108857408, 9610771.978950576856732 ], [ 557310.046117966994643, 9610769.364871226251125 ], [ 557300.393833825248294, 9610766.750791877508163 ], [ 557290.741549683385529, 9610764.136712528765202 ], [ 557281.089265541522764, 9610761.522633178159595 ], [ 557271.436981399776414, 9610758.908553829416633 ], [ 557261.784697257913649, 9610756.294474478811026 ], [ 557252.132413116050884, 9610753.680395130068064 ], [ 557242.480128974188119, 9610751.066315779462457 ], [ 557232.82784483244177, 9610748.452236430719495 ], [ 557223.175560690579005, 9610745.838157081976533 ], [ 557213.52327654871624, 9610743.224077731370926 ], [ 557203.87099240696989, 9610740.609998382627964 ], [ 557194.218708265107125, 9610737.995919032022357 ], [ 557184.56642412324436, 9610735.381839683279395 ], [ 557174.744898255565204, 9610733.879972657188773 ], [ 557164.751942221890204, 9610733.504699811339378 ], [ 557154.758986188215204, 9610733.129426967352629 ], [ 557144.766030154540204, 9610732.754154121503234 ], [ 557134.773074120865203, 9610732.378881275653839 ], [ 557124.780118087190203, 9610732.003608429804444 ], [ 557114.787162053515203, 9610731.62833558395505 ], [ 557104.794206019723788, 9610731.253062738105655 ], [ 557094.801249986048788, 9610730.87778989225626 ], [ 557084.808293952373788, 9610730.502517046406865 ], [ 557074.815337918698788, 9610730.12724420055747 ], [ 557064.822381885023788, 9610729.751971354708076 ], [ 557054.829425851348788, 9610729.376698508858681 ], [ 557044.836469817673787, 9610729.001425663009286 ], [ 557034.843513783882372, 9610728.626152817159891 ], [ 557024.850557750207372, 9610728.250879971310496 ], [ 557014.857601716532372, 9610727.875607125461102 ], [ 557004.864645682857372, 9610727.500334281474352 ], [ 556994.871689649182372, 9610727.125061435624957 ], [ 556984.878733615507372, 9610726.749788589775562 ], [ 556974.885777581832372, 9610726.374515743926167 ], [ 556964.892821548157372, 9610725.999242898076773 ], [ 556954.899865514365956, 9610725.623970052227378 ], [ 556944.906909480690956, 9610725.248697206377983 ], [ 556934.913953447015956, 9610724.873424360528588 ], [ 556924.920997413340956, 9610724.498151514679193 ], [ 556914.928041379665956, 9610724.122878668829799 ], [ 556904.935085345990956, 9610723.747605822980404 ], [ 556894.942129312315956, 9610723.372332977131009 ], [ 556884.972526914090849, 9610723.43555617891252 ], [ 556875.075959770125337, 9610724.870114915072918 ], [ 556865.179392626043409, 9610726.30467364937067 ], [ 556855.282825482077897, 9610727.739232383668423 ], [ 556845.386258337995969, 9610729.17379111982882 ], [ 556835.489691194030456, 9610730.608349854126573 ], [ 556825.593124049948528, 9610732.042908588424325 ], [ 556815.696556905983016, 9610733.477467322722077 ], [ 556805.799989761901088, 9610734.912026058882475 ], [ 556795.903422617935576, 9610736.346584793180227 ], [ 556786.006855473853648, 9610737.78114352747798 ], [ 556776.110288329888135, 9610739.215702263638377 ], [ 556766.213721185806207, 9610740.65026099793613 ], [ 556756.317154041840695, 9610742.084819732233882 ], [ 556746.420586897758767, 9610743.519378468394279 ], [ 556736.524019753793254, 9610744.953937202692032 ], [ 556726.627452609711327, 9610746.388495936989784 ], [ 556716.730885465745814, 9610747.823054673150182 ], [ 556706.834318321663886, 9610749.257613407447934 ], [ 556696.937751177698374, 9610750.692172141745687 ], [ 556687.041184033616446, 9610752.126730876043439 ], [ 556677.144616889650933, 9610753.561289612203836 ], [ 556667.210340442834422, 9610754.474832227453589 ], [ 556657.210341946687549, 9610754.480316495522857 ], [ 556647.210343450540677, 9610754.485800763592124 ], [ 556637.210344954393804, 9610754.491285031661391 ], [ 556627.210346458246931, 9610754.496769299730659 ], [ 556617.210347962100059, 9610754.502253567799926 ], [ 556607.210349465953186, 9610754.507737835869193 ], [ 556597.210350969806314, 9610754.513222105801105 ], [ 556587.210352473659441, 9610754.518706373870373 ], [ 556577.567953429301269, 9610752.772454373538494 ], [ 556568.370223703095689, 9610748.847945757210255 ], [ 556559.172493976890109, 9610744.92343713901937 ], [ 556549.97476425068453, 9610740.998928522691131 ], [ 556540.77703452447895, 9610737.074419906362891 ], [ 556531.57930479827337, 9610733.149911290034652 ], [ 556522.38157507206779, 9610729.225402671843767 ], [ 556513.18384534586221, 9610725.300894055515528 ], [ 556503.98611561965663, 9610721.376385439187288 ], [ 556494.788385893334635, 9610717.451876822859049 ], [ 556485.590656167129055, 9610713.527368204668164 ], [ 556476.392926440923475, 9610709.602859588339925 ], [ 556467.195196714717895, 9610705.678350972011685 ], [ 556457.997466988512315, 9610701.753842353820801 ], [ 556448.799737262306735, 9610697.829333737492561 ], [ 556439.602007536101155, 9610693.904825121164322 ], [ 556430.404277809895575, 9610689.980316504836082 ], [ 556421.206548083689995, 9610686.055807886645198 ], [ 556412.008818357484415, 9610682.131299270316958 ], [ 556402.81108863116242, 9610678.206790653988719 ], [ 556393.61335890495684, 9610674.28228203766048 ], [ 556384.41562917875126, 9610670.357773419469595 ], [ 556375.21789945254568, 9610666.433264803141356 ], [ 556366.0201697263401, 9610662.508756186813116 ], [ 556356.82244000013452, 9610658.584247570484877 ], [ 556347.62471027392894, 9610654.659738952293992 ], [ 556338.42698054772336, 9610650.735230335965753 ], [ 556329.22925082151778, 9610646.810721719637513 ], [ 556320.0315210953122, 9610642.886213103309274 ], [ 556310.833791368990205, 9610638.961704485118389 ], [ 556301.636061642784625, 9610635.03719586879015 ], [ 556292.438331916579045, 9610631.11268725246191 ], [ 556283.240602190373465, 9610627.188178634271026 ], [ 556275.697296568308957, 9610621.019024373963475 ], [ 556269.22638065519277, 9610613.394901653751731 ], [ 556262.755464742076583, 9610605.770778935402632 ], [ 556256.284548828960396, 9610598.146656215190887 ], [ 556249.813632915844209, 9610590.522533494979143 ], [ 556243.342717002728023, 9610582.898410774767399 ], [ 556236.871801089611836, 9610575.2742880564183 ], [ 556230.400885176612064, 9610567.650165336206555 ], [ 556223.929969263495877, 9610560.026042615994811 ], [ 556217.459053350379691, 9610552.401919895783067 ], [ 556210.988137437263504, 9610544.777797177433968 ], [ 556204.517221524147317, 9610537.153674457222223 ], [ 556198.04630561103113, 9610529.529551737010479 ], [ 556191.575389697914943, 9610521.90542901866138 ], [ 556185.104473784798756, 9610514.281306298449636 ], [ 556178.633557871798985, 9610506.657183578237891 ], [ 556172.162641958682798, 9610499.033060858026147 ], [ 556165.691726045566611, 9610491.408938139677048 ], [ 556159.220810132450424, 9610483.784815419465303 ], [ 556152.749894219334237, 9610476.160692699253559 ], [ 556146.27897830621805, 9610468.536569979041815 ], [ 556139.808062393101864, 9610460.912447260692716 ], [ 556133.337146480102092, 9610453.288324540480971 ], [ 556126.866230566985905, 9610445.664201820269227 ], [ 556120.395314653869718, 9610438.040079100057483 ], [ 556113.924398740753531, 9610430.415956381708384 ], [ 556107.453482827637345, 9610422.791833661496639 ], [ 556100.982566914521158, 9610415.167710941284895 ], [ 556094.878573674242944, 9610407.428885517641902 ], [ 556095.854997997405007, 9610397.476669907569885 ], [ 556096.831422320567071, 9610387.524454297497869 ], [ 556097.80784664361272, 9610377.572238687425852 ], [ 556098.784270966774784, 9610367.62002307921648 ], [ 556099.760695289936848, 9610357.667807469144464 ], [ 556100.737119612982497, 9610347.715591859072447 ], [ 556101.713543936144561, 9610337.76337624900043 ], [ 556102.689968259306625, 9610327.811160640791059 ], [ 556103.666392582352273, 9610317.858945030719042 ], [ 556104.642816905514337, 9610307.906729420647025 ], [ 556105.619241228676401, 9610297.954513810575008 ], [ 556106.59566555172205, 9610288.002298200502992 ], [ 556107.572089874884114, 9610278.05008259229362 ], [ 556108.548514197929762, 9610268.097866982221603 ], [ 556109.524938521091826, 9610258.145651372149587 ], [ 556110.50136284425389, 9610248.19343576207757 ], [ 556111.477787167299539, 9610238.241220153868198 ], [ 556112.454211490461603, 9610228.289004543796182 ], [ 556113.430635813623667, 9610218.336788933724165 ], [ 556114.407060136669315, 9610208.384573323652148 ], [ 556115.383484459831379, 9610198.432357713580132 ], [ 556116.359908782993443, 9610188.48014210537076 ], [ 556112.455804805736989, 9610179.578282121568918 ], [ 556107.471748679876328, 9610170.90884243324399 ], [ 556102.487692554015666, 9610162.239402743056417 ], [ 556097.50363642827142, 9610153.569963052868843 ], [ 556092.519580302410759, 9610144.90052336268127 ], [ 556087.535524176550098, 9610136.231083672493696 ], [ 556082.551468050689436, 9610127.561643984168768 ], [ 556077.567411924945191, 9610118.892204293981194 ], [ 556072.583355799084529, 9610110.222764603793621 ], [ 556067.599299673223868, 9610101.553324913606048 ], [ 556062.615243547363207, 9610092.883885225281119 ], [ 556057.631187421618961, 9610084.214445535093546 ], [ 556052.6471312957583, 9610075.545005844905972 ], [ 556047.663075169897638, 9610066.875566154718399 ], [ 556041.038203594158404, 9610059.745939832180738 ], [ 556032.70245322631672, 9610054.221877394244075 ], [ 556024.366702858358622, 9610048.697814958170056 ], [ 556016.030952490516938, 9610043.173752522096038 ], [ 556007.695202122675255, 9610037.649690084159374 ], [ 555999.359451754717156, 9610032.125627648085356 ], [ 555991.023701386875473, 9610026.601565212011337 ], [ 555982.68795101903379, 9610021.077502774074674 ], [ 555974.352200651192106, 9610015.553440338000655 ], [ 555966.016450283234008, 9610010.029377901926637 ], [ 555957.680699915392324, 9610004.505315463989973 ], [ 555949.344949547550641, 9609998.981253027915955 ], [ 555941.009199179708958, 9609993.457190591841936 ], [ 555933.32729892898351, 9609987.103020902723074 ], [ 555926.004317768034525, 9609980.293178986757994 ], [ 555918.681336606969126, 9609973.483337070792913 ], [ 555911.358355446020141, 9609966.673495156690478 ], [ 555904.035374284954742, 9609959.863653240725398 ], [ 555896.712393124005757, 9609953.053811324760318 ], [ 555889.389411963056773, 9609946.243969408795238 ], [ 555882.066430801991373, 9609939.434127492830157 ], [ 555874.743449641042389, 9609932.624285576865077 ], [ 555867.420468479976989, 9609925.814443662762642 ], [ 555860.097487319028005, 9609919.004601746797562 ], [ 555852.774506158079021, 9609912.194759830832481 ], [ 555845.451524997013621, 9609905.384917914867401 ], [ 555838.128543836064637, 9609898.575075998902321 ], [ 555830.805562674999237, 9609891.765234084799886 ], [ 555823.482581514050253, 9609884.955392168834805 ], [ 555816.159600353101268, 9609878.145550252869725 ], [ 555808.836619192035869, 9609871.335708336904645 ], [ 555801.513638031086884, 9609864.525866420939565 ], [ 555800.126147509785369, 9609855.005136324092746 ], [ 555799.774475280777551, 9609845.011321906000376 ], [ 555799.422803051769733, 9609835.017507486045361 ], [ 555799.071130822878331, 9609825.023693067952991 ], [ 555798.719458593870513, 9609815.029878647997975 ], [ 555798.367786364862695, 9609805.036064229905605 ], [ 555798.016114135971293, 9609795.04224980995059 ], [ 555797.664441906963475, 9609785.04843539185822 ], [ 555797.312769677955657, 9609775.054620971903205 ], [ 555796.961097449064255, 9609765.06080655194819 ], [ 555796.609425220056437, 9609755.06699213385582 ], [ 555796.257752991048619, 9609745.073177713900805 ], [ 555795.906080762157217, 9609735.079363295808434 ], [ 555795.554408533149399, 9609725.085548875853419 ], [ 555795.202736304141581, 9609715.091734457761049 ], [ 555794.851064075250179, 9609705.097920037806034 ], [ 555794.499391846242361, 9609695.104105619713664 ], [ 555794.147719617234543, 9609685.110291199758649 ], [ 555793.79604738834314, 9609675.116476781666279 ], [ 555794.329949465347454, 9609665.604600083082914 ], [ 555802.912948688142933, 9609660.473116444423795 ], [ 555811.495947911054827, 9609655.341632805764675 ], [ 555820.078947133966722, 9609650.21014916524291 ], [ 555828.661946356878616, 9609645.078665526583791 ], [ 555837.244945579674095, 9609639.947181887924671 ], [ 555845.827944802585989, 9609634.815698247402906 ], [ 555854.410944025497884, 9609629.684214608743787 ], [ 555862.993943248409778, 9609624.552730970084667 ], [ 555871.576942471205257, 9609619.421247329562902 ], [ 555880.159941694117151, 9609614.289763690903783 ], [ 555888.742940917029046, 9609609.158280052244663 ], [ 555897.535635040025227, 9609604.876036267727613 ], [ 555907.520682632108219, 9609605.422684768214822 ], [ 555917.505730224191211, 9609605.969333270564675 ], [ 555927.490777816157788, 9609606.515981772914529 ], [ 555937.47582540824078, 9609607.062630275264382 ], [ 555947.460873000207357, 9609607.609278777614236 ], [ 555957.445920592290349, 9609608.155927278101444 ], [ 555967.430968184373342, 9609608.702575780451298 ], [ 555977.416015776339918, 9609609.249224282801151 ], [ 555987.401063368422911, 9609609.795872785151005 ], [ 555997.386110960389487, 9609610.342521287500858 ], [ 556007.37115855247248, 9609610.889169787988067 ], [ 556017.356206144555472, 9609611.43581829033792 ], [ 556026.538230655132793, 9609615.097383413463831 ], [ 556035.543054195353761, 9609619.446308914572001 ], [ 556044.54787773557473, 9609623.79523441568017 ], [ 556053.552701275795698, 9609628.144159914925694 ], [ 556062.557524816016667, 9609632.493085416033864 ], [ 556071.562348356237635, 9609636.842010917142034 ], [ 556080.567171896575019, 9609641.190936418250203 ], [ 556089.571995436795987, 9609645.539861917495728 ], [ 556098.576818977016956, 9609649.888787418603897 ], [ 556107.562807878362946, 9609654.27079345472157 ], [ 556115.898562296992168, 9609659.794849779456854 ], [ 556124.234316715504974, 9609665.318906102329493 ], [ 556132.570071134134196, 9609670.842962427064776 ], [ 556140.905825552763417, 9609676.36701875180006 ], [ 556149.241579971276224, 9609681.891075074672699 ], [ 556157.577334389905445, 9609687.415131399407983 ], [ 556165.913088808534667, 9609692.939187724143267 ], [ 556174.248843227047473, 9609698.463244048878551 ], [ 556182.584597645676695, 9609703.987300371751189 ], [ 556190.920352064305916, 9609709.511356696486473 ], [ 556199.256106482818723, 9609715.035413021221757 ], [ 556207.591860901447944, 9609720.559469344094396 ], [ 556215.927615320077166, 9609726.083525668829679 ], [ 556224.263369738589972, 9609731.607581993564963 ], [ 556232.599124157219194, 9609737.131638318300247 ], [ 556240.934878575848415, 9609742.655694641172886 ], [ 556250.603711489355192, 9609745.148136608302593 ], [ 556260.309178424882703, 9609747.557267481461167 ], [ 556270.014645360293798, 9609749.966398354619741 ], [ 556279.720112295704894, 9609752.375529227778316 ], [ 556289.425579231115989, 9609754.78466010093689 ], [ 556299.131046166527085, 9609757.193790975958109 ], [ 556308.836513101938181, 9609759.602921849116683 ], [ 556318.541980037349276, 9609762.012052722275257 ], [ 556328.247446972876787, 9609764.421183595433831 ], [ 556337.952913908287883, 9609766.830314468592405 ], [ 556347.658380843698978, 9609769.239445341750979 ], [ 556357.363847779110074, 9609771.648576216772199 ], [ 556367.06931471452117, 9609774.057707089930773 ], [ 556376.774781649932265, 9609776.466837963089347 ], [ 556386.480248585343361, 9609778.875968836247921 ], [ 556396.185715520870872, 9609781.285099709406495 ], [ 556405.891182456281967, 9609783.694230582565069 ], [ 556415.596649391693063, 9609786.103361455723643 ], [ 556425.476454932359047, 9609787.08323815651238 ], [ 556435.476453428971581, 9609787.077754881232977 ], [ 556445.47645192570053, 9609787.072271604090929 ], [ 556455.476450422313064, 9609787.066788326948881 ], [ 556465.476448919042014, 9609787.061305051669478 ], [ 556475.476447415770963, 9609787.055821774527431 ], [ 556485.476445912383497, 9609787.050338499248028 ], [ 556495.476444409112446, 9609787.04485522210598 ], [ 556505.476442905841395, 9609787.039371944963932 ], [ 556515.476441402453929, 9609787.033888669684529 ], [ 556525.476439899182878, 9609787.028405392542481 ], [ 556535.476438395795412, 9609787.022922117263079 ], [ 556545.476436892524362, 9609787.017438840121031 ], [ 556555.476435389253311, 9609787.011955562978983 ], [ 556565.476433885865845, 9609787.00647228769958 ], [ 556575.476432382594794, 9609787.000989010557532 ], [ 556585.476430879207328, 9609786.99550573527813 ], [ 556595.080199008691125, 9609784.76547022908926 ], [ 556604.467089503072202, 9609781.317820761352777 ], [ 556613.85397999745328, 9609777.870171293616295 ], [ 556623.240870491717942, 9609774.422521827742457 ], [ 556632.62776098609902, 9609770.974872360005975 ], [ 556642.014651480480097, 9609767.527222894132137 ], [ 556651.401541974861175, 9609764.079573426395655 ], [ 556660.788432469125837, 9609760.631923958659172 ], [ 556670.175322963506915, 9609757.184274492785335 ], [ 556679.562213457887992, 9609753.736625025048852 ], [ 556688.94910395226907, 9609750.288975559175014 ], [ 556698.335994446533732, 9609746.841326091438532 ], [ 556707.72288494091481, 9609743.393676625564694 ], [ 556717.109775435295887, 9609739.946027157828212 ], [ 556726.496665929676965, 9609736.498377690091729 ], [ 556735.883556424058042, 9609733.050728224217892 ], [ 556745.270446918322705, 9609729.603078756481409 ], [ 556754.657337412703782, 9609726.155429290607572 ], [ 556763.066838358528912, 9609720.992631886154413 ], [ 556770.817773509887047, 9609714.674166543409228 ], [ 556778.568708661128767, 9609708.355701200664043 ], [ 556786.319643812486902, 9609702.037235859781504 ], [ 556794.070578963845037, 9609695.718770517036319 ], [ 556801.821514115203172, 9609689.400305174291134 ], [ 556809.572449266561307, 9609683.081839833408594 ], [ 556817.323384417919442, 9609676.763374490663409 ], [ 556825.074319569277577, 9609670.444909147918224 ], [ 556832.825254720635712, 9609664.126443807035685 ], [ 556840.576189871993847, 9609657.8079784642905 ], [ 556848.327125023351982, 9609651.489513121545315 ], [ 556856.078060174710117, 9609645.171047780662775 ], [ 556860.437959917006083, 9609636.230263441801071 ], [ 556864.603419850813225, 9609627.139117006212473 ], [ 556868.768879784620367, 9609618.04797056876123 ], [ 556872.934339718427509, 9609608.956824131309986 ], [ 556877.099799652118236, 9609599.865677693858743 ], [ 556881.265259585925378, 9609590.774531256407499 ], [ 556885.43071951973252, 9609581.683384820818901 ], [ 556889.596179453539662, 9609572.592238383367658 ], [ 556893.761639387346804, 9609563.501091945916414 ], [ 556897.927099321153946, 9609554.409945508465171 ], [ 556902.092559254961088, 9609545.318799071013927 ], [ 556906.25801918876823, 9609536.227652635425329 ], [ 556910.423479122575372, 9609527.136506197974086 ], [ 556914.588939056382515, 9609518.045359760522842 ], [ 556918.754398990189657, 9609508.954213323071599 ], [ 556922.919858923996799, 9609499.863066887483001 ], [ 556927.085318857687525, 9609490.771920450031757 ], [ 556931.250778791494668, 9609481.680774012580514 ], [ 556935.41623872530181, 9609472.589627575129271 ], [ 556939.581698659108952, 9609463.498481137678027 ], [ 556943.747158592916094, 9609454.407334702089429 ], [ 556947.912618526723236, 9609445.316188264638186 ], [ 556952.078078460530378, 9609436.225041827186942 ], [ 556956.24353839433752, 9609427.133895389735699 ], [ 556960.408998328144662, 9609418.042748952284455 ], [ 556964.574458261951804, 9609408.951602516695857 ], [ 556968.739918195758946, 9609399.860456079244614 ], [ 556972.905378129566088, 9609390.76930964179337 ], [ 556977.070838063256815, 9609381.678163204342127 ], [ 556981.236297997063957, 9609372.587016768753529 ], [ 556985.401757930871099, 9609363.495870331302285 ], [ 556989.567217864678241, 9609354.404723893851042 ], [ 556993.732677798485383, 9609345.313577456399798 ], [ 556993.494335028459318, 9609335.474825754761696 ], [ 556992.562469266238622, 9609325.518339116126299 ], [ 556991.630603504017927, 9609315.561852477490902 ], [ 556990.698737741797231, 9609305.60536583699286 ], [ 556989.766871979576536, 9609295.648879198357463 ], [ 556988.83500621735584, 9609285.692392557859421 ], [ 556987.903140455135144, 9609275.735905919224024 ], [ 556986.971274693030864, 9609265.779419278725982 ], [ 556986.039408930810168, 9609255.822932640090585 ], [ 556985.107543168589473, 9609245.866446001455188 ], [ 556984.175677406368777, 9609235.909959360957146 ], [ 556983.243811644148082, 9609225.953472722321749 ], [ 556982.311945881927386, 9609215.996986081823707 ], [ 556981.38008011970669, 9609206.04049944318831 ], [ 556980.448214357485995, 9609196.084012802690268 ], [ 556979.516348595381714, 9609186.127526164054871 ], [ 556978.584482833161019, 9609176.171039525419474 ], [ 556977.652617070940323, 9609166.214552884921432 ], [ 556976.720751308719628, 9609156.258066246286035 ], [ 556975.788885546498932, 9609146.301579605787992 ], [ 556974.857019784278236, 9609136.345092967152596 ], [ 556973.925154022057541, 9609126.388606326654553 ], [ 556972.993288259836845, 9609116.432119688019156 ], [ 556972.061422497732565, 9609106.475633049383759 ], [ 556971.129556735511869, 9609096.519146408885717 ], [ 556970.197690973291174, 9609086.56265977025032 ], [ 556969.265825211070478, 9609076.606173129752278 ], [ 556968.333959448849782, 9609066.649686491116881 ], [ 556967.402093686629087, 9609056.693199850618839 ], [ 556966.470227924408391, 9609046.736713211983442 ], [ 556965.538362162187696, 9609036.780226573348045 ], [ 556967.332505682832561, 9609027.113087812438607 ], [ 556970.333690620143898, 9609017.574068523943424 ], [ 556973.334875557338819, 9609008.035049235448241 ], [ 556976.33606049453374, 9608998.496029948815703 ], [ 556979.337245431728661, 9608988.95701066032052 ], [ 556982.338430368923582, 9608979.417991373687983 ], [ 556985.339615306234919, 9608969.8789720851928 ], [ 556988.34080024342984, 9608960.339952796697617 ], [ 556991.341985180624761, 9608950.800933510065079 ], [ 556994.343170117819682, 9608941.261914221569896 ], [ 556997.344355055014603, 9608931.722894933074713 ], [ 557000.345539992325939, 9608922.183875646442175 ], [ 557003.34672492952086, 9608912.644856357946992 ], [ 557006.347909866715781, 9608903.105837071314454 ], [ 557009.349094803910702, 9608893.566817782819271 ], [ 557012.350279741222039, 9608884.027798494324088 ], [ 557015.35146467841696, 9608874.48877920769155 ], [ 557018.352649615611881, 9608864.949759919196367 ], [ 557021.353834552806802, 9608855.410740632563829 ], [ 557024.355019490001723, 9608845.871721344068646 ], [ 557027.35620442731306, 9608836.332702055573463 ], [ 557030.357389364507981, 9608826.793682768940926 ], [ 557033.358574301702902, 9608817.254663480445743 ], [ 557036.359759238897823, 9608807.71564419195056 ], [ 557039.360944176092744, 9608798.176624905318022 ], [ 557042.36212911340408, 9608788.637605616822839 ], [ 557045.363314050599001, 9608779.098586330190301 ], [ 557048.364498987793922, 9608769.559567041695118 ], [ 557051.365683924988844, 9608760.020547753199935 ], [ 557054.366868862183765, 9608750.481528466567397 ], [ 557057.368053799495101, 9608740.942509178072214 ], [ 557061.152245594537817, 9608731.687782412394881 ], [ 557064.970204081735574, 9608722.445315590128303 ], [ 557068.788162569049746, 9608713.202848765999079 ], [ 557072.606121056363918, 9608703.960381941869855 ], [ 557076.42407954367809, 9608694.717915117740631 ], [ 557080.242038030992262, 9608685.475448293611407 ], [ 557084.059996518306434, 9608676.232981469482183 ], [ 557087.877955005620606, 9608666.990514647215605 ], [ 557091.695913492934778, 9608657.748047823086381 ], [ 557095.51387198024895, 9608648.505580998957157 ], [ 557099.331830467563123, 9608639.263114174827933 ], [ 557103.149788954877295, 9608630.020647350698709 ], [ 557106.967747442191467, 9608620.778180528432131 ], [ 557110.785705929505639, 9608611.535713704302907 ], [ 557114.603664416819811, 9608602.293246880173683 ], [ 557118.421622904133983, 9608593.050780056044459 ], [ 557122.239581391448155, 9608583.808313231915236 ], [ 557126.057539878762327, 9608574.565846407786012 ], [ 557129.875498366076499, 9608565.323379585519433 ], [ 557133.693456853274256, 9608556.080912761390209 ], [ 557137.511415340588428, 9608546.838445937260985 ], [ 557141.3293738279026, 9608537.595979113131762 ], [ 557145.147332315216772, 9608528.353512289002538 ], [ 557148.965290802530944, 9608519.111045464873314 ], [ 557152.783249289845116, 9608509.868578642606735 ], [ 557156.601207777159289, 9608500.626111818477511 ], [ 557160.419166264473461, 9608491.383644994348288 ], [ 557164.237124751787633, 9608482.141178170219064 ], [ 557168.055083239101805, 9608472.89871134608984 ], [ 557171.873041726415977, 9608463.656244521960616 ], [ 557175.691000213730149, 9608454.413777699694037 ], [ 557179.691865113680251, 9608445.256174514070153 ], [ 557184.283801901037805, 9608436.372812733054161 ], [ 557188.875738688395359, 9608427.489450952038169 ], [ 557193.467675475752912, 9608418.606089169159532 ], [ 557198.059612262994051, 9608409.722727388143539 ], [ 557202.651549050351605, 9608400.839365607127547 ], [ 557207.243485837709159, 9608391.95600382424891 ], [ 557211.835422625066712, 9608383.072642043232918 ], [ 557216.427359412424266, 9608374.189280262216926 ], [ 557221.01929619978182, 9608365.305918481200933 ], [ 557225.611232987022959, 9608356.422556698322296 ], [ 557230.203169774380513, 9608347.539194917306304 ], [ 557234.795106561738066, 9608338.655833136290312 ], [ 557239.38704334909562, 9608329.77247135527432 ], [ 557243.978980136453174, 9608320.889109572395682 ], [ 557248.570916923810728, 9608312.00574779137969 ], [ 557253.162853711051866, 9608303.122386010363698 ], [ 557257.75479049840942, 9608294.239024229347706 ], [ 557262.346727285766974, 9608285.355662446469069 ], [ 557266.938664073124528, 9608276.472300665453076 ], [ 557271.530600860482082, 9608267.588938884437084 ], [ 557276.12253764772322, 9608258.705577103421092 ], [ 557283.824829908902757, 9608252.512978842481971 ], [ 557291.954920037998818, 9608246.690467828884721 ], [ 557300.085010167211294, 9608240.867956817150116 ], [ 557308.21510029642377, 9608235.045445803552866 ], [ 557316.345190425636247, 9608229.222934791818261 ], [ 557324.475280554848723, 9608223.400423780083656 ], [ 557332.605370684061199, 9608217.577912766486406 ], [ 557340.73546081315726, 9608211.755401754751801 ], [ 557348.865550942369737, 9608205.932890741154552 ], [ 557356.995641071582213, 9608200.110379729419947 ], [ 557365.125731200794689, 9608194.287868715822697 ], [ 557373.255821330007166, 9608188.465357704088092 ], [ 557381.385911459219642, 9608182.642846692353487 ], [ 557389.516001588315703, 9608176.820335678756237 ], [ 557397.646091717528179, 9608170.997824667021632 ], [ 557405.776181846740656, 9608165.175313653424382 ], [ 557413.906271975953132, 9608159.352802641689777 ], [ 557422.036362105165608, 9608153.530291628092527 ], [ 557430.166452234378085, 9608147.707780616357923 ], [ 557438.296542363474146, 9608141.885269602760673 ], [ 557446.426632492686622, 9608136.062758591026068 ], [ 557454.556722621899098, 9608130.240247579291463 ], [ 557462.745541333220899, 9608126.163354534655809 ], [ 557471.248583267093636, 9608131.426269873976707 ], [ 557479.751625200966373, 9608136.689185213297606 ], [ 557488.25466713483911, 9608141.952100552618504 ], [ 557496.757709068711847, 9608147.215015891939402 ], [ 557505.260751002584584, 9608152.4779312312603 ], [ 557513.763792936457321, 9608157.740846570581198 ], [ 557522.266834870330058, 9608163.003761909902096 ], [ 557530.769876804202795, 9608168.266677251085639 ], [ 557539.272918738075532, 9608173.529592590406537 ], [ 557547.775960671948269, 9608178.792507929727435 ], [ 557556.279002605821006, 9608184.055423269048333 ], [ 557564.782044539693743, 9608189.318338608369231 ], [ 557573.28508647356648, 9608194.581253947690129 ], [ 557581.788128407439217, 9608199.844169287011027 ], [ 557590.291170341195539, 9608205.107084626331925 ], [ 557598.794212275068276, 9608210.369999965652823 ], [ 557607.297254208941013, 9608215.632915304973722 ], [ 557615.80029614281375, 9608220.895830646157265 ], [ 557624.303338076686487, 9608226.158745985478163 ], [ 557632.806380010559224, 9608231.421661324799061 ], [ 557641.309421944431961, 9608236.684576664119959 ], [ 557649.812463878304698, 9608241.947492003440857 ], [ 557658.315505812177435, 9608247.210407342761755 ], [ 557666.186196275870316, 9608253.312040964141488 ], [ 557673.585597009863704, 9608260.038768902420998 ], [ 557680.984997743857093, 9608266.765496842563152 ], [ 557688.384398477850482, 9608273.492224782705307 ], [ 557695.783799211727455, 9608280.218952722847462 ], [ 557703.183199945720844, 9608286.945680662989616 ], [ 557710.582600679714233, 9608293.672408603131771 ], [ 557717.982001413707621, 9608300.399136543273926 ], [ 557725.38140214770101, 9608307.12586448341608 ], [ 557732.780802881577983, 9608313.852592423558235 ], [ 557740.180203615571372, 9608320.57932036370039 ], [ 557747.579604349564761, 9608327.306048301979899 ], [ 557754.97900508355815, 9608334.032776242122054 ], [ 557762.378405817551538, 9608340.759504182264209 ], [ 557769.777806551428512, 9608347.486232122406363 ], [ 557777.1772072854219, 9608354.212960062548518 ], [ 557784.576608019415289, 9608360.939688002690673 ], [ 557793.221044307458214, 9608364.623703146353364 ], [ 557803.213445989997126, 9608365.013457702472806 ], [ 557813.205847672652453, 9608365.403212258592248 ], [ 557823.198249355191365, 9608365.79296681471169 ], [ 557833.190651037730277, 9608366.182721372693777 ], [ 557843.183052720269188, 9608366.572475928813219 ], [ 557853.1754544028081, 9608366.962230484932661 ], [ 557863.167856085463427, 9608367.351985041052103 ], [ 557873.160257768002339, 9608367.741739597171545 ], [ 557883.15265945054125, 9608368.131494153290987 ], [ 557893.145061133080162, 9608368.521248711273074 ], [ 557903.137462815735489, 9608368.911003267392516 ], [ 557913.129864498274401, 9608369.300757823511958 ], [ 557923.122266180813313, 9608369.6905123796314 ], [ 557933.114667863352224, 9608370.080266935750842 ], [ 557943.107069545891136, 9608370.470021493732929 ], [ 557953.099471228546463, 9608370.859776049852371 ], [ 557963.091872911085375, 9608371.249530605971813 ], [ 557973.084274593624286, 9608371.639285162091255 ], [ 557983.076676276163198, 9608372.029039718210697 ], [ 557991.52167655446101, 9608368.159953875467181 ], [ 557998.933264887775294, 9608361.446656743064523 ], [ 558006.344853221089579, 9608354.733359612524509 ], [ 558013.756441554520279, 9608348.020062480121851 ], [ 558021.168029887834564, 9608341.306765347719193 ], [ 558028.579618221148849, 9608334.593468217179179 ], [ 558035.991206554579549, 9608327.880171084776521 ], [ 558043.402794887893833, 9608321.166873954236507 ], [ 558050.814383221208118, 9608314.453576821833849 ], [ 558058.225971554638818, 9608307.740279691293836 ], [ 558065.637559887953103, 9608301.026982558891177 ], [ 558073.049148221383803, 9608294.313685428351164 ], [ 558080.460736554698087, 9608287.600388295948505 ], [ 558087.872324888012372, 9608280.887091163545847 ], [ 558095.283913221443072, 9608274.173794033005834 ], [ 558102.695501554757357, 9608267.460496900603175 ], [ 558110.107089888071641, 9608260.747199770063162 ], [ 558113.926742976065725, 9608252.5044184345752 ], [ 558113.629978748271242, 9608242.508822854608297 ], [ 558113.333214520476758, 9608232.513227274641395 ], [ 558113.036450292682275, 9608222.517631694674492 ], [ 558112.739686064887792, 9608212.522036114707589 ], [ 558112.442921837093309, 9608202.526440534740686 ], [ 558112.146157609298825, 9608192.530844954773784 ], [ 558111.849393381504342, 9608182.535249376669526 ], [ 558111.552629153709859, 9608172.539653796702623 ], [ 558111.255864925915375, 9608162.544058216735721 ], [ 558110.959100698120892, 9608152.548462636768818 ], [ 558110.662336470326409, 9608142.552867056801915 ], [ 558110.365572242531925, 9608132.557271476835012 ], [ 558110.068808014737442, 9608122.56167589686811 ], [ 558109.772043786942959, 9608112.566080318763852 ], [ 558109.475279559148476, 9608102.570484738796949 ], [ 558109.178515331353992, 9608092.574889158830047 ], [ 558108.881751103559509, 9608082.579293578863144 ], [ 558108.584986875765026, 9608072.583697998896241 ], [ 558108.288222647970542, 9608062.588102418929338 ], [ 558107.991458420176059, 9608052.592506838962436 ], [ 558107.694694192381576, 9608042.596911260858178 ], [ 558107.397929964587092, 9608032.601315680891275 ], [ 558107.101165736792609, 9608022.605720100924373 ], [ 558106.804401508998126, 9608012.61012452095747 ], [ 558106.507637281203642, 9608002.614528940990567 ], [ 558106.210873053409159, 9607992.618933361023664 ] ] ] } }
]
}
