distance,median,stdev,prc_25,prc_75
1280.0,7.0,3.07922,6.0,10.0
1290.0,8.0,2.8527741,7.0,10.0
1300.0,8.0,2.8284059,7.0,10.0
1310.0,9.0,3.5313597,8.0,10.0
1320.0,9.0,4.0744944,9.0,10.0
1330.0,10.0,4.196287,9.0,11.0
1340.0,10.0,3.9183116,9.0,11.0
1350.0,11.0,3.3479242,10.0,13.0
1360.0,12.0,2.656222,11.0,14.0
1370.0,12.0,2.4444613,11.0,14.0
1380.0,12.0,2.2484856,12.0,14.0
1390.0,13.0,2.3943598,12.0,14.0
1400.0,14.0,2.702257,12.0,16.0
1410.0,14.0,3.1879823,12.0,17.0
1420.0,14.0,3.5667589,11.0,17.0
1430.0,14.0,3.7882683,11.0,16.0
1440.0,14.0,3.9497871,12.0,16.0
1450.0,15.0,4.093606,12.0,16.0
1460.0,15.0,3.389858,13.0,20.0
1470.0,18.0,3.5204294,14.0,20.0
1480.0,19.0,3.4756236,14.0,20.0
1490.0,19.0,3.401938,14.0,21.0
1500.0,19.0,3.2194026,14.0,20.0
1510.0,18.0,2.897858,14.0,20.0
1520.0,17.0,2.6745677,15.0,20.0
1530.0,16.0,2.7812946,15.0,19.0
1540.0,16.0,3.1959934,13.0,17.0
1550.0,14.0,3.095792,11.0,16.0
1560.0,13.0,2.770068,11.0,15.0
1570.0,14.0,2.868469,10.0,15.0
1580.0,13.0,3.0151079,10.0,15.0
1590.0,13.0,3.115506,10.0,15.0
1600.0,13.0,3.3641963,10.0,15.0
1610.0,13.0,3.7527475,10.0,15.0
1620.0,12.0,4.060753,9.0,16.0
1630.0,11.0,4.207525,9.0,16.0
1640.0,11.0,4.5433164,9.0,17.0
1650.0,12.0,4.6826096,9.0,16.0
1660.0,11.0,4.6109576,9.0,16.0
1670.0,11.0,4.6537433,9.0,16.0
1690.0,15.0,4.8526025,10.0,17.0
1700.0,15.0,4.870677,13.0,18.0
1710.0,17.0,4.7320023,13.0,18.0
1720.0,17.0,4.5683103,14.0,18.0
1730.0,16.0,4.4219413,14.0,19.0
1740.0,15.0,4.64251,13.0,19.0
1750.0,15.0,4.6768265,12.0,19.0
1760.0,16.0,4.5453396,12.0,18.0
1770.0,17.0,4.107364,13.0,17.0
1780.0,15.0,3.673561,13.0,17.0
2860.0,11.0,1.3945228,10.0,12.0
2870.0,11.0,1.3566765,10.0,12.0
2880.0,11.0,1.4494203,10.0,12.0
2890.0,11.0,1.5499661,10.0,12.0
2900.0,11.0,1.4222074,10.0,12.0
2910.0,11.0,1.3536086,10.0,12.0
2920.0,11.0,1.4244466,10.0,12.0
2930.0,11.0,1.483188,10.0,12.0
2940.0,11.0,1.4078611,10.0,12.0
2950.0,11.0,2.0872405,10.0,12.0
2960.0,11.0,2.3751202,10.0,12.0
2970.0,11.0,2.4891014,10.0,12.0
2980.0,11.0,2.614502,10.0,13.0
2990.0,12.0,2.632268,10.0,13.0
3000.0,11.0,2.6556213,10.0,13.0
3010.0,11.0,2.5810673,9.0,13.0
3020.0,11.0,2.3182685,10.0,13.0
3030.0,11.0,2.0484931,10.0,13.0
3040.0,11.0,1.7745389,10.0,13.0
3050.0,11.0,1.4894023,11.0,13.0
3060.0,11.0,1.4667461,11.0,13.0
3070.0,12.0,1.4972336,11.0,13.0
3080.0,12.0,1.714782,11.0,13.0
3090.0,11.0,1.8733705,11.0,13.0
3100.0,11.0,1.9501954,11.0,13.0
3110.0,11.0,2.0495408,10.0,13.0
3120.0,11.0,2.1145985,10.0,13.0
3130.0,11.0,2.0471992,10.0,13.0
3140.0,11.0,1.8205838,10.0,13.0
3150.0,11.0,1.5172573,11.0,12.0
3160.0,12.0,1.3329785,11.0,12.0
3170.0,11.0,1.4776341,11.0,12.0
3180.0,11.0,1.636391,11.0,12.0
3190.0,11.0,1.7990704,10.0,12.0
3200.0,11.0,1.9309306,10.0,12.0
3210.0,11.0,2.1275182,10.0,12.0
3220.0,11.0,2.424247,10.0,13.0
3230.0,11.0,2.51593,10.0,14.0
3240.0,12.0,2.3480246,10.0,14.0
3250.0,11.0,2.4224448,10.0,13.0
3260.0,11.0,2.5903482,10.0,12.0
3270.0,11.0,2.885442,9.0,12.0
3280.0,10.0,3.24268,9.0,11.75
3290.0,10.0,3.532987,9.0,11.0
3300.0,10.0,3.941449,9.0,11.0
3310.0,9.0,4.2839317,9.0,12.0
3320.0,10.0,4.351229,8.0,12.0
3330.0,10.0,4.3275046,9.0,13.0
3340.0,10.0,4.225015,9.0,13.0
3350.0,10.0,4.153878,9.0,13.0
3360.0,11.0,3.9239366,9.0,14.0
3370.0,11.0,3.599673,9.0,14.0
3380.0,11.0,3.1584888,9.0,14.0
3390.0,11.0,2.742272,10.0,13.0
3400.0,11.0,2.5012891,10.0,13.0
3410.0,11.0,2.4897711,10.0,13.0
3420.0,11.0,2.65088,10.0,13.0
3430.0,12.0,2.8219426,9.0,13.0
3440.0,12.0,2.8579721,9.0,13.0
3450.0,12.0,2.8912125,9.0,13.0
3460.0,12.0,3.0745606,10.0,13.0
3470.0,12.0,3.2554598,10.0,13.0
3480.0,12.0,3.6314704,10.0,15.0
3490.0,12.0,4.0052557,10.0,16.0
3500.0,12.0,4.325976,10.0,16.0
3510.0,12.0,4.564125,10.0,17.0
3520.0,11.0,1.7238501,9.0,12.0
3530.0,11.0,1.5395799,10.0,12.0
3540.0,11.0,1.4360398,10.0,12.0
3550.0,11.0,1.7537465,10.0,12.0
3560.0,12.0,1.7768769,10.0,12.0
3570.0,11.0,2.228472,10.0,13.0
3580.0,11.0,2.350256,10.0,13.0
3590.0,12.0,2.2590208,10.0,14.0
3600.0,12.0,2.1874897,11.0,14.0
3610.0,13.0,2.272202,11.0,14.0
3620.0,13.0,2.4058218,11.0,15.0
3630.0,13.0,2.8423893,11.0,16.0
3640.0,13.0,3.2359843,11.0,16.0
3650.0,13.0,3.9391682,11.0,18.0
3660.0,13.0,4.4377565,11.0,18.0
3670.0,13.0,5.1240625,10.25,18.0
3680.0,13.0,5.5370483,11.0,22.0
3690.0,13.0,5.7444735,10.0,22.0
3700.0,13.0,5.7666316,11.0,22.0
3710.0,13.0,5.6755877,11.0,22.0
3720.0,16.0,5.5354433,12.0,21.0
3730.0,16.0,5.1677175,12.0,21.0
3740.0,16.0,4.8774405,12.0,20.0
3750.0,15.0,4.712158,12.0,20.0
3760.0,15.0,4.5440636,12.0,20.0
3770.0,15.0,4.063011,13.0,19.0
3780.0,15.0,3.7224388,13.0,18.0
3790.0,15.0,3.481548,13.0,18.0
3800.0,15.0,3.3579066,12.0,18.0
3810.0,15.0,2.8602488,13.0,16.0
3820.0,15.0,2.7784784,13.0,16.0
3830.0,14.0,2.8038542,13.0,16.0
3840.0,14.0,2.9423285,12.0,17.0
3850.0,14.0,2.9474046,12.0,17.0
3860.0,15.0,2.82359,12.0,17.0
3870.0,14.0,2.990332,12.0,17.0
3880.0,15.0,3.0217774,12.0,17.0
3890.0,12.0,5.314267,11.0,17.0
3900.0,12.0,4.990895,10.0,17.0
3910.0,12.0,5.2649307,10.0,18.0
3920.0,12.0,5.3980002,10.0,19.0
3930.0,13.0,5.311305,10.0,19.0
3940.0,13.0,5.086407,10.0,17.0
3950.0,13.0,5.048429,10.0,16.0
3960.0,13.0,4.8746424,11.0,18.0
3970.0,13.0,4.7300467,11.0,18.5
3980.0,13.0,4.4299483,11.0,18.0
3990.0,13.0,4.4018807,12.0,17.0
4000.0,14.0,4.5635505,12.0,17.0
4010.0,14.0,4.3587036,12.0,17.0
4020.0,14.0,4.2752004,12.0,17.0
4030.0,14.0,3.98742,12.0,17.0
4040.0,15.0,3.9787848,13.0,17.0
4050.0,15.0,4.1045127,13.0,17.0
4060.0,15.0,4.12278,13.0,17.0
4070.0,15.0,4.215739,13.0,16.0
4080.0,15.0,4.221302,13.0,16.0
4090.0,15.0,4.4992785,13.0,17.0
4100.0,15.0,4.5532875,13.0,17.0
4110.0,15.0,4.2289505,13.0,17.0
4120.0,14.0,3.8633714,12.0,17.0
4130.0,14.0,3.5891774,13.0,17.0
4140.0,15.0,3.5476294,13.0,17.0
4150.0,15.0,3.423655,13.0,17.0
4160.0,15.0,3.2163486,13.0,16.0
4170.0,15.0,3.0552526,13.0,16.0
4180.0,16.0,2.7418022,14.0,17.0
4190.0,15.0,2.6511073,14.0,17.0
4200.0,15.0,2.716599,14.0,17.0
4210.0,15.0,2.948151,14.0,17.0
4220.0,15.0,3.130551,14.0,18.0
4230.0,15.0,3.155401,13.0,18.0
4240.0,15.0,3.301145,13.0,17.0
4250.0,16.0,3.3537507,12.0,17.0
4260.0,14.0,3.2445235,12.0,17.0
4270.0,14.0,3.2601466,12.0,16.0
4280.0,13.0,3.27376,11.0,16.0
4290.0,13.0,3.20132,11.0,15.0
4300.0,13.0,2.8613195,11.0,15.0
4310.0,12.0,2.9384625,10.0,13.0
4320.0,12.0,2.7963958,10.0,13.0
4330.0,12.0,2.5801175,10.0,13.0
4340.0,12.0,2.139964,10.0,13.0
4350.0,12.0,2.212668,10.0,13.0
4360.0,12.0,2.3487897,10.0,13.0
4370.0,12.0,2.3472524,10.0,13.0
4380.0,11.0,2.3842137,10.0,13.0
4390.0,11.0,2.2977684,10.0,12.0
4400.0,11.0,2.1456943,10.0,12.0
4410.0,11.0,2.1679459,10.0,12.0
4420.0,11.0,2.3148024,10.0,12.0
4430.0,11.0,2.3780208,10.0,13.0
4440.0,11.0,2.2399764,10.0,13.0
4450.0,11.0,2.27922,10.0,13.0
4460.0,11.0,2.3764122,10.0,13.0
4470.0,11.0,2.3931963,10.0,13.0
4480.0,11.0,2.983647,10.0,14.0
4490.0,11.0,3.541546,10.0,14.0
4500.0,11.0,3.6795735,10.0,14.0
4510.0,12.0,3.458221,10.0,14.0
4520.0,12.0,3.0400805,11.0,13.0
4530.0,12.0,3.1910396,11.0,13.0
4540.0,12.0,3.4851851,11.0,13.0
4550.0,12.0,3.5236552,11.0,14.0
4560.0,12.0,3.177935,11.0,14.0
4570.0,12.0,3.0746942,11.0,14.0
4580.0,12.0,3.3634627,11.0,14.0
4590.0,13.0,3.1833847,11.0,14.0
4600.0,13.0,2.6358805,11.0,14.0
4610.0,13.0,1.9442431,12.0,14.0
4620.0,13.0,1.9676418,12.0,14.0
4630.0,12.0,1.8586669,12.0,13.0
4640.0,12.0,1.7114371,11.0,13.0
4650.0,13.0,1.671834,12.0,13.0
4660.0,13.0,2.6077588,11.0,16.0
4670.0,13.0,2.3108726,12.0,15.0
4680.0,13.0,2.3018591,12.0,14.0
4690.0,13.0,2.2777305,12.0,15.0
4700.0,13.0,2.216958,12.0,15.0
4710.0,12.0,2.633741,11.0,15.0
4720.0,12.0,2.7311358,11.0,15.0
4730.0,12.0,2.5876317,11.0,15.0
4740.0,12.0,2.2560759,11.0,15.0
4750.0,12.0,1.9751587,11.0,13.0
4760.0,12.0,2.0435061,11.0,13.0
4770.0,12.0,2.158979,11.0,14.0
4780.0,12.0,2.174244,11.0,14.0
4790.0,12.0,2.1332948,11.0,13.0
4800.0,12.0,2.1579556,11.0,14.0
4810.0,12.0,2.0797913,11.0,14.0
4820.0,12.0,2.078851,11.0,14.0
4830.0,12.0,2.2357073,11.0,13.0
4840.0,12.0,2.4387186,11.0,14.0
4850.0,12.0,2.5209432,11.0,14.0
4860.0,12.0,2.3967276,12.0,14.0
4870.0,13.0,2.4253833,12.0,14.0
4880.0,12.0,3.0482113,10.0,14.0
4890.0,14.0,4.5780325,12.0,16.0
4900.0,13.0,4.4408956,12.0,16.0
4910.0,13.0,4.1220303,12.0,15.0
4920.0,13.0,3.6177144,12.0,15.0
4930.0,13.0,3.2729673,12.0,15.0
4940.0,13.0,3.2166326,12.0,15.0
4950.0,13.0,3.2361763,12.0,16.0
4960.0,14.0,3.2930708,12.0,16.0
4970.0,14.0,3.5213356,12.0,16.0
4980.0,14.0,3.8574712,11.0,16.0
4990.0,14.0,4.0382123,11.0,17.0
5000.0,14.0,4.18168,11.0,17.0
5010.0,14.0,4.226029,11.0,18.0
5020.0,14.0,4.1720276,11.0,17.0
5030.0,13.0,1.9851928,12.0,15.0
5040.0,13.0,2.1707463,12.0,15.0
5050.0,13.0,2.4238863,12.0,15.0
5060.0,13.0,2.5349681,12.0,14.0
5070.0,13.0,2.4903162,12.0,14.0
5080.0,13.0,2.6187375,11.0,15.0
5090.0,13.0,2.7666926,11.0,15.0
5100.0,13.0,2.9738753,11.0,15.0
5110.0,13.0,3.0316398,11.0,15.0
5120.0,13.0,3.0191298,11.0,15.0
5130.0,13.0,2.9114134,11.0,16.0
5140.0,13.0,2.9213867,11.0,15.0
5150.0,13.0,3.075156,10.0,15.0
5160.0,12.0,3.2881885,10.0,14.0
5170.0,12.0,3.7006094,10.0,14.0
5180.0,12.0,2.676522,10.0,14.0
5190.0,12.0,2.5467803,11.0,14.0
5200.0,12.0,2.5212162,11.0,14.0
5210.0,12.0,2.6424344,11.0,14.0
5220.0,12.0,2.6375315,11.0,14.0
5230.0,12.0,2.8973846,11.0,14.0
5240.0,12.0,3.1819394,11.0,15.0
5250.0,13.0,3.4730692,11.0,15.0
5260.0,13.0,3.8565226,11.0,15.0
5270.0,13.0,4.404438,11.0,15.0
5280.0,13.0,4.758494,11.0,15.0
5290.0,12.0,4.9107676,11.0,15.0
5300.0,12.0,4.8344054,11.0,15.0
5310.0,13.0,4.641572,11.0,14.0
5320.0,13.0,4.5281267,11.0,14.0
5330.0,13.0,4.2088356,11.0,14.0
5340.0,13.0,3.7300317,11.0,14.0
5350.0,12.0,3.149082,11.0,14.0
5360.0,13.0,2.9162807,11.0,15.0
5370.0,12.0,2.9723053,11.0,15.0
5380.0,13.0,3.0032885,11.0,15.0
5390.0,13.0,2.8191352,11.0,15.0
5400.0,13.0,2.676092,11.0,14.0
5410.0,12.0,2.2937095,11.0,14.0
5420.0,12.0,2.0854764,11.0,14.0
5430.0,12.0,1.7620498,11.0,14.0
5440.0,12.0,1.804331,11.0,14.0
5450.0,12.0,1.9305414,10.0,14.0
5460.0,12.0,2.2865508,10.0,14.0
5470.0,12.0,2.8942127,10.0,14.0
5480.0,12.0,2.9692447,10.0,14.0
5490.0,12.0,2.796147,10.0,14.0
5500.0,11.0,2.4895208,10.0,13.0
5510.0,11.0,2.162236,10.0,13.0
5520.0,11.0,2.06803,10.0,13.0
5530.0,11.0,2.1824043,10.0,13.0
5540.0,11.0,2.446203,10.0,13.0
5550.0,11.0,2.7612517,10.0,13.0
5560.0,11.0,3.0702891,10.0,13.0
5570.0,11.0,3.1735642,10.0,13.0
5580.0,12.0,3.1109023,10.0,13.0
5590.0,12.0,3.0221608,10.0,13.0
5600.0,11.0,2.8233771,10.0,13.0
5610.0,10.0,2.4867873,10.0,12.0
5620.0,11.0,2.2274587,10.0,13.0
5630.0,11.0,2.4215488,10.0,13.0
5640.0,11.0,2.3801925,10.0,13.0
5650.0,11.0,2.0471287,10.0,13.0
5660.0,11.0,1.8454453,10.0,12.0
5670.0,11.0,1.6738337,10.0,12.0
5680.0,11.0,1.566422,10.0,12.0
5690.0,11.0,1.5437881,10.0,12.0
5700.0,11.0,1.550418,10.0,12.0
5710.0,11.0,1.7671055,10.0,12.0
5720.0,11.0,2.1943953,10.0,12.0
5730.0,11.0,2.3916354,10.0,12.0
5740.0,11.0,2.324789,10.0,13.0
5750.0,11.0,2.117115,10.0,12.0
5760.0,11.0,1.9298856,10.0,12.0
5770.0,11.0,1.7962009,10.0,12.0
5780.0,11.0,1.9361645,10.0,12.0
5790.0,11.0,2.1214378,10.0,13.0
5800.0,12.0,2.3126714,10.0,13.0
5810.0,12.0,2.5034788,10.0,14.0
5820.0,11.0,2.6483653,10.0,14.0
5830.0,11.0,2.6503928,10.0,14.0
5840.0,12.0,2.5682383,10.0,14.0
5850.0,12.0,2.494947,10.0,14.0
5860.0,11.0,2.0123427,10.0,12.0
5870.0,11.0,2.299788,10.0,13.0
5880.0,11.0,2.3173976,10.0,13.0
5890.0,11.0,2.3084707,10.0,13.0
5900.0,11.0,2.2835994,10.0,13.0
5910.0,12.0,2.2634256,10.0,13.0
5920.0,11.0,2.4555767,10.0,12.0
5930.0,11.0,2.3608992,10.0,12.0
5940.0,11.0,2.2803602,10.0,12.0
5950.0,11.0,2.3030941,10.0,13.0
5960.0,11.0,2.2642703,10.0,12.0
5970.0,11.0,2.024852,10.0,12.0
5980.0,11.0,1.6547977,10.0,12.0
5990.0,11.0,1.5081874,10.0,12.0
6000.0,10.0,1.4475471,10.0,11.0
6010.0,10.0,1.3838515,10.0,11.0
6020.0,10.0,1.4455197,9.0,11.0
6030.0,10.0,1.5346818,9.0,12.0
6040.0,10.0,1.5954622,9.0,12.0
6050.0,11.0,1.653228,9.0,12.0
6060.0,11.0,1.6092492,10.0,12.0
6070.0,11.0,1.7979196,10.0,13.0
6080.0,11.0,1.9548314,10.0,13.0
6090.0,11.0,2.0103235,10.0,13.0
6100.0,12.0,1.9653833,10.0,14.0
6110.0,12.0,1.9279665,11.0,14.0
6120.0,12.0,2.0474377,11.0,14.0
6130.0,12.0,2.0851862,11.0,14.0
6140.0,12.0,2.1282806,11.0,15.0
6150.0,12.0,1.9623096,11.0,14.0
6160.0,12.0,2.0337691,11.0,14.0
6170.0,12.0,2.306143,10.0,14.0
6180.0,13.0,2.4939225,10.0,14.0
6190.0,11.0,2.598053,10.0,14.0
6200.0,11.0,2.4567993,10.0,14.0
6210.0,12.0,2.4670568,10.0,14.0
6220.0,12.0,2.6231186,10.0,14.0
6230.0,10.0,2.0242,9.0,12.0
6240.0,11.0,2.0024357,9.0,12.0
6250.0,11.0,2.1124232,9.0,12.0
6260.0,11.0,2.0378966,10.0,12.0
6270.0,11.0,1.9533247,10.0,12.0
6280.0,11.0,1.8864027,9.0,11.0
6290.0,11.0,2.2578304,9.0,12.0
6300.0,12.0,2.2475402,10.0,14.0
6310.0,11.0,2.0825436,10.0,13.0
6320.0,11.0,2.2622528,10.0,13.0
6330.0,12.0,2.3850079,10.0,14.0
6340.0,12.0,2.3072557,11.0,14.0
6350.0,12.0,2.2626696,11.0,14.0
6360.0,12.0,2.1490698,10.0,14.0
6370.0,12.0,1.989505,11.0,14.0
6380.0,12.0,1.8430558,11.0,14.0
6390.0,12.0,2.0893507,11.0,13.0
6400.0,12.0,2.3979645,10.0,14.0
6410.0,12.0,2.5105844,10.0,14.0
6420.0,13.0,2.2870429,11.0,15.0
6430.0,13.0,2.343571,11.0,14.0
6440.0,12.0,2.2366707,11.0,14.0
6450.0,12.0,2.197911,11.0,14.0
6460.0,12.0,1.9599234,11.0,14.0
6470.0,12.0,1.6701528,11.0,14.0
6480.0,12.0,1.7640418,11.0,14.0
6490.0,12.0,1.8199439,11.0,14.0
6500.0,13.0,1.9917728,11.0,14.0
6510.0,13.0,2.011805,11.0,14.0
6520.0,12.0,2.4948437,11.0,14.0
6530.0,12.5,2.736536,11.0,14.0
6540.0,13.0,2.678968,11.0,14.0
6550.0,13.0,2.7722516,11.0,14.0
6560.0,13.0,2.5660121,11.0,14.0
6570.0,12.0,2.6158252,11.0,14.0
6580.0,13.0,2.3477242,11.0,14.0
6590.0,13.0,2.1893644,11.0,14.0
6600.0,12.0,2.3732798,11.0,15.0
6610.0,12.0,2.5978162,11.0,15.0
6620.0,12.0,2.5212178,11.0,14.0
6630.0,13.0,2.390409,12.0,14.0
6640.0,13.0,2.0346918,12.0,14.0
6650.0,14.0,1.9562562,12.0,14.0
6660.0,14.0,2.1193745,12.0,15.0
6670.0,14.0,1.9284115,12.0,15.0
6680.0,14.0,2.0263405,12.0,15.0
6690.0,13.0,2.193344,12.0,15.0
6700.0,13.0,2.7162802,12.0,16.0
6710.0,14.0,2.7564402,12.0,16.0
6720.0,14.0,2.5294816,12.0,16.0
6730.0,13.5,2.3366375,12.0,16.0
6740.0,14.0,2.4225993,12.0,16.0
6750.0,14.0,2.550789,12.0,16.0
6760.0,14.0,2.3896077,12.0,15.0
6770.0,14.0,2.1620421,12.0,15.0
6780.0,14.0,2.0040917,12.0,15.0
6790.0,14.0,2.050949,12.0,14.0
6800.0,13.0,2.022765,12.0,14.0
6810.0,12.0,2.1112366,12.0,14.0
6820.0,13.0,1.9744872,12.0,14.0
6830.0,13.0,2.1046128,12.0,14.0
6840.0,13.0,2.0327296,12.0,14.0
6850.0,12.0,1.9828867,11.0,14.0
6860.0,13.0,1.9709055,11.0,14.75
6870.0,13.0,1.8843235,11.0,14.0
6880.0,13.0,2.0356336,11.0,15.0
6890.0,13.0,2.2526543,11.0,15.0
6900.0,13.0,2.533945,11.0,15.0
6910.0,13.0,2.3447134,11.0,15.0
6920.0,13.0,2.1246777,11.0,15.0
6930.0,13.0,1.4936466,12.0,15.0
6940.0,13.0,1.5158662,12.0,15.0
6950.0,13.0,1.637815,12.0,14.0
6960.0,13.0,2.2345383,12.0,14.0
6970.0,14.0,2.437518,12.0,14.75
6980.0,13.0,2.4838936,12.0,15.0
6990.0,13.0,2.2488966,12.0,15.0
7000.0,13.0,2.2414443,11.0,15.0
7010.0,13.0,2.3166687,11.0,15.0
7020.0,13.0,2.1814082,11.0,15.0
7030.0,13.0,1.9884685,12.0,15.0
7040.0,13.0,2.2015238,11.0,15.0
7050.0,13.0,2.037847,11.0,14.0
7060.0,14.0,2.0361996,12.0,15.0
7070.0,13.0,2.0508702,12.0,15.0
7080.0,13.0,2.1021137,12.0,15.0
7090.0,13.0,2.2348025,12.0,15.0
7100.0,13.0,2.4506602,12.0,15.0
7110.0,14.0,2.5159616,12.0,15.0
7120.0,14.0,2.4943938,12.0,15.0
7130.0,14.0,2.4661338,12.0,15.0
7140.0,14.0,2.3875616,13.0,15.0
7150.0,14.0,2.2136288,13.0,15.0
7160.0,14.0,2.165346,13.0,15.0
7170.0,14.0,2.233558,13.0,16.0
7180.0,14.0,2.124383,13.0,16.0
7190.0,14.0,2.0486622,13.0,16.0
7200.0,14.0,2.1075344,12.0,16.0
7210.0,14.0,2.1183176,12.0,16.0
7220.0,14.0,2.1984925,12.0,16.0
7230.0,13.0,2.2544053,12.0,15.0
7240.0,13.0,2.1539612,12.0,15.0
7250.0,13.0,2.032806,12.0,15.0
7260.0,13.0,1.9634359,12.0,15.0
7270.0,13.0,1.9029863,12.0,14.0
7280.0,13.0,2.0229995,12.0,14.0
7290.0,13.0,1.9813873,12.0,15.0
7300.0,14.0,2.0274208,13.0,16.0
7310.0,14.0,2.0119903,13.0,16.0
7320.0,14.0,1.9881781,12.0,15.0
7330.0,13.0,2.0929306,12.0,15.0
7340.0,13.0,1.8775043,12.0,14.0
7350.0,13.0,1.9022667,12.0,14.0
7360.0,13.0,2.0151017,12.0,14.0
7370.0,13.0,2.330652,11.0,14.0
7380.0,13.0,2.4797492,11.0,14.0
7390.0,13.0,2.6966126,11.0,15.0
7400.0,13.0,2.711328,11.0,15.0
7410.0,13.0,2.930261,11.0,15.0
7420.0,13.0,2.7789733,11.0,15.0
7430.0,13.0,2.5378883,11.0,15.0
7440.0,13.0,2.0011113,12.0,15.0
7450.0,13.0,2.071747,11.0,15.0
7460.0,13.0,2.0368638,12.0,14.0
7470.0,13.0,1.8583314,11.0,14.0
7480.0,13.0,2.0180218,11.0,14.0
7490.0,13.0,1.8237888,12.0,15.0
7500.0,13.0,1.664826,12.0,15.0
7510.0,14.0,1.3887659,13.0,15.0
7520.0,14.0,1.2675587,13.0,15.0
7530.0,14.0,1.5210209,13.0,15.0
7540.0,14.0,1.7923676,12.0,15.0
7550.0,14.0,1.7759678,12.0,15.0
7560.0,14.0,1.9909402,12.0,15.0
7570.0,13.0,2.3910806,12.0,16.0
7580.0,13.0,2.4702134,12.0,16.0
7590.0,14.0,1.9990155,13.0,15.0
7600.0,14.0,1.3802391,13.0,14.0
7610.0,13.0,1.191572,13.0,14.0
7620.0,13.0,1.3131658,12.0,15.0
7630.0,13.0,1.3213662,13.0,14.0
7640.0,13.0,1.2973676,13.0,14.0
7650.0,13.0,1.2927586,13.0,14.0
7660.0,13.0,1.6033633,13.0,15.0
7670.0,13.0,1.9030973,13.0,15.0
7680.0,13.0,2.1488855,13.0,15.0
7690.0,13.0,2.2198987,13.0,15.0
7700.0,14.0,2.1099508,12.0,15.0
7710.0,14.0,2.108232,12.0,16.0
7720.0,14.0,2.2563784,13.0,16.0
7730.0,14.0,2.2973304,13.0,15.0
7740.0,14.0,2.209587,13.0,15.0
7750.0,14.0,2.1410615,13.0,15.0
7760.0,13.0,1.8910189,13.0,15.0
7770.0,13.0,1.5219795,12.0,15.0
7780.0,13.0,1.4985701,12.0,15.0
7790.0,13.0,1.8053147,12.0,15.0
7800.0,13.0,1.9332138,13.0,15.0
7810.0,13.0,2.0329504,12.0,15.0
7820.0,13.0,2.0258029,12.0,15.0
7830.0,14.0,1.8073288,12.0,15.0
7840.0,14.0,1.633284,13.0,15.0
7850.0,14.0,1.5480888,13.0,15.0
7860.0,14.0,1.6048077,13.0,15.0
7870.0,15.0,1.7486588,13.0,15.0
7880.0,15.0,1.9034057,13.0,15.0
7890.0,14.0,1.9653562,13.0,15.0
7900.0,14.0,1.7160563,13.0,15.0
7910.0,14.0,1.3611064,13.0,14.0
7920.0,14.0,1.1105124,13.0,14.0
7930.0,13.0,0.8657592,13.0,14.0
7940.0,13.0,0.9376634,12.0,13.0
7950.0,12.0,1.1099365,12.0,13.0
7960.0,12.0,1.1896744,12.0,13.0
7970.0,12.0,1.5340255,12.0,14.0
7980.0,12.0,1.8325821,11.0,13.0
7990.0,11.0,1.6098833,11.0,13.0
8000.0,11.0,1.3446331,11.0,13.0
8010.0,11.0,1.4049735,10.0,13.0
8020.0,10.0,1.5803595,10.0,13.0
8030.0,12.0,1.6667038,10.0,13.0
8040.0,12.5,1.7675906,10.0,14.0
8050.0,12.0,1.6996913,11.0,14.0
8060.0,12.0,1.6245246,12.0,15.0
8070.0,12.0,1.798935,11.0,15.0
8080.0,13.0,2.2886133,11.0,15.0
8090.0,12.0,2.6710749,11.0,15.0
8100.0,12.0,2.5087,11.0,14.0
8110.0,11.0,1.9266719,11.0,13.0
8120.0,11.0,1.7031833,9.0,13.0
8130.0,11.0,1.6237516,10.0,13.0
8140.0,11.0,1.7173499,10.0,13.0
8150.0,13.0,1.9298766,10.0,13.0
8160.0,13.0,1.9561695,10.0,14.0
8170.0,13.0,1.9136901,10.0,14.0
8180.0,13.0,1.7899839,10.0,14.0
8190.0,13.0,1.4810095,11.0,14.0
8200.0,12.0,1.2925938,11.0,14.0
8210.0,12.0,1.8475448,11.0,15.0
8220.0,15.0,1.6240879,14.0,16.0
8230.0,16.0,1.2816321,14.0,17.0
8240.0,17.0,1.6759194,14.0,17.0
8250.0,17.0,2.1761186,13.0,17.0
8260.0,18.0,3.9902909,13.0,18.0
8270.0,17.0,4.5723157,8.0,19.0
8280.0,17.0,3.6516948,16.0,17.0
8290.0,17.0,2.2412498,16.0,17.0
8300.0,17.0,1.5375404,17.0,20.0
8310.0,17.0,1.5470511,17.0,20.0
8320.0,17.0,1.3437097,16.0,17.0
8330.0,16.0,0.6320177,16.0,17.0
8340.0,16.0,2.111862,15.0,17.0
8350.0,15.0,2.2235272,11.0,15.0
8360.0,15.0,2.4693542,11.0,15.0
8370.0,15.0,2.1249278,15.0,18.0
8380.0,17.0,1.274857,15.0,18.0
8390.0,17.0,0.79629457,17.0,18.0
8400.0,17.0,1.5376818,17.0,18.0
8410.0,18.0,2.2171733,18.0,22.0
8420.0,22.0,1.9435318,18.0,22.0
8430.0,22.0,2.5746012,18.0,22.0
8440.0,19.0,2.8673556,16.0,22.0
8450.0,18.0,2.3253098,16.0,19.0
8460.0,18.0,1.6932054,15.0,19.0
8470.0,15.0,2.4843557,14.0,19.0
8480.0,14.0,2.520861,14.0,18.0
8490.0,14.0,3.1936572,12.0,19.0
8500.0,14.0,3.9634185,12.0,20.0
8510.0,14.0,4.01272,11.0,20.0
8520.0,17.0,3.4274867,11.0,18.0
8530.0,10.0,1.3843303,8.0,11.0
8540.0,11.0,0.4330127,10.75,11.0
8550.0,10.5,0.5,10.0,11.0
8560.0,10.5,0.7393011,10.0,11.0
8570.0,11.0,1.0,10.0,12.0
8580.0,11.0,2.0843773,7.75,12.0
8590.0,9.5,2.136838,7.75,12.0
8600.0,9.5,1.7853571,7.75,11.0
8610.0,11.0,1.3216707,9.0,11.0
8620.0,11.0,1.0897248,10.5,11.25
8630.0,11.0,1.0897248,10.5,11.25
8640.0,11.0,1.4765553,11.0,11.25
8650.0,12.0,2.3345697,11.25,12.0
8660.0,12.0,2.3372507,12.0,12.0
8670.0,12.0,2.3634052,12.0,17.0
8680.0,13.0,1.0,12.0,14.0
8690.0,14.0,0.9999658,12.0,14.0
8700.0,13.0,1.0,12.0,14.0
8710.0,12.0,1.2954397,12.0,12.0
8720.0,12.0,1.2954397,12.0,12.0
8730.0,14.0,1.2805917,12.0,14.0
8740.0,14.0,1.2903112,14.0,16.0
8750.0,14.0,1.2680075,14.0,16.0
8760.0,15.0,1.0612817,14.0,16.0
8770.0,15.0,0.83039975,15.0,16.0
8780.0,15.0,0.97925866,15.0,17.0
8790.0,17.0,0.97549987,15.0,17.0
8800.0,16.0,0.9558545,15.0,17.0
8810.0,15.0,1.3805697,13.0,16.0
8820.0,15.0,1.799717,14.0,17.0
8830.0,15.0,2.232561,13.0,18.0
8840.0,13.0,2.6978514,13.0,19.0
8850.0,17.0,2.5060036,13.0,19.0
8860.0,17.0,1.9022641,14.0,18.0
8870.0,18.0,1.882482,14.0,18.0
8880.0,18.0,1.6434367,16.0,19.0
8890.0,18.0,1.4868007,16.0,19.0
8900.0,16.0,1.4523687,16.0,19.0
8910.0,16.0,1.2248887,16.0,17.0
8920.0,16.0,1.1364616,16.0,17.0
8930.0,16.5,1.8998624,14.0,17.0
8940.0,16.0,2.0101647,14.0,19.0
8950.0,16.0,1.7370306,14.0,17.0
8960.0,16.0,1.8609551,15.0,17.0
8970.0,17.0,2.0528436,15.0,19.0
8980.0,17.0,2.3351295,15.0,19.0
8990.0,16.0,2.2160888,14.0,18.0
9000.0,16.0,1.8680996,14.0,18.0
9010.0,16.0,2.0599782,16.0,18.0
9020.0,18.0,2.0628088,16.0,19.0
9030.0,19.0,1.9749588,17.0,19.0
9040.0,18.5,2.4209483,16.0,19.75
9050.0,17.0,2.4043462,15.0,19.0
9060.0,18.0,2.0752578,15.5,19.0
9070.0,18.0,1.9031777,16.0,20.0
9080.0,17.0,1.7900599,16.0,20.0
9090.0,17.0,1.5291035,17.0,19.0
9100.0,18.0,1.2477598,17.0,19.0
9110.0,18.0,1.4089226,17.0,20.0
9120.0,18.0,1.6805912,16.0,20.0
9130.0,18.0,1.9543961,17.0,20.0
9140.0,20.0,2.1445513,17.0,21.0
9150.0,20.0,2.2629294,18.0,21.0
9160.0,19.0,2.7155156,17.0,23.0
9170.0,18.0,3.375077,16.0,23.0
9180.0,16.0,3.9904766,16.0,23.0
9190.0,17.0,3.9195802,15.0,21.0
9200.0,18.5,3.5941556,16.0,21.0
9210.0,19.0,3.2873518,17.0,22.0
9220.0,21.0,3.5256808,18.0,23.0
9230.0,20.0,3.6050928,17.0,23.0
9240.0,20.0,3.7630274,17.0,24.0
9250.0,22.0,3.3489497,20.0,24.0
9260.0,22.0,2.4240265,21.0,23.0
9270.0,21.0,2.426065,20.0,22.0
9280.0,18.0,2.6670153,17.0,21.0
9290.0,17.0,2.435744,16.0,19.0
9300.0,17.0,2.6439114,15.0,19.0
9310.0,17.0,2.9161901,15.0,20.0
9320.0,17.0,2.8309007,16.0,20.0
9330.0,17.0,2.5014198,16.0,20.0
9340.0,18.0,2.8059344,16.0,20.0
9350.0,18.0,3.0915854,17.0,19.0
9360.0,18.0,2.9882674,17.0,19.0
9370.0,18.0,2.6722815,17.0,19.0
9380.0,18.0,2.625655,17.0,22.0
9390.0,18.0,2.3631687,17.0,22.0
9400.0,18.0,2.1694853,17.0,19.75
9410.0,18.0,2.2927423,17.0,22.0
9420.0,18.0,2.5474083,17.0,22.0
9430.0,18.0,2.605847,17.0,22.0
9440.0,18.0,2.2070262,17.0,19.0
9450.0,17.0,1.5699369,16.75,19.0
9460.0,17.0,1.5565261,16.0,19.0
9470.0,17.0,1.6823132,16.0,18.0
9480.0,17.0,1.646688,16.0,18.0
9490.0,17.0,1.5744919,16.0,18.0
9500.0,17.0,1.5348129,16.0,18.0
9510.0,17.0,1.5774393,16.0,18.0
9520.0,17.0,1.4020562,16.0,18.0
9530.0,17.0,1.1120093,16.0,18.0
9540.0,17.0,1.1908871,16.0,18.0
9550.0,16.0,1.6826768,16.0,18.0
9560.0,16.0,1.9844425,15.0,17.0
9570.0,16.0,2.1267748,14.0,17.0
9580.0,15.0,2.1217318,14.0,18.0
9590.0,15.0,1.9627964,14.0,18.0
9600.0,15.0,1.8229904,14.0,18.0
9610.0,15.0,1.7510691,14.0,18.0
9620.0,15.0,1.663334,14.0,17.0
9630.0,14.5,1.6334878,14.0,16.25
9640.0,16.0,1.8487977,13.0,16.0
9650.0,16.0,2.116653,13.0,17.0
9660.0,16.0,2.0528107,15.0,16.5
9670.0,15.0,1.7695503,15.0,16.0
9680.0,15.0,1.5132848,15.0,16.0
9690.0,15.0,1.6233948,13.0,16.0
9700.0,15.0,2.153397,12.0,16.0
9710.0,15.0,2.4175904,13.0,16.0
9720.0,15.5,2.390178,13.0,16.25
9730.0,15.0,2.4740672,12.0,17.0
9740.0,15.0,2.7540383,12.0,17.0
9750.0,13.0,2.551697,12.0,17.0
9760.0,13.0,2.2301726,12.0,15.0
9770.0,14.0,2.2238426,12.0,15.0
9780.0,14.0,1.9422672,12.0,14.0
9790.0,13.0,1.7251147,12.0,14.0
9800.0,14.0,1.9347183,12.0,15.25
9810.0,15.0,2.1910417,12.0,16.0
9820.0,15.0,2.1400254,13.0,17.0
9830.0,15.0,2.3069263,13.0,17.0
9840.0,16.0,2.4166954,15.0,18.0
9850.0,17.0,2.7083929,16.0,18.0
9860.0,17.0,3.0899873,16.0,19.0
9870.0,18.0,3.0742924,17.0,20.0
9880.0,19.0,3.241387,15.0,20.0
9890.0,19.0,3.6209226,15.0,20.0
9900.0,19.0,4.6654973,15.0,23.0
9910.0,20.0,5.2668233,17.0,24.0
9920.0,18.0,4.2498107,13.0,21.0
9930.0,14.0,3.9624097,11.0,20.0
9940.0,14.0,3.0491734,13.0,15.0
9950.0,14.5,3.0970702,13.25,17.25
9960.0,15.0,3.2002861,14.0,17.0
9970.0,14.0,2.82318,14.0,15.0
9980.0,14.0,1.6733061,14.0,15.0
9990.0,14.0,1.4706753,13.0,15.0
10000.0,14.0,1.4729921,13.0,15.0
10010.0,14.0,1.488985,13.0,14.0
10020.0,14.0,1.7819293,13.0,14.0
10030.0,14.0,2.0632238,12.0,14.0
10040.0,14.0,2.3693728,13.0,16.0
10050.0,14.0,2.7192748,11.0,16.0
10060.0,13.0,2.6067934,11.0,14.0
10070.0,13.0,2.0703464,11.0,14.0
10080.0,13.0,3.0296645,11.0,14.0
10090.0,13.0,3.045108,11.0,14.0
10100.0,13.0,3.0151145,11.0,14.75
10110.0,13.0,1.9468924,12.0,15.0
10120.0,13.0,1.8749855,12.0,15.0
10130.0,12.0,1.730052,11.0,14.0
10140.0,13.0,0.9436526,12.0,13.0
10150.0,13.0,0.89501303,12.0,13.0
10160.0,13.0,0.7323179,13.0,13.0
10170.0,13.0,0.90985936,12.0,13.0
10180.0,12.0,1.2628806,12.0,13.0
10190.0,12.0,1.8323165,11.25,14.0
10200.0,13.5,1.9768757,12.0,15.0
10210.0,12.5,1.9326965,12.0,14.0
10220.0,12.0,1.8480903,12.0,15.0
10230.0,12.0,1.6539419,12.0,13.0
10240.0,12.0,1.7045829,11.0,13.0
10250.0,12.0,1.2541481,11.0,13.0
10260.0,11.0,1.7995046,11.0,12.0
10270.0,11.0,1.8057232,11.0,12.0
10280.0,12.0,2.0855474,11.0,13.0
10290.0,14.0,2.378103,12.0,15.0
10300.0,13.0,2.3639305,12.0,15.0
10310.0,12.0,2.3638823,11.0,14.0
10320.0,13.0,1.5758605,12.0,15.0
10330.0,13.0,1.550516,12.0,15.0
10340.0,13.0,1.3844582,12.0,15.0
10350.0,13.0,2.015094,12.0,15.0
10360.0,12.5,2.004399,12.0,15.0
10370.0,13.5,1.8442656,12.0,15.0
10380.0,14.0,1.4844296,12.0,15.0
10390.0,13.5,1.4865183,12.0,15.0
10400.0,15.0,1.4435539,13.0,15.0
10410.0,14.0,1.3178561,13.0,15.0
10420.0,14.0,1.2842941,13.0,15.0
10430.0,14.0,1.2742437,12.0,14.0
10440.0,14.0,1.8377974,13.0,15.0
10450.0,14.0,1.7440472,13.0,15.0
10460.0,14.0,1.8622626,14.0,16.0
10470.0,14.0,2.204454,13.0,16.0
10480.0,14.0,2.434234,13.0,16.0
10490.0,14.5,2.246816,13.0,15.25
10500.0,14.0,2.24371,14.0,15.0
10510.0,15.0,2.1237454,13.75,16.0
10520.0,15.0,2.1211972,14.0,16.0
10530.0,15.0,2.4804494,14.0,16.0
10540.0,15.0,2.5938482,14.0,16.0
10550.0,15.0,2.8346136,14.0,17.0
10560.0,15.0,3.454434,14.0,17.0
10570.0,15.0,3.357301,14.0,17.0
10580.0,14.0,3.4701297,14.0,18.0
10590.0,16.0,3.151559,14.0,18.0
10600.0,16.0,2.6550727,14.0,18.0
10610.0,16.0,2.4653163,15.0,18.0
10620.0,15.0,2.5582564,15.0,17.5
10630.0,15.0,2.011973,14.0,17.0
10640.0,15.0,2.3812525,14.0,18.0
10650.0,16.0,2.6537979,15.0,18.0
10660.0,16.0,2.8227303,15.0,19.0
10670.0,16.5,2.5340989,15.0,19.0
10680.0,17.0,2.4573915,15.0,19.0
10690.0,18.0,2.3166206,15.0,18.0
10700.0,18.0,2.1222236,15.0,18.0
10710.0,16.0,2.0554926,15.0,18.0
10720.0,16.0,2.015201,15.0,18.0
10730.0,16.0,2.2375324,15.0,18.0
10740.0,16.0,2.535917,15.0,18.0
10750.0,16.0,2.487707,16.0,18.0
10760.0,18.0,2.2522101,16.0,20.0
10770.0,18.0,2.3156683,16.0,20.0
10780.0,18.0,2.5840983,17.0,20.0
10790.0,18.0,2.6529696,17.0,20.0
10800.0,18.0,2.5876696,17.0,21.0
10810.0,20.0,2.7026865,17.0,22.0
10820.0,20.0,2.9738114,17.0,22.0
10830.0,19.0,3.0199542,17.0,22.0
10840.0,18.0,3.0752015,16.0,19.0
10850.0,18.0,3.437563,16.0,19.0
10860.0,17.0,3.4126422,16.0,19.0
10870.0,17.0,3.329204,16.0,21.0
10880.0,17.0,3.2708256,15.0,21.0
10890.0,17.0,3.2549834,15.0,21.0
10900.0,17.0,3.6615915,14.0,21.0
10910.0,17.0,3.5209801,16.0,21.0
10920.0,16.0,3.0777965,16.0,20.0
10930.0,16.5,2.4415138,15.0,19.0
10940.0,17.0,2.317419,15.0,19.0
10950.0,17.0,2.3084345,15.0,19.0
10960.0,17.0,2.2786305,16.0,19.0
10970.0,17.0,1.9943031,16.0,19.0
10980.0,17.0,1.4868124,16.0,18.0
10990.0,17.0,1.3272779,17.0,18.0
11000.0,18.0,1.3725162,17.0,19.0
11010.0,18.0,1.477034,17.0,19.0
11020.0,18.0,1.975598,17.0,19.0
11030.0,18.0,2.3077974,16.0,20.0
11040.0,18.0,2.3737411,16.0,20.0
11050.0,18.0,2.5783563,16.0,20.0
11060.0,18.0,3.0927482,16.0,20.0
11070.0,19.0,3.4087696,16.0,21.0
11080.0,19.5,3.2903237,16.0,21.0
11090.0,20.0,2.9992976,16.0,21.0
11100.0,20.0,3.1200228,16.0,21.0
11110.0,20.0,3.4950778,15.0,21.0
11120.0,20.0,3.7997146,14.0,22.0
11130.0,20.0,4.01507,15.0,22.0
11140.0,19.0,3.6113791,18.0,23.0
11150.0,19.0,3.750661,17.0,22.0
11160.0,20.0,3.7651799,17.0,22.0
11170.0,20.0,3.8840904,16.0,24.0
11180.0,20.0,4.1167197,15.0,24.0
11190.0,20.0,4.2630835,14.0,23.0
11200.0,22.0,4.1695323,15.0,24.0
11210.0,22.0,4.1068845,15.0,24.0
11220.0,22.0,4.2488437,15.0,24.0
11230.0,22.0,4.3271856,15.0,22.0
11240.0,22.0,4.388756,15.0,23.0
11250.0,20.0,4.3101673,15.0,23.0
11260.0,20.0,4.0447297,16.0,23.0
11270.0,20.0,3.8444912,16.0,21.0
11280.0,20.0,3.9919968,16.0,21.0
11290.0,16.0,4.2727203,15.0,24.0
11300.0,16.0,4.5174336,15.0,24.0
11310.0,15.0,5.0129356,15.0,24.0
11320.0,15.0,4.852996,15.0,20.0
11330.0,16.0,4.2998333,15.0,20.0
11340.0,16.0,3.5208342,14.0,20.0
11350.0,16.0,3.2990005,14.0,19.0
11360.0,17.0,2.7508416,14.0,19.0
11370.0,17.0,1.8200285,15.0,18.0
11380.0,16.0,1.6125653,15.0,17.0
11390.0,15.0,1.3286602,15.0,17.0
11400.0,15.0,1.578675,15.0,17.0
11410.0,17.0,1.9342506,15.0,18.0
11420.0,17.0,1.2822666,17.0,18.0
11430.0,17.0,1.4513458,17.0,20.0
11440.0,17.0,1.3660933,17.0,20.0
11450.0,17.0,1.0964044,17.0,19.0
11460.0,17.0,0.74570787,17.0,18.0
11470.0,17.0,0.61389214,17.0,18.0
11480.0,18.0,0.8351703,17.0,19.0
11490.0,19.0,0.77308047,18.0,19.0
11500.0,19.0,0.40134004,19.0,19.0
11510.0,19.0,0.4084983,19.0,19.0
11520.0,19.0,0.46933302,19.0,20.0
11530.0,19.0,0.5745715,19.0,19.0
11540.0,19.0,0.7186419,18.0,19.0
11550.0,17.0,0.88746786,17.0,18.0
11560.0,17.0,0.65182346,16.0,17.0
11570.0,16.0,0.64214075,16.0,16.25
11580.0,16.0,0.5183955,15.0,16.0
11590.0,16.0,1.1228508,15.0,16.0
11600.0,18.0,1.3992707,15.0,18.0
11610.0,18.0,1.1359065,18.0,18.0
11620.0,18.0,0.97414595,18.0,19.0
11630.0,18.0,1.4479679,16.0,19.0
11640.0,19.0,1.7261364,16.0,20.0
11650.0,18.5,1.7853571,16.75,20.0
11660.0,20.0,1.5788326,17.0,20.0
11670.0,19.0,1.8783535,17.0,20.0
11680.0,19.0,2.0291722,15.0,19.0
11690.0,17.0,1.5548995,15.0,18.5
11700.0,17.0,2.4253561,15.0,18.0
11710.0,17.0,2.9362762,12.0,18.0
11720.0,14.0,2.917601,12.75,18.25
11730.0,14.0,2.5064998,12.75,15.5
11740.0,15.0,2.5265017,12.0,15.0
11750.0,12.0,2.6583557,11.0,15.0
11760.0,14.5,2.573562,11.0,15.0
11770.0,14.5,1.8728371,11.0,15.0
11780.0,15.0,1.8811023,14.0,16.0
11790.0,14.0,1.8544664,13.0,16.0
11800.0,13.0,1.7161897,13.0,16.0
11810.0,14.0,1.1225053,13.0,15.0
11820.0,13.0,1.4269606,11.0,14.0
11830.0,11.0,2.2013936,11.0,13.0
11840.0,11.0,1.9210879,11.0,12.0
11850.0,11.0,2.272792,11.0,12.0
11860.0,11.0,3.1533923,11.0,12.0
11870.0,11.0,3.2871804,11.0,12.0
11880.0,11.0,3.5202599,8.0,12.0
11890.0,11.0,3.9458632,8.0,12.0
11900.0,10.0,3.978391,8.0,12.0
11910.0,10.0,3.7372375,8.0,14.0
11920.0,10.0,3.4998062,8.0,14.0
11930.0,10.0,3.1397939,8.0,12.0
11940.0,10.0,3.101423,8.0,12.0
11950.0,9.0,3.4062312,8.0,12.0
11960.0,9.0,3.5067718,8.0,12.0
11970.0,11.0,3.1787899,8.0,12.0
11980.0,11.0,2.558239,8.0,12.0
11990.0,11.0,2.4490256,9.0,12.0
12000.0,12.0,1.9193838,11.0,12.0
12010.0,12.0,0.78688276,11.0,12.0
12020.0,12.0,2.0176096,11.0,13.0
12030.0,13.0,2.9574757,9.0,16.0
12040.0,11.0,3.0807896,9.0,16.0
12050.0,12.0,2.3746688,9.0,13.0
12060.0,12.0,1.7983187,11.0,12.0
12070.0,11.0,1.9946452,9.0,12.0
12080.0,11.0,2.0359097,9.0,13.0
12090.0,11.0,1.8138688,10.0,13.0
12100.0,11.0,1.307965,11.0,13.0
12110.0,11.0,1.1249028,11.0,11.0
12120.0,11.0,1.486958,10.0,11.0
12130.0,11.0,1.5511156,10.0,11.0
12140.0,11.0,1.4625057,10.0,12.0
12150.0,11.0,1.0908042,10.0,12.0
12160.0,10.0,1.7552983,10.0,12.0
12170.0,10.5,2.0957537,8.0,11.0
12180.0,11.0,2.0563567,8.0,11.0
12190.0,11.0,1.4734924,11.0,12.0
12200.0,11.0,0.4726498,11.0,12.0
12210.0,12.0,0.76131415,11.0,12.0
12220.0,11.0,0.9133902,11.0,13.0
12230.0,11.0,0.91172934,11.0,13.0
12240.0,11.5,0.9501859,11.0,13.0
12250.0,13.0,1.1154828,11.0,13.0
12260.0,13.0,0.76666653,12.0,13.0
12270.0,12.0,0.7437579,12.0,13.0
12280.0,12.0,0.7694219,12.0,13.0
12290.0,13.0,1.0159022,12.0,13.0
12300.0,13.0,1.0984327,12.0,14.0
12310.0,12.0,1.4022694,11.0,13.0
12320.0,12.0,1.670539,10.0,14.0
12330.0,11.5,1.7304411,10.0,14.0
12340.0,13.0,1.2288532,13.0,14.0
12350.0,13.0,0.4742104,13.0,13.0
12360.0,13.0,0.46882263,12.0,13.0
12370.0,13.0,1.349081,12.0,14.0
12380.0,14.0,2.0758445,13.0,15.0
12390.0,14.0,2.6211288,13.0,15.0
12400.0,13.0,3.0146477,11.0,15.0
12410.0,14.0,3.5215359,11.0,18.0
12420.0,14.0,3.4206753,11.0,18.0
12430.0,12.0,3.418987,11.0,18.0
12440.0,12.0,2.484237,11.0,15.0
12450.0,14.0,2.0388546,12.0,15.0
12460.0,14.0,1.0483073,14.0,15.0
12470.0,14.0,0.7486564,14.0,15.0
12480.0,14.0,0.92153984,13.0,15.0
12490.0,13.0,0.9338502,13.0,15.0
12500.0,13.0,0.86370367,13.0,13.0
12510.0,13.0,1.944736,10.0,13.5
12520.0,10.0,2.120317,10.0,13.0
12530.0,10.5,1.2507021,10.0,11.5
12540.0,10.0,1.8093092,8.0,11.0
12550.0,11.0,1.8093094,10.0,13.0
12560.0,10.0,2.2674603,8.0,10.0
12570.0,10.0,2.5093234,10.0,13.0
12580.0,10.0,2.7508137,7.0,13.0
12590.0,14.0,1.7392229,13.0,14.0
12600.0,13.0,1.065568,13.0,14.5
12610.0,13.0,1.1058605,12.0,13.0
12620.0,13.0,0.6896274,12.0,13.0
12630.0,12.0,0.6795309,12.0,12.5
12640.0,12.0,1.0838957,11.5,13.0
12650.0,12.5,1.118004,11.25,13.0
12660.0,13.0,2.0078173,10.0,13.5
12670.0,10.0,1.5809193,9.5,13.0
12680.0,10.0,1.4848477,9.5,12.0
12690.0,13.0,1.0180472,11.0,13.0
12700.0,13.0,0.51828873,12.5,13.0
12710.0,13.0,0.42943457,13.0,13.0
12720.0,13.0,0.698241,12.5,13.0
12730.0,13.0,0.47392166,13.0,13.5
12740.0,13.0,0.43417984,13.0,13.5
12750.0,13.0,0.9519622,11.0,13.0
12760.0,13.0,1.2272023,11.0,14.0
12770.0,13.0,1.0882776,12.0,13.0
12780.0,13.0,0.72690386,12.5,13.5
12790.0,14.0,0.8247926,13.0,14.0
12800.0,14.0,0.8683597,13.0,14.0
12810.0,14.0,0.4341798,14.0,14.5
12820.0,14.0,0.6984303,14.0,14.0
12830.0,13.0,0.8322122,13.0,14.5
12840.0,13.0,0.4341798,13.0,13.5
12850.0,13.0,0.0,13.0,13.0
12860.0,13.0,1.3025395,11.5,13.0
12870.0,13.0,2.1299262,11.5,14.5
12880.0,13.0,2.1038606,13.0,13.0
12890.0,13.0,2.1386375,10.75,15.25
12900.0,13.0,2.1125364,13.0,13.0
12910.0,13.0,2.4460576,13.0,15.0
12920.0,13.0,2.4460576,13.0,15.0
12930.0,15.0,2.4393468,13.0,15.0
12940.0,17.0,2.2737038,13.0,17.0
12950.0,15.0,2.2816498,13.0,17.75
12960.0,15.0,2.2816498,13.0,17.75
12970.0,14.0,0.8285098,14.0,15.0
12980.0,14.0,0.8285098,14.0,15.0
12990.0,14.0,0.8285098,14.0,15.0
13000.0,15.0,1.1970096,15.0,15.0
13010.0,15.0,1.1970096,15.0,15.0
13020.0,15.0,1.1970096,15.0,15.0
13030.0,14.0,1.3523561,14.0,15.0
13040.0,14.0,1.3659091,14.0,15.0
13050.0,14.0,1.3623189,14.0,15.0
13060.0,14.0,2.0295784,13.0,16.0
13070.0,14.0,2.0493546,13.0,16.0
13080.0,14.0,2.0493546,13.0,16.0
13090.0,14.0,2.6868536,13.0,17.0
13100.0,14.0,1.5500551,13.0,16.0
13110.0,14.0,1.5999541,14.0,16.0
13120.0,14.0,1.3420538,14.0,15.0
13130.0,15.0,1.795572,14.0,17.0
13140.0,16.0,2.1118174,15.0,18.0
13150.0,17.0,2.508134,15.0,18.0
13160.0,18.0,2.8414311,13.0,19.0
13170.0,18.0,3.3370466,13.0,19.0
13180.0,18.0,3.6888077,13.0,20.0
13190.0,20.0,3.6214402,15.0,22.0
13200.0,19.0,3.0498652,17.0,21.0
13210.0,19.0,2.0415545,17.0,21.0
13220.0,19.0,1.7928025,17.0,21.0
13230.0,19.0,1.7973282,17.0,20.0
13240.0,19.0,1.5829912,17.0,20.0
13250.0,19.0,1.262314,18.0,20.0
13260.0,19.0,0.99858886,18.0,20.0
13270.0,19.0,1.0231293,18.0,20.0
13280.0,19.0,1.0011756,18.0,20.0
13290.0,19.0,0.8008733,18.0,19.0
13300.0,18.0,1.6917559,18.0,19.0
13310.0,19.0,1.7990979,18.0,19.0
13320.0,18.0,1.8975719,17.0,19.0
13330.0,18.0,0.80583805,18.0,19.0
13340.0,18.0,0.7409649,18.0,19.0
13350.0,19.0,0.4893842,18.0,19.0
13360.0,19.0,0.6166305,18.0,19.0
13370.0,19.0,1.0612881,18.0,20.0
13380.0,20.0,1.7207868,18.0,22.0
13390.0,21.0,1.4984823,20.0,22.0
13400.0,22.0,0.91810507,21.0,22.0
13410.0,23.0,1.2796372,21.0,23.0
13420.0,23.0,1.1388805,23.0,24.0
13430.0,23.5,0.8534606,23.0,25.0
13440.0,23.0,0.971474,23.0,24.0
13450.0,23.0,1.2550607,23.0,24.0
13460.0,23.0,2.1560133,21.0,23.75
13470.0,23.0,3.0494168,18.0,24.0
13480.0,23.0,3.8372645,18.0,24.0
13490.0,18.0,4.0513134,16.0,23.0
13500.0,18.0,3.3816376,16.0,22.0
13510.0,18.0,4.013734,17.0,22.0
13520.0,22.0,4.9661574,17.0,23.0
13530.0,20.0,5.6202483,16.0,26.0
13540.0,20.0,4.779165,16.0,22.0
13550.0,20.0,3.3655775,17.0,24.0
13560.0,20.0,4.6378036,16.0,24.0
13570.0,18.0,5.2876034,16.0,26.0
13580.0,22.0,5.2453456,18.0,26.0
13590.0,22.0,4.149328,17.0,26.0
13600.0,21.0,3.4562032,17.0,22.0
13610.0,21.0,4.500939,17.0,23.0
13620.0,21.0,4.041992,21.0,23.0
13630.0,21.0,4.5207763,17.0,23.0
13640.0,21.0,5.1256523,17.0,24.0
13650.0,20.0,5.0952153,17.0,24.0
13660.0,20.0,5.266013,16.0,24.0
13670.0,16.0,2.4120405,16.0,21.0
13680.0,20.0,4.212065,16.0,24.0
13690.0,20.5,4.8378615,16.0,24.0
13700.0,20.5,2.1682768,20.0,23.25
13710.0,21.0,2.156217,20.0,21.0
13720.0,21.0,2.156217,20.0,21.0
13730.0,24.0,0.0,24.0,24.0
13740.0,24.0,0.0,24.0,24.0
13750.0,24.0,1.6447227,24.0,24.0
13760.0,27.0,1.2330401,25.0,28.0
13770.0,27.0,1.2196734,27.0,28.0
13780.0,27.0,1.2275027,25.0,28.0
13790.0,26.5,2.5,24.0,29.0
13800.0,26.5,2.5,24.0,29.0
13810.0,26.5,2.5,24.0,29.0
13820.0,25.0,4.9993286,25.0,35.0
13830.0,25.0,4.9993286,25.0,35.0
13840.0,35.0,4.999328,25.0,35.0
13850.0,31.0,0.0,31.0,31.0
13860.0,31.0,0.0,31.0,31.0
13870.0,31.0,0.0,31.0,31.0
13880.0,31.0,1.3409425,31.0,31.0
13890.0,35.0,0.0,35.0,35.0
13900.0,35.0,0.0,35.0,35.0
13910.0,35.0,0.0,35.0,35.0
13920.0,33.0,0.0,33.0,33.0
13930.0,33.0,0.0,33.0,33.0
13940.0,33.0,0.0,33.0,33.0
13950.0,33.0,0.0,33.0,33.0
13960.0,33.0,0.0,33.0,33.0
13970.0,33.0,0.0,33.0,33.0
13980.0,36.0,0.5300541,36.0,36.0
13990.0,36.0,0.0,36.0,36.0
14000.0,36.0,0.0,36.0,36.0
14010.0,31.0,0.0,31.0,31.0
14020.0,31.0,0.0,31.0,31.0
14030.0,31.0,0.0,31.0,31.0
14040.0,31.0,1.5420296,28.0,31.0
14050.0,32.0,1.9997313,28.0,32.0
14060.0,28.0,1.9997313,28.0,32.0
14070.0,31.0,0.58879626,31.0,32.0
14080.0,31.0,1.2376488,30.0,33.0
14090.0,31.0,1.2461661,30.0,33.0
14100.0,31.5,1.5,30.0,33.0
14110.0,31.5,1.9499459,29.0,33.0
14120.0,30.0,1.7074561,29.0,33.0
14130.0,30.0,1.6996732,29.0,33.0
14140.0,32.0,1.3311636,30.0,33.0
14150.0,32.0,1.699673,29.0,33.0
14160.0,32.0,1.7317505,29.0,33.0
