distance,median,stdev,prc_25,prc_75
20.0,1.0,0.0,1.0,1.0
30.0,1.0,0.2874798,1.0,1.0
40.0,1.0,0.3691746,1.0,1.0
50.0,1.0,0.39309788,1.0,1.0
60.0,1.0,0.4153378,1.0,1.0
70.0,1.0,0.43072176,1.0,1.0
80.0,1.0,0.4015072,1.0,1.0
90.0,1.0,0.32218975,1.0,1.0
100.0,1.0,0.34923476,1.0,1.0
110.0,1.0,0.37607753,1.0,1.0
120.0,1.0,0.3945169,1.0,1.0
130.0,1.0,0.41010854,1.0,1.0
140.0,1.0,0.4254203,1.0,1.0
150.0,1.0,0.43822813,1.0,2.0
160.0,1.0,0.48041934,1.0,2.0
170.0,1.0,0.4955706,1.0,2.0
180.0,1.0,0.49753195,1.0,2.0
190.0,1.0,0.49845108,1.0,2.0
200.0,1.0,0.49849758,1.0,2.0
210.0,1.0,0.49627766,1.0,2.0
220.0,1.0,0.49690396,1.0,2.0
230.0,1.0,0.49962524,1.0,2.0
240.0,2.0,0.49959987,1.0,2.0
250.0,2.0,0.4990415,1.0,2.0
260.0,2.0,0.49840254,1.0,2.0
270.0,2.0,0.48789048,1.0,2.0
280.0,2.0,0.4706765,1.0,2.0
290.0,2.0,0.4684873,1.0,2.0
300.0,2.0,0.46592733,1.0,2.0
310.0,2.0,0.46373188,1.0,2.0
320.0,2.0,0.47035116,1.0,2.0
330.0,2.0,0.47354168,1.0,2.0
340.0,2.0,0.4695827,1.0,2.0
350.0,2.0,0.46775627,1.0,2.0
360.0,2.0,0.46597767,1.0,2.0
370.0,2.0,0.46263474,1.0,2.0
380.0,2.0,0.46044332,1.0,2.0
390.0,2.0,0.4582576,1.0,2.0
400.0,2.0,0.45988175,1.0,2.0
410.0,2.0,0.4801679,1.0,2.0
420.0,2.0,0.49920043,1.0,2.0
430.0,1.0,0.49769384,1.0,2.0
440.0,1.0,0.49449506,1.0,2.0
450.0,1.0,0.4931474,1.0,2.0
460.0,1.0,0.4897882,1.0,2.0
470.0,1.0,0.5356098,1.0,2.0
480.0,1.0,0.58531797,1.0,2.0
490.0,1.0,0.6275883,1.0,2.0
500.0,1.0,0.7527444,1.0,2.0
510.0,1.0,0.8181634,1.0,2.0
520.0,1.0,0.81913817,1.0,2.0
530.0,1.0,0.84275496,1.0,2.0
540.0,1.0,0.8442716,1.0,2.0
550.0,1.0,0.8443517,1.0,2.0
560.0,1.0,0.8416622,1.0,2.0
570.0,1.0,0.83958465,1.0,2.0
580.0,1.0,0.8306848,1.0,2.0
590.0,2.0,0.82077557,1.0,2.0
600.0,2.0,0.8017851,1.0,2.0
610.0,2.0,0.7854676,1.0,3.0
620.0,2.0,0.7594807,1.0,3.0
630.0,2.0,0.7572545,1.0,3.0
640.0,2.0,0.7429504,1.0,3.0
650.0,2.0,0.7372207,1.0,3.0
660.0,2.0,0.6990543,2.0,3.0
670.0,2.0,0.6618335,2.0,3.0
680.0,2.0,0.59799737,2.0,3.0
690.0,2.0,0.53500295,2.0,3.0
700.0,2.0,0.49206096,2.0,3.0
710.0,2.0,0.46095854,2.0,3.0
720.0,2.0,0.45617536,2.0,3.0
730.0,2.0,0.46464133,2.0,3.0
740.0,2.0,0.47644702,2.0,3.0
750.0,2.0,0.49135178,2.0,3.0
760.0,2.0,0.49733537,2.0,3.0
770.0,3.0,0.4998895,2.0,3.0
780.0,3.0,0.49773407,2.0,3.0
790.0,3.0,0.4934641,2.0,3.0
800.0,3.0,0.4869209,2.0,3.0
810.0,3.0,0.4844762,2.0,3.0
820.0,3.0,0.48208776,2.0,3.0
830.0,3.0,0.482362,2.0,3.0
840.0,3.0,0.46384057,2.0,3.0
850.0,3.0,0.45617536,2.0,3.0
860.0,3.0,0.46011218,2.0,3.0
870.0,3.0,0.46812186,2.0,3.0
880.0,3.0,0.45617536,2.0,3.0
890.0,3.0,0.4319966,3.0,3.0
900.0,3.0,0.4196905,3.0,3.0
910.0,3.0,0.41904062,3.0,3.0
920.0,3.0,0.4196905,3.0,3.0
930.0,3.0,0.4196905,3.0,3.0
940.0,3.0,0.4196905,3.0,3.0
950.0,3.0,0.4196905,3.0,3.0
960.0,3.0,0.4157397,3.0,3.0
970.0,3.0,0.39635092,3.0,3.0
980.0,3.0,0.3876343,3.0,3.0
990.0,3.0,0.37222978,3.0,3.0
1000.0,3.0,0.36488923,3.0,3.0
1010.0,3.0,0.33423242,3.0,3.0
1020.0,3.0,0.29879504,3.0,3.0
1030.0,3.0,0.25357154,3.0,3.0
1040.0,3.0,0.19605315,3.0,3.0
1050.0,3.0,0.10435405,3.0,3.0
1060.0,3.0,0.0,3.0,3.0
1070.0,3.0,0.0,3.0,3.0
1080.0,3.0,0.0,3.0,3.0
1090.0,3.0,0.0,3.0,3.0
1100.0,3.0,0.0,3.0,3.0
1110.0,3.0,0.0,3.0,3.0
1120.0,3.0,0.0,3.0,3.0
1130.0,3.0,0.0,3.0,3.0
1140.0,3.0,0.0,3.0,3.0
1150.0,3.0,0.0,3.0,3.0
1160.0,3.0,0.0,3.0,3.0
1170.0,3.0,0.0,3.0,3.0
1180.0,3.0,0.0,3.0,3.0
1190.0,3.0,0.0,3.0,3.0
1200.0,3.0,0.0,3.0,3.0
1210.0,3.0,0.0,3.0,3.0
1220.0,3.0,0.0,3.0,3.0
1230.0,3.0,0.0,3.0,3.0
1240.0,3.0,0.0,3.0,3.0
1250.0,3.0,0.0,3.0,3.0
1260.0,3.0,0.1825486,3.0,3.0
1270.0,3.0,0.06311893,3.0,3.0
1280.0,3.0,0.06311893,3.0,3.0
1290.0,3.0,0.06311893,3.0,3.0
1300.0,3.0,0.06311893,3.0,3.0
1310.0,3.0,0.06311893,3.0,3.0
1320.0,3.0,0.06311893,3.0,3.0
1330.0,3.0,0.06311893,3.0,3.0
1340.0,3.0,0.18377975,3.0,3.0
1350.0,3.0,0.18377975,3.0,3.0
1360.0,3.0,0.18377975,3.0,3.0
1370.0,3.0,0.18377975,3.0,3.0
1380.0,3.0,0.18377975,3.0,3.0
1390.0,3.0,0.18377975,3.0,3.0
1400.0,3.0,0.24828207,3.0,3.0
1410.0,3.0,0.24828207,3.0,3.0
1420.0,3.0,0.24828207,3.0,3.0
1430.0,3.0,0.24828207,3.0,3.0
1440.0,3.0,0.24828207,3.0,3.0
1450.0,3.0,0.24828207,3.0,3.0
1460.0,3.0,0.24828207,3.0,3.0
1470.0,3.0,0.24828207,3.0,3.0
1480.0,3.0,0.24828207,3.0,3.0
1490.0,3.0,0.24828207,3.0,3.0
1500.0,3.0,0.24828207,3.0,3.0
1510.0,3.0,0.24828207,3.0,3.0
1520.0,3.0,0.38829756,3.0,3.0
1530.0,3.0,0.46184024,3.0,3.0
1540.0,3.0,0.45071062,3.0,3.0
1550.0,3.0,0.42634183,3.0,3.0
1560.0,3.0,0.42661908,3.0,3.0
1570.0,3.0,0.42210904,3.0,3.0
1580.0,3.0,0.41773057,3.0,3.0
1590.0,3.0,0.42538893,3.0,3.0
1600.0,3.0,0.4319966,3.0,3.0
1610.0,3.0,0.42844015,3.0,3.0
1620.0,3.0,0.42399883,3.0,3.0
1630.0,3.0,0.4196905,3.0,3.0
1640.0,3.0,0.41506913,3.0,3.0
1650.0,3.0,0.4123517,3.0,3.0
1660.0,3.0,0.42210904,3.0,3.0
1670.0,3.0,0.43082368,3.0,3.0
1680.0,3.0,0.43932196,3.0,4.0
1690.0,3.0,0.43877652,3.0,4.0
1700.0,3.0,0.43487474,3.0,4.0
1710.0,3.0,0.43358853,3.0,4.0
1720.0,3.0,0.4369794,3.0,4.0
1730.0,3.0,0.41823915,3.0,3.0
1740.0,3.0,0.4188926,3.0,3.0
1750.0,3.0,0.41954258,3.0,3.0
1760.0,3.0,0.44343996,3.0,4.0
1770.0,3.0,0.49870232,3.0,4.0
1780.0,3.0,0.49932352,3.0,4.0
1790.0,3.0,0.499975,3.0,4.0
1800.0,4.0,0.499964,3.0,4.0
1810.0,4.0,0.48885065,3.0,4.0
1820.0,4.0,0.4719905,3.0,4.0
1830.0,4.0,0.47199047,3.0,4.0
1840.0,4.0,0.47199047,3.0,4.0
1850.0,4.0,0.44600898,3.0,4.0
1860.0,4.0,0.43416128,3.0,4.0
1870.0,4.0,0.40730822,4.0,4.0
1880.0,4.0,0.3599875,4.0,4.0
1890.0,4.0,0.3599875,4.0,4.0
1900.0,4.0,0.2890259,4.0,4.0
1910.0,4.0,0.27738786,4.0,4.0
1920.0,4.0,0.17331763,4.0,4.0
1930.0,4.0,0.17331763,4.0,4.0
1940.0,4.0,0.17331763,4.0,4.0
1950.0,4.0,0.0,4.0,4.0
1960.0,4.0,0.0,4.0,4.0
1970.0,4.0,0.0,4.0,4.0
1980.0,4.0,0.0,4.0,4.0
1990.0,4.0,0.0,4.0,4.0
2000.0,4.0,0.0,4.0,4.0
2010.0,4.0,0.0,4.0,4.0
2020.0,4.0,0.0,4.0,4.0
2030.0,4.0,0.0,4.0,4.0
2040.0,4.0,0.0,4.0,4.0
2050.0,4.0,0.0,4.0,4.0
2060.0,4.0,0.0,4.0,4.0
2070.0,4.0,0.0,4.0,4.0
2080.0,4.0,0.38096997,4.0,4.0
2090.0,4.0,0.4088743,4.0,4.0
2100.0,4.0,0.41904062,4.0,4.0
2110.0,4.0,0.42844015,4.0,4.0
2120.0,4.0,0.43656498,4.0,5.0
2130.0,4.0,0.44461575,4.0,5.0
2140.0,4.0,0.4444761,4.0,5.0
2150.0,4.0,0.4409407,4.0,5.0
2160.0,4.0,0.43712234,4.0,5.0
2170.0,4.0,0.4330127,4.0,4.25
2180.0,4.0,0.42904076,4.0,4.0
2190.0,4.0,0.43373266,4.0,5.0
2200.0,4.0,0.44200513,4.0,5.0
2210.0,4.0,0.4496244,4.0,5.0
2220.0,4.0,0.45617536,4.0,5.0
2230.0,4.0,0.46262062,4.0,5.0
2240.0,4.0,0.46371433,4.0,5.0
2250.0,4.0,0.4609585,4.0,5.0
2260.0,4.0,0.45838857,4.0,5.0
2270.0,4.0,0.4645159,4.0,5.0
2280.0,4.0,0.46996975,4.0,5.0
2290.0,4.0,0.47515395,4.0,5.0
2300.0,4.0,0.47981268,4.0,5.0
2310.0,4.0,0.48369998,4.0,5.0
2320.0,4.0,0.482362,4.0,5.0
2330.0,4.0,0.480395,4.0,5.0
2340.0,4.0,0.47820917,4.0,5.0
2350.0,4.0,0.47644705,4.0,5.0
2360.0,4.0,0.47415975,4.0,5.0
2370.0,4.0,0.47820917,4.0,5.0
2380.0,4.0,0.48125145,4.0,5.0
2390.0,4.0,0.4744935,4.0,5.0
2400.0,4.0,0.48,4.0,5.0
2410.0,4.0,0.48114863,4.0,5.0
2420.0,4.0,0.48360214,4.0,5.0
2430.0,4.0,0.48761183,4.0,5.0
2440.0,4.0,0.49164927,4.0,5.0
2450.0,4.0,0.49244574,4.0,5.0
2460.0,4.0,0.49164927,4.0,5.0
2470.0,4.0,0.49069744,4.0,5.0
2480.0,4.0,0.48989794,4.0,5.0
2490.0,4.0,0.48914853,4.0,5.0
2500.0,4.0,0.48797438,4.0,5.0
2510.0,4.0,0.48706365,4.0,5.0
2520.0,4.0,0.4862104,4.0,5.0
2530.0,4.0,0.4848876,4.0,5.0
2540.0,4.0,0.49089202,4.0,5.0
2550.0,4.0,0.49967587,4.0,5.0
2560.0,5.0,0.49953663,4.0,5.0
2570.0,5.0,0.4980602,4.0,5.0
2580.0,5.0,0.49690396,4.0,5.0
2590.0,5.0,0.49493337,4.0,5.0
2600.0,5.0,0.49371958,4.0,5.0
2610.0,5.0,0.5018964,4.0,5.0
2620.0,5.0,0.49517572,4.0,5.0
2630.0,5.0,0.47912303,4.0,5.0
2640.0,5.0,0.45825756,4.0,5.0
2650.0,5.0,0.31781918,5.0,5.0
2660.0,5.0,0.30652556,5.0,5.0
2670.0,5.0,0.2979239,5.0,5.0
2680.0,5.0,0.24763156,5.0,5.0
2690.0,5.0,0.17333862,5.0,5.0
2700.0,5.0,0.0,5.0,5.0
2710.0,5.0,0.0,5.0,5.0
2720.0,5.0,0.0,5.0,5.0
2730.0,5.0,0.0,5.0,5.0
2740.0,5.0,0.0,5.0,5.0
2750.0,5.0,0.0,5.0,5.0
2760.0,5.0,0.0,5.0,5.0
2770.0,5.0,0.0,5.0,5.0
2780.0,5.0,0.05855366,5.0,5.0
2790.0,5.0,0.19039987,5.0,5.0
2800.0,5.0,0.18729572,5.0,5.0
2810.0,5.0,0.16332865,5.0,5.0
2820.0,5.0,0.083524846,5.0,5.0
2830.0,5.0,0.20313518,5.0,5.0
2840.0,5.0,0.26956123,5.0,5.0
2850.0,5.0,0.2993745,5.0,5.0
2860.0,5.0,0.26763314,5.0,5.0
2870.0,5.0,0.26704937,5.0,5.0
2880.0,5.0,0.2775725,5.0,5.0
2890.0,5.0,0.29790783,5.0,5.0
2900.0,5.0,0.2683982,5.0,5.0
2910.0,5.0,0.26970652,5.0,5.0
2920.0,5.0,0.2854354,5.0,5.0
2930.0,5.0,0.33224767,5.0,5.0
2940.0,5.0,0.3615958,5.0,5.0
2950.0,5.0,0.36088926,5.0,5.0
2960.0,5.0,0.3723235,5.0,5.0
2970.0,5.0,0.40944013,5.0,5.0
2980.0,5.0,0.4902396,5.0,6.0
2990.0,5.0,0.469605,5.0,6.0
3000.0,5.0,0.46886048,5.0,6.0
3010.0,5.0,0.4696938,5.0,6.0
3020.0,5.0,0.47427717,5.0,6.0
3030.0,5.0,0.48533377,5.0,6.0
3040.0,5.0,0.49167526,5.0,6.0
3050.0,5.0,0.49669695,5.0,6.0
3060.0,5.0,0.49995676,5.0,6.0
3070.0,6.0,0.49584097,5.0,6.0
3080.0,6.0,0.47891578,5.0,6.0
3090.0,6.0,0.45089275,5.0,6.0
3100.0,6.0,0.42595237,6.0,6.0
3110.0,6.0,0.40338913,6.0,6.0
3120.0,6.0,0.34791604,6.0,6.0
3130.0,6.0,0.23375776,6.0,6.0
3140.0,6.0,0.07930357,6.0,6.0
3150.0,6.0,0.0,6.0,6.0
3160.0,6.0,0.0,6.0,6.0
3170.0,6.0,0.0,6.0,6.0
3180.0,6.0,0.28476182,6.0,6.0
3190.0,6.0,0.29558748,6.0,6.0
3200.0,6.0,0.29465324,6.0,6.0
3210.0,6.0,0.2937276,6.0,6.0
3220.0,6.0,0.2928105,6.0,6.0
3230.0,6.0,0.29014885,6.0,6.0
3240.0,6.0,0.32777134,6.0,6.0
3250.0,6.0,0.34487706,6.0,6.0
3260.0,6.0,0.3413963,6.0,6.0
3270.0,6.0,0.3046063,6.0,6.0
3280.0,6.0,0.29178578,6.0,6.0
3290.0,6.0,0.29087302,6.0,6.0
3300.0,6.0,0.29190183,6.0,6.0
3310.0,6.0,0.29100135,6.0,6.0
3320.0,6.0,0.29010907,6.0,6.0
3330.0,6.0,0.305696,6.0,6.0
3340.0,6.0,0.34414408,6.0,6.0
3350.0,6.0,0.34317428,6.0,6.0
3360.0,6.0,0.3224733,6.0,6.0
3370.0,6.0,0.29172108,6.0,6.0
3380.0,6.0,0.29082227,6.0,6.0
3390.0,6.0,0.28818446,6.0,6.0
3400.0,6.0,0.3142697,6.0,6.0
3410.0,6.0,0.34271994,6.0,6.0
3420.0,6.0,0.3417521,6.0,6.0
3430.0,6.0,0.3135179,6.0,6.0
3440.0,6.0,0.31521687,6.0,6.0
3450.0,6.0,0.35250837,6.0,6.0
3460.0,6.0,0.38291132,6.0,6.0
3470.0,6.0,0.40904102,6.0,6.0
3480.0,6.0,0.41899067,6.0,6.0
3490.0,6.0,0.4179993,6.0,6.0
3500.0,6.0,0.41701335,6.0,6.0
3510.0,6.0,0.43244067,6.0,6.0
3520.0,6.0,0.4459124,6.0,7.0
3530.0,6.0,0.45614967,6.0,7.0
3540.0,6.0,0.48023576,6.0,7.0
3550.0,6.0,0.49759388,6.0,7.0
3560.0,7.0,0.49596187,6.0,7.0
3570.0,7.0,0.4533559,6.0,7.0
3580.0,7.0,0.36606756,7.0,7.0
3590.0,7.0,0.16761619,7.0,7.0
3600.0,7.0,0.26499045,7.0,7.0
3610.0,7.0,0.27082998,7.0,7.0
3620.0,7.0,0.31288978,7.0,7.0
3630.0,7.0,0.3072321,7.0,7.0
3640.0,7.0,0.3013421,7.0,7.0
3650.0,7.0,0.3140901,7.0,7.0
3660.0,7.0,0.3547094,7.0,7.0
3670.0,7.0,0.35051247,7.0,7.0
3680.0,7.0,0.0,7.0,7.0
3690.0,7.0,0.0,7.0,7.0
3700.0,7.0,0.0,7.0,7.0
3710.0,7.0,0.0,7.0,7.0
3720.0,7.0,0.0,7.0,7.0
3730.0,7.0,0.0,7.0,7.0
3740.0,7.0,0.0,7.0,7.0
3750.0,7.0,0.0,7.0,7.0
3760.0,7.0,0.0,7.0,7.0
3770.0,7.0,0.0,7.0,7.0
3780.0,7.0,0.0,7.0,7.0
3790.0,7.0,0.0,7.0,7.0
3800.0,7.0,0.0,7.0,7.0
3810.0,7.0,0.0,7.0,7.0
3820.0,7.0,0.09641229,7.0,7.0
3830.0,7.0,0.26036337,7.0,7.0
3840.0,7.0,0.32209748,7.0,7.0
3850.0,7.0,0.32376963,7.0,7.0
3860.0,7.0,0.29183632,7.0,7.0
3870.0,7.0,0.29094943,7.0,7.0
3880.0,7.0,0.2898956,7.0,7.0
3890.0,7.0,0.2998224,7.0,7.0
3900.0,7.0,0.33589548,7.0,7.0
3910.0,7.0,0.3433007,7.0,7.0
3920.0,7.0,0.37287223,7.0,7.0
3930.0,7.0,0.43207505,7.0,7.0
3940.0,7.0,0.4788276,7.0,8.0
3950.0,7.0,0.4946859,7.0,8.0
3960.0,8.0,0.49994233,7.0,8.0
3970.0,8.0,0.48843563,7.0,8.0
3980.0,8.0,0.48084325,7.0,8.0
3990.0,8.0,0.4822273,7.0,8.0
4000.0,7.0,0.48400417,7.0,8.0
4010.0,7.0,0.49265876,7.0,8.0
4020.0,7.0,0.51293397,7.0,8.0
4030.0,7.0,0.56347835,7.0,8.0
4040.0,7.0,0.6082661,7.0,8.0
4050.0,7.0,0.62444854,7.0,8.0
4060.0,7.0,0.6232808,7.0,8.0
4070.0,7.0,0.6211612,7.0,8.0
4080.0,8.0,0.65384144,7.0,8.0
4090.0,8.0,0.6797998,7.0,8.0
4100.0,8.0,0.69779605,7.0,8.0
4110.0,8.0,0.718052,7.0,8.0
4120.0,8.0,0.73104185,7.0,8.0
4130.0,8.0,0.7346775,7.0,8.0
4140.0,8.0,0.72160304,7.0,9.0
4150.0,8.0,0.7077665,8.0,9.0
4160.0,8.0,0.67765176,8.0,9.0
4170.0,8.0,0.6401367,8.0,9.0
4180.0,8.0,0.6122952,8.0,9.0
4190.0,8.0,0.5776885,8.0,9.0
4200.0,8.0,0.5860876,8.0,9.0
4210.0,8.0,0.5875976,8.0,9.0
4220.0,8.0,0.5784313,8.0,9.0
4230.0,8.0,0.54038507,8.0,9.0
4240.0,8.0,0.5289376,8.0,9.0
4250.0,8.0,0.52321243,8.0,9.0
4260.0,8.0,0.51745456,8.0,9.0
4270.0,8.0,0.5114361,8.0,9.0
4280.0,8.0,0.5039143,8.0,9.0
4290.0,8.0,0.4946262,8.0,9.0
4300.0,8.0,0.49795148,8.0,9.0
4310.0,8.0,0.5015125,8.0,9.0
4320.0,8.0,0.4994925,8.0,9.0
4330.0,9.0,0.49961883,8.0,9.0
4340.0,9.0,0.49743807,8.0,9.0
4350.0,9.0,0.49554905,8.0,9.0
4360.0,9.0,0.4938785,8.0,9.0
4370.0,9.0,0.4879744,8.0,9.0
4380.0,9.0,0.48068273,8.0,9.0
4390.0,9.0,0.47471148,8.0,9.0
4400.0,9.0,0.4721076,8.0,9.0
4410.0,9.0,0.46886823,8.0,9.0
4420.0,9.0,0.4668608,8.0,9.0
4430.0,9.0,0.47759402,8.0,9.0
4440.0,9.0,0.5053083,8.0,9.0
4450.0,9.0,0.49316955,8.0,9.0
4460.0,9.0,0.48253396,8.0,9.0
4470.0,9.0,0.48412293,8.0,9.0
4480.0,9.0,0.48850286,8.0,9.0
4490.0,9.0,0.48317146,8.0,9.0
4500.0,9.0,0.47739246,8.0,9.0
4510.0,9.0,0.47548077,8.0,9.0
4520.0,9.0,0.47707966,8.0,9.0
4530.0,9.0,0.48263407,8.0,9.0
4540.0,9.0,0.4868306,8.0,9.0
4550.0,9.0,0.4954136,8.0,9.0
4560.0,9.0,0.4979709,8.0,9.0
4570.0,9.0,0.4987356,8.0,9.0
4580.0,9.0,0.49733537,8.0,9.0
4590.0,8.0,0.47892222,8.0,9.0
4600.0,8.0,0.47922134,8.0,9.0
4610.0,8.0,0.4856326,8.0,9.0
4620.0,8.0,0.49410123,8.0,9.0
4630.0,8.0,0.493945,8.0,9.0
4640.0,8.0,0.49410123,8.0,9.0
4650.0,8.0,0.4978287,8.0,9.0
4660.0,8.0,0.4978287,8.0,9.0
4670.0,8.0,0.49972713,8.0,9.0
4680.0,9.0,0.4997893,8.0,9.0
4690.0,9.0,0.4997893,8.0,9.0
4700.0,9.0,0.49981734,8.0,9.0
4710.0,9.0,0.5466407,8.0,9.0
4720.0,9.0,0.5484426,8.0,9.0
4730.0,9.0,0.59306246,8.0,9.0
4740.0,9.0,0.61455435,8.0,9.0
4750.0,9.0,0.615815,8.0,9.0
4760.0,9.0,0.615815,8.0,9.0
4770.0,9.0,0.615815,8.0,9.0
4780.0,9.0,0.61707145,8.0,9.0
4790.0,9.0,0.61707145,8.0,9.0
4800.0,9.0,0.61707145,8.0,9.0
4810.0,9.0,0.61832374,8.0,9.0
4820.0,9.0,0.60573834,8.0,9.0
4830.0,9.0,0.60764307,8.0,9.0
4840.0,9.0,0.60764307,8.0,9.0
4850.0,9.0,0.6072158,8.0,9.0
4860.0,9.0,0.60449356,8.0,9.0
4870.0,9.0,0.5951555,8.0,9.0
4880.0,9.0,0.57901835,8.0,9.0
4890.0,9.0,0.579634,8.0,9.0
4900.0,9.0,0.5418403,9.0,9.0
4910.0,9.0,0.56134117,9.0,9.0
4920.0,9.0,0.575263,9.0,9.0
4930.0,9.0,0.52597636,9.0,9.0
4940.0,9.0,0.44667977,9.0,9.0
4950.0,9.0,0.3870264,9.0,9.0
4960.0,9.0,0.34157756,9.0,9.0
4970.0,9.0,0.34399205,9.0,9.0
4980.0,9.0,0.34079638,9.0,9.0
4990.0,9.0,0.33863437,9.0,9.0
5000.0,9.0,0.3353428,9.0,9.0
5010.0,9.0,0.3331153,9.0,9.0
5020.0,9.0,0.3297231,9.0,9.0
5030.0,9.0,0.3274268,9.0,9.0
5040.0,9.0,0.3239286,9.0,9.0
5050.0,9.0,0.32155982,9.0,9.0
5060.0,9.0,0.3179498,9.0,9.0
5070.0,9.0,0.31550437,9.0,9.0
5080.0,9.0,0.316731,9.0,9.0
5090.0,9.0,0.34504494,9.0,9.0
5100.0,9.0,0.34293306,9.0,9.0
5110.0,9.0,0.3730015,9.0,9.0
5120.0,9.0,0.43928093,9.0,9.0
5130.0,9.0,0.513171,9.0,9.0
5140.0,9.0,0.57536227,9.0,9.0
5150.0,9.0,0.58582085,9.0,9.0
5160.0,9.0,0.58465314,9.0,9.0
5170.0,9.0,0.58515334,9.0,9.0
5180.0,9.0,0.5838986,9.0,9.0
5190.0,9.0,0.58431375,9.0,9.0
5200.0,9.0,0.58297116,9.0,9.0
5210.0,9.0,0.58330107,9.0,9.0
5220.0,9.0,0.5818701,9.0,9.0
5230.0,9.0,0.58138084,9.0,9.0
5240.0,9.0,0.58518934,9.0,9.0
5250.0,9.0,0.6319306,9.0,9.0
5260.0,9.0,0.6313849,9.0,9.0
5270.0,9.0,0.615499,8.0,9.0
5280.0,9.0,0.49570474,9.0,9.0
5290.0,9.0,0.49902308,9.0,9.0
5300.0,9.0,0.5017729,9.0,9.0
5310.0,9.0,0.5039322,9.0,9.0
5320.0,9.0,0.50639176,9.0,9.0
5330.0,9.0,0.49858895,9.0,9.0
5340.0,9.0,0.46060723,9.0,9.0
5350.0,9.0,0.39677793,9.0,9.0
5360.0,9.0,0.3592576,9.0,9.0
5370.0,9.0,0.35707143,9.0,9.0
5380.0,9.0,0.3610965,9.0,9.0
5390.0,9.0,0.36488923,9.0,9.0
5400.0,9.0,0.36845082,9.0,9.0
5410.0,9.0,0.37222973,9.0,9.0
5420.0,9.0,0.37578222,9.0,9.0
5430.0,9.0,0.3792592,9.0,9.0
5440.0,9.0,0.3825127,9.0,9.0
5450.0,9.0,0.3858445,9.0,9.0
5460.0,9.0,0.409577,9.0,9.0
5470.0,9.0,0.41625836,9.0,9.0
5480.0,9.0,0.41904062,9.0,9.0
5490.0,9.0,0.42161992,9.0,9.0
5500.0,9.0,0.42462218,9.0,9.0
5510.0,9.0,0.42722932,9.0,9.0
5520.0,9.0,0.4294927,9.0,9.0
5530.0,9.0,0.45329797,9.0,10.0
5540.0,9.0,0.4548159,9.0,10.0
5550.0,9.0,0.45617542,9.0,10.0
5560.0,9.0,0.46503794,9.0,10.0
5570.0,9.0,0.48153245,9.0,10.0
5580.0,9.0,0.49554905,9.0,10.0
5590.0,9.0,0.4983538,9.0,10.0
5600.0,9.0,0.49858895,9.0,10.0
5610.0,9.0,0.4987356,9.0,10.0
5620.0,9.0,0.4995787,9.0,10.0
5630.0,10.0,0.49924165,9.0,10.0
5640.0,10.0,0.49262065,9.0,10.0
5650.0,10.0,0.47245547,9.0,10.0
5660.0,10.0,0.44864503,9.0,10.0
5670.0,10.0,0.42783633,10.0,10.0
5680.0,10.0,0.45002982,10.0,10.0
5690.0,10.0,0.43133503,10.0,10.0
5700.0,10.0,0.4477284,10.0,10.0
5710.0,10.0,0.42904076,10.0,10.0
5720.0,10.0,0.42831382,10.0,10.0
5730.0,10.0,0.39616376,10.0,10.0
5740.0,10.0,0.39661878,10.0,10.0
5750.0,10.0,0.39838833,10.0,10.0
5760.0,10.0,0.3855115,10.0,10.0
5770.0,10.0,0.0,10.0,10.0
5780.0,10.0,0.16497272,10.0,10.0
5790.0,10.0,0.20958485,10.0,10.0
5800.0,10.0,0.2712932,10.0,10.0
5810.0,10.0,0.31288975,10.0,10.0
5820.0,10.0,0.3272858,10.0,10.0
5830.0,10.0,0.33971855,10.0,10.0
5840.0,10.0,0.3531062,10.0,10.0
5850.0,10.0,0.36380073,10.0,10.0
5860.0,10.0,0.3747519,10.0,10.0
5870.0,10.0,0.3850182,10.0,10.0
5880.0,10.0,0.394653,10.0,10.0
5890.0,10.0,0.402969,10.0,10.0
5900.0,10.0,0.41151428,10.0,10.0
5910.0,10.0,0.42147243,10.0,10.0
5920.0,10.0,0.4491361,10.0,11.0
5930.0,10.0,0.47093096,10.0,11.0
5940.0,10.0,0.4788152,10.0,11.0
5950.0,10.0,0.48906443,10.0,11.0
5960.0,10.0,0.4972886,10.0,11.0
5970.0,11.0,0.4988742,10.0,11.0
5980.0,11.0,0.48774996,10.0,11.0
5990.0,11.0,0.47569314,10.0,11.0
6000.0,11.0,0.46124938,10.0,11.0
6010.0,11.0,0.43932202,10.0,11.0
6020.0,11.0,0.40223253,11.0,11.0
6030.0,11.0,0.35108975,11.0,11.0
6040.0,11.0,0.29321495,11.0,11.0
6050.0,11.0,0.17863652,11.0,11.0
6060.0,11.0,0.0,11.0,11.0
6070.0,11.0,0.0,11.0,11.0
6080.0,11.0,0.0,11.0,11.0
6090.0,11.0,0.0,11.0,11.0
6100.0,11.0,0.0,11.0,11.0
6110.0,11.0,0.0,11.0,11.0
6120.0,11.0,0.0,11.0,11.0
6130.0,11.0,0.0,11.0,11.0
6140.0,11.0,0.0,11.0,11.0
6150.0,11.0,0.34278858,11.0,11.0
6160.0,11.0,0.34278858,11.0,11.0
6170.0,11.0,0.34278858,11.0,11.0
6180.0,11.0,0.34278858,11.0,11.0
6190.0,11.0,0.34278858,11.0,11.0
6200.0,11.0,0.34278858,11.0,11.0
6210.0,11.0,0.37208062,11.0,11.0
6220.0,11.0,0.37297586,11.0,11.0
6230.0,11.0,0.37297586,11.0,11.0
6240.0,11.0,0.34278858,11.0,11.0
6250.0,11.0,0.34278858,11.0,11.0
6260.0,11.0,0.34384736,11.0,11.0
6270.0,11.0,0.34384736,11.0,11.0
6280.0,11.0,0.34384736,11.0,11.0
6290.0,11.0,0.34384736,11.0,11.0
6300.0,11.0,0.37297586,11.0,11.0
6310.0,11.0,0.37297586,11.0,11.0
6320.0,11.0,0.37297586,11.0,11.0
6330.0,11.0,0.41954258,11.0,11.0
6340.0,11.0,0.41954258,11.0,11.0
6350.0,11.0,0.41954258,11.0,11.0
6360.0,11.0,0.45329797,11.0,12.0
6370.0,11.0,0.45329797,11.0,12.0
6380.0,11.0,0.45329797,11.0,12.0
6390.0,11.0,0.45329797,11.0,12.0
6400.0,11.0,0.45329797,11.0,12.0
6410.0,11.0,0.45329797,11.0,12.0
6420.0,11.0,0.47696963,11.0,12.0
6430.0,11.0,0.47696963,11.0,12.0
6440.0,11.0,0.47696963,11.0,12.0
6450.0,11.0,0.4920152,11.0,12.0
6460.0,11.0,0.4920152,11.0,12.0
6470.0,11.0,0.4920152,11.0,12.0
6480.0,11.0,0.49419022,11.0,12.0
6490.0,11.0,0.49419022,11.0,12.0
6500.0,11.0,0.49419022,11.0,12.0
6510.0,12.0,0.49990737,11.0,12.0
6520.0,12.0,0.49992582,11.0,12.0
6530.0,12.0,0.48628828,11.0,12.0
6540.0,12.0,0.42008147,12.0,12.0
6550.0,12.0,0.4008695,12.0,12.0
6560.0,12.0,0.39289352,12.0,12.0
6570.0,12.0,0.3662223,12.0,12.0
6580.0,12.0,0.28314874,12.0,12.0
6590.0,12.0,0.16604696,12.0,12.0
6600.0,12.0,0.0,12.0,12.0
6610.0,12.0,0.0,12.0,12.0
6620.0,12.0,0.0,12.0,12.0
6630.0,12.0,0.0,12.0,12.0
6640.0,12.0,0.0,12.0,12.0
6650.0,12.0,0.0,12.0,12.0
6660.0,12.0,0.0,12.0,12.0
6670.0,12.0,0.0,12.0,12.0
6680.0,12.0,0.0,12.0,12.0
6690.0,12.0,0.0,12.0,12.0
6700.0,12.0,0.0,12.0,12.0
6710.0,12.0,0.0,12.0,12.0
6720.0,12.0,0.0,12.0,12.0
6730.0,12.0,0.0,12.0,12.0
6740.0,12.0,0.0,12.0,12.0
6750.0,12.0,0.058789287,12.0,12.0
6760.0,12.0,0.09661295,12.0,12.0
6770.0,12.0,0.12794428,12.0,12.0
6780.0,12.0,0.14808415,12.0,12.0
6790.0,12.0,0.16876528,12.0,12.0
6800.0,12.0,0.18568335,12.0,12.0
6810.0,12.0,0.21943484,12.0,12.0
6820.0,12.0,0.2826101,12.0,12.0
6830.0,12.0,0.325407,12.0,12.0
6840.0,12.0,0.34691194,12.0,12.0
6850.0,12.0,0.36134303,12.0,12.0
6860.0,12.0,0.37285948,12.0,12.0
6870.0,12.0,0.3998183,12.0,12.0
6880.0,12.0,0.40731692,12.0,12.0
6890.0,12.0,0.41620114,12.0,12.0
6900.0,12.0,0.43790022,12.0,13.0
6910.0,12.0,0.45485747,12.0,13.0
6920.0,12.0,0.46920142,12.0,13.0
6930.0,12.0,0.47643197,12.0,13.0
6940.0,12.0,0.4846624,12.0,13.0
6950.0,12.0,0.4901955,12.0,13.0
6960.0,12.0,0.49925444,12.0,13.0
6970.0,13.0,0.49092534,12.0,13.0
6980.0,13.0,0.4538017,12.0,13.0
6990.0,13.0,0.40330714,13.0,13.0
7000.0,13.0,0.34696087,13.0,13.0
7010.0,13.0,0.2950986,13.0,13.0
7020.0,13.0,0.24814287,13.0,13.0
7030.0,13.0,0.1873629,13.0,13.0
7040.0,13.0,0.07975628,13.0,13.0
7050.0,13.0,0.0,13.0,13.0
7060.0,13.0,0.0,13.0,13.0
7070.0,13.0,0.49945325,12.0,13.0
7080.0,13.0,0.49721205,12.0,13.0
7090.0,13.0,0.49714053,12.0,13.0
7100.0,13.0,0.4970678,12.0,13.0
7110.0,13.0,0.49494392,12.0,13.0
7120.0,13.0,0.49501583,12.0,13.0
7130.0,13.0,0.49492002,12.0,13.0
7140.0,13.0,0.55090034,12.0,13.0
7150.0,13.0,0.5508153,12.0,13.0
7160.0,13.0,0.55098057,12.0,13.0
7170.0,13.0,0.49216494,12.0,13.0
7180.0,13.0,0.49204448,12.0,13.0
7190.0,13.0,0.49192274,12.0,13.0
7200.0,13.0,0.5373781,12.0,13.0
7210.0,13.0,0.54717195,12.0,13.0
7220.0,13.0,0.5453192,12.0,13.0
7230.0,13.0,0.5452081,12.0,13.0
7240.0,13.0,0.5888193,12.0,13.0
7250.0,13.0,0.54863346,12.0,13.0
7260.0,13.0,0.5483284,12.0,13.0
7270.0,13.0,0.54906523,13.0,13.0
7280.0,13.0,0.5392106,13.0,13.0
7290.0,13.0,0.53110594,13.0,13.0
7300.0,13.0,0.48179173,13.0,13.0
7310.0,13.0,0.48095423,13.0,13.0
7320.0,13.0,0.32782742,13.0,13.0
7330.0,13.0,0.3289894,13.0,13.0
7340.0,13.0,0.32913256,13.0,13.0
7350.0,13.0,0.36110035,13.0,13.0
7360.0,13.0,0.3729759,13.0,13.0
7370.0,13.0,0.3738663,13.0,13.0
7380.0,13.0,0.42018923,13.0,13.0
7390.0,13.0,0.43863428,13.0,14.0
7400.0,13.0,0.58994156,13.0,14.0
7410.0,13.0,0.5911946,13.0,14.0
7420.0,13.0,0.5924179,13.0,14.0
7430.0,13.0,0.56884444,13.0,14.0
7440.0,13.0,0.49747768,13.0,14.0
7450.0,13.0,0.4465143,13.0,14.0
7460.0,13.0,0.44550085,13.0,14.0
7470.0,13.0,0.45912528,13.0,14.0
7480.0,13.0,0.4582576,13.0,14.0
7490.0,13.0,0.45781982,13.0,14.0
7500.0,13.0,0.45693657,13.0,14.0
7510.0,13.0,0.4560428,13.0,14.0
7520.0,13.0,0.45513847,13.0,14.0
7530.0,13.0,0.4542235,13.0,14.0
7540.0,13.0,0.45329797,13.0,14.0
7550.0,13.0,0.45236158,13.0,14.0
7560.0,13.0,0.4542235,13.0,14.0
7570.0,13.0,0.49289352,13.0,14.0
7580.0,14.0,0.4997271,13.0,14.0
7590.0,14.0,0.48863482,13.0,14.0
7600.0,14.0,0.47268486,13.0,14.0
7610.0,14.0,0.46503794,13.0,14.0
7620.0,14.0,0.45912528,13.0,14.0
7630.0,14.0,0.44815117,13.0,14.0
7640.0,14.0,0.43416125,13.0,14.0
7650.0,14.0,0.41823918,14.0,14.0
7660.0,14.0,0.4016422,14.0,14.0
7670.0,14.0,0.40074804,14.0,14.0
7680.0,14.0,0.40074804,14.0,14.0
7690.0,14.0,0.4016422,14.0,14.0
7700.0,14.0,0.39773235,14.0,14.0
7710.0,14.0,0.37665847,14.0,14.0
7720.0,14.0,0.34065232,14.0,14.0
7730.0,14.0,0.2918287,14.0,14.0
7740.0,14.0,0.2552651,14.0,14.0
7750.0,14.0,0.25514704,14.0,14.0
7760.0,14.0,0.21999773,14.0,14.0
7770.0,14.0,0.15921266,14.0,14.0
7780.0,14.0,0.063118935,14.0,14.0
7790.0,14.0,0.08908423,14.0,14.0
7800.0,14.0,0.11327401,14.0,14.0
7810.0,14.0,0.13295113,14.0,14.0
7820.0,14.0,0.18386838,14.0,14.0
7830.0,14.0,0.23933032,14.0,14.0
7840.0,14.0,0.24828209,14.0,14.0
7850.0,14.0,0.25682485,14.0,14.0
7860.0,14.0,0.2649981,14.0,14.0
7870.0,14.0,0.27141714,14.0,14.0
7880.0,14.0,0.2788817,14.0,14.0
7890.0,14.0,0.28618175,14.0,14.0
7900.0,14.0,0.29195955,14.0,14.0
7910.0,14.0,0.3,14.0,14.0
7920.0,14.0,0.30655342,14.0,14.0
7930.0,14.0,0.3105169,14.0,14.0
7940.0,14.0,0.3226081,14.0,14.0
7950.0,14.0,0.35524678,14.0,14.0
7960.0,14.0,0.19829017,14.0,14.0
7970.0,14.0,0.32036412,14.0,14.0
7980.0,14.0,0.32274795,14.0,14.0
7990.0,14.0,0.3249615,14.0,14.0
8000.0,14.0,0.3274268,14.0,14.0
8010.0,14.0,0.3297231,14.0,14.0
8020.0,14.0,0.33199146,14.0,14.0
8030.0,14.0,0.33408982,14.0,14.0
8040.0,14.0,0.33644655,14.0,14.0
8050.0,14.0,0.33863437,14.0,14.0
8060.0,14.0,0.34079638,14.0,14.0
8070.0,14.0,0.34278858,14.0,14.0
8080.0,14.0,0.34504494,14.0,14.0
8090.0,14.0,0.34713235,14.0,14.0
8100.0,14.0,0.37839693,14.0,14.0
8110.0,14.0,0.3799671,14.0,14.0
8120.0,14.0,0.40602657,14.0,14.0
8130.0,14.0,0.4074578,14.0,14.0
8140.0,14.0,0.41707042,14.0,14.0
8150.0,14.0,0.43008715,14.0,14.0
8160.0,14.0,0.4314117,14.0,14.0
8170.0,14.0,0.43257836,14.0,14.0
8180.0,14.0,0.43358853,14.0,15.0
8190.0,14.0,0.44864503,14.0,15.0
8200.0,14.0,0.46530738,14.0,15.0
8210.0,14.0,0.4662129,14.0,15.0
8220.0,14.0,0.4669839,14.0,15.0
8230.0,14.0,0.480395,14.0,15.0
8240.0,14.0,0.49947077,14.0,15.0
8250.0,15.0,0.48872027,14.0,15.0
8260.0,15.0,0.47033203,14.0,15.0
8270.0,15.0,0.4583885,14.0,15.0
8280.0,15.0,0.43126675,15.0,15.0
8290.0,15.0,0.41166344,15.0,15.0
8300.0,15.0,0.4038515,15.0,15.0
8310.0,15.0,0.38844773,15.0,15.0
8320.0,15.0,0.34802154,15.0,15.0
8330.0,15.0,0.23944227,15.0,15.0
8340.0,15.0,0.18131661,15.0,15.0
8350.0,15.0,0.49987906,14.0,15.0
8360.0,15.0,0.50177187,14.0,15.0
8370.0,15.0,0.509383,14.0,15.0
8380.0,15.0,0.563013,14.0,15.0
8390.0,15.0,0.5752773,14.0,15.0
8400.0,15.0,0.5766723,14.0,15.0
8410.0,15.0,0.5793452,14.0,15.0
8420.0,15.0,0.58596843,14.0,15.0
8430.0,15.0,0.5767764,14.0,15.0
8440.0,15.0,0.5563272,14.0,15.0
8450.0,15.0,0.55043167,14.0,15.0
8460.0,15.0,0.57649887,14.0,15.0
8470.0,15.0,0.5871277,15.0,15.0
8480.0,15.0,0.6074331,15.0,15.0
8490.0,15.0,0.6044625,15.0,15.0
8500.0,15.0,0.5729145,15.0,15.0
8510.0,15.0,0.50829524,15.0,15.0
8520.0,15.0,0.46221098,15.0,15.0
8530.0,15.0,0.43416125,15.0,16.0
8540.0,15.0,0.43642178,15.0,16.0
8550.0,15.0,0.43808562,15.0,16.0
8560.0,15.0,0.43972266,15.0,16.0
8570.0,15.0,0.44186422,15.0,16.0
8580.0,15.0,0.44343996,15.0,16.0
8590.0,15.0,0.44550085,15.0,16.0
8600.0,15.0,0.44701678,15.0,16.0
8610.0,15.0,0.44899884,15.0,16.0
8620.0,15.0,0.44343996,15.0,16.0
8630.0,15.0,0.26025638,15.0,15.0
8640.0,15.0,0.30278254,15.0,15.0
8650.0,15.0,0.3375437,15.0,15.0
8660.0,15.0,0.37027562,15.0,15.0
8670.0,15.0,0.4016422,15.0,15.0
8680.0,15.0,0.44815117,15.0,16.0
8690.0,15.0,0.47922134,15.0,16.0
8700.0,15.0,0.48914853,15.0,16.0
8710.0,15.0,0.4895683,15.0,16.0
8720.0,15.0,0.48948547,15.0,16.0
8730.0,15.0,0.49607047,15.0,16.0
8740.0,15.0,0.49999368,15.0,16.0
8750.0,16.0,0.49851263,15.0,16.0
8760.0,16.0,0.4966761,15.0,16.0
8770.0,16.0,0.4888507,15.0,16.0
8780.0,16.0,0.4714045,15.0,16.0
8790.0,16.0,0.45107284,15.0,16.0
8800.0,16.0,0.42161992,16.0,16.0
8810.0,16.0,0.35721853,16.0,16.0
8820.0,16.0,0.2501381,16.0,16.0
8830.0,16.0,0.14990331,16.0,16.0
8840.0,16.0,0.0,16.0,16.0
8850.0,16.0,0.0,16.0,16.0
8860.0,16.0,0.0,16.0,16.0
8870.0,16.0,0.0,16.0,16.0
8880.0,16.0,0.0,16.0,16.0
8890.0,16.0,0.0,16.0,16.0
8900.0,16.0,0.0,16.0,16.0
8910.0,16.0,0.0,16.0,16.0
8920.0,16.0,0.0,16.0,16.0
8930.0,16.0,0.0,16.0,16.0
8940.0,16.0,0.0,16.0,16.0
8950.0,16.0,0.0,16.0,16.0
8960.0,16.0,0.0,16.0,16.0
8970.0,16.0,0.0,16.0,16.0
8980.0,16.0,0.0,16.0,16.0
8990.0,16.0,0.0,16.0,16.0
9000.0,16.0,0.0,16.0,16.0
9010.0,16.0,0.0,16.0,16.0
9020.0,16.0,0.0,16.0,16.0
9030.0,16.0,0.0,16.0,16.0
9040.0,16.0,0.0,16.0,16.0
9050.0,16.0,0.0,16.0,16.0
9060.0,16.0,0.0,16.0,16.0
9070.0,16.0,0.0,16.0,16.0
9080.0,16.0,0.104354054,16.0,16.0
9090.0,16.0,0.17340158,16.0,16.0
9100.0,16.0,0.22010188,16.0,16.0
9110.0,16.0,0.30924937,16.0,16.0
9120.0,16.0,0.40296897,16.0,16.0
9130.0,16.0,0.44040403,16.0,17.0
9140.0,16.0,0.43600458,16.0,17.0
9150.0,16.0,0.43487477,16.0,17.0
9160.0,16.0,0.4505928,16.0,17.0
9170.0,16.0,0.46608904,16.0,17.0
9180.0,16.0,0.4767645,16.0,17.0
9190.0,16.0,0.4866862,16.0,17.0
9200.0,16.0,0.49226865,16.0,17.0
9210.0,16.0,0.49507576,16.0,17.0
9220.0,16.0,0.49513644,16.0,17.0
9230.0,16.0,0.49855393,16.0,17.0
9240.0,16.0,0.49855393,16.0,17.0
9250.0,16.0,0.49858898,16.0,17.0
9260.0,16.0,0.49870235,16.0,17.0
9270.0,16.0,0.49873564,16.0,17.0
9280.0,16.0,0.4987735,16.0,17.0
9290.0,16.0,0.49999103,16.0,17.0
9300.0,16.0,0.49998775,16.0,17.0
9310.0,16.0,0.49999604,16.0,17.0
9320.0,16.0,0.49999774,16.0,17.0
9330.0,16.5,0.5,16.0,17.0
9340.0,17.0,0.4979709,16.0,17.0
9350.0,17.0,0.61022323,16.0,17.0
9360.0,17.0,0.6110965,16.0,17.0
9370.0,17.0,0.61103547,16.0,17.0
9380.0,17.0,0.61352754,16.0,17.0
9390.0,17.0,0.61459255,16.0,17.0
9400.0,17.0,0.6131832,16.0,17.0
9410.0,17.0,0.6153625,16.0,17.0
9420.0,17.0,0.6155855,16.0,17.0
9430.0,17.0,0.58232296,16.0,17.0
9440.0,17.0,0.5831089,16.0,17.0
9450.0,17.0,0.57169336,16.0,17.0
9460.0,17.0,0.40296897,17.0,17.0
9470.0,17.0,0.40458024,17.0,17.0
9480.0,17.0,0.40674403,17.0,17.0
9490.0,17.0,0.4088743,17.0,17.0
9500.0,17.0,0.41012684,17.0,17.0
9510.0,17.0,0.49362648,17.0,17.0
9520.0,17.0,0.53571606,17.0,17.0
9530.0,17.0,0.6282165,17.0,17.0
9540.0,17.0,0.6460157,17.0,17.0
9550.0,17.0,0.65197825,17.0,17.0
9560.0,17.0,0.6581001,17.0,17.0
9570.0,17.0,0.68271226,17.0,17.0
9580.0,17.0,0.7187656,17.0,17.0
9590.0,17.0,0.72419226,17.0,17.0
9600.0,17.0,0.7273266,17.0,17.0
9610.0,17.0,0.73261106,17.0,17.0
9620.0,17.0,0.53558695,17.0,17.0
9630.0,17.0,0.61806154,17.0,17.0
9640.0,17.0,0.65400225,17.0,18.0
9650.0,17.0,0.6537878,17.0,18.0
9660.0,17.0,0.6544853,17.0,18.0
9670.0,17.0,0.65474343,17.0,18.0
9680.0,17.0,0.6554319,17.0,18.0
9690.0,17.0,0.6552115,17.0,18.0
9700.0,17.0,0.66842437,17.0,18.0
9710.0,17.0,0.6518581,17.0,18.0
9720.0,17.0,0.4818944,17.0,18.0
9730.0,17.0,0.4818944,17.0,18.0
9740.0,17.0,0.5020597,17.0,18.0
9750.0,17.0,0.4996389,17.0,18.0
9760.0,17.0,0.4995787,17.0,18.0
9770.0,17.0,0.4995588,17.0,18.0
9780.0,17.0,0.49951577,17.0,18.0
9790.0,17.0,0.49951577,17.0,18.0
9800.0,17.0,0.49944633,17.0,18.0
9810.0,17.0,0.4993982,17.0,18.0
9820.0,17.0,0.4993746,17.0,18.0
9830.0,17.0,0.499348,17.0,18.0
9840.0,17.0,0.4992959,17.0,18.0
9850.0,17.0,0.4992705,17.0,18.0
9860.0,17.0,0.4992705,17.0,18.0
9870.0,18.0,0.4967245,17.0,18.0
9880.0,18.0,0.4841477,17.0,18.0
9890.0,18.0,0.47184637,17.0,18.0
9900.0,18.0,0.4749305,17.0,18.0
9910.0,18.0,0.47557133,17.0,18.0
9920.0,18.0,0.4447284,18.0,18.0
9930.0,18.0,0.44744164,18.0,18.0
9940.0,18.0,0.9025011,17.0,19.0
9950.0,18.0,1.123742,17.0,19.0
9960.0,18.0,1.0961231,17.0,19.0
9970.0,18.0,1.0956278,17.0,19.0
9980.0,18.0,1.0938143,17.0,19.0
9990.0,18.0,1.1056037,17.0,19.0
10000.0,18.0,1.1226357,17.0,19.0
10010.0,18.0,1.1180228,17.0,19.0
10020.0,18.0,1.1172849,17.0,19.0
10030.0,18.0,1.0839169,17.0,19.0
10040.0,18.0,1.0824047,17.0,19.0
10050.0,18.0,1.0813794,17.0,19.0
10060.0,18.0,1.056594,17.0,19.0
10070.0,18.0,1.0546324,17.0,19.0
10080.0,18.0,1.0538187,17.0,19.0
10090.0,18.0,1.0525379,17.0,19.0
10100.0,18.0,1.0548816,17.0,19.0
10110.0,18.0,1.0015974,18.0,19.0
10120.0,18.0,0.9281541,18.0,19.0
10130.0,18.0,0.89385396,18.0,19.0
10140.0,18.0,0.8251443,18.0,19.0
10150.0,18.0,0.74458045,18.0,19.0
10160.0,18.0,0.69281745,18.0,19.0
10170.0,18.0,0.658575,18.0,19.0
10180.0,18.0,0.658452,18.0,19.0
10190.0,18.0,0.60983604,18.0,19.0
10200.0,18.0,0.609944,18.0,19.0
10210.0,18.0,0.60983604,18.0,19.0
10220.0,18.0,0.54201967,18.0,19.0
10230.0,18.0,0.4983538,18.0,19.0
10240.0,18.0,0.4983974,18.0,19.0
10250.0,18.0,0.49662462,18.0,19.0
10260.0,18.0,0.49499473,18.0,19.0
10270.0,18.0,0.49499473,18.0,19.0
10280.0,18.0,0.49493337,18.0,19.0
10290.0,18.0,0.49493337,18.0,19.0
10300.0,18.0,0.49499473,18.0,19.0
10310.0,18.0,0.49499473,18.0,19.0
10320.0,18.0,0.49493337,18.0,19.0
10330.0,18.0,0.49499473,18.0,19.0
10340.0,18.0,0.49493334,18.0,19.0
10350.0,18.0,0.4971831,18.0,19.0
10360.0,18.0,0.49733537,18.0,19.0
10370.0,18.0,0.49897498,18.0,19.0
10380.0,18.0,0.4996759,18.0,19.0
10390.0,18.0,0.4991272,18.0,19.0
10400.0,18.0,0.49965695,18.0,19.0
10410.0,18.0,0.49990955,18.0,19.0
10420.0,18.0,0.49999368,18.0,19.0
10430.0,19.0,0.494851,18.0,19.0
10440.0,19.0,0.48644942,18.0,19.0
10450.0,19.0,0.47471148,18.0,19.0
10460.0,19.0,0.46582374,18.0,19.0
10470.0,19.0,0.442533,18.0,19.0
10480.0,19.0,0.3948032,19.0,19.0
10490.0,19.0,0.35021877,19.0,19.0
10500.0,19.0,0.29195958,19.0,19.0
10510.0,19.0,0.21999773,19.0,19.0
10520.0,19.0,0.17608516,19.0,19.0
10530.0,19.0,0.08912844,19.0,19.0
10540.0,19.0,0.0705688,19.0,19.0
10550.0,19.0,0.0,19.0,19.0
10560.0,19.0,0.0,19.0,19.0
10570.0,19.0,0.0,19.0,19.0
10580.0,19.0,0.0,19.0,19.0
10590.0,19.0,0.0,19.0,19.0
10600.0,19.0,0.0,19.0,19.0
10610.0,19.0,0.0,19.0,19.0
10620.0,19.0,0.0,19.0,19.0
10630.0,19.0,0.0,19.0,19.0
10640.0,19.0,0.0,19.0,19.0
10650.0,19.0,0.0,19.0,19.0
10660.0,19.0,0.0,19.0,19.0
10670.0,19.0,0.0,19.0,19.0
10680.0,19.0,0.4542235,19.0,20.0
10690.0,19.0,0.47471148,19.0,20.0
10700.0,19.0,0.4758052,19.0,20.0
10710.0,19.0,0.47696963,19.0,20.0
10720.0,19.0,0.4779027,19.0,20.0
10730.0,19.0,0.47210756,19.0,20.0
10740.0,19.0,0.46911728,19.0,20.0
10750.0,19.0,0.47057304,19.0,20.0
10760.0,19.0,0.4716397,19.0,20.0
10770.0,19.0,0.47245547,19.0,20.0
10780.0,19.0,0.47370878,19.0,20.0
10790.0,19.0,0.47471148,19.0,20.0
10800.0,19.0,0.4758052,19.0,20.0
10810.0,19.0,0.4767645,19.0,20.0
10820.0,19.0,0.48504022,19.0,20.0
10830.0,19.0,0.490419,19.0,20.0
10840.0,19.0,0.50057566,19.0,20.0
10850.0,19.0,0.5102695,19.0,20.0
10860.0,19.0,0.5154815,19.0,20.0
10870.0,19.0,0.524839,19.0,20.0
10880.0,19.0,0.50406253,19.0,20.0
10890.0,19.0,0.48750794,19.0,20.0
10900.0,19.0,0.4797072,19.0,20.0
10910.0,19.0,0.48226136,19.0,20.0
10920.0,19.0,0.49682897,19.0,20.0
10930.0,19.0,0.51798743,19.0,20.0
10940.0,19.0,0.53991115,19.0,20.0
10950.0,19.0,0.54848796,19.0,20.0
10960.0,19.0,0.53572756,19.0,20.0
10970.0,19.0,0.5257338,19.0,20.0
10980.0,19.0,0.5458938,19.0,20.0
10990.0,19.0,0.5653282,19.0,20.0
11000.0,19.0,0.55206436,19.0,20.0
11010.0,19.0,0.5380623,19.0,20.0
11020.0,19.0,0.5577087,19.0,20.0
11030.0,19.0,0.5652176,19.0,20.0
11040.0,19.0,0.58251524,19.0,20.0
11050.0,19.0,0.6144917,19.0,20.0
11060.0,19.0,0.63243574,19.0,20.0
11070.0,19.0,0.6320728,19.0,20.0
11080.0,19.0,0.63879883,19.0,20.0
11090.0,19.0,0.6674579,19.0,20.0
11100.0,19.0,0.6902173,19.0,20.0
11110.0,20.0,0.68733615,19.0,20.0
11120.0,20.0,0.6850044,19.0,20.0
11130.0,20.0,0.6822785,19.0,20.0
11140.0,20.0,0.69158083,19.0,20.0
11150.0,20.0,0.6943421,19.0,20.0
11160.0,20.0,0.6816091,19.0,20.0
11170.0,20.0,0.6753103,19.0,20.0
11180.0,20.0,0.68648666,19.0,20.0
11190.0,20.0,0.68554723,19.0,20.0
11200.0,20.0,0.6578564,19.0,20.0
11210.0,20.0,0.6320095,19.0,20.0
11220.0,20.0,0.6057425,19.0,20.0
11230.0,20.0,0.5896092,19.0,20.0
11240.0,20.0,0.6043542,19.0,20.0
11250.0,20.0,0.61787945,19.0,20.0
11260.0,20.0,0.6091798,19.0,20.0
11270.0,20.0,0.5905176,19.0,20.0
11280.0,20.0,0.58882594,19.0,20.0
11290.0,20.0,0.5957978,19.0,20.0
11300.0,20.0,0.5984572,19.0,20.0
11310.0,20.0,0.4105398,20.0,20.0
11320.0,20.0,0.0,20.0,20.0
11330.0,20.0,0.0,20.0,20.0
11340.0,20.0,0.0,20.0,20.0
11350.0,20.0,0.0,20.0,20.0
11360.0,20.0,0.0,20.0,20.0
11370.0,20.0,0.0,20.0,20.0
11380.0,20.0,0.0,20.0,20.0
11390.0,20.0,0.0,20.0,20.0
11400.0,20.0,0.0,20.0,20.0
11410.0,20.0,0.0,20.0,20.0
11420.0,20.0,0.0,20.0,20.0
11430.0,20.0,0.0,20.0,20.0
11440.0,20.0,0.0,20.0,20.0
11450.0,20.0,0.0,20.0,20.0
11460.0,20.0,0.0,20.0,20.0
11470.0,20.0,0.0,20.0,20.0
11480.0,20.0,0.0,20.0,20.0
11490.0,20.0,0.0,20.0,20.0
11500.0,20.0,0.2318426,20.0,20.0
11510.0,20.0,0.35707143,20.0,20.0
11520.0,20.0,0.35707143,20.0,20.0
11530.0,20.0,0.3850182,20.0,20.0
11540.0,20.0,0.38584453,20.0,20.0
11550.0,20.0,0.38584453,20.0,20.0
11560.0,20.0,0.42889512,20.0,20.0
11570.0,20.0,0.42949274,20.0,20.0
11580.0,20.0,0.42949274,20.0,20.0
11590.0,20.0,0.47021276,20.0,21.0
11600.0,20.0,0.47233886,20.0,21.0
11610.0,20.0,0.48226136,20.0,21.0
11620.0,20.0,0.49507573,20.0,21.0
11630.0,20.0,0.4983162,20.0,21.0
11640.0,21.0,0.49847665,20.0,21.0
11650.0,21.0,0.47941214,20.0,21.0
11660.0,21.0,0.4788152,20.0,21.0
11670.0,20.0,0.4983974,20.0,21.0
11680.0,20.0,0.55048984,20.0,21.0
11690.0,20.0,0.5599634,20.0,21.0
11700.0,20.0,0.5709673,20.0,21.0
11710.0,20.0,0.5796542,20.0,21.0
11720.0,20.0,0.5889868,20.0,21.0
11730.0,21.0,0.59373736,20.0,21.0
11740.0,21.0,0.59931463,20.0,21.0
11750.0,21.0,0.60580856,20.0,21.0
11760.0,21.0,0.61184824,20.0,21.0
11770.0,21.0,0.61454374,20.0,21.0
11780.0,21.0,0.6157548,20.0,21.0
11790.0,21.0,0.62189305,20.0,21.0
11800.0,21.0,0.62664896,20.0,21.0
11810.0,21.0,0.6322776,20.0,21.0
11820.0,21.0,0.63659567,20.0,21.0
11830.0,21.0,0.6159091,20.0,21.0
11840.0,21.0,0.6037272,20.0,21.0
11850.0,21.0,0.6081316,20.0,21.0
11860.0,21.0,0.60729176,20.0,21.0
11870.0,21.0,0.5663356,20.0,21.0
11880.0,21.0,0.51364523,21.0,21.0
11890.0,21.0,0.48331252,21.0,21.0
11900.0,21.0,0.4811453,21.0,21.0
11910.0,21.0,0.0,21.0,21.0
11920.0,21.0,0.0,21.0,21.0
11930.0,21.0,0.0,21.0,21.0
11940.0,21.0,0.0,21.0,21.0
11950.0,21.0,0.0,21.0,21.0
11960.0,21.0,0.0,21.0,21.0
11970.0,21.0,0.0,21.0,21.0
11980.0,21.0,0.3590209,21.0,21.0
11990.0,21.0,0.35804892,21.0,21.0
12000.0,21.0,0.35804892,21.0,21.0
12010.0,21.0,0.43416125,21.0,22.0
12020.0,21.0,0.44550088,21.0,22.0
12030.0,21.0,0.44550088,21.0,22.0
12040.0,21.0,0.45998263,21.0,22.0
12050.0,21.0,0.48114866,21.0,22.0
12060.0,21.0,0.4836021,21.0,22.0
12070.0,21.0,0.48863482,21.0,22.0
12080.0,21.0,0.49419022,21.0,22.0
12090.0,21.0,0.4979709,21.0,22.0
12100.0,21.0,0.67696303,21.0,22.0
12110.0,21.0,0.69613504,21.0,22.0
12120.0,22.0,0.68709236,21.0,22.0
12130.0,22.0,0.78572005,21.0,22.0
12140.0,22.0,0.8871973,21.0,23.0
12150.0,22.0,0.4420396,22.0,22.0
12160.0,22.0,0.4373424,22.0,22.0
12170.0,22.0,0.47627622,22.0,22.0
12180.0,22.0,0.49931392,22.0,22.0
12190.0,22.0,0.48332694,22.0,22.0
12200.0,22.0,0.4765501,22.0,22.0
12210.0,22.0,0.54071707,22.0,22.0
12220.0,22.0,0.6455881,22.0,23.0
12230.0,22.0,0.69075596,22.0,23.0
12240.0,22.0,0.70792073,22.0,23.0
12250.0,22.0,0.7800759,22.0,23.0
12260.0,23.0,0.8860045,22.0,23.0
12270.0,23.0,0.9329523,22.0,23.0
12280.0,23.0,0.97981834,22.0,24.0
12290.0,23.0,1.1191565,22.0,24.0
12300.0,23.0,1.2904677,23.0,24.0
12310.0,23.0,1.4365407,23.0,25.0
12320.0,23.0,1.5876034,23.0,25.0
12330.0,24.0,1.7802876,23.0,26.0
12340.0,22.0,6.4655623,21.0,29.0
12350.0,22.0,6.61353,21.0,29.0
12360.0,22.0,6.9928794,21.0,29.0
12370.0,22.0,6.6571302,21.0,29.0
12380.0,22.0,5.889343,21.0,28.0
12390.0,22.0,5.1270943,21.0,26.0
12400.0,22.0,4.6526756,21.0,26.0
12410.0,22.0,5.028045,21.0,26.0
12420.0,22.0,5.19934,22.0,26.0
12430.0,22.0,4.973007,22.0,26.0
12440.0,22.0,4.135021,22.0,26.0
12450.0,22.0,3.6634722,22.0,25.0
12460.0,22.0,3.9479048,22.0,25.0
12470.0,22.0,4.0432844,22.0,25.0
12480.0,22.0,4.1398034,22.0,25.0
12490.0,22.0,4.302419,22.0,25.0
12500.0,22.0,4.4608088,22.0,26.0
12510.0,22.0,4.682564,22.0,26.0
12520.0,22.5,4.8639164,22.0,26.0
12530.0,22.0,4.9299083,22.0,27.0
12540.0,22.0,4.1459303,22.0,25.0
12550.0,22.0,3.8277314,22.0,25.0
12560.0,22.0,3.9271398,22.0,25.0
12570.0,22.0,4.006157,22.0,26.0
12580.0,22.0,4.160479,22.0,26.0
12590.0,23.0,4.268418,22.0,26.0
12600.0,23.0,4.2959423,22.0,26.0
12610.0,23.0,4.4526944,22.0,26.0
12620.0,23.0,4.5350327,22.0,26.0
12630.0,23.0,4.5479817,22.0,26.0
12640.0,23.0,4.5182447,22.0,26.0
12650.0,23.0,4.4505415,22.0,26.0
12660.0,23.0,4.3137903,23.0,26.0
12670.0,23.0,4.149411,23.0,26.0
12680.0,23.0,4.1067286,23.0,26.0
12690.0,23.0,3.6056578,23.0,25.0
12700.0,23.0,3.1476657,23.0,25.0
12710.0,23.0,3.1087973,23.0,25.0
12720.0,23.0,3.018726,23.0,25.0
12730.0,23.0,2.7747133,23.0,25.0
12740.0,23.0,2.6685758,23.0,25.0
12750.0,23.0,2.6238768,23.0,25.0
12760.0,23.0,2.5689998,23.0,25.0
12770.0,23.0,2.4606836,23.0,25.0
12780.0,23.0,2.4551556,23.0,25.0
12790.0,23.0,2.4813564,23.0,25.0
12800.0,23.0,2.6592703,23.0,25.0
12810.0,23.0,3.004247,23.0,25.0
12820.0,23.0,2.889554,23.0,25.0
12830.0,23.0,2.7492976,23.0,25.0
12840.0,23.0,2.6301787,23.0,25.0
12850.0,23.0,2.5371583,23.0,25.0
12860.0,23.0,2.4419057,23.0,25.0
12870.0,23.0,2.2917972,23.0,24.0
12880.0,23.0,2.2067318,23.0,24.0
12890.0,23.0,2.0603747,23.0,24.0
12900.0,23.0,1.9551226,23.0,24.0
12910.0,23.0,1.8869264,23.0,24.0
12920.0,23.0,1.718134,23.0,24.0
12930.0,23.0,1.7200271,23.0,24.0
12940.0,23.0,1.952489,23.0,24.0
12950.0,23.0,1.8637772,23.0,24.0
12960.0,23.0,1.7598656,23.0,24.0
12970.0,23.0,1.6132443,23.0,24.0
12980.0,23.0,1.5407656,23.0,24.0
12990.0,23.0,1.4562685,23.0,24.0
13000.0,23.0,1.3551544,23.0,24.0
13010.0,23.0,1.2615575,23.0,24.0
13020.0,23.0,1.1146594,23.0,24.0
13030.0,23.0,1.0785323,23.0,24.0
13040.0,23.0,1.0731574,23.0,24.0
13050.0,23.0,0.93913454,23.0,24.0
13060.0,23.0,0.9004165,23.0,24.0
13070.0,23.0,1.052499,23.0,24.0
13080.0,23.0,1.0506607,23.0,24.0
13090.0,23.0,1.0442785,23.0,24.0
13100.0,24.0,1.7444695,23.0,24.0
13110.0,24.0,1.6407999,23.0,24.0
13120.0,24.0,1.5667858,23.0,24.0
13130.0,24.0,1.4291027,24.0,24.0
13140.0,24.0,1.3268523,23.0,24.0
13150.0,24.0,1.2679726,23.0,24.0
13160.0,24.0,1.1450382,23.0,24.0
13170.0,24.0,1.36328,24.0,24.0
13180.0,24.0,1.5863461,24.0,24.0
13190.0,24.0,1.499911,24.0,24.0
13200.0,24.0,1.3611388,24.0,24.0
13210.0,24.0,1.245772,24.0,24.0
13220.0,24.0,1.1681799,24.0,24.0
13230.0,24.0,1.0567709,24.0,24.0
13240.0,24.0,1.0431228,24.0,24.0
13250.0,24.0,0.96647507,24.0,24.0
13260.0,24.0,0.8433113,24.0,24.0
13270.0,24.0,0.7353254,24.0,24.0
13280.0,24.0,0.57349545,24.0,24.0
13290.0,24.0,0.5044398,24.0,24.0
13300.0,24.0,0.48926222,24.0,24.0
13310.0,24.0,0.47002664,24.0,24.0
13320.0,24.0,0.67820853,24.0,24.0
13330.0,24.0,0.72435707,24.0,24.0
13340.0,24.0,0.6410313,24.0,24.0
13350.0,24.0,0.49822447,24.0,24.0
13360.0,24.0,0.47302726,24.0,24.0
13370.0,24.0,0.2881952,24.0,24.0
13380.0,24.0,0.28229234,24.0,24.0
13390.0,24.0,0.28177133,24.0,24.0
13400.0,24.0,0.2812532,24.0,24.0
13410.0,24.0,0.28056663,24.0,24.0
13420.0,24.0,0.28005502,24.0,24.0
13430.0,24.0,0.2775559,24.0,24.0
13440.0,24.0,0.46367237,24.0,24.0
13450.0,24.0,0.49298725,24.0,24.0
13460.0,24.0,0.4914428,24.0,24.0
13470.0,24.0,0.49117845,24.0,24.0
13480.0,24.0,0.49040902,24.0,24.0
13490.0,24.0,0.4855386,24.0,24.0
13500.0,24.0,0.4886269,24.0,24.0
13510.0,24.0,0.48786867,24.0,24.0
13520.0,24.0,0.48686302,24.0,24.0
13530.0,24.0,0.49063495,24.0,24.0
13540.0,24.0,0.5121841,24.0,24.0
13550.0,24.0,0.5254573,24.0,24.0
13560.0,24.0,0.52475756,24.0,24.0
13570.0,24.0,0.5593161,24.0,24.0
13580.0,24.0,0.61250263,24.0,25.0
13590.0,24.0,0.616845,24.0,25.0
13600.0,24.0,0.61591285,24.0,25.0
13610.0,24.0,0.61525005,24.0,25.0
13620.0,24.0,0.6530005,24.0,25.0
13630.0,24.0,0.67672247,24.0,25.0
13640.0,24.0,0.6758915,24.0,25.0
13650.0,24.0,0.67846936,24.0,25.0
13660.0,24.0,0.75719756,24.0,25.0
13670.0,24.0,0.7791637,24.0,25.0
13680.0,24.0,0.7781462,24.0,25.0
13690.0,24.0,0.77750707,24.0,25.0
13700.0,24.0,0.7765455,24.0,25.0
13710.0,24.0,0.87984616,24.0,25.0
13720.0,24.0,0.8717638,24.0,25.0
13730.0,24.0,0.87181556,24.0,25.0
13740.0,24.0,0.8714748,24.0,25.0
13750.0,24.0,0.8684472,24.0,25.0
13760.0,25.0,0.85155123,24.0,25.0
13770.0,25.0,0.8260801,24.0,25.0
13780.0,25.0,0.7809891,24.0,25.0
13790.0,25.0,0.7377692,25.0,25.0
13800.0,25.0,0.64181757,25.0,25.0
13810.0,25.0,0.5352593,25.0,25.0
13820.0,25.0,0.51650625,25.0,25.0
13830.0,25.0,0.51937515,25.0,25.0
13840.0,25.0,0.54609966,25.0,25.0
13850.0,25.0,0.6170585,25.0,25.0
13860.0,25.0,0.5999663,25.0,25.0
13870.0,25.0,0.5759994,25.0,25.0
13880.0,25.0,0.55704606,25.0,25.0
13890.0,25.0,0.55475324,25.0,25.0
13900.0,25.0,0.551932,25.0,25.0
13910.0,25.0,0.5407365,25.0,25.0
13920.0,25.0,0.53127766,25.0,25.0
13930.0,25.0,0.52008533,25.0,25.0
13940.0,25.0,0.5143063,25.0,25.0
13950.0,25.0,0.50571835,25.0,25.0
13960.0,25.0,0.4793175,25.0,25.0
13970.0,25.0,0.4204271,25.0,25.0
13980.0,25.0,0.3732459,25.0,25.0
13990.0,25.0,0.32958156,25.0,25.0
14000.0,25.0,0.32612723,25.0,25.0
14010.0,25.0,0.34713238,25.0,25.0
14020.0,25.0,0.3531062,25.0,25.0
14030.0,25.0,0.34919587,25.0,25.0
14040.0,25.0,0.34594655,25.0,25.0
14050.0,25.0,0.34278858,25.0,25.0
14060.0,25.0,0.33754373,25.0,25.0
14070.0,25.0,0.33519992,25.0,25.0
14080.0,25.0,0.3639489,25.0,25.0
14090.0,25.0,0.38991153,25.0,25.0
14100.0,25.0,0.41082233,25.0,25.0
14110.0,25.0,0.40745783,25.0,25.0
14120.0,25.0,0.40587685,25.0,25.0
14130.0,25.0,0.40238246,25.0,25.0
14140.0,25.0,0.40074804,25.0,25.0
14150.0,25.0,0.39773232,25.0,25.0
14160.0,25.0,0.4016422,25.0,25.0
14170.0,25.0,0.42210904,25.0,25.0
14180.0,25.0,0.43315712,25.0,25.5
14190.0,25.0,0.43126675,25.0,25.0
14200.0,25.0,0.42949274,25.0,25.0
14210.0,25.0,0.4354412,25.0,26.0
14220.0,25.0,0.44343996,25.0,26.0
14230.0,25.0,0.44147438,25.0,26.0
14240.0,25.0,0.43972266,25.0,26.0
14250.0,25.0,0.4480134,25.0,26.0
14260.0,25.0,0.43877655,25.0,26.0
14270.0,25.0,0.4783172,25.0,26.0
14280.0,25.0,0.49313298,25.0,26.0
14290.0,25.0,0.49810034,25.0,26.0
14300.0,25.0,0.4982713,25.0,26.0
14310.0,25.0,0.4999276,25.0,26.0
14320.0,26.0,0.49984345,25.0,26.0
14330.0,26.0,0.49643996,25.0,26.0
14340.0,26.0,0.48893544,25.0,26.0
14350.0,26.0,0.4642422,25.0,26.0
14360.0,26.0,0.4038515,26.0,26.0
14370.0,26.0,0.35425255,26.0,26.0
14380.0,26.0,0.29334623,26.0,26.0
14390.0,26.0,0.2518627,26.0,26.0
14400.0,26.0,0.15921266,26.0,26.0
14410.0,26.0,0.1531237,26.0,26.0
14420.0,26.0,0.14345428,26.0,26.0
14430.0,26.0,0.1365917,26.0,26.0
14440.0,26.0,0.09954802,26.0,26.0
14450.0,26.0,0.0,26.0,26.0
14460.0,26.0,0.13652472,26.0,26.0
14470.0,26.0,0.22612436,26.0,26.0
14480.0,26.0,0.22612436,26.0,26.0
14490.0,26.0,0.1562011,26.0,26.0
14500.0,26.0,0.1562011,26.0,26.0
14510.0,26.0,0.15913516,26.0,26.0
14520.0,26.0,0.16216217,26.0,26.0
14530.0,26.0,0.16505289,26.0,26.0
14540.0,26.0,0.16505289,26.0,26.0
14550.0,26.0,0.16780643,26.0,26.0
14560.0,26.0,0.17066991,26.0,26.0
14570.0,26.0,0.17066991,26.0,26.0
14580.0,26.0,0.16248317,26.0,26.0
14590.0,26.0,0.28965494,26.0,26.0
14600.0,26.0,0.2932198,26.0,26.0
14610.0,26.0,0.3274268,26.0,26.0
14620.0,26.0,0.39557904,26.0,26.0
14630.0,26.0,0.4988742,26.0,27.0
14640.0,26.0,0.52628416,26.0,27.0
14650.0,26.0,0.5462518,26.0,27.0
14660.0,26.0,0.56156117,26.0,27.0
14670.0,26.0,0.558669,26.0,27.0
14680.0,26.0,0.5400194,26.0,27.0
14690.0,26.0,0.5213215,26.0,27.0
14700.0,26.0,0.50507826,26.0,27.0
14710.0,26.0,0.4963779,26.0,27.0
14720.0,26.0,0.5177798,26.0,27.0
14730.0,26.0,0.536469,26.0,27.0
14740.0,26.0,0.55479634,26.0,27.0
14750.0,26.0,0.5740209,26.0,27.0
14760.0,26.0,0.59093064,26.0,27.0
14770.0,26.0,0.6090123,26.0,27.0
14780.0,26.0,0.6014773,26.0,27.0
14790.0,26.0,0.5863628,26.0,27.0
14800.0,26.0,0.5900161,26.0,27.0
14810.0,26.0,0.6014615,26.0,27.0
14820.0,26.0,0.597293,26.0,27.0
14830.0,26.0,0.5837594,26.0,27.0
14840.0,26.0,0.5833387,26.0,27.0
14850.0,26.0,0.6002366,26.0,27.0
14860.0,26.0,0.61667174,26.0,27.0
14870.0,26.0,0.63376963,26.0,27.0
14880.0,26.0,0.6493566,26.0,27.0
14890.0,26.0,0.6645863,26.0,27.0
14900.0,26.0,0.67410386,26.0,27.0
14910.0,26.0,0.6603567,26.0,27.0
14920.0,26.0,0.6483826,26.0,27.0
14930.0,26.0,0.6610869,26.0,27.0
14940.0,26.0,0.6793379,26.0,27.0
14950.0,27.0,0.4970149,26.0,27.0
14960.0,26.0,0.49999896,26.0,27.0
14970.0,26.0,0.49991903,26.0,27.0
14980.0,26.0,0.49999604,26.0,27.0
14990.0,27.0,0.4999,26.0,27.0
15000.0,27.0,0.49814755,26.0,27.0
15010.0,27.0,0.49237284,26.0,27.0
15020.0,27.0,0.48488766,26.0,27.0
15030.0,27.0,0.47569317,26.0,27.0
15040.0,27.0,0.44186422,26.0,27.0
15050.0,27.0,0.38130173,27.0,27.0
15060.0,27.0,0.3437383,27.0,27.0
15070.0,27.0,0.31422508,27.0,27.0
15080.0,27.0,0.24079867,27.0,27.0
15090.0,27.0,0.15913516,27.0,27.0
15100.0,27.0,0.1911962,27.0,27.0
15110.0,27.0,0.215868,27.0,27.0
15120.0,27.0,0.23748687,27.0,27.0
15130.0,27.0,0.25848794,27.0,27.0
15140.0,27.0,0.27588224,27.0,27.0
15150.0,27.0,0.28773862,27.0,27.0
15160.0,27.0,0.27436474,27.0,27.0
15170.0,27.0,0.17608519,27.0,27.0
15180.0,27.0,0.49952456,26.0,27.0
15190.0,27.0,0.522605,27.0,27.0
15200.0,27.0,0.5550116,26.0,27.0
15210.0,27.0,0.59869236,26.0,27.0
15220.0,27.0,0.63402176,26.0,27.0
15230.0,27.0,0.65331703,27.0,27.0
15240.0,27.0,0.6513279,27.0,27.0
15250.0,27.0,0.6427409,27.0,27.0
15260.0,27.0,0.6437145,27.0,27.0
15270.0,27.0,0.64497876,27.0,28.0
15280.0,27.0,0.6446742,27.0,28.0
15290.0,27.0,0.65383375,27.0,28.0
15300.0,27.0,0.6575644,27.0,28.0
15310.0,27.0,0.67806715,27.0,28.0
15320.0,27.0,0.6958046,27.0,28.0
15330.0,27.0,0.7211102,27.0,28.0
15340.0,27.0,0.72627205,27.0,28.0
15350.0,27.0,0.7207191,27.0,28.0
15360.0,27.0,0.716206,27.0,28.0
15370.0,27.0,0.7089704,27.0,28.0
15380.0,27.0,0.6959195,27.0,28.0
15390.0,27.0,0.70779586,27.0,28.0
15400.0,27.0,0.72107625,27.0,28.0
15410.0,27.0,0.71514755,27.0,28.0
15420.0,27.0,0.7039063,27.0,28.0
15430.0,27.0,0.6802183,27.0,28.0
15440.0,27.0,0.4703658,27.0,28.0
15450.0,27.0,0.46758848,27.0,28.0
15460.0,27.0,0.47151503,27.0,28.0
15470.0,27.0,0.48987246,27.0,28.0
15480.0,27.0,0.4629028,27.0,28.0
15490.0,27.0,0.4629028,27.0,28.0
15500.0,27.0,0.46948484,27.0,28.0
15510.0,27.0,0.48412293,27.0,28.0
15520.0,27.0,0.49069744,27.0,28.0
15530.0,27.0,0.49272203,27.0,28.0
15540.0,27.0,0.49944633,27.0,28.0
15550.0,28.0,0.5058449,27.0,28.0
15560.0,28.0,0.50242513,27.0,28.0
15570.0,28.0,0.47728294,27.0,28.0
15580.0,28.0,0.47233889,27.0,28.0
15590.0,28.0,0.46491286,27.0,28.0
15600.0,28.0,0.4649129,27.0,28.0
15610.0,28.0,0.45141444,27.0,28.0
15620.0,28.0,0.43600458,27.0,28.0
15630.0,28.0,0.41625836,28.0,28.0
15640.0,28.0,0.41625836,28.0,28.0
15650.0,28.0,0.41559112,28.0,28.0
15660.0,28.0,0.39924806,28.0,28.0
15670.0,28.0,0.36753097,28.0,28.0
15680.0,28.0,0.35721853,28.0,28.0
15690.0,28.0,0.3251019,28.0,28.0
15700.0,28.0,0.32392865,28.0,28.0
15710.0,28.0,0.3251019,28.0,28.0
15720.0,28.0,0.3251019,28.0,28.0
15730.0,28.0,0.3251019,28.0,28.0
15740.0,28.0,0.3249615,28.0,28.0
15750.0,28.0,0.2357352,28.0,28.0
15760.0,28.0,0.2357352,28.0,28.0
15770.0,28.0,0.2357352,28.0,28.0
15780.0,28.0,0.2357352,28.0,28.0
15790.0,28.0,0.2375981,28.0,28.0
15800.0,28.0,0.23573518,28.0,28.0
15810.0,28.0,0.2050951,28.0,28.0
15820.0,28.0,0.20295404,28.0,28.0
15830.0,28.0,0.20068508,28.0,28.0
15840.0,28.0,0.20068508,28.0,28.0
15850.0,28.0,0.20068508,28.0,28.0
15860.0,28.0,0.20068508,28.0,28.0
15870.0,28.0,0.1983852,28.0,28.0
15880.0,28.0,0.1983852,28.0,28.0
15890.0,28.0,0.1983852,28.0,28.0
15900.0,28.0,0.19605315,28.0,28.0
15910.0,28.0,0.1982902,28.0,28.0
15920.0,28.0,0.19605315,28.0,28.0
15930.0,28.0,0.19605315,28.0,28.0
15940.0,28.0,0.1936879,28.0,28.0
15950.0,28.0,0.1936879,28.0,28.0
15960.0,28.0,0.1936879,28.0,28.0
15970.0,28.0,0.25514704,28.0,28.0
15980.0,28.0,0.2518627,28.0,28.0
15990.0,28.0,0.2518627,28.0,28.0
16000.0,28.0,0.2518627,28.0,28.0
16010.0,28.0,0.25345415,28.0,28.0
16020.0,28.0,0.2501381,28.0,28.0
16030.0,28.0,0.1888526,28.0,28.0
16040.0,28.0,0.18637982,28.0,28.0
16050.0,28.0,0.18637982,28.0,28.0
16060.0,28.0,0.0705688,28.0,28.0
16070.0,28.0,0.1907223,28.0,28.0
16080.0,28.0,0.18549603,28.0,28.0
16090.0,28.0,0.17066993,28.0,28.0
16100.0,28.0,0.1734016,28.0,28.0
16110.0,28.0,0.1734016,28.0,28.0
16120.0,28.0,0.17066993,28.0,28.0
16130.0,28.0,0.3851682,28.0,28.0
16140.0,28.0,0.38681668,28.0,28.0
16150.0,28.0,0.38599458,28.0,28.0
16160.0,28.0,0.42844012,28.0,28.0
16170.0,28.0,0.4282943,28.0,28.0
16180.0,28.0,0.4282943,28.0,28.0
16190.0,28.0,0.42904076,28.0,28.0
16200.0,28.0,0.42889512,28.0,28.0
16210.0,28.0,0.42889512,28.0,28.0
16220.0,28.0,0.45955524,28.0,29.0
16230.0,28.0,0.45955524,28.0,29.0
16240.0,28.0,0.45955524,28.0,29.0
16250.0,28.0,0.45968512,28.0,29.0
16260.0,28.0,0.45955524,28.0,29.0
16270.0,28.0,0.45955524,28.0,29.0
16280.0,28.0,0.48114866,28.0,29.0
16290.0,28.0,0.48114866,28.0,29.0
16300.0,28.0,0.48086485,28.0,29.0
16310.0,29.0,0.4978795,28.0,29.0
16320.0,29.0,0.49792132,28.0,29.0
16330.0,29.0,0.49797094,28.0,29.0
16340.0,29.0,0.4637144,28.0,29.0
16350.0,29.0,0.3874842,29.0,29.0
16360.0,29.0,0.3874842,29.0,29.0
16370.0,29.0,0.0,29.0,29.0
16380.0,29.0,0.0,29.0,29.0
16390.0,29.0,0.0,29.0,29.0
16400.0,29.0,0.0,29.0,29.0
16410.0,29.0,0.0,29.0,29.0
16420.0,29.0,0.0,29.0,29.0
16430.0,29.0,0.0,29.0,29.0
16440.0,29.0,0.6840258,29.0,30.0
16450.0,29.0,0.6820689,29.0,30.0
16460.0,29.0,0.6792459,29.0,30.0
16470.0,29.0,0.6697093,29.0,30.0
16480.0,29.0,0.6866615,29.0,30.0
16490.0,29.0,0.70152104,29.0,30.0
16500.0,29.0,0.7124605,29.0,30.0
16510.0,29.0,0.6985037,29.0,30.0
16520.0,29.0,0.68381286,29.0,30.0
16530.0,29.0,0.6685847,29.0,30.0
16540.0,30.0,0.64716,29.0,30.0
16550.0,30.0,0.6132174,29.0,30.0
16560.0,30.0,0.5733272,29.0,30.0
16570.0,30.0,0.52444804,29.0,30.0
16580.0,30.0,0.48488766,29.0,30.0
16590.0,30.0,0.47801128,29.0,30.0
16600.0,30.0,0.47057304,29.0,30.0
16610.0,30.0,0.46137783,29.0,30.0
16620.0,30.0,0.45141444,29.0,30.0
16630.0,30.0,0.43917993,29.0,30.0
16640.0,30.0,0.4253889,30.0,30.0
16650.0,30.0,0.41082233,30.0,30.0
16660.0,30.0,0.3924511,30.0,30.0
16670.0,30.0,0.37386632,30.0,30.0
16680.0,30.0,0.36951447,30.0,30.0
16690.0,30.0,0.37386632,30.0,30.0
16700.0,30.0,0.37665847,30.0,30.0
16710.0,30.0,0.36795515,30.0,30.0
16720.0,30.0,0.38849157,30.0,30.0
16730.0,30.0,0.374912,30.0,30.0
16740.0,30.0,0.33410648,30.0,30.0
16750.0,30.0,0.36380076,30.0,30.0
16760.0,30.0,0.4387766,30.0,31.0
16770.0,30.0,0.47665396,30.0,31.0
16780.0,30.0,0.49097037,30.0,31.0
16790.0,30.0,0.4983974,30.0,31.0
16800.0,31.0,0.49975926,30.0,31.0
16810.0,31.0,0.4980602,30.0,31.0
16820.0,31.0,0.49470517,30.0,31.0
16830.0,31.0,0.490101,30.0,31.0
16840.0,31.0,0.4837,30.0,31.0
16850.0,31.0,0.4836021,30.0,31.0
16860.0,31.0,0.48343685,30.0,31.0
16870.0,31.0,0.4836021,30.0,31.0
16880.0,31.0,0.5976947,31.0,31.0
16890.0,31.0,0.6817441,30.0,31.0
16900.0,31.0,0.6669625,30.0,31.0
16910.0,31.0,0.65145296,30.0,31.0
16920.0,31.0,0.6351622,31.0,31.0
16930.0,31.0,0.6194965,30.0,31.0
16940.0,31.0,0.6075393,30.0,31.0
16950.0,31.0,0.56888396,30.0,31.0
16960.0,31.0,0.50071543,30.0,31.0
16970.0,31.0,0.45921564,30.0,31.0
16980.0,31.0,0.4435933,30.0,31.0
16990.0,31.0,0.4470168,30.0,31.0
17000.0,31.0,0.45283106,30.0,31.0
17010.0,31.0,0.45296595,30.0,31.0
17020.0,31.0,0.43863428,30.0,31.0
17030.0,31.0,0.42399886,31.0,31.0
17040.0,31.0,0.41823918,31.0,31.0
17050.0,31.0,0.4128874,31.0,31.0
17060.0,31.0,0.40730825,31.0,31.0
17070.0,31.0,0.40149218,31.0,31.0
17080.0,31.0,0.4272809,31.0,31.0
17090.0,31.0,0.5027564,31.0,31.0
17100.0,31.0,0.594979,31.0,31.0
17110.0,31.0,0.6511336,31.0,32.0
17120.0,31.0,0.65905917,31.0,32.0
17130.0,31.0,0.6547396,31.0,32.0
17140.0,31.0,0.65096545,31.0,32.0
17150.0,31.0,0.64651805,31.0,32.0
17160.0,31.0,0.64263135,31.0,32.0
17170.0,31.0,0.6364401,31.0,32.0
17180.0,31.0,0.6308851,31.0,32.0
17190.0,31.0,0.6256869,31.0,32.0
17200.0,31.0,0.626479,31.0,32.0
17210.0,31.0,0.6258282,31.0,32.0
17220.0,31.0,0.6259704,31.0,32.0
17230.0,32.0,0.6229478,31.0,32.0
17240.0,32.0,0.6114376,31.0,32.0
17250.0,32.0,0.5955132,31.0,32.0
17260.0,32.0,0.576263,31.0,32.0
17270.0,32.0,0.5628277,31.0,32.0
17280.0,32.0,0.56845576,31.0,32.0
17290.0,32.0,0.60203326,31.0,32.0
17300.0,32.0,0.6525144,31.0,32.0
17310.0,32.0,0.69217336,31.0,32.0
17320.0,32.0,0.69154245,31.0,32.0
17330.0,32.0,0.6852671,31.0,32.0
17340.0,32.0,0.70239174,31.0,32.0
17350.0,32.0,0.72849435,31.0,32.0
17360.0,32.0,0.7496239,31.0,33.0
17370.0,32.0,0.77040184,31.0,33.0
17380.0,32.0,0.77498645,31.0,33.0
17390.0,32.0,0.77880937,31.0,33.0
17400.0,32.0,0.7858696,32.0,33.0
17410.0,32.0,0.78210145,32.0,33.0
17420.0,32.0,0.7701325,32.0,33.0
17430.0,32.0,0.76055175,32.0,33.0
17440.0,32.0,0.756819,32.0,33.0
17450.0,32.0,0.7527277,32.0,33.0
17460.0,32.0,0.7399893,32.0,33.0
17470.0,32.0,0.7286803,32.0,33.0
17480.0,32.0,0.72257024,32.0,33.0
17490.0,32.0,0.7183426,32.0,33.0
17500.0,32.0,0.8063194,32.0,33.0
17510.0,32.0,0.7876129,32.0,33.0
17520.0,32.0,0.7857316,32.0,33.0
17530.0,32.0,0.7847107,32.0,33.0
17540.0,32.0,0.7782704,32.0,33.0
17550.0,32.0,0.7699345,32.0,33.0
17560.0,32.0,0.7689812,32.0,33.0
17570.0,32.0,0.77505404,32.0,33.0
17580.0,32.0,0.7781249,32.0,33.0
17590.0,32.0,0.7769496,32.0,33.0
17600.0,32.0,0.7760941,32.0,33.0
17610.0,32.0,0.773913,32.0,33.0
17620.0,32.0,0.7729893,32.0,33.0
17630.0,32.0,0.7645577,32.0,33.0
17640.0,32.0,0.7467642,32.0,33.0
17650.0,32.0,0.74572223,32.0,33.0
17660.0,32.0,0.7441161,32.0,33.0
17670.0,32.0,0.7866008,32.0,33.0
17680.0,32.0,0.80314475,32.0,33.0
17690.0,32.0,0.8144483,32.0,33.0
17700.0,33.0,0.78474903,32.0,33.0
17710.0,33.0,0.77849954,32.0,33.0
17720.0,33.0,0.7755362,32.0,33.0
17730.0,33.0,0.82019305,32.0,33.0
17740.0,33.0,0.8399299,32.0,33.0
17750.0,33.0,0.8924933,32.0,33.0
17760.0,33.0,0.93317354,32.0,33.0
17770.0,33.0,0.96731925,32.0,33.0
17780.0,33.0,0.9773082,32.0,33.0
17790.0,33.0,0.9885654,32.0,33.0
17800.0,33.0,0.9857721,32.0,33.0
17810.0,33.0,0.9800194,32.0,33.0
17820.0,33.0,0.9787395,32.0,33.0
17830.0,33.0,0.9822967,32.0,33.0
17840.0,33.0,0.9991876,32.0,34.0
17850.0,33.0,0.9983568,32.0,34.0
17860.0,33.0,0.99519336,32.0,34.0
17870.0,33.0,0.9935276,32.0,34.0
17880.0,33.0,0.9902031,32.0,34.0
17890.0,33.0,1.0001217,32.0,34.0
17900.0,33.0,0.97353613,32.0,34.0
17910.0,33.0,0.9504155,32.0,34.0
17920.0,33.0,0.9478534,32.0,34.0
17930.0,33.0,0.945866,32.0,34.0
17940.0,33.0,0.94428086,32.0,34.0
17950.0,33.0,0.94598883,32.0,34.0
17960.0,33.0,0.9763962,32.5,34.0
17970.0,33.0,1.0406435,33.0,34.0
17980.0,33.0,1.0846539,33.0,34.0
17990.0,33.0,1.0493002,33.0,34.0
18000.0,33.0,1.0713788,33.0,34.0
18010.0,33.0,1.0639488,33.0,34.0
18020.0,33.0,1.0685036,33.0,34.0
18030.0,33.0,1.0922163,33.0,34.0
18040.0,33.0,1.0875664,33.0,34.0
18050.0,34.0,1.0812145,33.0,34.0
18060.0,34.0,1.0601408,33.0,34.0
18070.0,34.0,1.0304935,33.0,34.0
18080.0,34.0,1.0222607,33.0,34.0
18090.0,34.0,1.0202435,33.0,34.5
18100.0,34.0,0.95830554,33.0,34.5
18110.0,34.0,0.70884454,34.0,35.0
18120.0,34.0,0.68364483,34.0,35.0
18130.0,34.0,0.68238086,34.0,35.0
18140.0,34.0,0.68417555,34.0,35.0
18150.0,34.0,0.63916636,34.0,35.0
18160.0,34.0,0.5666443,34.0,35.0
18170.0,34.0,0.48360133,34.0,35.0
18180.0,34.0,0.47241068,34.0,35.0
18190.0,34.0,0.4757584,34.0,35.0
18200.0,34.0,0.48487327,34.0,35.0
18210.0,34.0,0.49421602,34.0,35.0
18220.0,35.0,0.49993312,34.0,35.0
18230.0,35.0,0.4895238,34.0,35.0
18240.0,35.0,0.47044933,34.0,35.0
18250.0,35.0,0.44459602,34.0,35.0
18260.0,35.0,0.42185962,35.0,35.0
18270.0,35.0,0.39313376,35.0,35.0
18280.0,35.0,0.3617087,35.0,35.0
18290.0,35.0,0.3254247,35.0,35.0
18300.0,35.0,0.27675352,35.0,35.0
18310.0,35.0,0.20525719,35.0,35.0
18320.0,35.0,0.19453034,35.0,35.0
18330.0,35.0,0.27333403,35.0,35.0
18340.0,35.0,0.32354948,35.0,35.0
18350.0,35.0,0.30593932,35.0,35.0
18360.0,35.0,0.24333861,35.0,35.0
18370.0,35.0,0.1287596,35.0,35.0
18380.0,35.0,0.0,35.0,35.0
18390.0,35.0,0.0,35.0,35.0
18400.0,35.0,0.20616777,35.0,35.0
18410.0,35.0,0.30094,35.0,35.0
18420.0,35.0,0.3483352,35.0,35.0
18430.0,35.0,0.36219335,35.0,35.0
18440.0,35.0,0.3735475,35.0,35.0
18450.0,35.0,0.37917936,35.0,35.0
18460.0,35.0,0.38583824,35.0,35.0
18470.0,35.0,0.39522585,35.0,35.0
18480.0,35.0,0.40533152,35.0,35.0
18490.0,35.0,0.40982863,35.0,35.0
18500.0,35.0,0.4141124,35.0,35.0
18510.0,35.0,0.41918612,35.0,35.0
18520.0,35.0,0.42303437,35.0,35.0
18530.0,35.0,0.42670643,35.0,35.0
18540.0,35.0,0.43021208,35.0,35.0
18550.0,35.0,0.43678683,35.0,36.0
18560.0,35.0,0.4643168,35.0,36.0
18570.0,35.0,0.46776053,35.0,36.0
18580.0,35.0,0.47029984,35.0,36.0
18590.0,35.0,0.47516668,35.0,36.0
18600.0,35.0,0.4899724,35.0,36.0
18610.0,35.0,0.49048173,35.0,36.0
18620.0,35.0,0.48913455,35.0,36.0
18630.0,35.0,0.4843061,35.0,36.0
18640.0,35.0,0.4859487,35.0,36.0
18650.0,35.0,0.48704413,35.0,36.0
18660.0,35.0,0.48807815,35.0,36.0
18670.0,35.0,0.48889804,35.0,36.0
18680.0,35.0,0.54359657,35.0,36.0
18690.0,35.0,0.5847943,35.0,36.0
18700.0,35.0,0.67180526,35.0,36.0
18710.0,35.0,0.7011289,35.0,36.0
18720.0,35.0,0.7093617,35.0,36.0
18730.0,35.0,0.7169872,35.0,36.0
18740.0,35.0,0.72478056,35.0,36.0
18750.0,35.0,0.7382261,35.0,36.0
18760.0,35.0,0.74794376,35.0,36.0
18770.0,35.0,0.7541099,35.0,36.0
18780.0,35.0,0.47281238,35.0,36.0
18790.0,35.0,0.4735594,35.0,36.0
18800.0,35.0,0.47696966,35.0,36.0
18810.0,35.0,0.48066348,35.0,36.0
18820.0,35.0,0.48349175,35.0,36.0
18830.0,35.0,0.48600724,35.0,36.0
18840.0,35.0,0.48823813,35.0,36.0
18850.0,35.0,0.4922526,35.0,36.0
18860.0,35.0,0.49566403,35.0,36.0
18870.0,35.0,0.5184044,35.0,36.0
18880.0,36.0,0.6246371,35.0,36.0
18890.0,36.0,0.698689,35.0,36.0
18900.0,36.0,0.7123316,35.0,36.0
18910.0,36.0,0.721282,35.0,36.0
18920.0,36.0,0.72126764,35.0,36.0
18930.0,36.0,0.72216266,35.0,36.0
18940.0,36.0,0.75384325,35.0,36.0
18950.0,36.0,0.78192174,35.0,37.0
18960.0,36.0,0.7932142,35.0,37.0
18970.0,36.0,0.79742295,35.0,37.0
18980.0,36.0,0.79583526,35.0,37.0
18990.0,36.0,0.78627926,35.75,37.0
19000.0,36.0,0.76399523,36.0,37.0
19010.0,36.0,0.73906034,36.0,37.0
19020.0,36.0,0.69624627,36.0,37.0
19030.0,36.0,0.6316083,36.0,37.0
19040.0,36.0,0.5695008,36.0,37.0
19050.0,36.0,0.52280873,36.0,37.0
19060.0,36.0,0.49036452,36.0,37.0
19070.0,36.0,0.54458624,36.0,37.0
19080.0,36.0,0.5894734,36.0,37.0
19090.0,36.0,0.6835449,36.0,37.0
19100.0,37.0,0.76059735,36.0,37.0
19110.0,37.0,0.7921611,36.0,37.0
19120.0,37.0,0.7948708,36.0,37.0
19130.0,37.0,0.794317,36.0,37.0
19140.0,37.0,0.80179656,36.0,37.0
19150.0,37.0,0.8052887,36.0,38.0
19160.0,37.0,0.8061533,36.0,38.0
19170.0,37.0,0.8052381,36.0,38.0
19180.0,37.0,0.80164456,36.0,38.0
19190.0,37.0,0.7946701,36.0,38.0
19200.0,37.0,0.77254325,36.0,38.0
19210.0,37.0,0.75830626,37.0,38.0
19220.0,37.0,0.76138735,37.0,38.0
19230.0,37.0,0.76047575,37.0,38.0
19240.0,37.0,0.7398215,37.0,38.0
19250.0,37.0,0.7164822,37.0,38.0
19260.0,37.0,0.6968252,37.0,38.0
19270.0,37.0,0.679629,37.0,38.0
19280.0,37.0,0.661176,37.0,38.0
19290.0,37.0,0.63630646,37.0,38.0
19300.0,37.0,0.60886467,37.0,38.0
19310.0,37.0,0.5806145,37.0,38.0
19320.0,37.0,0.54928166,37.0,38.0
19330.0,37.0,0.5139008,37.0,38.0
19340.0,37.0,0.49516818,37.0,38.0
19350.0,37.0,0.49710965,37.0,38.0
19360.0,37.0,0.49756688,37.0,38.0
19370.0,37.0,0.4942323,37.0,38.0
19380.0,37.0,0.48977184,37.0,38.0
19390.0,37.0,0.49193707,37.0,38.0
19400.0,37.0,0.49457705,37.0,38.0
19410.0,37.0,0.49172488,37.0,38.0
19420.0,37.0,0.48498267,37.0,38.0
19430.0,37.0,0.48096824,37.0,38.0
19440.0,37.0,0.47801128,37.0,38.0
19450.0,37.0,0.48153248,37.0,38.0
19460.0,37.0,0.49116215,37.0,38.0
19470.0,37.0,0.49394506,37.0,38.0
19480.0,37.0,0.49172488,37.0,38.0
19490.0,37.0,0.4859692,37.0,38.0
19500.0,37.0,0.4806827,37.0,38.0
19510.0,37.0,0.47580516,37.0,38.0
19520.0,37.0,0.4820877,37.0,38.0
19530.0,37.0,0.48914853,37.0,38.0
19540.0,37.0,0.48806167,37.0,38.0
19550.0,37.0,0.48548034,37.0,38.0
19560.0,37.0,0.4862104,37.0,38.0
19570.0,37.0,0.48956826,37.0,38.0
19580.0,37.0,0.49554905,37.0,38.0
19590.0,37.0,0.49851257,37.0,38.0
19600.0,37.0,0.49835375,37.0,38.0
19610.0,37.0,0.49733537,37.0,38.0
19620.0,37.0,0.5055481,37.0,38.0
19630.0,37.0,0.49470517,37.0,38.0
19640.0,37.0,0.49226862,37.0,38.0
19650.0,37.0,0.4859692,37.0,38.0
19660.0,37.0,0.4836068,37.0,38.0
19670.0,37.0,0.4638406,37.0,38.0
19680.0,37.0,0.45577323,37.0,38.0
19690.0,37.0,0.45003206,37.0,37.0
19700.0,37.0,0.43136293,37.0,37.0
19710.0,37.0,0.44106334,37.0,37.0
19720.0,37.0,0.46448168,37.0,37.0
19730.0,37.0,0.49633703,37.0,37.0
19740.0,37.0,0.5149778,37.0,37.0
19750.0,37.0,0.56922555,37.0,37.0
19760.0,37.0,0.63815206,37.0,37.0
19770.0,37.0,0.65553266,37.0,37.0
19780.0,37.0,0.6536345,36.0,37.0
19790.0,37.0,0.67046297,36.0,37.0
19800.0,37.0,0.6852303,36.0,37.0
19810.0,37.0,0.70027304,36.0,37.0
19820.0,37.0,0.7233782,36.0,37.0
19830.0,37.0,0.7411519,36.0,37.0
19840.0,37.0,0.73910487,36.0,37.0
19850.0,37.0,0.73995984,36.0,37.0
19860.0,37.0,0.75709563,36.0,37.0
19870.0,37.0,0.7761819,36.0,37.0
19880.0,37.0,0.7672671,36.0,37.0
19890.0,37.0,0.75410795,36.0,37.0
19900.0,37.0,0.76412123,36.0,37.0
19910.0,37.0,0.77674454,36.0,37.0
19920.0,37.0,0.7713101,36.0,37.0
19930.0,37.0,0.76517993,36.0,37.0
19940.0,37.0,0.77267677,36.0,37.0
19950.0,37.0,0.778928,36.0,37.0
19960.0,37.0,0.7769496,36.0,37.0
19970.0,37.0,0.776342,36.0,37.0
19980.0,37.0,0.78134394,36.0,37.0
19990.0,37.0,0.78918755,36.0,37.0
20000.0,37.0,0.7910746,36.0,37.0
20010.0,37.0,0.78486395,36.0,37.0
20020.0,36.0,0.78030705,36.0,37.0
20030.0,37.0,0.7860542,36.0,37.0
20040.0,37.0,0.7996564,36.0,37.0
20050.0,37.0,0.8155351,36.0,37.0
20060.0,37.0,0.82253784,36.0,37.0
20070.0,37.0,0.849887,36.0,37.0
20080.0,37.0,0.8814119,36.0,37.0
20090.0,37.0,0.9071798,36.0,37.0
20100.0,37.0,0.92168987,36.0,37.0
20110.0,37.0,0.93341184,36.0,37.0
20120.0,37.0,0.9507887,36.0,38.0
20130.0,37.0,0.9665544,36.0,38.0
20140.0,37.0,0.9813844,36.0,37.0
20150.0,37.0,0.9999053,36.0,37.0
20160.0,37.0,1.0142279,36.0,37.5
20170.0,37.0,1.0368409,36.0,38.0
20180.0,37.0,1.0676678,36.0,37.0
20190.0,37.0,1.0993325,36.0,37.0
20200.0,37.0,1.1351494,36.0,37.0
20210.0,37.0,1.169649,36.0,38.0
20220.0,37.0,1.204905,36.0,38.0
20230.0,37.0,1.2370558,36.0,38.0
20240.0,37.0,1.2953619,36.0,38.0
20250.0,37.0,1.3450757,36.0,38.0
20260.0,37.0,1.3859632,36.0,38.0
20270.0,37.0,1.4334245,36.0,38.0
20280.0,37.0,1.4859058,36.0,38.0
20290.0,37.0,1.5252246,36.0,38.0
20300.0,37.0,1.5612382,36.0,38.0
20310.0,37.0,1.5887036,36.0,38.0
20320.0,37.0,1.627273,36.0,38.0
20330.0,37.0,1.7060493,36.0,38.0
20340.0,37.0,1.7838951,36.0,38.0
20350.0,37.0,1.8300083,36.0,38.0
20360.0,37.0,1.8690023,36.0,38.0
20370.0,37.0,1.8786179,36.0,38.0
20380.0,37.0,1.8860675,36.0,39.0
20390.0,37.0,1.898022,36.0,39.0
20400.0,37.0,1.9016105,37.0,38.0
20410.0,37.0,1.9196777,37.0,38.0
20420.0,37.0,1.9529054,37.0,39.0
20430.0,37.0,1.960671,37.0,39.0
20440.0,37.0,1.9264747,37.0,39.0
20450.0,37.0,1.9200195,37.0,39.0
20460.0,37.0,1.929798,37.0,39.0
20470.0,37.0,1.9273016,37.0,39.0
20480.0,37.0,1.948867,37.0,39.0
20490.0,37.0,1.976375,37.0,39.0
20500.0,37.0,1.9910567,37.0,39.0
20510.0,37.0,1.9988037,37.0,39.0
20520.0,37.0,2.0585787,37.0,39.0
20530.0,37.0,2.1227422,37.0,39.0
20540.0,37.0,2.0671897,37.0,39.0
20550.0,38.0,1.9548419,37.0,39.0
20560.0,38.0,1.947148,37.0,39.0
20570.0,38.0,2.0041924,37.0,39.0
20580.0,38.0,1.9872167,37.0,39.0
20590.0,38.0,1.8858451,37.0,39.0
20600.0,38.0,1.8386964,37.0,39.0
20610.0,38.0,1.8971232,38.0,39.0
20620.0,38.0,1.9419564,38.0,39.0
20630.0,38.0,1.8817881,38.0,39.0
20640.0,38.0,1.8183447,38.0,39.0
20650.0,38.0,1.8590461,38.0,39.0
20660.0,38.0,1.8943356,38.0,39.0
20670.0,38.0,1.8212173,38.0,39.0
20680.0,38.0,1.7475929,38.0,39.0
20690.0,38.0,1.7415266,38.0,39.0
20700.0,38.0,1.7592779,38.0,39.0
20710.0,38.0,1.7624122,38.0,39.0
20720.0,38.0,1.7474817,38.0,39.0
20730.0,38.0,1.744567,38.0,40.0
20740.0,38.0,1.7550085,38.0,39.0
20750.0,38.0,1.7615342,38.0,39.0
20760.0,38.0,1.7423993,38.0,39.0
20770.0,38.0,1.7279655,38.0,40.0
20780.0,38.0,1.742962,38.0,39.0
20790.0,38.0,1.7621025,38.0,39.0
20800.0,38.0,1.7622372,38.0,39.0
20810.0,38.0,1.7618393,38.0,40.0
20820.0,38.0,1.7531887,38.0,39.0
20830.0,38.0,1.7458054,38.0,39.0
20840.0,38.0,1.7306492,38.0,39.0
20850.0,38.0,1.6912853,38.0,39.0
20860.0,39.0,1.6401399,38.0,40.0
20870.0,39.0,1.5954499,38.0,40.0
20880.0,39.0,1.5509715,38.0,40.0
20890.0,39.0,1.5190275,38.0,40.0
20900.0,39.0,1.4942673,38.0,40.0
20910.0,39.0,1.4371147,38.0,40.0
20920.0,39.0,1.3651159,39.0,40.0
20930.0,39.0,1.3206941,39.0,40.0
20940.0,39.0,1.304085,39.0,40.0
20950.0,39.0,1.2973251,39.0,40.0
20960.0,39.0,1.2889146,39.0,40.0
20970.0,39.0,1.2646528,39.0,40.0
20980.0,39.0,1.2390492,39.0,40.0
20990.0,39.0,1.2013247,39.0,40.0
21000.0,39.0,1.1215839,39.0,40.0
21010.0,39.0,1.0272592,39.0,40.0
21020.0,39.0,0.9657175,39.0,40.0
21030.0,39.0,0.96359444,39.0,40.0
21040.0,39.0,0.9937515,39.0,40.0
21050.0,39.0,1.0039387,39.0,40.0
21060.0,39.0,0.974755,39.0,40.0
21070.0,39.0,0.9415914,39.0,40.0
21080.0,39.0,0.9089938,39.0,40.0
21090.0,39.0,0.8750765,39.0,40.0
21100.0,39.0,0.83741015,39.0,40.0
21110.0,39.0,0.79805833,39.0,40.0
21120.0,39.0,0.78390455,39.0,40.0
21130.0,39.0,0.7707694,39.0,40.0
21140.0,39.0,0.737775,39.0,40.0
21150.0,39.0,0.7082365,39.0,40.0
21160.0,39.0,0.69265944,39.0,40.0
21170.0,39.0,0.67830646,39.0,40.0
21180.0,39.0,0.6624615,39.0,40.0
21190.0,39.0,0.6453701,39.0,40.0
21200.0,40.0,0.6393552,39.0,40.0
21210.0,40.0,0.6573231,39.0,40.0
21220.0,40.0,0.6411115,39.0,40.0
21230.0,40.0,0.6319163,39.0,40.0
21240.0,40.0,0.6318473,39.0,40.0
21250.0,40.0,0.64860696,39.0,40.0
21260.0,40.0,0.6559604,39.0,40.0
21270.0,40.0,0.6459428,39.0,40.0
21280.0,40.0,0.6336805,39.0,40.0
21290.0,40.0,0.6181342,39.0,40.0
21300.0,40.0,0.60853183,39.0,40.0
21310.0,40.0,0.61068124,39.0,40.0
21320.0,40.0,0.63047606,39.0,40.0
21330.0,40.0,0.6325297,39.0,40.0
21340.0,40.0,0.622992,39.0,40.0
21350.0,40.0,0.60526884,39.0,40.0
21360.0,40.0,0.58557326,39.0,40.0
21370.0,40.0,0.556245,39.0,40.0
21380.0,40.0,0.5662499,39.0,40.0
21390.0,40.0,0.5814635,39.0,40.0
21400.0,40.0,0.5668827,39.0,40.0
21410.0,40.0,0.5416235,39.0,40.0
21420.0,40.0,0.548459,39.0,40.0
21430.0,40.0,0.5747208,39.0,40.0
21440.0,40.0,0.59063977,39.0,40.0
21450.0,40.0,0.5963087,39.0,40.0
21460.0,40.0,0.5783118,39.0,40.0
21470.0,40.0,0.55776334,39.0,40.0
21480.0,40.0,0.5481575,40.0,40.0
21490.0,40.0,0.5623442,40.0,40.0
21500.0,40.0,0.5621171,40.0,40.0
21510.0,40.0,0.55315006,40.0,40.0
21520.0,40.0,0.5427291,40.0,40.0
21530.0,40.0,0.54431975,40.0,40.0
21540.0,40.0,0.5575315,40.0,40.0
21550.0,40.0,0.59966654,40.0,40.0
21560.0,40.0,0.596872,40.0,40.0
21570.0,40.0,0.5683098,40.0,40.0
21580.0,40.0,0.5569651,40.0,40.0
21590.0,40.0,0.5555889,40.0,40.0
21600.0,40.0,0.55320495,40.0,40.0
21610.0,40.0,0.54529256,40.0,41.0
21620.0,40.0,0.53328085,40.0,41.0
21630.0,40.0,0.51730067,40.0,41.0
21640.0,40.0,0.4900511,40.0,41.0
21650.0,40.0,0.48057878,40.0,41.0
21660.0,40.0,0.47951818,40.0,41.0
21670.0,40.0,0.48253396,40.0,41.0
21680.0,40.0,0.48523256,40.0,41.0
21690.0,40.0,0.4838636,40.0,41.0
21700.0,40.0,0.4815325,40.0,41.0
21710.0,40.0,0.48841682,40.0,41.0
21720.0,40.0,0.4970149,40.0,41.0
21730.0,40.0,0.49963883,40.0,41.0
21740.0,40.0,0.4999436,40.0,41.0
21750.0,41.0,0.499975,40.0,41.0
21760.0,41.0,0.4997893,40.0,41.0
21770.0,41.0,0.49983096,40.0,41.0
21780.0,41.0,0.49934795,40.0,41.0
21790.0,41.0,0.49707547,40.0,41.0
21800.0,41.0,0.4924457,40.0,41.0
21810.0,41.0,0.48948544,40.0,41.0
21820.0,41.0,0.4871534,40.0,41.0
21830.0,41.0,0.48114863,40.0,41.0
21840.0,41.0,0.47104943,40.0,41.0
21850.0,41.0,0.4595552,40.0,41.0
21860.0,41.0,0.44997334,40.0,41.0
21870.0,41.0,0.44715515,40.0,41.0
21880.0,41.0,0.4475165,40.0,41.0
21890.0,41.0,0.44305804,40.0,41.0
21900.0,41.0,0.4318518,41.0,41.0
21910.0,41.0,0.42883986,41.0,41.0
21920.0,41.0,0.4612754,41.0,41.0
21930.0,41.0,0.49961886,41.0,41.0
21940.0,41.0,0.516247,41.0,41.0
21950.0,41.0,0.51784945,41.0,41.0
21960.0,41.0,0.4934359,41.0,41.0
21970.0,41.0,0.454882,41.0,41.0
21980.0,41.0,0.43314663,41.0,41.0
21990.0,41.0,0.4162335,41.0,41.0
22000.0,41.0,0.42274225,41.0,41.0
22010.0,41.0,0.45107287,41.0,42.0
22020.0,41.0,0.46608907,41.0,42.0
22030.0,41.0,0.47175726,41.0,42.0
22040.0,41.0,0.48029053,41.0,42.0
22050.0,41.0,0.44200513,41.0,42.0
22060.0,41.0,0.44343993,41.0,42.0
22070.0,41.0,0.44512928,41.0,42.0
22080.0,41.0,0.44948748,41.0,42.0
22090.0,41.0,0.46923783,41.0,42.0
22100.0,41.0,0.4944937,41.0,42.0
22110.0,41.0,0.4999697,41.0,42.0
22120.0,42.0,0.49614114,41.0,42.0
22130.0,42.0,0.4913518,41.0,42.0
22140.0,42.0,0.48611826,41.0,42.0
22150.0,42.0,0.48343682,41.0,42.0
22160.0,42.0,0.4676227,41.0,42.0
22170.0,42.0,0.41773054,42.0,42.0
22180.0,42.0,0.3091133,42.0,42.0
22190.0,42.0,0.16216217,42.0,42.0
22200.0,42.0,0.0,42.0,42.0
22210.0,42.0,0.0,42.0,42.0
22220.0,42.0,0.0,42.0,42.0
22230.0,42.0,0.0,42.0,42.0
22240.0,42.0,0.0,42.0,42.0
22250.0,42.0,0.0,42.0,42.0
22260.0,42.0,0.0,42.0,42.0
22270.0,42.0,0.0,42.0,42.0
22280.0,42.0,0.17066993,42.0,42.0
22290.0,42.0,0.24307638,42.0,42.0
22300.0,42.0,0.33519995,42.0,42.0
22310.0,42.0,0.3971187,42.0,42.0
22320.0,42.0,0.43972263,42.0,43.0
22330.0,42.0,0.46774498,42.0,43.0
22340.0,42.0,0.49988946,42.0,43.0
22350.0,42.0,0.49988946,42.0,43.0
22360.0,42.0,0.499856,42.0,43.0
22370.0,42.0,0.49984345,42.0,43.0
22380.0,42.0,0.4998174,42.0,43.0
22390.0,42.0,0.49978933,42.0,43.0
22400.0,42.0,0.49974397,42.0,43.0
22410.0,43.0,0.4998174,42.0,43.0
22420.0,43.0,0.49984345,42.0,43.0
22430.0,43.0,0.49986747,42.0,43.0
22440.0,43.0,0.49851257,42.0,43.0
22450.0,43.0,0.4983974,42.0,43.0
22460.0,43.0,0.49843416,42.0,43.0
22470.0,43.0,0.49851257,42.0,43.0
22480.0,43.0,0.49858898,42.0,43.0
22490.0,43.0,0.49870235,42.0,43.0
22500.0,43.0,0.49986747,42.0,43.0
22510.0,43.0,0.4999797,42.0,43.0
22520.0,43.0,0.49998766,42.0,43.0
22530.0,42.0,0.49915826,42.0,43.0
22540.0,42.0,0.4992705,42.0,43.0
22550.0,43.0,0.44239235,42.0,43.0
22560.0,43.0,0.43822816,42.0,43.0
22570.0,43.0,0.43430528,42.0,43.0
22580.0,43.0,0.42829427,43.0,43.0
22590.0,43.0,0.42351922,43.0,43.0
22600.0,43.0,0.4190406,43.0,43.0
22610.0,43.0,0.41692206,43.0,43.0
22620.0,43.0,0.4116634,43.0,43.0
22630.0,43.0,0.402969,43.0,43.0
22640.0,43.0,0.37665844,43.0,43.0
22650.0,43.0,0.36013505,43.0,43.0
22660.0,43.0,0.36660606,43.0,43.0
22670.0,43.0,0.39788246,43.0,43.0
22680.0,43.0,0.4302325,43.0,43.0
22690.0,43.0,0.43642184,42.0,43.0
22700.0,43.0,0.43656498,42.0,43.0
22710.0,43.0,0.45737952,42.0,43.0
22720.0,43.0,0.47128654,42.0,43.0
22730.0,43.0,0.46984997,42.0,43.0
22740.0,43.0,0.4688683,42.0,43.0
22750.0,43.0,0.46837488,42.0,43.0
22760.0,43.0,0.46608907,42.0,43.0
22770.0,43.0,0.45737952,42.0,43.0
22780.0,43.0,0.4635936,42.0,43.0
22790.0,43.0,0.44649133,43.0,43.0
22800.0,43.0,0.41580763,43.0,43.0
22810.0,43.0,0.38615933,43.0,43.0
22820.0,43.0,0.38366523,43.0,43.0
22830.0,43.0,0.43174604,43.0,43.0
22840.0,43.0,0.41316342,43.0,43.0
22850.0,43.0,0.3619821,43.0,43.0
22860.0,43.0,0.30783764,43.0,43.0
22870.0,43.0,0.3481671,43.0,43.0
22880.0,43.0,0.3531062,43.0,43.0
22890.0,43.0,0.38418746,43.0,43.0
22900.0,43.0,0.41606608,43.0,43.0
22910.0,43.0,0.33311534,43.0,43.0
22920.0,43.0,0.36205253,43.0,43.0
22930.0,43.0,0.37118056,43.0,43.0
22940.0,43.0,0.37118056,43.0,43.0
22950.0,43.0,0.38599458,43.0,43.0
22960.0,43.0,0.39849213,43.0,43.0
22970.0,43.0,0.4031189,43.0,43.0
22980.0,43.0,0.4214724,43.0,43.0
22990.0,43.0,0.43257838,43.0,43.0
23000.0,43.0,0.44079927,43.0,44.0
23010.0,43.0,0.4444761,43.0,44.0
23020.0,43.0,0.45527175,43.0,44.0
23030.0,43.0,0.45737952,43.0,44.0
23040.0,43.0,0.45912522,43.0,44.0
23050.0,43.0,0.46124935,43.0,44.0
23060.0,43.0,0.46262062,43.0,44.0
23070.0,43.0,0.46451586,43.0,44.0
23080.0,43.0,0.46647614,43.0,44.0
23090.0,43.0,0.468,43.0,44.0
23100.0,43.0,0.46923783,43.0,44.0
23110.0,43.0,0.4676227,43.0,44.0
23120.0,43.0,0.45998263,43.0,44.0
23130.0,43.0,0.46179464,43.0,44.0
23140.0,43.0,0.4743796,43.0,44.0
23150.0,43.0,0.4868306,43.0,44.0
23160.0,43.0,0.4961411,43.0,44.0
23170.0,43.0,0.4999797,43.0,44.0
23180.0,44.0,0.4992705,43.0,44.0
23190.0,44.0,0.49355853,43.0,44.0
23200.0,44.0,0.49272203,43.0,44.0
23210.0,44.0,0.4945573,43.0,44.0
23220.0,44.0,0.49272203,43.0,44.0
23230.0,44.0,0.4828043,43.0,44.0
23240.0,44.0,0.47801128,43.0,44.0
23250.0,44.0,0.48438,43.0,44.0
23260.0,44.0,0.47601578,43.0,44.0
23270.0,44.0,0.45737952,43.0,44.0
23280.0,44.0,0.442533,43.0,44.0
23290.0,44.0,0.44079927,43.0,44.0
23300.0,44.0,0.44079927,43.0,44.0
23310.0,44.0,0.45933756,43.0,44.0
23320.0,44.0,0.48325235,43.0,44.0
23330.0,44.0,0.47677982,44.0,44.0
23340.0,44.0,0.48952118,44.0,44.0
23350.0,44.0,0.5042006,43.0,44.0
23360.0,44.0,0.50950956,43.0,44.0
23370.0,44.0,0.5012774,44.0,44.0
23380.0,44.0,0.5294818,44.0,44.0
23390.0,44.0,0.5523241,44.0,44.0
23400.0,44.0,0.56205344,44.0,44.0
23410.0,44.0,0.5356482,44.0,44.0
23420.0,44.0,0.52643895,44.0,44.0
23430.0,44.0,0.51708317,44.0,44.0
23440.0,44.0,0.51015294,44.0,44.0
23450.0,44.0,0.4993906,44.0,44.0
23460.0,44.0,0.48140764,44.0,44.0
23470.0,44.0,0.45794216,44.0,45.0
23480.0,44.0,0.46040744,44.0,45.0
23490.0,44.0,0.79531217,44.0,45.0
23500.0,44.0,0.7988209,44.0,45.0
23510.0,44.0,0.79953974,44.0,45.0
23520.0,44.0,0.80065095,44.0,45.0
23530.0,44.0,0.76832545,44.0,45.0
23540.0,44.0,0.74012524,44.0,45.0
23550.0,44.0,0.71757305,44.0,45.0
23560.0,44.0,0.6826841,44.0,45.0
23570.0,44.0,0.64539725,44.0,45.0
23580.0,44.0,0.60908693,44.0,45.0
23590.0,44.0,0.625829,44.0,45.0
23600.0,44.0,0.6330106,44.0,45.0
23610.0,44.0,0.6354809,44.0,45.0
23620.0,44.0,0.63565487,44.0,45.0
23630.0,44.0,0.6332307,44.0,45.0
23640.0,45.0,0.63048226,44.0,45.0
23650.0,45.0,0.6425533,44.0,45.0
23660.0,45.0,0.66058517,44.0,45.0
23670.0,45.0,0.6493106,44.0,45.0
23680.0,45.0,0.6546396,44.0,45.0
23690.0,45.0,0.7167285,44.0,45.0
23700.0,45.0,0.77658916,44.0,45.0
23710.0,45.0,0.7670198,44.0,45.0
23720.0,45.0,0.6932204,45.0,45.0
23730.0,45.0,0.6240642,45.0,45.0
23740.0,45.0,0.5710497,45.0,45.0
23750.0,45.0,0.5195595,45.0,45.0
23760.0,45.0,0.54355156,45.0,45.0
23770.0,45.0,0.5719902,45.0,45.0
23780.0,45.0,0.53108394,45.0,45.0
23790.0,45.0,0.4526677,45.0,45.0
23800.0,45.0,0.47466207,45.0,46.0
23810.0,45.0,0.53721696,45.0,46.0
23820.0,45.0,0.54374236,45.0,46.0
23830.0,45.0,0.5055858,45.0,46.0
23840.0,45.0,0.48321113,45.0,46.0
23850.0,45.0,0.48985392,45.0,46.0
23860.0,45.0,0.49202663,45.0,46.0
23870.0,45.0,0.49504694,45.0,46.0
23880.0,45.0,0.49846786,45.0,46.0
23890.0,46.0,0.49999967,45.0,46.0
23900.0,46.0,0.49850574,45.0,46.0
23910.0,46.0,0.49577093,45.0,46.0
23920.0,46.0,0.49229583,45.0,46.0
23930.0,46.0,0.492752,45.0,46.0
23940.0,46.0,0.49586684,45.0,46.0
23950.0,46.0,0.49983636,45.0,46.0
23960.0,45.0,0.4990267,45.0,46.0
23970.0,45.0,0.49751538,45.0,46.0
23980.0,45.0,0.49821973,45.0,46.0
23990.0,45.0,0.4996963,45.0,46.0
24000.0,46.0,0.49999747,45.0,46.0
24010.0,46.0,0.49949637,45.0,46.0
24020.0,46.0,0.497515,45.0,46.0
24030.0,46.0,0.4916836,45.0,46.0
24040.0,46.0,0.4915776,45.0,46.0
24050.0,46.0,0.49322838,45.0,46.0
24060.0,46.0,0.49804288,45.0,46.0
24070.0,45.0,0.49996528,45.0,46.0
24080.0,45.0,0.49665803,45.0,46.0
24090.0,45.0,0.4206766,45.0,45.0
24100.0,45.0,0.33849075,45.0,45.0
24110.0,45.0,0.33849075,45.0,45.0
24120.0,45.0,0.33754373,45.0,45.0
24130.0,45.0,0.33849075,45.0,45.0
24140.0,45.0,0.33849075,45.0,45.0
24150.0,45.0,0.33754373,45.0,45.0
24160.0,45.0,0.41625834,45.0,45.0
24170.0,45.0,0.41625834,45.0,45.0
24180.0,45.0,0.41625834,45.0,45.0
24190.0,45.0,0.4748249,45.0,46.0
24200.0,45.0,0.47504106,45.0,46.0
24210.0,45.0,0.47504106,45.0,46.0
24220.0,45.0,0.49562484,45.0,46.0
24230.0,46.0,0.49797088,45.0,46.0
24240.0,46.0,0.49787953,45.0,46.0
24250.0,46.0,0.4979709,45.0,46.0
24260.0,46.0,0.49801183,45.0,46.0
24270.0,46.0,0.4979709,45.0,46.0
24280.0,46.0,0.4886348,45.0,46.0
24290.0,46.0,0.4886348,45.0,46.0
24300.0,46.0,0.4886348,45.0,46.0
24310.0,46.0,0.4716397,45.0,46.0
24320.0,46.0,0.4716397,45.0,46.0
24330.0,46.0,0.4714045,45.0,46.0
24340.0,46.0,0.42829427,46.0,46.0
24350.0,46.0,0.42829427,46.0,46.0
24360.0,46.0,0.42889512,46.0,46.0
24370.0,46.0,0.38584456,46.0,46.0
24380.0,46.0,0.38584456,46.0,46.0
24390.0,46.0,0.3850182,46.0,46.0
24400.0,46.0,0.3363034,46.0,46.0
24410.0,46.0,0.32612732,46.0,46.0
24420.0,46.0,0.32612732,46.0,46.0
24430.0,46.0,0.21999772,46.0,46.0
24440.0,46.0,0.17058723,46.0,46.0
24450.0,46.0,0.17058723,46.0,46.0
24460.0,46.0,0.044698924,46.0,46.0
24470.0,46.0,0.0,46.0,46.0
24480.0,46.0,0.0,46.0,46.0
24490.0,46.0,0.0,46.0,46.0
24500.0,46.0,0.0,46.0,46.0
24510.0,46.0,0.0,46.0,46.0
24520.0,46.0,0.0,46.0,46.0
24530.0,46.0,0.0,46.0,46.0
24540.0,46.0,0.0,46.0,46.0
24550.0,46.0,0.0,46.0,46.0
24560.0,46.0,0.0,46.0,46.0
24570.0,46.0,0.0,46.0,46.0
24580.0,46.0,0.0,46.0,46.0
24590.0,46.0,0.0,46.0,46.0
24600.0,46.0,0.0,46.0,46.0
24610.0,46.0,0.24126825,46.0,46.0
24620.0,46.0,0.3702756,46.0,46.0
24630.0,46.0,0.40942767,46.0,46.0
24640.0,46.0,0.42949274,46.0,46.0
24650.0,46.0,0.42949274,46.0,46.0
24660.0,46.0,0.46424222,46.0,47.0
24670.0,46.0,0.47302854,46.0,47.0
24680.0,46.0,0.47336984,46.0,47.0
24690.0,46.0,0.4676227,46.0,47.0
24700.0,46.0,0.4629028,46.0,47.0
24710.0,46.0,0.46343645,46.0,47.0
24720.0,46.0,0.46948484,46.0,47.0
24730.0,46.0,0.47504106,46.0,47.0
24740.0,46.0,0.47536826,46.0,47.0
24750.0,46.0,0.47093102,46.0,47.0
24760.0,46.0,0.46530738,46.0,47.0
24770.0,46.0,0.46582374,46.0,47.0
24780.0,46.0,0.46608907,46.0,47.0
24790.0,46.0,0.46647614,46.0,47.0
24800.0,46.0,0.46686083,46.0,47.0
24810.0,46.0,0.46724296,46.0,47.0
24820.0,46.0,0.46774498,46.0,47.0
24830.0,46.0,0.468,46.0,47.0
24840.0,46.0,0.46837488,46.0,47.0
24850.0,46.0,0.46874723,46.0,47.0
24860.0,46.0,0.46911728,46.0,47.0
24870.0,46.0,0.4806827,46.0,47.0
24880.0,46.0,0.49562484,46.0,47.0
24890.0,47.0,0.49862915,46.0,47.0
24900.0,47.0,0.48906443,46.0,47.0
24910.0,47.0,0.48906443,46.0,47.0
24920.0,47.0,0.48914853,46.0,47.0
24930.0,47.0,0.48170948,46.0,47.0
24940.0,47.0,0.47233886,46.0,47.0
24950.0,47.0,0.47233886,46.0,47.0
24960.0,47.0,0.47199047,46.0,47.0
24970.0,47.0,0.4721076,46.0,47.0
24980.0,47.0,0.47199047,46.0,47.0
24990.0,47.0,0.47759396,46.0,47.0
25000.0,47.0,0.45559195,46.0,47.0
25010.0,47.0,0.45513847,46.0,47.0
25020.0,47.0,0.44864503,46.0,47.0
25030.0,47.0,0.4596129,46.0,47.0
25040.0,47.0,0.46127543,46.0,47.0
25050.0,47.0,0.44755334,47.0,47.0
25060.0,47.0,0.3816687,47.0,47.0
25070.0,47.0,0.3274268,47.0,47.0
25080.0,47.0,0.2393303,47.0,47.0
25090.0,47.0,0.2393303,47.0,47.0
25100.0,47.0,0.1254751,47.0,47.0
25110.0,47.0,0.0,47.0,47.0
25120.0,47.0,0.0,47.0,47.0
25130.0,47.0,0.12155245,47.0,47.0
25140.0,47.0,0.3202249,47.0,47.0
25150.0,47.0,0.40223253,47.0,47.0
25160.0,47.0,0.44133323,47.0,48.0
25170.0,47.0,0.44186422,47.0,48.0
25180.0,47.0,0.442533,47.0,48.0
25190.0,47.0,0.46124938,47.0,48.0
25200.0,47.0,0.4879744,47.0,48.0
25210.0,47.0,0.48819667,47.0,48.0
25220.0,47.0,0.48841682,47.0,48.0
25230.0,47.0,0.48872027,47.0,48.0
25240.0,47.0,0.4944937,47.0,48.0
25250.0,47.0,0.4981869,47.0,48.0
25260.0,47.0,0.49989995,47.0,48.0
25270.0,47.0,0.49992764,47.0,48.0
25280.0,47.0,0.4999436,47.0,48.0
25290.0,48.0,0.4994707,47.0,48.0
25300.0,48.0,0.49679103,47.0,48.0
25310.0,48.0,0.49237284,47.0,48.0
25320.0,48.0,0.4920895,47.0,48.0
25330.0,48.0,0.4916493,47.0,48.0
25340.0,48.0,0.49135184,47.0,48.0
25350.0,48.0,0.4913518,47.0,48.0
25360.0,48.0,0.47941214,47.0,48.0
25370.0,48.0,0.4744935,47.0,48.0
25380.0,48.0,0.4743796,47.0,48.0
25390.0,48.0,0.49346402,47.0,48.0
25400.0,48.0,0.49535438,47.0,48.0
25410.0,48.0,0.49499473,47.0,48.0
25420.0,48.0,0.4896928,47.0,48.0
25430.0,48.0,0.4893595,47.0,48.0
25440.0,48.0,0.48893544,47.0,48.0
25450.0,48.0,0.48114866,47.0,48.0
25460.0,48.0,0.5309874,47.0,48.0
25470.0,48.0,0.6008119,47.0,48.0
25480.0,48.0,0.6249534,47.0,48.0
25490.0,48.0,0.64303964,48.0,48.0
25500.0,48.0,0.60610753,48.0,48.0
25510.0,48.0,0.5959278,48.0,48.0
25520.0,48.0,0.5553377,48.0,48.0
25530.0,48.0,0.5831928,48.0,48.0
25540.0,48.0,0.60540146,48.0,48.0
25550.0,48.0,0.60806346,48.0,48.0
25560.0,48.0,0.60847265,48.0,48.0
25570.0,48.0,0.6195961,48.0,48.0
25580.0,48.0,0.63525796,48.0,48.0
25590.0,48.0,0.61128634,48.0,48.0
25600.0,48.0,0.5699609,48.0,48.0
25610.0,48.0,0.54909384,48.0,48.0
25620.0,48.0,0.4838367,48.0,48.0
25630.0,48.0,0.42147243,48.0,48.0
25640.0,48.0,0.42225635,48.0,48.0
25650.0,48.0,0.4752531,48.0,49.0
25660.0,48.0,0.49618948,48.0,49.0
25670.0,48.0,0.5603478,48.0,49.0
25680.0,48.0,0.6828697,48.0,49.0
25690.0,48.0,0.68490565,48.0,49.0
25700.0,48.0,0.73435414,48.0,49.0
25710.0,48.0,0.7361829,48.0,49.0
25720.0,48.0,0.7390697,48.0,49.0
25730.0,48.0,0.7408719,48.0,49.0
25740.0,48.0,0.78041625,48.0,49.0
25750.0,48.0,0.8274243,48.0,49.0
25760.0,48.0,0.83269805,48.0,49.0
25770.0,48.0,0.9077439,48.0,49.0
25780.0,48.0,0.91678804,48.0,49.0
25790.0,48.0,0.9488941,48.0,49.0
25800.0,48.0,1.0108614,48.0,49.0
25810.0,48.0,1.0387535,48.0,49.0
25820.0,48.0,1.044565,48.0,49.0
25830.0,48.0,1.0851027,48.0,49.0
25840.0,48.0,1.1804132,48.0,49.0
25850.0,48.0,1.2251443,48.0,49.0
25860.0,48.0,1.3050053,48.0,49.0
25870.0,48.0,1.3311567,48.0,49.0
25880.0,48.0,1.3374534,48.0,49.0
25890.0,48.0,1.4340011,48.0,49.0
25900.0,48.0,1.5484402,48.0,49.0
25910.0,48.0,1.0066558,48.0,49.0
25920.0,48.0,1.1608601,48.0,49.0
25930.0,49.0,1.1881207,48.0,49.0
25940.0,49.0,1.2533853,48.0,49.0
25950.0,49.0,1.2580826,48.0,49.0
25960.0,49.0,1.3051434,48.0,49.0
25970.0,49.0,1.3490586,48.0,50.0
25980.0,49.0,1.4414157,48.0,50.0
25990.0,49.0,1.5156134,48.0,50.0
26000.0,49.0,1.6230766,48.0,50.0
26010.0,49.0,1.7727872,48.0,50.0
26020.0,49.0,1.8731575,48.75,50.0
26030.0,49.0,1.8718524,49.0,50.0
26040.0,49.0,1.9460483,49.0,50.0
26050.0,49.0,2.0740917,49.0,50.0
26060.0,49.0,2.141535,49.0,50.0
26070.0,49.0,2.1697695,49.0,50.0
26080.0,49.0,2.284464,49.0,50.0
26090.0,49.0,2.3312383,49.0,51.0
26100.0,49.0,2.4350028,49.0,51.0
26110.0,49.0,2.6320941,49.0,51.0
26120.0,49.0,2.7770996,49.0,51.0
26130.0,49.0,2.9407275,49.0,51.0
26140.0,49.0,3.00608,49.0,51.0
26150.0,49.0,3.112334,49.0,51.0
26160.0,49.0,3.1718283,49.0,51.0
26170.0,49.0,3.3092222,49.0,51.0
26180.0,49.0,3.3696585,49.0,51.0
26190.0,49.0,3.4971988,49.0,52.0
26200.0,49.0,3.6255927,49.0,52.0
26210.0,50.0,3.7412524,49.0,52.0
26220.0,50.0,3.7366073,49.0,52.0
26230.0,50.0,3.741909,49.0,52.0
26240.0,50.0,3.6987016,49.0,52.0
26250.0,50.0,3.714374,49.0,52.0
26260.0,50.0,3.7221656,49.0,52.0
26270.0,50.0,3.7022467,50.0,52.0
26280.0,50.0,3.7144012,50.0,52.0
26290.0,50.0,3.6754727,50.0,52.0
26300.0,50.0,3.6430645,50.0,52.0
26310.0,50.0,3.5811272,50.0,52.0
26320.0,50.0,3.4308214,50.0,52.0
26330.0,50.0,3.2800725,50.0,52.0
26340.0,50.0,3.2202592,50.0,52.0
26350.0,50.0,3.140781,50.0,52.0
26360.0,50.0,2.9928584,50.0,52.0
26370.0,50.0,2.91391,50.0,52.0
26380.0,50.0,2.875764,50.0,52.0
26390.0,50.0,2.7977784,50.0,52.0
26400.0,50.0,3.1737044,50.0,52.0
26410.0,50.0,3.1223936,50.0,52.0
26420.0,50.0,3.032685,50.0,52.0
26430.0,50.0,2.9441006,50.0,52.0
26440.0,50.0,2.8433604,50.0,52.0
26450.0,50.0,2.7060163,50.0,52.0
26460.0,50.0,2.795184,50.0,52.0
26470.0,50.0,2.8338294,50.0,52.0
26480.0,50.0,2.8358378,50.0,52.0
26490.0,50.0,2.8285825,50.0,52.0
26500.0,51.0,2.8176577,50.0,52.0
26510.0,51.0,2.56785,50.0,52.0
26520.0,51.0,2.534821,50.0,52.0
26530.0,51.0,2.7586915,50.0,52.0
26540.0,51.0,2.7491555,50.0,52.0
26550.0,51.0,2.7481248,50.0,52.0
26560.0,51.0,2.7436938,50.0,52.0
26570.0,51.0,2.7334683,50.0,52.0
26580.0,51.0,2.6575642,50.0,52.0
26590.0,51.0,2.7772481,50.0,52.0
26600.0,51.0,2.8949273,50.0,52.0
26610.0,51.0,2.9257696,51.0,52.0
26620.0,51.0,2.9606378,51.0,52.0
26630.0,51.0,3.0296206,51.0,52.0
26640.0,51.0,3.0637162,51.0,52.0
26650.0,51.0,2.9684021,51.0,52.0
26660.0,51.0,3.2648294,51.0,52.0
26670.0,51.0,3.3521821,51.0,53.0
26680.0,51.0,3.4616752,51.0,53.0
26690.0,51.0,3.5670242,51.0,53.0
26700.0,51.0,3.668296,51.0,53.0
26710.0,51.0,3.7538078,51.0,53.0
26720.0,51.0,3.7758892,51.0,53.0
26730.0,51.0,3.9380198,51.0,53.0
26740.0,51.0,4.1501336,51.0,53.0
26750.0,51.0,4.360004,51.0,53.0
26760.0,51.0,4.4394,51.0,53.0
26770.0,51.0,4.501507,51.0,53.0
26780.0,51.0,4.5577493,51.0,53.0
26790.0,51.0,4.6136336,51.0,53.0
26800.0,51.0,4.6771374,51.0,53.0
26810.0,51.0,4.7891207,51.0,53.0
26820.0,51.0,4.9148097,51.0,54.0
26830.0,51.0,4.9426475,51.0,54.0
26840.0,51.0,4.9900107,51.0,54.0
26850.0,51.0,5.023429,51.0,53.0
26860.0,51.0,5.1237125,51.0,53.0
26870.0,51.0,5.198829,51.0,53.0
26880.0,51.0,5.2599397,51.0,53.0
26890.0,51.0,5.3090935,51.0,54.0
26900.0,51.0,5.3598847,51.0,54.0
26910.0,51.0,5.402709,51.0,54.0
26920.0,51.0,5.381642,51.0,54.0
26930.0,51.0,5.424912,51.0,54.0
26940.0,51.0,5.5316243,51.0,54.0
26940.0,51.0,5.5316243,51.0,54.0
26940.0,51.0,5.5273256,51.0,53.0
