distance,median,stdev,prc_25,prc_75
20.0,3.0,1.1493304,2.0,3.0
30.0,3.0,1.2681739,2.0,4.0
40.0,3.0,1.2001295,3.0,4.0
50.0,4.0,1.209037,3.0,4.0
60.0,4.0,1.2265567,3.0,5.0
70.0,4.0,1.2502812,3.0,5.0
80.0,4.0,1.178463,4.0,5.0
90.0,5.0,1.3418149,4.0,6.0
100.0,5.0,1.6001701,4.0,6.0
110.0,5.0,1.5915009,4.0,6.0
120.0,5.0,1.7275654,4.0,7.0
130.0,6.0,1.6593297,5.0,7.0
140.0,6.0,1.6163696,5.0,7.0
150.0,6.0,1.62895,5.0,7.0
160.0,6.0,1.536951,5.0,7.0
170.0,7.0,1.3766891,6.0,8.0
180.0,7.0,1.4428014,6.0,8.0
190.0,7.0,1.4607627,6.0,8.0
200.0,7.0,1.4529701,6.0,8.0
210.0,7.0,1.4887869,6.0,8.0
220.0,7.0,1.56269,7.0,9.0
230.0,7.0,1.5235465,7.0,9.0
240.0,8.0,1.5652846,7.0,9.0
250.0,8.0,1.5399762,7.0,10.0
260.0,9.0,1.458978,8.0,10.0
270.0,9.0,1.4687288,8.0,10.0
280.0,9.0,1.4204899,8.0,10.0
290.0,9.0,1.3859769,8.0,10.0
300.0,9.0,1.4414103,8.0,10.0
310.0,9.0,1.4902427,8.0,11.0
320.0,10.0,1.443839,9.0,11.0
330.0,10.0,1.4410709,9.0,11.0
340.0,10.0,1.4769756,9.0,11.0
350.0,10.0,1.4798256,9.0,11.0
360.0,11.0,1.4658773,10.0,11.0
370.0,11.0,1.3123088,10.0,11.0
380.0,11.0,1.3591065,10.0,11.0
390.0,11.0,1.4268622,10.0,12.0
400.0,12.0,1.5071964,10.0,12.0
410.0,12.0,1.4777412,11.0,12.0
420.0,12.0,1.4770806,11.0,12.0
430.0,12.0,1.369534,11.0,13.0
440.0,12.0,1.339881,11.0,13.0
450.0,12.0,1.333746,12.0,13.0
460.0,12.0,1.4375479,12.0,13.0
470.0,12.0,1.4640522,12.0,13.0
480.0,13.0,1.5901959,12.0,14.0
490.0,14.0,1.6166645,12.0,14.0
500.0,14.0,1.5942032,13.0,14.0
510.0,14.0,1.5935665,13.0,14.0
520.0,14.0,1.5599,13.0,14.0
530.0,14.0,1.4019346,13.0,15.0
540.0,14.0,1.4218986,13.0,15.0
550.0,14.0,1.3934989,13.0,15.0
560.0,14.0,1.3445877,14.0,15.0
570.0,15.0,1.4958922,14.0,16.0
580.0,15.0,1.5628996,14.0,16.0
590.0,16.0,1.436983,15.0,16.0
600.0,16.0,1.4274982,15.0,16.0
610.0,16.0,1.4934505,15.0,16.0
620.0,16.0,1.5153006,15.0,16.0
630.0,16.0,1.5343679,16.0,17.0
640.0,16.0,1.5341071,16.0,17.0
650.0,16.0,1.6123477,16.0,17.0
660.0,16.0,1.6327778,16.0,17.0
670.0,17.0,1.6925173,16.0,17.0
680.0,17.0,1.4561747,16.0,18.0
690.0,17.0,1.4869353,17.0,18.0
700.0,17.0,1.4943734,17.0,18.0
710.0,17.0,1.520693,17.0,18.0
720.0,18.0,1.5076058,17.0,18.0
730.0,18.0,1.5304995,17.0,18.0
740.0,18.0,1.5384395,17.0,19.0
750.0,18.0,1.5907629,18.0,19.0
760.0,18.0,1.6377629,18.0,19.0
770.0,18.0,1.5283237,18.0,20.0
780.0,19.0,1.5145557,18.0,20.0
790.0,19.0,1.568574,18.0,20.0
800.0,19.0,1.5111449,18.0,20.0
810.0,19.0,1.4829423,19.0,20.0
820.0,20.0,1.49086,19.0,20.0
830.0,20.0,1.508435,19.0,21.0
840.0,20.0,1.471024,19.0,21.0
850.0,20.0,1.4876444,19.0,21.0
860.0,20.0,1.5841347,19.0,21.0
870.0,20.0,1.6165086,19.0,21.0
880.0,21.0,2.1550276,19.0,22.0
890.0,21.0,2.0395467,20.0,22.0
900.0,21.0,2.1007977,20.0,23.0
910.0,21.0,2.1368928,20.0,23.0
920.0,21.0,1.9465611,20.0,23.0
930.0,21.0,2.0070672,20.0,23.0
940.0,22.0,2.1086488,20.0,23.0
950.0,22.0,1.9556237,20.0,23.0
960.0,22.0,1.9996097,20.0,23.0
970.0,23.0,2.1505756,20.0,24.0
980.0,23.0,2.0080826,21.0,24.0
990.0,23.0,2.0447114,21.0,24.0
1000.0,23.0,2.1373065,21.0,25.0
1010.0,23.0,1.9795896,22.0,25.0
1020.0,23.0,2.1953588,22.0,25.0
1030.0,23.0,2.3268142,22.0,25.0
1040.0,24.0,2.1823506,22.0,25.0
1050.0,24.0,2.0329287,22.0,25.0
1060.0,24.0,2.208883,22.0,26.0
1070.0,25.0,2.047793,23.0,26.0
1080.0,25.0,1.8322164,23.0,26.0
1090.0,25.0,2.0307574,23.0,27.0
1100.0,25.0,1.9932123,23.0,27.0
1110.0,25.0,2.1065953,23.0,27.0
1120.0,25.0,2.2767851,23.0,27.0
1130.0,26.0,2.189389,24.0,27.0
1140.0,26.0,2.0278559,24.0,27.0
1150.0,26.0,2.232412,24.0,28.0
1160.0,26.0,2.181749,25.0,28.0
1170.0,26.0,1.7773677,25.0,28.0
1180.0,26.0,2.1357903,25.0,29.0
1190.0,27.0,2.1054287,25.0,29.0
1200.0,27.0,1.789923,26.0,29.0
1210.0,27.0,1.950046,26.0,29.0
1220.0,28.0,1.9401419,26.0,29.0
1230.0,28.0,1.8872728,26.0,29.0
1240.0,28.0,2.0625205,26.0,30.0
1250.0,28.0,2.1340103,26.0,30.0
1260.0,28.0,1.7987617,27.0,30.0
1270.0,28.0,2.1004038,27.0,30.0
1280.0,29.0,2.1410673,27.0,30.0
1290.0,29.0,1.7140875,28.0,30.0
1300.0,29.0,1.8427454,28.0,31.0
1310.0,30.0,1.8814718,28.0,31.0
1320.0,30.0,1.8057106,28.0,31.0
1330.0,30.0,2.0300915,28.0,32.0
1340.0,30.0,2.079163,28.0,32.0
1350.0,30.0,1.8641285,29.0,32.0
1360.0,30.0,2.0918164,29.0,32.0
1370.0,31.0,2.197452,29.0,33.0
1380.0,31.0,1.9146212,30.0,33.0
1390.0,31.0,1.8546977,30.0,33.0
1400.0,32.0,1.9922521,30.0,33.0
1410.0,32.0,1.8759787,30.0,33.0
1420.0,32.0,1.7980475,30.0,33.0
1430.0,32.0,2.0778103,30.0,34.0
1440.0,33.0,2.0229728,31.0,34.0
1450.0,33.0,2.219369,31.0,34.0
1460.0,33.0,2.3598201,31.0,35.0
1470.0,33.0,2.271033,32.0,35.0
1480.0,33.0,2.13771,32.0,35.0
1490.0,34.0,2.2254832,32.0,35.0
1500.0,34.0,2.1678967,32.0,35.0
1510.0,34.0,1.8354592,32.0,35.0
1520.0,34.0,2.1054878,32.0,36.0
1530.0,35.0,2.0284219,33.0,36.0
1540.0,35.0,1.9737557,33.0,36.0
1550.0,35.0,2.3895397,33.0,37.0
1560.0,35.0,1.4575322,34.0,36.0
1570.0,35.0,1.3820184,34.0,36.0
1580.0,36.0,1.39969,34.0,36.0
1590.0,36.0,1.4546863,34.0,36.0
1600.0,36.0,1.5224282,34.0,37.0
1610.0,36.0,1.555321,35.0,37.0
1620.0,36.0,1.4417248,35.0,37.0
1630.0,37.0,1.3385102,36.0,37.0
1640.0,37.0,1.2052577,36.0,38.0
1650.0,37.0,1.3225424,36.0,38.0
1660.0,37.0,1.3240948,36.0,38.0
1670.0,38.0,1.1509551,37.0,38.0
1680.0,38.0,1.2887456,37.0,38.0
1690.0,38.0,1.4245204,37.0,39.0
1700.0,38.0,1.4929767,37.0,40.0
1710.0,39.0,1.3801917,37.0,40.0
1720.0,39.0,1.3646184,38.0,40.0
1730.0,39.0,1.332643,38.0,40.0
1740.0,39.5,1.1160016,38.0,40.0
1750.0,40.0,1.1303664,39.0,40.0
1760.0,40.0,1.2926931,39.0,41.0
1770.0,40.0,1.2893379,39.0,42.0
1780.0,41.0,1.1910768,40.0,42.0
1790.0,41.0,1.1787878,40.0,42.0
1800.0,41.0,1.1791805,40.0,42.0
1810.0,42.0,1.1320853,41.0,42.0
1820.0,42.0,1.0697739,41.0,43.0
1830.0,42.0,1.1286079,41.0,43.0
1840.0,42.0,1.1271288,42.0,43.0
1850.0,43.0,1.0605001,42.0,44.0
1860.0,43.0,1.094163,42.0,44.0
1870.0,43.0,1.149037,43.0,44.0
1880.0,44.0,1.1186914,43.0,45.0
1890.0,44.0,1.1385037,43.0,45.0
1900.0,44.0,1.1678479,43.0,45.0
1910.0,45.0,1.1245352,44.0,46.0
1920.0,45.0,1.0671312,44.0,46.0
1930.0,45.0,1.1654472,44.0,46.0
1940.0,46.0,1.1984712,45.0,47.0
1950.0,46.0,1.0633916,45.0,47.0
1960.0,46.0,1.2938142,45.0,48.0
1970.0,46.0,2.999318,44.0,50.0
1980.0,47.0,2.8475034,44.0,50.0
1990.0,47.0,2.8166616,44.0,50.0
2000.0,47.0,2.7347813,45.0,50.0
2010.0,48.0,2.7489316,45.0,50.0
2020.0,48.0,2.5399964,46.0,50.0
2030.0,48.0,2.402444,46.0,50.0
2040.0,48.0,2.34123,46.0,51.0
2050.0,48.0,2.2896976,47.0,51.0
2060.0,48.0,2.29507,47.0,51.0
2070.0,48.0,2.3224773,47.0,51.0
2080.0,48.0,2.2292273,48.0,51.0
2090.0,49.0,2.1047897,48.0,51.0
2100.0,49.0,2.0299168,48.0,52.0
2110.0,49.0,1.8722775,49.0,52.0
2120.0,50.0,1.8173448,49.0,52.0
2130.0,50.0,1.6315973,49.0,52.0
2140.0,50.0,1.5023577,49.0,52.0
2150.0,50.0,1.4419029,50.0,52.0
2160.0,51.0,1.469126,50.0,52.0
2170.0,51.0,1.505849,50.0,52.0
2180.0,51.0,1.339171,50.0,52.0
2190.0,51.0,1.1329341,51.0,52.0
2200.0,52.0,1.0352885,51.0,53.0
2210.0,52.0,0.9428045,52.0,53.0
2220.0,52.0,0.8970904,52.0,53.0
2230.0,53.0,0.8285153,52.0,54.0
2240.0,53.0,0.7954222,53.0,54.0
2250.0,54.0,0.7781196,53.0,54.0
2260.0,54.0,0.87225455,53.0,54.0
2270.0,54.0,0.7548446,54.0,54.0
2280.0,54.0,0.8096856,54.0,54.0
2290.0,54.0,1.0126164,54.0,55.0
2300.0,55.0,1.1448094,54.0,55.0
2310.0,55.0,1.2150646,54.0,56.0
2320.0,55.0,1.3874433,55.0,56.0
2330.0,55.0,1.573279,55.0,57.0
2340.0,55.0,2.0821068,55.0,57.0
2350.0,55.5,2.5646214,55.0,59.0
2360.0,56.0,2.553139,55.0,59.0
2370.0,56.0,2.3960202,55.0,59.0
2380.0,56.0,2.8658707,56.0,59.0
2390.0,56.0,2.8966825,56.0,59.0
2400.0,56.5,2.8814008,56.0,59.0
2410.0,57.0,3.3062818,56.0,60.0
2420.0,57.0,3.047406,57.0,60.0
2430.0,58.0,2.918914,57.0,60.0
2440.0,58.0,3.1842053,57.0,61.0
2450.0,58.5,3.242028,58.0,62.5
2460.0,58.5,3.0804276,58.0,61.0
2470.0,58.5,3.4863408,58.0,63.0
2480.0,59.0,3.7918842,58.0,63.0
2490.0,59.0,3.6630814,58.5,63.5
2500.0,59.5,3.8626304,59.0,64.75
2510.0,60.0,4.004418,59.0,65.0
2520.0,60.0,3.7067358,60.0,65.0
2530.0,61.0,3.7452698,60.0,66.0
2540.0,61.0,3.7346253,60.0,66.0
2550.0,61.0,3.6893375,60.0,66.0
2560.0,62.0,3.7937884,60.0,67.0
2570.0,62.0,4.109775,60.0,67.0
2580.0,63.5,3.7013838,61.0,67.0
2590.0,64.0,3.6941876,61.0,68.0
2600.0,64.0,3.8222656,61.0,68.0
2610.0,64.0,3.4120505,62.0,68.0
2620.0,64.0,3.4743114,62.0,69.0
2630.0,64.0,3.8213148,62.0,69.0
2640.0,65.0,3.645779,63.0,69.0
2650.0,66.0,3.5379162,64.0,69.0
2660.0,67.0,2.483841,65.0,69.0
2670.0,67.0,2.477193,65.0,69.0
2680.0,67.0,2.4013255,65.0,69.5
2690.0,67.0,2.1925094,67.0,71.0
2700.0,68.0,2.1027818,67.0,71.0
2710.0,68.0,2.1775799,67.0,71.0
2720.0,69.0,2.1467776,67.0,71.0
2730.0,69.0,2.1797578,67.0,71.0
2740.0,69.0,2.2881746,67.0,72.0
2750.0,69.0,2.3966718,68.0,72.0
2760.0,70.0,2.2973104,69.0,73.0
2770.0,70.5,2.111791,69.0,73.0
2780.0,71.0,2.0601482,69.0,73.0
2790.0,72.0,2.317109,69.0,73.0
2800.0,72.0,2.3378732,70.0,75.0
2810.0,72.0,2.1274154,71.0,75.0
2820.0,72.0,1.9921236,71.0,75.0
2830.0,72.0,1.8437394,72.0,75.0
2840.0,72.5,1.7697788,72.0,75.0
2850.0,73.0,1.7733375,72.0,75.0
2860.0,73.5,1.7283634,72.0,75.0
2870.0,73.5,1.5951011,72.0,75.0
2880.0,73.5,1.5143985,72.0,75.0
2890.0,74.0,1.5910965,73.0,75.0
2900.0,74.0,1.5051281,73.0,76.0
2910.0,74.0,1.4097834,74.0,76.0
2920.0,74.0,1.3037456,74.0,76.5
2930.0,74.0,2.2522204,72.0,77.0
2940.0,72.0,4.048182,68.0,76.0
2950.0,72.0,3.632088,69.0,76.0
2960.0,72.0,3.4940443,69.0,76.0
2970.0,73.0,3.2334874,71.0,75.0
2980.0,73.0,3.0764923,71.0,76.0
2990.0,73.0,2.5921052,71.0,76.0
3000.0,73.0,2.4879944,71.0,76.0
3010.0,73.0,2.4414802,71.0,76.0
3020.0,74.0,2.439129,71.0,76.0
3030.0,74.0,2.1505866,72.0,76.0
3040.0,74.5,1.8695697,73.0,76.0
3050.0,74.0,1.7087846,73.0,76.0
3060.0,74.5,1.6762913,74.0,76.0
3070.0,76.0,1.4794503,74.0,76.0
3080.0,76.0,1.2500674,74.0,77.0
3090.0,76.0,1.3986577,74.0,77.0
3100.0,76.0,1.462494,74.0,77.0
3110.0,76.0,1.4488153,74.0,77.0
3120.0,76.0,1.2970655,74.0,77.0
3130.0,75.5,1.4087232,74.0,77.0
3140.0,76.0,1.4450384,75.0,77.0
3150.0,76.0,1.3825527,75.0,78.0
3160.0,76.0,1.0973716,76.0,78.0
3170.0,77.0,0.89535993,76.0,78.0
3180.0,77.0,0.79192084,76.0,78.0
3190.0,78.0,0.74849266,77.0,78.0
3200.0,78.0,0.9017335,77.0,78.0
3210.0,78.0,1.3874923,76.0,79.0
3220.0,78.0,1.6424918,77.0,79.0
3230.0,78.0,1.61061,77.0,80.0
3240.0,78.0,1.3075905,77.0,80.0
3250.0,78.0,1.2540592,78.0,80.0
3260.0,78.0,1.3707864,78.0,80.0
3270.0,78.0,1.572067,78.0,80.0
3280.0,79.0,1.6177461,78.0,80.0
3290.0,80.0,1.610234,78.0,80.0
3300.0,80.0,1.665435,78.0,81.0
3310.0,80.0,1.542809,78.0,81.0
3320.0,80.0,1.4894083,78.0,81.0
3330.0,80.0,1.858256,78.0,81.0
3340.0,80.0,2.0223343,78.0,81.0
3350.0,80.0,2.3206675,78.0,82.0
3360.0,80.0,2.6249878,78.0,82.0
3370.0,80.0,2.5427241,78.0,82.0
3380.0,80.0,2.1193254,78.0,81.0
3390.0,80.0,1.9760286,79.0,82.0
3400.0,80.0,2.240613,79.0,82.0
3410.0,79.0,2.438925,79.0,82.0
3420.0,79.0,2.7636347,78.0,83.0
3430.0,80.0,2.9306564,78.0,83.0
3440.0,80.0,2.7909503,78.0,82.0
3450.0,79.0,2.5269384,78.0,82.0
3460.0,79.0,2.7429764,78.0,82.75
3470.0,79.0,2.9265316,78.0,83.0
3480.0,80.0,3.0301728,78.0,83.0
3490.0,80.0,3.2270284,78.0,84.0
3500.0,79.0,2.6510255,77.0,81.0
3510.0,78.0,2.207251,78.0,81.0
3520.0,79.0,2.3097746,78.0,81.5
3530.0,79.0,2.346232,78.0,81.0
3540.0,79.0,2.2086685,78.0,82.0
3550.0,79.0,2.019626,78.0,81.0
3560.0,79.0,2.1154876,79.0,81.0
3570.0,79.0,2.1540406,79.0,81.0
3580.0,80.0,2.1980739,79.0,81.0
3590.0,80.0,2.1233609,79.0,81.0
3600.0,80.0,2.0318248,79.0,81.0
3610.0,80.0,2.1186755,79.0,81.0
3620.0,80.0,2.1468966,80.0,81.0
3630.0,81.0,2.101381,80.0,81.0
3640.0,81.0,1.9062275,80.0,82.0
3650.0,81.0,1.5244912,81.0,82.0
3660.0,82.0,1.4227009,81.0,82.0
3670.0,82.0,1.7542799,81.0,83.0
3680.0,82.0,1.9093722,82.0,83.0
3690.0,82.0,1.8908466,82.0,83.0
3700.0,83.0,1.9602625,82.0,83.0
3710.0,83.0,2.4251015,82.0,85.0
3720.0,83.0,2.432637,83.0,85.0
3730.0,84.0,2.344289,83.0,85.0
3740.0,84.0,2.3329513,83.0,85.0
3750.0,84.0,2.3695254,83.0,85.0
3760.0,84.0,2.3330739,83.0,85.0
3770.0,85.0,2.4263258,83.0,85.0
3780.0,85.0,2.8538704,84.0,87.0
3790.0,86.0,2.43112,85.0,88.0
3800.0,89.0,2.3573606,86.0,91.0
3810.0,89.0,2.3277295,87.0,91.0
3820.0,89.0,2.2837722,87.0,91.0
3830.0,89.0,2.314772,87.0,91.0
3840.0,89.0,2.3046918,87.0,91.0
3850.0,89.0,2.354663,88.0,92.0
3860.0,90.0,2.3734722,88.0,92.0
3870.0,90.0,2.3210394,88.0,92.0
3880.0,90.0,2.2263172,88.0,93.0
3890.0,90.0,2.2345479,88.0,93.0
3900.0,90.0,2.289003,89.0,93.0
3910.0,91.0,2.3307426,89.0,93.0
3920.0,91.0,2.2732213,89.0,93.0
3930.0,91.0,2.196455,89.0,93.0
3940.0,91.0,2.162663,90.0,93.0
3950.0,91.5,2.1427948,90.0,94.0
3960.0,92.0,2.0672832,90.0,94.0
3970.0,92.0,1.9875199,90.0,94.0
3980.0,92.0,1.980504,90.0,94.0
3990.0,92.0,1.9756328,90.0,93.0
4000.0,92.0,1.9741362,90.0,94.0
4010.0,92.0,2.006618,91.0,94.0
4020.0,92.0,2.0150356,91.0,94.0
4030.0,92.0,1.9353701,91.0,94.0
4040.0,90.0,2.08346,89.0,92.0
4050.0,90.0,2.0010056,89.0,92.0
4060.0,90.0,2.0703044,89.0,92.0
4070.0,90.0,1.8828722,90.0,92.0
4080.0,91.0,1.6957448,90.0,92.0
4090.0,91.0,1.6978983,90.0,93.0
4100.0,91.0,1.8719364,90.0,93.0
4110.0,91.0,1.8509328,91.0,93.0
4120.0,92.0,1.8185841,91.0,94.0
4130.0,92.0,1.6487006,91.0,94.0
4140.0,92.0,1.559521,91.0,94.0
4150.0,92.0,1.5487157,91.0,94.0
4160.0,92.0,1.6750332,91.0,94.0
4170.0,93.0,1.8066101,91.0,94.0
4180.0,93.0,1.7563196,92.0,94.0
4190.0,93.0,1.6562237,92.0,95.0
4200.0,93.0,1.5889277,92.0,95.0
4210.0,93.0,1.6931559,92.0,95.0
4220.0,94.0,1.773541,93.0,95.0
4230.0,94.0,1.9111279,93.0,96.0
4240.0,94.0,1.9920596,93.0,96.0
4250.0,95.0,1.9727069,94.0,96.0
4260.0,95.0,1.8498741,94.0,97.0
4270.0,95.0,1.8681393,94.0,97.0
4280.0,95.0,1.8779117,94.0,97.0
4290.0,96.0,1.9272063,95.0,97.0
4300.0,96.0,1.9532061,95.0,98.0
4310.0,96.0,1.862335,95.0,98.0
4320.0,96.0,1.8747041,95.0,98.0
4330.0,97.0,1.9561515,96.0,98.0
4340.0,97.0,1.9562013,96.0,98.0
4350.0,98.0,1.990464,96.0,99.0
4360.0,98.0,2.1255946,96.0,100.0
4370.0,98.0,2.5629733,96.0,100.0
4380.0,98.0,2.569322,97.0,100.0
4390.0,99.0,2.5954926,97.0,100.0
4400.0,99.0,2.736798,97.0,101.0
4410.0,99.0,2.6624439,98.0,101.0
4420.0,99.0,2.7015703,98.0,101.0
4430.0,100.0,2.613907,98.0,101.0
4440.0,100.0,2.4874048,99.0,101.0
4450.0,100.0,2.3776546,99.0,102.0
4460.0,100.0,2.4326904,99.0,102.0
4470.0,100.0,2.5036654,99.0,102.0
4480.0,101.0,2.565291,100.0,103.0
4490.0,101.0,2.665543,100.0,103.0
4500.0,102.0,3.2780058,100.0,103.0
4510.0,102.0,3.3867524,101.0,104.0
4520.0,102.0,3.2331028,101.0,104.0
4530.0,102.0,3.2316265,101.0,105.0
4540.0,103.0,3.1885927,101.0,105.0
4550.0,103.0,3.2821798,102.0,105.0
4560.0,103.0,3.3420873,102.0,105.0
4570.0,104.0,3.3105114,102.0,105.0
4580.0,104.0,3.3662028,102.0,106.0
4590.0,104.0,3.678791,102.0,106.0
4600.0,105.0,4.3653116,103.0,107.0
4610.0,105.0,4.2746797,103.0,107.5
4620.0,105.0,4.208095,104.0,107.75
4630.0,105.5,4.161147,104.0,107.0
4640.0,105.5,4.0417714,104.0,107.0
4650.0,106.0,4.0527244,104.0,107.5
4660.0,106.0,4.007106,105.0,108.5
4670.0,106.0,3.894472,105.0,108.75
4680.0,106.0,3.8603666,105.0,108.0
4690.0,106.0,3.928923,105.0,109.0
4700.0,107.0,3.9123435,106.0,109.0
4710.0,107.0,3.833286,106.0,109.0
4720.0,108.0,4.548636,106.0,109.0
4730.0,108.0,4.8911576,106.25,111.5
4740.0,108.0,4.7568855,107.0,110.0
4750.0,109.0,4.5968843,107.0,110.0
4760.0,109.0,4.4955482,108.0,111.5
4770.0,109.0,4.380089,108.0,111.5
4780.0,109.0,4.2894063,108.0,112.0
4790.0,110.0,4.22689,108.0,112.0
4800.0,110.0,4.1852775,108.0,112.0
4810.0,110.0,4.16579,108.0,112.0
4820.0,111.0,5.471164,109.0,113.0
4830.0,110.0,5.5639014,109.0,112.0
4840.0,111.0,5.4067674,109.0,113.0
4850.0,111.0,5.1677117,109.0,113.0
4860.0,111.0,5.0151362,109.75,113.0
4870.0,112.0,4.735963,110.0,114.0
4880.0,112.0,4.548552,110.0,114.0
4890.0,112.0,4.449803,110.0,114.0
4900.0,112.0,4.4006352,111.0,115.0
4910.0,112.0,4.3376474,111.0,115.0
4920.0,112.0,4.1641912,111.0,115.0
4930.0,113.0,3.923014,112.0,115.0
4940.0,113.0,4.7410207,112.0,116.0
4950.0,113.0,5.1481423,111.0,116.0
4960.0,113.0,5.0412745,112.0,116.0
4970.0,114.0,4.9403706,112.0,117.0
4980.0,114.0,4.8387895,112.0,117.0
4990.0,114.0,4.7820334,112.0,117.0
5000.0,115.0,4.5781665,113.0,117.0
5010.0,115.0,4.4402676,113.0,117.0
5020.0,115.0,4.328781,113.0,117.0
5030.0,115.0,4.1063867,113.0,117.0
5040.0,116.0,5.4721837,114.0,119.0
5050.0,116.0,5.4422703,114.0,119.0
5060.0,116.0,5.352016,114.0,120.0
5070.0,116.0,4.948247,115.0,120.0
5080.0,116.0,4.805429,115.0,120.0
5090.0,116.0,4.6576614,115.0,120.0
5100.0,117.0,4.650873,115.0,120.0
5110.0,117.0,4.6245203,115.0,120.0
5120.0,117.0,4.5584984,115.0,120.0
5370.0,120.5,6.8416243,119.0,125.5
5380.0,121.0,6.7339444,119.0,124.0
5390.0,121.0,6.725318,120.0,125.5
5400.0,121.0,6.5646486,120.0,124.0
5410.0,122.0,6.4437613,120.0,125.0
5420.0,122.0,6.365454,121.0,125.0
5430.0,122.0,6.365317,121.0,125.0
5440.0,123.0,6.303133,121.0,126.0
5450.0,123.0,6.341481,121.0,126.0
5460.0,123.0,6.261596,122.0,126.75
5470.0,123.0,6.1619906,122.0,127.0
5480.0,124.0,6.1078115,122.0,127.0
5490.0,124.0,6.084207,122.0,127.0
5500.0,124.5,5.9730825,123.0,128.0
5510.0,125.0,5.813122,123.0,128.0
5520.0,125.0,5.6946898,123.0,128.0
5530.0,124.0,5.653784,123.0,128.0
5540.0,125.0,5.6210256,124.0,128.75
5550.0,125.5,5.504633,124.0,128.75
5560.0,125.0,5.37206,124.0,128.0
5570.0,126.0,5.0546784,124.0,128.0
5580.0,127.0,5.0188017,124.0,129.5
5590.0,126.0,4.9897137,124.0,129.0
5600.0,126.0,5.0062275,125.0,129.0
5610.0,127.0,4.9656463,125.0,129.0
5620.0,127.0,4.8823023,125.0,130.0
5630.0,127.0,4.751321,126.0,130.0
5640.0,127.0,4.708369,126.0,130.0
5650.0,128.0,4.5620494,126.0,131.0
5660.0,128.0,4.6005025,126.0,131.0
5670.0,128.0,4.517543,127.0,131.0
5680.0,128.0,4.519623,127.0,130.0
5690.0,128.0,4.2457657,127.0,130.0
5700.0,128.0,4.131745,127.0,130.0
5710.0,129.0,4.0051675,128.0,131.0
5720.0,129.0,3.778814,128.0,131.0
5730.0,129.0,3.694338,128.0,131.0
5740.0,129.0,3.689217,128.0,132.0
5750.0,130.0,3.7803466,129.0,132.0
5760.0,130.0,3.7187326,129.0,132.0
5770.0,130.0,3.7214735,129.0,132.0
5780.0,130.0,3.620969,130.0,132.0
5790.0,130.0,3.5584671,130.0,133.0
5800.0,131.0,3.4251764,130.0,133.0
5810.0,131.0,3.3748178,130.0,133.0
5820.0,131.0,3.4544568,130.0,133.0
5830.0,132.0,3.3541498,131.0,133.0
5840.0,132.0,3.5316741,131.0,133.5
5850.0,132.0,3.4440274,131.0,134.0
5860.0,133.0,3.3370812,132.0,134.75
5870.0,133.0,3.1641655,132.0,135.0
5880.0,133.0,3.1257932,132.0,135.0
5890.0,134.0,2.9923685,133.0,135.5
5900.0,134.5,2.8387043,133.0,136.0
5910.0,134.0,2.8319006,133.0,136.0
5920.0,135.0,2.7180789,134.0,136.0
5930.0,135.0,2.871339,134.0,137.0
5940.0,135.0,2.862448,134.0,138.0
5950.0,136.0,2.6823409,135.0,138.0
5960.0,137.0,2.6897156,135.0,139.0
5970.0,137.0,2.5904415,136.0,139.0
5980.0,137.0,2.5467627,136.0,139.0
5990.0,138.0,2.2253225,137.0,139.0
6000.0,139.0,2.4665658,137.0,141.0
6010.0,138.0,2.4630778,137.0,141.0
6020.0,139.0,2.3108242,137.0,141.0
6030.0,140.0,2.672449,137.0,142.0
6040.0,139.0,2.6745007,137.0,142.0
6050.0,140.0,2.2706301,139.0,143.0
6060.0,140.0,2.4803426,139.0,143.0
6070.0,140.0,2.488393,139.0,143.0
6080.0,141.0,2.0761728,140.0,143.0
6090.0,141.0,2.496656,140.0,143.0
6100.0,141.0,2.5078363,140.0,143.0
6110.0,142.0,2.2457948,141.0,144.0
6120.0,142.0,2.7714572,141.0,145.0
6130.0,142.0,2.7702425,141.0,145.0
6140.0,143.0,2.49291,141.0,145.0
6150.0,143.0,2.807569,142.0,146.0
6160.0,143.0,2.7910526,142.0,146.0
6170.0,143.0,2.6312723,142.0,146.0
6180.0,144.0,3.1701694,142.0,146.0
6190.0,144.0,3.1543262,142.0,146.0
6200.0,144.0,2.9807885,143.0,147.0
6210.0,145.0,4.2086477,143.0,149.0
6220.0,145.0,4.191857,143.0,149.0
6230.0,145.0,4.112932,144.0,149.0
6240.0,147.0,4.3501163,144.0,151.0
6250.0,146.0,4.336585,144.0,151.0
6260.0,146.0,4.2393556,144.0,151.0
6270.0,148.0,4.921436,145.0,153.0
6280.0,148.0,4.929353,145.0,153.0
6290.0,147.0,6.5167146,144.0,155.0
6300.0,147.0,6.1482725,144.0,155.0
6310.0,147.0,5.793117,144.0,152.0
6320.0,147.0,5.9198565,145.0,153.0
6330.0,147.0,5.9778423,145.0,153.0
6340.0,147.0,6.012922,145.0,153.0
6350.0,147.0,6.0434284,146.0,154.0
6360.0,148.0,5.934482,146.0,154.0
6370.0,148.0,6.1200867,146.0,154.0
6380.0,148.0,6.235758,146.0,156.0
6390.0,149.0,6.322619,147.0,156.0
6400.0,149.0,5.5778394,147.0,156.0
6410.0,148.0,5.35562,147.0,154.0
6420.0,149.0,5.3648906,148.0,157.0
6430.0,149.0,5.261753,148.0,154.0
6440.0,150.0,5.3010488,149.0,157.0
6450.0,149.0,5.3357925,149.0,156.0
6460.0,150.0,5.2850323,149.0,156.0
6470.0,150.0,4.508542,149.0,156.0
6480.0,150.0,4.288825,149.0,156.0
6490.0,151.0,4.319612,149.0,156.0
6500.0,151.0,4.458405,149.0,156.0
6510.0,151.0,4.590625,150.0,158.0
6520.0,152.0,4.59445,150.0,158.0
6530.0,152.0,4.3945103,150.0,158.0
6540.0,152.0,3.7113626,151.0,156.0
6550.0,152.5,3.7487483,151.0,157.0
6560.0,153.0,3.7383873,151.0,157.0
6570.0,152.5,3.7559345,152.0,157.0
6580.0,154.0,3.6966672,152.0,158.0
6590.0,153.0,3.6154094,152.0,157.0
6600.0,153.5,2.9135842,152.0,156.75
6610.0,153.0,2.8645551,152.0,156.0
6620.0,153.0,2.9264822,152.0,157.0
6630.0,154.0,2.9708984,153.0,157.0
6640.0,154.0,2.9978573,153.0,158.75
6650.0,155.0,2.973682,154.0,158.0
6660.0,155.0,2.9088788,154.0,158.0
6670.0,155.0,2.5155206,154.0,158.0
6680.0,155.0,2.1214244,154.0,157.0
6690.0,156.0,2.1554842,155.0,158.0
6700.0,156.0,2.1504025,155.0,158.0
6710.0,156.0,2.1685233,155.0,159.0
6720.0,157.0,2.1719782,156.0,159.0
6730.0,157.0,2.1516664,156.0,159.0
6740.0,158.0,2.1869936,157.0,159.0
6750.0,158.0,2.2921057,157.0,159.5
6760.0,158.0,2.3351426,157.0,160.0
9270.0,251.0,1.5767616,250.0,252.0
9280.0,252.0,1.765665,252.0,253.0
9360.0,260.0,1.5476642,258.0,260.0
9370.0,260.0,1.4074842,260.0,261.0
9380.0,261.0,1.5634373,260.0,262.5
9390.0,263.0,1.3084677,261.0,263.0
9400.0,263.0,1.286827,262.0,263.0
9410.0,265.0,1.3477209,263.0,265.0
9420.0,265.0,1.2538711,265.0,266.0
9430.0,265.0,1.6725646,265.0,266.0
9720.0,283.0,6.785446,278.0,289.0
9730.0,283.0,7.1114717,278.0,290.0
9740.0,281.0,7.220196,278.0,290.0
9750.0,283.5,7.4835005,278.0,290.0
9760.0,283.5,7.7045317,278.0,292.0
9770.0,281.0,8.216042,278.0,292.0
9780.0,281.0,8.680807,275.0,292.0
9790.0,281.0,8.903463,274.0,292.0
9800.0,277.0,9.292064,273.5,286.0
9810.0,281.0,9.549937,274.0,289.5
9820.0,281.0,9.6787195,274.0,293.0
9830.0,286.0,11.897523,278.0,301.0
9840.0,287.0,11.838649,278.0,301.0
9850.0,287.0,11.284887,277.0,293.0
9860.0,287.0,9.695437,278.0,294.0
9870.0,281.0,9.576706,278.0,294.0
9880.0,284.0,9.458394,278.0,294.0
9890.0,281.0,8.936053,278.0,294.0
9900.0,281.0,7.714346,277.0,287.0
9910.0,281.0,6.6097307,277.0,286.0
9920.0,278.0,5.201964,275.0,285.0
9930.0,278.0,3.724004,276.0,282.0
9940.0,279.0,3.5840921,277.0,283.0
9950.0,279.0,4.8693857,277.0,283.0
9960.0,279.0,6.2424817,274.0,285.0
9970.0,277.0,6.974987,273.0,285.0
9980.0,276.0,5.9443774,273.0,285.0
9990.0,275.0,4.641541,273.0,279.0
10290.0,270.0,6.3765755,265.0,274.0
10300.0,273.0,5.940114,267.0,277.0
10310.0,273.0,7.6234436,269.0,280.0
10320.0,273.0,8.5708475,267.0,280.0
10330.0,273.0,8.4660635,267.0,279.0
10340.0,272.0,8.206634,267.0,279.0
10350.0,272.0,7.963316,267.0,279.0
10360.0,272.0,7.3878775,267.0,278.0
10370.0,271.0,6.8903866,269.0,281.5
10380.0,277.0,9.049692,271.0,285.0
10390.0,277.0,9.676965,271.0,285.0
10400.0,277.0,9.5490675,271.0,284.0
10410.0,277.0,9.407952,270.0,284.0
10420.0,280.0,8.601034,274.5,286.25
10430.0,280.0,8.549523,274.5,286.25
10440.0,276.0,8.408631,275.0,283.0
10450.0,279.0,8.268764,273.75,285.25
10460.0,278.5,8.137704,273.75,284.25
10470.0,275.0,7.954802,275.0,282.0
10480.0,278.0,7.805165,273.75,284.0
10490.0,275.0,7.532371,275.0,282.0
10500.0,282.0,10.701432,275.0,290.0
10510.0,282.0,10.618769,275.0,290.0
10520.0,281.0,10.742639,275.0,290.0
10530.0,281.0,10.755224,275.0,290.0
10540.0,281.0,10.742639,275.0,290.0
10550.0,281.0,9.560315,275.0,288.0
10560.0,281.0,9.508979,275.0,288.0
10570.0,281.0,9.498869,275.0,288.0
10580.0,281.0,9.398795,275.0,287.0
10590.0,280.0,9.231659,275.0,287.0
10600.0,280.0,8.785282,275.0,287.0
10610.0,280.0,8.236783,275.0,286.0
10620.0,280.0,7.2842903,275.0,286.0
10630.0,279.0,7.099576,275.0,286.0
10640.0,285.0,9.88549,274.0,293.0
10650.0,278.0,10.3335085,274.0,290.0
10660.0,278.0,10.277406,273.0,290.0
10670.0,278.0,9.577127,273.0,290.0
10680.0,277.0,9.300192,273.0,288.0
10690.0,279.0,9.126267,273.0,288.0
10700.0,279.0,8.404777,273.0,288.0
10710.0,276.0,8.697226,270.0,286.0
10720.0,276.0,8.554879,270.0,286.0
10730.0,275.0,7.91021,270.0,286.0
10740.0,275.0,7.578778,270.0,284.0
10750.0,275.0,7.397315,270.0,284.0
10760.0,274.0,6.9953485,270.0,284.0
10770.0,274.0,6.7892413,270.0,282.0
10780.0,274.0,6.537967,269.0,282.0
10790.0,273.0,6.264249,269.0,280.0
10800.0,273.0,7.8058333,269.0,280.0
10810.0,273.0,7.878757,270.0,280.0
10820.0,272.0,7.697533,270.0,280.0
10940.0,273.0,4.767139,271.0,275.0
10950.0,274.0,7.0345197,271.0,279.0
10960.0,274.0,7.097068,271.0,278.0
10970.0,274.0,6.88592,272.0,278.0
10980.0,274.0,6.346571,272.0,278.0
10990.0,274.0,6.3676524,272.0,281.0
11000.0,274.0,6.1363316,272.0,278.0
11010.0,274.0,5.799883,272.0,278.0
11020.0,273.5,5.7024345,272.0,280.0
11030.0,274.0,5.359481,273.0,277.0
11040.0,274.0,4.789223,273.0,280.0
11050.0,274.0,4.7020855,273.0,277.0
11060.0,275.0,4.5954623,273.0,277.0
11070.0,274.5,4.6146665,274.0,280.0
11080.0,274.0,4.5819783,274.0,277.0
11090.0,276.0,4.3478045,273.25,280.0
11100.0,275.5,4.0602956,275.0,277.0
11110.0,277.0,3.8269284,275.0,277.0
11120.0,276.5,3.6907291,275.0,280.0
11130.0,276.0,3.5546846,276.0,278.0
11140.0,278.0,3.571144,275.0,278.0
11150.0,277.5,3.5597758,276.0,278.0
11160.0,278.0,4.963753,276.0,282.0
11170.0,279.0,5.425754,276.0,283.0
11180.0,279.0,5.418832,277.0,283.0
11190.0,279.0,5.44893,277.0,283.0
11200.0,279.0,5.49974,277.0,286.0
11210.0,279.0,5.3317823,278.0,283.0
11220.0,279.0,5.154984,278.0,283.0
11230.0,280.0,5.0660586,278.0,286.0
11240.0,280.0,5.0281396,279.0,283.0
11250.0,280.5,5.1474047,279.0,287.25
11260.0,281.0,5.0849147,279.0,285.0
11270.0,281.0,5.030609,280.0,285.0
11280.0,281.5,5.1777053,280.0,288.25
11290.0,282.0,5.090854,280.0,286.0
11300.0,282.0,5.0062094,281.0,289.0
11310.0,283.0,4.9748745,282.0,287.0
11320.0,283.0,4.79807,282.0,287.0
11330.0,283.5,4.9016685,282.0,290.0
11340.0,285.0,5.0484242,282.0,289.0
11350.0,285.0,5.140674,283.0,291.0
11360.0,285.0,4.57167,283.0,289.0
11370.0,284.0,3.3289354,284.0,290.0
11380.0,283.0,4.297438,282.0,290.0
11390.0,283.0,4.907261,282.0,290.0
11400.0,283.0,4.8740435,282.0,291.0
11410.0,283.0,5.2749777,282.0,291.0
11420.0,285.0,5.345651,282.75,293.0
11430.0,285.0,5.3563614,283.0,293.0
11440.0,285.0,5.337306,284.0,293.0
11450.0,286.0,5.283551,284.0,294.0
11460.0,287.5,5.251122,285.0,294.0
11470.0,287.0,5.2449384,285.0,294.0
11480.0,287.0,5.1753855,285.0,295.0
11490.0,288.0,5.846651,286.0,296.0
11500.0,288.0,6.33129,286.0,296.0
11510.0,288.0,6.6392417,286.0,298.0
11520.0,289.0,6.762721,286.0,298.0
11530.0,289.0,6.9560776,286.0,298.5
11540.0,289.0,7.005952,287.0,299.0
11550.0,291.0,6.9556017,287.0,299.0
11560.0,291.0,6.901476,288.0,301.0
11570.0,290.5,7.042881,288.0,298.0
11580.0,291.5,7.2576957,289.0,298.0
11590.0,291.5,7.210164,289.0,299.25
11600.0,292.5,7.266645,290.0,299.25
11610.0,293.0,7.2297144,290.5,301.0
11620.0,294.0,7.2742276,291.0,299.0
11630.0,294.0,7.252959,292.0,299.0
11640.0,294.0,7.4169693,292.0,301.0
11650.0,295.0,7.578989,293.0,301.0
11660.0,295.0,7.4824796,293.0,303.0
11670.0,296.0,6.9807844,294.0,301.5
11680.0,298.0,7.153703,294.0,303.0
11690.0,298.0,7.24614,295.0,303.0
11700.0,299.0,7.2173243,295.0,305.0
11710.0,299.0,7.16811,296.0,305.0
11720.0,301.0,7.066247,297.0,305.0
12850.0,344.0,4.3436923,342.0,349.0
12860.0,344.0,4.4599867,342.0,349.0
12870.0,347.0,4.867113,342.0,349.0
12880.0,347.0,4.728486,342.0,349.0
12890.0,347.0,4.520613,343.0,349.0
12900.0,347.0,4.323434,343.0,350.0
12910.0,346.0,4.3157372,343.0,347.0
12920.0,346.0,4.1077175,342.0,348.0
12930.0,346.0,3.852285,342.5,348.0
12940.0,345.0,3.9245265,343.0,349.0
12950.0,345.0,4.781881,343.0,350.0
12960.0,346.0,5.1976833,344.0,350.0
12970.0,346.0,5.113877,344.0,350.0
12980.0,346.0,4.798956,344.0,349.0
12990.0,346.0,4.690687,344.0,348.0
13000.0,346.0,4.8727565,344.0,348.0
13010.0,346.0,6.527377,344.0,354.0
13020.0,347.0,5.8037343,344.0,353.0
13030.0,346.0,5.6145244,344.0,353.0
13040.0,346.0,5.3467565,344.0,353.0
13050.0,346.0,5.2087255,344.0,352.0
13060.0,346.0,5.2695384,344.0,352.0
13070.0,346.0,7.4577565,344.0,352.0
13080.0,346.0,7.527078,344.0,352.0
13090.0,346.0,7.3507957,344.0,352.0
13100.0,346.0,7.026521,344.0,351.0
13110.0,347.0,7.292054,344.0,351.0
13120.0,346.0,6.832837,344.0,351.0
13130.0,346.0,9.652109,344.0,357.0
13140.0,347.5,9.509019,344.0,357.0
13150.0,346.0,9.295516,344.0,356.0
13160.0,348.0,9.09131,344.0,356.0
13170.0,348.0,9.007392,344.0,356.0
13180.0,349.0,9.215107,346.0,356.0
13190.0,349.0,9.099174,346.0,356.0
13200.0,350.0,9.053976,346.0,356.0
13210.0,350.0,8.947517,346.0,356.0
13220.0,348.5,9.272902,346.0,356.0
13230.0,350.0,9.01639,348.0,363.0
13240.0,350.0,8.956689,348.0,363.0
13250.0,350.0,8.534063,349.0,363.0
13260.0,351.5,8.146646,349.0,363.0
13270.0,352.0,7.859636,350.0,363.0
13280.0,352.0,7.58219,351.0,363.0
13290.0,354.0,7.338404,351.0,363.0
13300.0,354.0,7.1360955,352.0,363.0
13310.0,354.0,8.573411,353.0,364.0
13320.0,357.0,10.57714,353.0,372.0
13330.0,358.0,10.351501,354.0,372.0
13340.0,356.0,10.310263,353.0,366.0
13350.0,356.5,9.924999,354.0,364.0
13360.0,355.0,9.809786,354.0,365.0
13370.0,359.0,9.917392,355.0,372.0
13380.0,362.0,12.982471,356.0,372.0
13390.0,365.0,12.704457,358.0,372.0
13400.0,363.0,12.6466675,358.0,379.0
13410.0,363.0,11.642026,359.0,379.0
13420.0,364.0,11.304688,359.25,373.0
13430.0,367.0,11.33277,360.0,381.0
13440.0,367.0,10.486632,363.0,381.0
13450.0,367.0,9.887598,363.0,381.0
13460.0,369.0,9.500865,363.0,381.0
13470.0,369.0,9.500865,363.0,381.0
13480.0,369.0,9.500865,363.0,381.0
13490.0,372.5,11.132149,368.0,387.25
13500.0,372.5,11.128724,368.0,387.25
13510.0,372.5,11.128724,368.0,387.25
13520.0,379.5,12.55383,373.0,395.0
13530.0,377.0,9.56392,373.0,389.0
13540.0,377.0,5.5269794,375.0,382.0
13550.0,379.0,7.077322,376.0,389.0
13560.0,380.0,7.871763,378.0,389.0
13570.0,382.0,7.47906,379.0,389.0
13580.0,383.0,6.8791814,380.0,389.0
13590.0,383.0,8.1714,381.0,397.0
13600.0,389.0,9.793798,383.0,397.0
13610.0,389.0,8.977102,384.0,397.0
13620.0,386.0,2.5426965,384.0,389.0
13630.0,389.0,3.976753,386.0,389.0
13640.0,389.0,4.4745793,389.0,395.0
13650.0,389.0,4.3886213,389.0,397.0
13660.0,390.0,3.936056,389.0,397.0
13670.0,396.0,5.7893033,390.0,397.0
13680.0,396.0,6.287463,395.0,405.0
13690.0,396.0,5.5471406,395.0,405.0
13700.0,402.0,6.9238234,395.0,404.0
13710.0,402.0,7.307288,395.0,413.0
13720.0,401.0,6.959574,395.0,410.0
13730.0,401.0,6.340585,395.0,410.0
13740.0,401.0,7.591036,400.0,410.0
13750.0,409.0,8.2062,400.0,421.0
13760.0,409.0,8.2662325,400.0,417.0
13770.0,407.0,7.556215,400.0,417.0
13780.0,407.0,6.4870386,406.0,417.0
13790.0,407.0,5.81541,406.0,415.0
13800.0,413.0,8.089873,406.0,424.0
13810.0,413.0,7.491521,406.0,424.0
13820.0,413.0,7.2244997,405.0,421.0
13830.0,413.0,7.306841,405.0,421.0
13840.0,411.0,9.414066,405.0,421.0
13850.0,415.0,9.790381,406.25,421.0
13860.0,415.0,9.3720255,407.0,425.0
13870.0,410.0,8.216818,410.0,419.0
13880.0,413.5,7.9084005,406.75,417.0
13890.0,417.0,10.360567,409.75,425.0
13900.0,417.0,10.653865,409.0,425.0
13910.0,415.0,10.5226965,409.0,425.0
13920.0,415.0,9.01563,409.0,423.0
13930.0,414.0,8.929613,409.0,423.0
13940.0,414.0,8.80482,409.0,421.5
13950.0,414.0,8.423777,409.0,421.0
13960.0,414.0,7.50593,409.0,421.0
13970.0,414.0,7.3375745,409.0,420.0
13980.0,414.0,7.1161785,409.0,420.0
13990.0,414.0,6.599196,409.0,420.0
14000.0,413.0,6.229452,409.0,419.0
14010.0,413.0,5.8514957,411.0,419.0
14020.0,413.0,5.635232,411.0,419.0
14030.0,413.0,5.3891854,411.0,418.0
14040.0,413.0,4.730398,411.0,418.0
14050.0,413.0,4.584558,411.0,417.0
14060.0,414.0,4.1830587,411.0,417.0
14070.0,414.0,3.9775124,412.0,417.0
14080.0,414.0,4.194858,412.0,417.0
14090.0,414.0,3.7757645,412.0,417.0
14100.0,414.0,3.7681723,412.0,417.0
14110.0,414.0,3.243651,412.0,416.0
14120.0,414.0,2.887852,414.0,416.0
14130.0,414.0,2.881026,414.0,416.0
14140.0,414.0,2.4587307,414.0,416.0
14150.0,415.0,2.2306457,414.0,416.0
14160.0,415.0,2.2426713,414.0,416.0
14170.0,415.0,1.5012146,414.0,416.0
14180.0,415.0,1.5012146,414.0,416.0
14190.0,415.0,1.4787773,414.0,416.0
14200.0,415.0,1.4785578,414.0,416.0
14210.0,415.0,1.4915886,414.0,416.0
14220.0,415.0,1.7623259,414.0,416.0
14230.0,414.0,1.3478041,414.0,416.0
14240.0,415.0,1.4276044,414.0,416.0
14250.0,415.0,1.5023749,413.0,416.0
14260.0,415.0,1.8046511,413.0,415.0
14270.0,415.0,2.1896825,413.0,415.0
14280.0,415.0,2.1908903,413.0,415.0
14290.0,415.0,2.486611,413.0,419.0
14300.0,415.0,2.504587,413.0,419.0
14310.0,416.0,2.8398616,413.0,419.0
14320.0,414.0,2.903829,412.0,416.0
14330.0,416.0,4.1944046,414.0,420.0
14340.0,416.0,4.3217897,414.0,420.0
14350.0,414.0,4.6877394,412.0,420.0
14360.0,415.0,4.1218076,412.0,419.0
14370.0,414.0,2.347697,412.0,415.0
14380.0,412.0,3.0272012,412.0,416.0
14390.0,414.0,4.16385,412.0,416.0
14400.0,414.0,4.653855,412.0,417.0
14410.0,414.0,4.6899896,411.0,420.0
14420.0,413.5,4.224229,411.0,420.0
14430.0,414.0,4.5943117,411.0,420.0
14440.0,414.0,4.784727,412.0,417.0
14450.0,414.0,3.5628989,410.0,416.0
14460.0,414.0,4.528583,410.0,417.0
14470.0,414.0,5.001256,410.0,417.0
14480.0,414.0,4.80017,412.0,417.0
14490.0,414.0,3.8936656,411.5,414.75
14500.0,414.0,3.9410455,411.0,417.0
14510.0,414.0,4.841768,412.0,418.0
14520.0,415.0,4.988933,411.0,421.0
14530.0,415.0,4.39306,411.0,418.0
14540.0,415.0,5.095848,413.0,418.0
14550.0,415.0,5.0156326,413.0,420.0
14560.0,416.0,5.2118387,412.0,422.0
14570.0,416.0,4.95128,412.0,420.0
14580.0,416.0,5.570625,413.0,423.0
14590.0,416.0,5.438722,413.0,423.0
14600.0,418.0,6.0514693,413.0,423.0
14610.0,417.0,6.851065,414.0,423.0
14620.0,417.0,6.838583,415.0,424.0
14630.0,420.0,5.661983,415.0,424.0
14640.0,420.0,6.2815604,415.0,424.0
14650.0,419.0,6.8932652,416.0,426.0
14660.0,419.0,6.8491545,416.0,426.0
14670.0,421.0,8.126084,416.75,425.0
14680.0,421.0,8.839351,419.0,425.0
14690.0,421.0,8.920987,419.0,431.0
14700.0,423.0,6.5800347,419.0,428.0
14710.0,423.0,7.757535,419.0,428.0
14720.0,422.0,8.392153,421.0,428.0
14730.0,422.0,8.493097,421.0,432.0
14740.0,427.0,10.020313,421.0,432.0
14750.0,427.0,10.852674,421.25,432.0
14760.0,424.0,11.409965,420.0,439.0
14770.0,424.0,12.184375,422.0,439.0
14780.0,428.0,13.414597,422.0,439.0
14790.0,428.0,13.884277,422.0,439.0
14800.0,427.0,12.647676,422.0,439.0
14810.0,427.0,11.629269,422.0,439.0
14820.0,426.0,12.895961,424.0,446.0
14830.0,430.0,13.211691,424.0,446.0
14840.0,430.0,14.4900675,425.0,440.0
14850.0,431.0,15.841655,425.0,446.0
14860.0,431.0,15.526416,426.0,446.0
14870.0,431.0,13.54551,426.0,446.0
14880.0,431.0,12.906655,428.0,446.0
14890.0,435.0,14.31409,428.25,452.0
14900.0,435.0,14.767793,428.0,446.0
14910.0,434.0,14.723859,429.0,446.0
14920.0,435.0,13.790055,431.0,446.0
14930.0,439.0,11.278922,431.0,446.0
14940.0,437.0,12.140453,430.5,449.0
14950.0,437.0,13.134916,432.0,449.0
14960.0,437.0,13.266564,432.0,445.0
14970.0,437.0,11.286351,432.0,445.0
14980.0,436.0,11.260061,432.0,452.0
14990.0,436.0,11.945764,434.0,452.0
15000.0,441.0,12.225187,435.0,448.5
15010.0,440.0,10.583151,434.0,445.0
15020.0,439.0,9.789538,435.0,451.0
15030.0,439.0,11.106549,435.0,451.0
15040.0,439.0,11.674462,435.0,451.0
15050.0,439.0,9.879688,435.0,445.0
15060.0,441.0,10.362837,435.0,451.0
15070.0,441.0,8.4800415,435.0,445.0
15080.0,439.0,9.841624,436.0,445.0
15090.0,439.0,10.988919,438.0,452.0
15100.0,439.0,10.493487,438.0,452.0
15110.0,441.0,8.937529,438.0,452.0
15120.0,441.0,8.927788,438.0,447.0
15130.0,443.0,9.989611,440.0,453.0
15140.0,443.0,10.165334,440.0,453.0
15150.0,443.0,8.152871,440.0,451.75
15160.0,443.0,10.785307,440.0,455.0
15170.0,442.0,10.4751625,440.0,455.0
15180.0,445.0,9.155982,440.0,455.0
15190.0,445.0,8.189392,442.0,453.0
15200.0,445.0,10.565862,443.0,451.0
15210.0,444.0,10.828556,443.0,458.0
15220.0,444.0,10.23831,443.0,458.0
15230.0,447.0,8.530243,444.0,458.0
15240.0,447.0,7.9000773,444.0,453.0
15250.0,446.5,6.0603304,445.0,453.0
15260.0,446.5,5.761508,445.0,450.0
15270.0,447.0,4.579795,445.0,450.0
15280.0,449.5,6.451447,445.0,456.0
15290.0,449.0,7.05939,446.0,456.0
15300.0,449.0,6.7344923,446.0,453.0
15310.0,449.0,5.689047,446.0,453.0
15320.0,449.0,5.076941,446.0,453.0
15320.0,449.0,5.076941,446.0,453.0
15320.0,449.0,4.749846,448.0,452.0
