distance,median,stdev,prc_25,prc_75
20.0,1.0,0.0,1.0,1.0
30.0,1.0,0.11894547,1.0,1.0
40.0,1.0,0.25667733,1.0,1.0
50.0,1.0,0.38765582,1.0,1.0
60.0,1.0,0.4647179,1.0,2.0
70.0,1.0,0.49284256,1.0,2.0
80.0,1.0,0.49776566,1.0,2.0
90.0,1.0,0.49880004,1.0,2.0
100.0,1.0,0.49997732,1.0,2.0
110.0,2.0,0.49540973,1.0,2.0
120.0,2.0,0.48525938,1.0,2.0
130.0,2.0,0.48024893,1.0,2.0
140.0,2.0,0.48191288,1.0,2.0
150.0,2.0,0.47415972,1.0,2.0
160.0,2.0,0.50064665,1.0,2.0
170.0,2.0,0.5914178,2.0,2.0
180.0,2.0,0.627678,2.0,3.0
190.0,2.0,0.6152203,2.0,3.0
200.0,2.0,0.60718775,2.0,3.0
210.0,2.0,0.57211745,2.0,3.0
220.0,3.0,0.5124022,2.0,3.0
230.0,3.0,0.49644,2.0,3.0
240.0,3.0,0.4932995,2.0,3.0
250.0,3.0,0.48170945,2.0,3.0
260.0,3.0,0.49038225,2.0,3.0
270.0,3.0,0.57089883,3.0,3.0
280.0,3.0,0.6079843,3.0,3.0
290.0,3.0,0.60076576,3.0,4.0
300.0,3.0,0.5861049,3.0,4.0
310.0,3.0,0.5609269,3.0,4.0
320.0,4.0,0.50001776,3.0,4.0
330.0,4.0,0.49272203,3.0,4.0
340.0,4.0,0.48396096,3.0,4.0
350.0,4.0,0.46503797,3.0,4.0
360.0,4.0,0.4932251,3.0,4.0
370.0,4.0,0.57069874,4.0,4.0
380.0,4.0,0.614109,4.0,4.0
390.0,4.0,0.5953151,4.0,5.0
400.0,4.0,0.5767712,4.0,5.0
410.0,4.0,0.5687803,4.0,5.0
420.0,5.0,0.5309987,4.0,5.0
430.0,5.0,0.49494818,4.0,5.0
440.0,5.0,0.55444026,4.0,5.0
450.0,5.0,0.6448062,4.0,5.0
460.0,5.0,0.67629606,5.0,5.0
470.0,5.0,0.6574831,5.0,6.0
480.0,5.0,0.6407141,5.0,6.0
490.0,5.0,0.58920115,5.0,6.0
500.0,6.0,0.5291163,5.0,6.0
510.0,6.0,0.49362648,5.0,6.0
520.0,6.0,0.5200423,5.0,6.0
530.0,6.0,0.5690953,5.0,6.0
540.0,6.0,0.6303732,6.0,6.0
550.0,6.0,0.6766949,6.0,7.0
560.0,6.0,0.67094254,6.0,7.0
570.0,6.0,0.59785825,6.0,7.0
580.0,6.0,0.5286927,6.0,7.0
590.0,7.0,0.50953805,6.0,7.0
600.0,7.0,0.5379559,6.0,7.0
610.0,7.0,0.570767,6.0,7.0
620.0,7.0,0.5947024,7.0,7.0
630.0,7.0,0.59824526,7.0,7.0
640.0,7.0,0.5797032,7.0,8.0
650.0,7.0,0.5714041,7.0,8.0
660.0,8.0,0.5579167,7.0,8.0
670.0,8.0,0.5521843,7.0,8.0
680.0,8.0,0.57982075,7.0,8.0
690.0,8.0,0.6375077,7.0,8.0
700.0,8.0,0.6777449,8.0,8.0
710.0,8.0,0.65604144,8.0,9.0
720.0,8.0,0.61114645,8.0,9.0
730.0,9.0,0.5579465,8.0,9.0
740.0,9.0,0.5256606,8.0,9.0
750.0,9.0,0.48893544,8.0,9.0
760.0,9.0,0.48923048,8.0,9.0
770.0,9.0,0.5371694,9.0,9.0
780.0,9.0,0.5982252,9.0,9.0
790.0,9.0,0.6134429,9.0,10.0
800.0,9.0,0.5993447,9.0,10.0
810.0,10.0,0.5725971,9.0,10.0
820.0,10.0,0.54919845,9.0,10.0
830.0,10.0,0.49977493,9.0,10.0
840.0,10.0,0.5535472,10.0,10.0
850.0,10.0,0.65808743,10.0,11.0
860.0,10.0,0.694849,10.0,11.0
870.0,11.0,0.66622156,10.0,11.0
880.0,11.0,0.6494274,10.0,11.0
890.0,11.0,0.6061472,10.0,11.0
900.0,11.0,0.64831173,10.0,11.0
910.0,11.0,0.7156983,11.0,12.0
920.0,11.0,0.7707656,11.0,12.0
930.0,12.0,0.79376787,11.0,12.0
940.0,12.0,0.81961894,11.0,12.0
950.0,12.0,0.81109744,11.0,12.0
960.0,12.0,0.7991939,11.0,12.0
970.0,12.0,0.78167087,11.0,12.5
980.0,12.0,0.7741214,12.0,13.0
990.0,12.0,0.7920701,12.0,13.0
1000.0,13.0,0.8358616,12.0,13.0
1010.0,13.0,0.87898374,12.0,13.0
1020.0,13.0,0.88759446,12.0,13.0
1030.0,13.0,0.895751,12.0,13.0
1040.0,13.0,0.90009415,12.0,14.0
1050.0,13.0,0.8791354,12.0,14.0
1060.0,13.0,0.8556292,13.0,14.0
1070.0,13.0,0.8983963,13.0,14.0
1080.0,14.0,0.9445748,13.0,14.0
1090.0,14.0,0.9436791,13.0,14.0
1100.0,14.0,0.9378507,13.0,14.0
1110.0,14.0,0.9013613,13.0,15.0
1120.0,14.0,0.82181394,13.0,15.0
1130.0,14.0,0.75280213,13.0,15.0
1140.0,14.0,0.74596006,14.0,15.0
1150.0,14.0,0.79732305,14.0,15.0
1160.0,14.0,0.8642199,14.0,15.0
1170.0,15.0,0.8820802,14.0,15.0
1180.0,15.0,0.8537207,14.0,15.0
1190.0,15.0,0.7884369,14.0,15.0
1200.0,15.0,0.77076554,14.0,15.0
1210.0,15.0,0.7876141,14.0,15.0
1220.0,15.0,0.76625174,14.0,15.0
1230.0,15.0,0.7272725,15.0,16.0
1240.0,15.0,0.75764835,15.0,16.0
1250.0,16.0,0.7742858,15.0,16.0
1260.0,16.0,0.7039094,15.0,16.0
1270.0,16.0,0.7680598,15.0,16.0
1280.0,16.0,0.6527939,15.0,16.0
1290.0,16.0,0.5703192,15.0,16.0
1300.0,16.0,0.5366181,15.0,16.0
1310.0,16.0,0.62744963,15.0,16.0
1320.0,16.0,0.688767,16.0,16.0
1330.0,16.0,0.80384177,16.0,17.0
1340.0,16.0,0.85631245,16.0,17.0
1350.0,17.0,0.8585476,16.0,17.0
1360.0,17.0,0.7820016,16.0,17.0
1370.0,17.0,0.7549669,16.0,17.0
1380.0,17.0,0.7621312,16.0,17.0
1390.0,17.0,0.7992703,16.0,17.0
1400.0,17.0,0.8011093,16.0,17.0
1410.0,17.0,0.81679225,17.0,17.0
1420.0,17.0,0.8466782,17.0,17.0
1430.0,17.0,0.8911992,17.0,18.0
1440.0,17.0,0.92245597,17.0,18.0
1450.0,17.0,0.9321609,17.0,18.0
1460.0,18.0,0.9467777,17.0,18.0
1470.0,18.0,0.96186477,17.0,18.0
1480.0,18.0,0.9689396,17.0,18.0
1490.0,18.0,1.0054904,17.0,18.0
1500.0,18.0,1.0579906,17.0,18.25
1510.0,18.0,1.1080426,17.0,19.0
1520.0,18.0,1.1353196,18.0,19.0
1530.0,19.0,1.1339753,18.0,19.0
1540.0,19.0,1.1081158,18.0,19.0
1550.0,19.0,1.0758806,18.0,19.0
1560.0,19.0,1.0974824,18.0,19.0
1570.0,19.0,1.1680051,18.0,19.0
1580.0,19.0,1.2349495,18.0,20.0
1590.0,19.0,1.2706485,18.0,20.0
1600.0,19.0,1.3022733,18.0,20.0
1610.0,20.0,1.2712256,18.0,20.0
1620.0,20.0,1.2366531,19.0,20.0
1630.0,20.0,1.248727,19.0,20.0
1640.0,20.0,1.3338931,19.0,20.0
1650.0,20.0,1.4371235,19.0,21.0
1660.0,20.0,1.5079255,19.0,21.0
1670.0,20.0,1.511176,19.0,21.0
1680.0,20.0,1.4665116,19.0,21.0
1690.0,21.0,1.4137417,19.0,21.0
1700.0,21.0,1.3863761,19.0,21.0
1710.0,21.0,1.4359217,19.0,21.0
1720.0,21.0,1.4657696,19.0,21.0
1730.0,21.0,1.556257,20.0,22.0
1740.0,21.0,1.586069,20.0,22.0
1750.0,21.0,1.6156968,20.0,22.0
1760.0,22.0,1.5878662,20.0,22.0
1770.0,22.0,1.5733488,20.0,22.0
1780.0,22.0,1.5439897,20.0,22.0
1790.0,22.0,1.6148381,20.0,22.0
1800.0,22.0,1.7063922,20.0,22.0
1810.0,22.0,1.74,20.0,23.0
1820.0,22.0,1.7104627,20.0,23.0
1830.0,22.0,1.7174213,21.0,23.0
1840.0,22.0,1.733969,21.0,23.0
1850.0,23.0,1.6859344,21.0,23.0
1860.0,23.0,1.6920745,21.0,23.0
1870.0,23.0,1.7998121,21.0,23.0
1880.0,23.0,1.8891732,21.0,24.0
1890.0,23.0,1.8624392,21.0,24.0
1900.0,23.0,1.8124233,21.0,24.0
1910.0,23.0,1.7772912,21.0,24.0
1920.0,24.0,1.7750099,21.0,24.0
1930.0,24.0,1.7888988,22.0,24.0
1940.0,24.0,1.8119326,22.0,24.0
1950.0,24.0,1.8395631,22.0,24.0
1960.0,24.0,1.8410769,22.0,25.0
1970.0,24.0,0.8849106,23.0,24.0
1980.0,24.0,0.73492366,23.0,24.0
1990.0,24.0,0.826934,23.0,24.0
2000.0,24.0,0.84138066,23.0,25.0
2010.0,24.0,0.7765565,24.0,25.0
2020.0,24.0,0.73434347,24.0,25.0
2030.0,25.0,0.63122684,24.0,25.0
2040.0,25.0,0.6124108,24.0,25.0
2050.0,25.0,0.72896314,24.0,25.0
2060.0,25.0,0.72077256,24.0,25.0
2070.0,25.0,0.74732274,24.0,26.0
2080.0,25.0,0.68598855,25.0,26.0
2090.0,25.0,0.69325435,25.0,26.0
2100.0,26.0,0.66532737,25.0,26.0
2110.0,26.0,0.6479171,25.0,26.0
2120.0,26.0,0.5296834,25.0,26.0
2130.0,26.0,0.63376504,25.0,26.0
2140.0,26.0,0.6731958,26.0,27.0
2150.0,26.0,0.6672359,26.0,27.0
2160.0,27.0,0.5942574,26.0,27.0
2170.0,27.0,0.5785204,26.0,27.0
2180.0,27.0,0.5503795,26.0,27.0
2190.0,27.0,0.6474701,27.0,27.0
2200.0,27.0,0.67566955,27.0,28.0
2210.0,27.0,0.681947,27.0,28.0
2220.0,28.0,0.6059322,27.0,28.0
2230.0,28.0,0.5633675,27.0,28.0
2240.0,28.0,0.4856071,28.0,28.0
2250.0,28.0,0.6106357,28.0,28.0
2260.0,28.0,0.67124623,28.0,29.0
2270.0,28.0,0.67009914,28.0,29.0
2280.0,29.0,0.5698881,28.0,29.0
2290.0,29.0,0.5890925,28.0,29.0
2300.0,29.0,0.6171896,29.0,29.0
2310.0,29.0,0.6267493,29.0,30.0
2320.0,30.0,0.6086414,29.0,30.0
2330.0,30.0,0.52239144,29.0,30.0
2340.0,30.0,0.58168083,29.0,30.0
2350.0,30.0,0.6340955,30.0,30.0
2360.0,30.0,0.64799005,30.0,31.0
2370.0,31.0,0.6292803,30.0,31.0
2380.0,31.0,0.6968559,30.0,31.0
2390.0,31.0,0.5929912,31.0,31.0
2400.0,31.0,0.60597396,31.0,31.0
2410.0,31.0,0.6393675,31.0,32.0
2420.0,31.0,0.6542382,31.0,32.0
2430.0,32.0,0.72342837,31.0,32.0
2440.0,32.0,0.65978366,32.0,32.0
2450.0,32.0,1.0171193,31.0,33.0
2460.0,30.0,2.3396597,29.0,32.0
2470.0,30.0,2.4334233,29.0,32.0
2480.0,31.0,2.4391763,29.0,32.0
2490.0,31.0,2.2313843,29.0,32.0
2500.0,31.0,2.3765697,29.0,33.0
2510.0,31.0,2.4013598,29.0,33.0
2520.0,31.0,2.3803303,30.0,33.0
2530.0,31.0,2.5375943,30.0,34.0
2540.0,32.0,2.6787589,30.0,34.0
2550.0,32.0,2.6274369,31.0,34.0
2560.0,32.0,2.3711855,30.25,33.0
2570.0,32.0,2.4428551,30.0,34.0
2580.0,33.0,2.5253515,31.0,34.0
2590.0,33.0,2.5487854,31.0,34.0
2600.0,33.0,2.6500924,31.0,35.0
2610.0,33.0,2.6261787,32.0,35.0
2620.0,33.0,2.3405511,32.0,35.0
2630.0,33.0,2.3518147,32.0,35.0
2640.0,34.0,2.3504362,32.0,35.0
2650.0,34.0,2.3433812,33.0,35.0
2660.0,34.0,2.4493158,33.0,36.0
2670.0,35.0,2.5139437,32.25,36.0
2680.0,35.0,2.482427,33.0,36.0
2690.0,35.0,2.2451108,33.0,36.0
2700.0,35.0,2.3636866,33.0,37.0
2710.0,35.0,2.298028,34.0,37.0
2720.0,35.0,2.3282568,34.0,37.0
2730.0,36.0,2.3431354,34.0,37.0
2740.0,36.0,2.3843484,35.0,37.0
2750.0,36.0,2.2285764,35.0,37.0
2760.0,36.0,2.2385795,34.0,38.0
2770.0,37.0,2.2786858,35.0,38.0
2780.0,37.0,2.2633958,35.0,38.0
2790.0,37.0,2.1908772,35.0,38.0
2800.0,37.0,2.0646303,36.0,38.0
2810.0,37.0,2.1264362,36.0,38.0
2820.0,37.0,1.935684,36.0,38.0
2830.0,38.0,2.0583189,36.0,39.0
2840.0,38.0,2.02366,36.0,39.0
2850.0,38.0,2.0424373,36.0,39.0
2860.0,38.0,1.9536457,36.0,39.0
2870.0,38.0,1.8819255,37.0,39.0
2880.0,38.0,1.899591,37.0,39.0
2890.0,39.0,2.0945404,37.0,40.0
2900.0,39.0,4.6267753,37.0,40.0
2910.0,40.0,6.015097,38.0,41.0
2920.0,40.0,6.488549,38.0,50.0
2930.0,40.0,6.344037,39.0,51.0
2940.0,41.0,5.963174,39.0,50.0
2950.0,41.0,5.5977087,39.0,49.0
2960.0,41.0,4.976488,40.0,49.0
2970.0,42.0,0.6082032,41.0,42.0
2980.0,42.0,0.3448276,42.0,42.0
2990.0,42.0,0.35050705,42.0,42.0
3000.0,42.0,0.35108972,42.0,42.0
3010.0,42.0,0.35167518,42.0,42.0
3020.0,42.0,0.36529362,42.0,42.0
3030.0,42.0,0.42773354,42.0,42.0
3040.0,42.0,0.4895632,42.0,43.0
3050.0,43.0,0.60676503,42.0,43.0
3060.0,43.0,0.68928784,42.0,43.0
3070.0,43.0,0.6978977,42.0,43.0
3080.0,43.0,0.7057868,43.0,43.0
3090.0,43.0,0.77725244,43.0,43.0
3100.0,43.0,0.9569719,43.0,44.0
3110.0,43.0,1.1532804,43.0,44.0
3120.0,43.0,1.5227472,43.0,45.0
3130.0,43.0,1.815156,43.0,45.0
3140.0,43.0,2.0594501,43.0,46.0
3150.0,43.0,2.329462,43.0,46.0
3160.0,44.0,2.4709973,43.0,47.0
3170.0,44.0,2.6352947,43.0,47.0
3180.0,44.0,2.8379536,43.0,47.0
3190.0,44.0,3.0352006,43.0,47.0
3200.0,44.0,2.8633838,44.0,47.0
3210.0,44.0,2.5742075,44.0,47.0
3220.0,44.0,2.5899158,44.0,47.0
3230.0,44.0,0.6718201,44.0,45.0
3240.0,44.0,0.6718201,44.0,45.0
3250.0,44.0,0.6718201,44.0,45.0
3260.0,44.5,0.8707003,44.0,46.0
3270.0,44.5,0.8707003,44.0,46.0
3280.0,44.5,0.8707003,44.0,46.0
3290.0,45.0,1.201928,45.0,46.0
3300.0,45.0,1.201928,45.0,46.0
3310.0,45.0,1.201928,45.0,46.0
3320.0,46.0,1.3251805,45.0,47.0
3330.0,46.0,1.3251805,45.0,47.0
3340.0,46.0,1.3251805,45.0,47.0
3350.0,46.0,1.6216632,45.0,47.0
3360.0,46.0,1.6216632,45.0,47.0
3370.0,46.0,1.6216632,45.0,47.0
3380.0,47.0,1.6821958,46.0,48.0
3390.0,47.0,1.6821958,46.0,48.0
3400.0,47.0,1.6821958,46.0,48.0
3410.0,47.0,2.0181851,46.0,49.0
3420.0,47.0,2.0181851,46.0,49.0
3430.0,47.0,2.0181851,46.0,49.0
3440.0,47.0,1.6738516,47.0,49.0
3450.0,47.0,1.6738516,47.0,49.0
3460.0,47.0,1.6738516,47.0,49.0
3470.0,48.0,1.9567897,47.0,50.0
3480.0,48.0,1.9567897,47.0,50.0
3490.0,48.0,1.9567897,47.0,50.0
3500.0,48.0,2.3166173,47.0,50.0
3510.0,48.0,2.3166173,47.0,50.0
3520.0,48.0,2.3166173,47.0,50.0
3530.0,49.0,2.3166173,48.0,51.0
3540.0,49.0,2.3166173,48.0,51.0
3550.0,49.0,2.3166173,48.0,51.0
3560.0,49.0,2.5541148,48.0,51.0
3570.0,49.0,2.5541148,48.0,51.0
3580.0,49.0,2.5541148,48.0,51.0
3590.0,50.0,2.6255615,49.0,52.0
3600.0,50.0,2.6255615,49.0,52.0
3610.0,50.0,2.6255615,49.0,52.0
3620.0,50.0,2.9280255,49.0,52.0
3630.0,50.0,2.9280255,49.0,52.0
3640.0,50.0,2.9280255,49.0,52.0
3650.0,51.0,2.6255615,50.0,53.0
3660.0,51.0,2.6255615,50.0,53.0
3670.0,51.0,2.6255615,50.0,53.0
3680.0,51.0,2.9280255,50.0,53.0
3690.0,51.0,2.9280255,50.0,53.0
3700.0,51.0,2.9280255,50.0,53.0
3710.0,51.0,2.7082562,51.0,54.0
3720.0,51.0,2.7082562,51.0,54.0
3730.0,51.0,2.7082562,51.0,54.0
3740.0,52.0,2.5541148,51.0,54.0
3750.0,52.0,2.5541148,51.0,54.0
3760.0,52.0,2.5541148,51.0,54.0
3770.0,53.0,2.8077238,52.0,54.0
3780.0,53.0,2.8077238,52.0,54.0
3790.0,53.0,2.8077238,52.0,54.0
3800.0,54.0,2.4355814,53.0,55.0
3810.0,54.0,2.4355814,53.0,55.0
3820.0,54.0,2.4355814,53.0,55.0
3830.0,54.0,2.232887,53.0,55.0
3840.0,54.0,2.232887,53.0,55.0
3850.0,54.0,2.232887,53.0,55.0
3860.0,55.0,2.2787604,54.0,56.0
3870.0,55.0,2.2787604,54.0,56.0
3880.0,56.0,2.182987,54.0,57.0
3890.0,56.0,2.247181,54.0,57.0
3900.0,56.0,2.2698896,54.0,57.5
3910.0,56.0,2.087073,55.0,57.5
3920.0,56.0,1.9254861,55.0,57.5
3930.0,57.0,1.9769626,55.0,58.0
3940.0,56.5,2.0735447,56.0,58.0
3950.0,56.5,1.994293,56.0,58.0
3960.0,57.0,2.002662,56.0,59.0
3970.0,57.0,2.2766838,56.0,59.0
3980.0,57.0,2.1844838,57.0,59.0
3990.0,58.0,2.1943924,57.0,59.5
4000.0,58.0,1.9969321,57.0,59.5
4010.0,58.0,1.865228,58.0,60.0
4020.0,59.0,2.0322883,57.5,61.0
4030.0,59.0,2.0198677,58.0,61.0
4040.0,59.0,2.0031838,58.0,61.0
4050.0,59.0,2.1237733,58.0,61.0
4060.0,59.0,2.2622385,58.0,61.0
4070.0,60.0,2.2365656,58.0,61.0
4080.0,60.0,2.3734007,58.0,62.0
4090.0,60.0,2.2426803,59.0,62.0
4100.0,61.0,1.9788383,59.0,62.0
4110.0,61.0,2.235146,60.0,63.0
4120.0,61.0,2.1091988,60.0,63.0
4130.0,61.0,2.1091988,60.0,63.0
4140.0,61.0,2.1672757,60.0,64.0
4150.0,61.0,1.9412109,61.0,64.0
4160.0,61.0,1.8376803,61.0,64.0
4170.0,61.0,2.1744711,61.0,64.0
4180.0,62.5,2.1480918,61.0,64.0
4190.0,63.0,1.8832935,62.0,64.0
4200.0,63.0,1.8827565,62.0,64.0
4210.0,63.5,1.6912103,62.0,64.0
4220.0,63.5,1.6912104,62.0,64.0
4230.0,64.0,1.7675717,62.0,65.0
4240.0,63.5,1.538118,63.0,65.0
4250.0,64.0,1.3908914,63.0,65.0
4260.0,64.5,1.7826686,63.0,66.0
4270.0,64.5,1.6458316,64.0,66.0
4280.0,64.5,1.6256775,64.0,66.0
4290.0,65.0,1.7557073,64.0,67.0
4300.0,65.0,1.5144215,64.0,67.0
4310.0,65.0,1.35014,65.0,67.0
4320.0,65.0,2.199513,65.0,68.0
4330.0,65.5,2.562402,65.0,68.0
4340.0,65.5,2.562402,65.0,68.0
4350.0,66.0,2.547449,65.0,68.0
4360.0,66.0,2.547449,65.0,68.0
4370.0,67.0,2.547449,66.0,69.0
4380.0,67.0,2.547449,66.0,69.0
4390.0,67.0,2.547449,66.0,69.0
4400.0,68.0,2.36683,67.0,70.0
4410.0,68.0,2.36683,67.0,70.0
4420.0,68.0,2.36683,67.0,70.0
4430.0,69.0,2.36683,68.0,71.0
4440.0,69.0,2.36683,68.0,71.0
4450.0,69.0,2.36683,68.0,71.0
4460.0,70.0,2.819265,68.0,72.0
4470.0,70.0,2.819265,68.0,72.0
4480.0,70.0,2.819265,68.0,72.0
4490.0,71.0,2.930486,69.0,74.0
4500.0,71.0,2.930486,69.0,74.0
4510.0,71.0,2.930486,69.0,74.0
4520.0,72.0,2.5838,69.0,73.0
4530.0,67.0,3.0200717,66.0,70.0
4540.0,67.0,2.5112762,67.0,70.0
4550.0,68.0,2.564711,67.0,72.0
4560.0,69.0,2.407683,68.0,73.0
4570.0,71.0,2.171109,68.0,72.0
4580.0,70.5,1.8209164,69.0,72.0
4590.0,71.5,2.0696723,70.0,73.0
4600.0,71.0,1.9441236,70.0,74.0
4610.0,73.0,1.6684346,71.0,75.0
4620.0,73.0,1.0671755,72.0,74.0
4630.0,73.0,1.5563854,72.0,74.0
4640.0,74.0,1.6476469,72.0,74.0
4650.0,74.0,1.3657691,72.0,74.0
4660.0,74.0,0.81875575,74.0,75.0
4670.0,74.0,1.1784885,74.0,76.0
4680.0,75.0,1.1616917,74.0,76.0
4690.0,76.0,0.9571087,75.0,76.0
4700.0,76.0,0.5639778,75.0,76.0
4710.0,76.0,0.8757076,75.0,76.0
4720.0,76.0,1.2143373,75.0,77.0
4730.0,77.0,1.131874,76.0,78.0
4740.0,77.0,1.4494557,77.0,78.0
4750.0,77.0,1.6639782,77.0,80.0
4760.0,78.0,1.5849178,77.0,80.0
4770.0,79.0,2.1259425,78.0,80.0
4780.0,79.0,2.1847157,79.0,83.0
4790.0,79.0,2.210401,79.0,83.0
4800.0,79.0,1.7793052,79.0,81.0
4810.0,81.0,2.4876115,79.0,81.0
4820.0,80.5,2.4392776,80.0,84.0
4830.0,80.5,2.8402436,80.0,84.0
4840.0,82.5,3.6981761,80.0,84.0
4850.0,82.0,3.9250574,80.0,88.0
4860.0,82.5,4.443251,81.0,88.0
4870.0,83.0,5.0854006,81.0,88.0
4880.0,83.0,5.2570033,81.0,92.0
4890.0,83.0,4.658881,81.0,89.0
4900.0,83.0,4.7969804,81.0,89.0
4910.0,84.0,5.303636,82.0,89.0
4920.0,84.0,5.3205514,82.0,93.0
4930.0,84.0,4.322628,82.0,90.0
4940.0,84.0,4.628101,82.0,90.0
4950.0,85.0,5.1506424,82.0,90.0
4960.0,85.0,5.345214,83.0,93.0
4970.0,85.0,6.550857,83.0,93.0
4980.0,84.0,6.612416,81.0,93.0
4990.0,87.0,7.2158136,81.0,93.0
5000.0,87.0,7.75469,82.0,95.0
5010.0,85.0,7.4680533,82.0,95.0
5020.0,86.5,6.7223854,82.0,95.0
5030.0,88.0,7.426121,82.0,95.0
5040.0,88.0,8.140033,82.0,96.0
5050.0,87.0,7.8508825,83.0,96.0
5060.0,87.0,6.9851317,83.0,96.0
5070.0,84.0,6.4503245,83.0,93.0
5080.0,84.0,6.2204676,83.0,93.0
5090.0,86.0,5.601259,83.0,93.0
5100.0,87.0,6.894636,84.0,96.75
5110.0,86.0,7.122258,84.0,95.0
5120.0,86.0,6.695005,84.0,95.0
5130.0,87.5,8.244711,84.75,96.5
5140.0,86.0,7.259986,83.0,93.0
5150.0,86.0,6.913456,84.0,93.0
5160.0,86.0,8.8351,84.0,97.0
5170.0,87.0,8.485141,84.0,96.0
5180.0,88.0,8.404537,85.0,96.0
5190.0,88.0,7.9017406,85.0,96.0
5200.0,88.0,7.74873,85.0,95.0
5210.0,88.0,7.5832057,86.0,95.0
5220.0,88.0,7.2747326,86.0,95.0
5230.0,87.0,7.020383,86.0,94.0
5240.0,90.0,6.985894,87.0,97.0
5250.0,87.0,4.657786,86.0,94.0
5260.0,88.0,4.3124857,87.0,93.0
5270.0,90.0,4.429889,87.0,93.0
5280.0,88.0,4.4336925,87.0,93.0
5290.0,90.0,3.8945003,88.0,93.0
5300.0,89.0,3.8572984,88.0,93.0
5310.0,89.0,3.9007459,88.0,93.0
5320.0,91.0,3.565804,89.0,94.0
5330.0,90.0,3.565804,89.0,94.0
5340.0,91.0,3.5618632,89.0,94.0
5350.0,91.0,3.3499587,90.0,94.0
5360.0,91.0,3.3578162,90.0,94.0
5370.0,91.0,3.3791354,90.0,94.0
5380.0,92.0,3.028376,91.0,95.0
5390.0,92.0,3.0221863,91.0,95.0
5400.0,92.0,3.3352554,91.0,95.0
5410.0,92.0,3.625555,91.0,95.0
5420.0,92.0,3.6305826,91.0,96.0
5430.0,93.0,3.719868,91.0,96.0
5440.0,94.0,3.6625264,92.0,97.0
5450.0,94.0,3.4425075,92.0,97.0
5460.0,94.0,1.9212213,92.0,95.0
5470.0,94.0,1.9607073,93.0,95.0
5480.0,95.0,1.8500143,93.0,95.0
5490.0,95.0,1.8623807,93.0,96.0
5500.0,95.0,1.9693292,94.0,96.0
5510.0,96.0,1.8671486,94.0,97.0
5520.0,96.0,2.1095319,95.0,97.0
5530.0,97.0,2.3203435,96.0,100.0
5540.0,97.0,2.1190631,96.0,100.0
5550.0,97.0,2.4067233,96.0,101.0
5560.0,97.0,2.7092948,95.0,101.0
5570.0,98.5,2.6316187,95.0,101.0
5580.0,98.0,2.334285,96.0,99.0
5590.0,98.0,3.1990938,97.0,102.0
5600.0,99.0,3.514738,98.0,102.0
5610.0,99.0,3.419935,98.0,102.0
5620.0,99.0,3.3701625,98.0,102.0
5630.0,99.0,3.32187,98.0,102.0
5640.0,99.0,3.2959232,98.0,103.0
5650.0,99.0,3.4968605,98.0,103.0
5660.0,101.0,5.844532,98.0,108.0
5670.0,100.0,6.2276196,98.0,108.0
5680.0,101.0,6.130749,98.0,108.0
5690.0,101.0,6.253482,98.0,109.0
5700.0,101.0,6.0465713,99.0,109.0
5710.0,101.0,5.889987,99.0,109.0
5720.0,101.0,6.1974316,99.0,109.0
5730.0,101.0,6.1974316,99.0,109.0
5740.0,102.0,6.1819735,99.0,109.0
5750.0,102.0,6.241096,99.0,110.0
5760.0,102.0,6.0169525,100.0,110.0
5770.0,103.0,5.5841513,100.0,110.0
5780.0,103.0,5.865729,101.0,107.0
5790.0,104.5,5.656854,101.75,108.0
5800.0,104.5,5.656854,101.75,108.0
5810.0,106.0,5.764258,102.0,111.0
5820.0,106.0,5.714015,102.0,111.0
5830.0,106.0,5.630873,102.0,111.0
5840.0,107.0,5.8715386,102.0,112.0
5850.0,107.0,5.6586213,103.0,112.0
5860.0,107.0,5.834898,103.0,112.0
5870.0,107.0,6.809649,103.0,114.0
5880.0,108.0,6.8271084,104.0,114.0
5890.0,107.0,6.4522014,104.0,114.0
5900.0,107.0,7.266603,104.0,115.0
5910.0,107.0,7.23945,104.0,115.0
5920.0,105.0,5.855806,102.0,110.0
5930.0,106.0,5.9225335,102.0,111.0
5940.0,107.0,5.241023,102.0,111.0
5950.0,107.0,4.3506074,102.0,113.0
5960.0,107.0,4.509311,103.0,113.0
5970.0,107.0,4.7022376,103.0,113.0
5980.0,107.0,4.969207,103.0,113.0
5990.0,107.0,5.531661,103.0,113.0
6000.0,106.0,5.705263,103.0,112.0
6010.0,106.0,5.4979706,103.0,111.0
6020.0,106.0,5.3318086,103.0,111.0
6030.0,107.0,5.9290724,103.0,114.0
6040.0,107.0,6.8098555,105.0,114.0
6050.0,109.0,7.2388024,105.0,116.0
6060.0,109.0,6.987083,105.0,116.0
6070.0,109.0,6.625782,105.0,113.0
6080.0,108.0,6.2877307,104.0,113.0
6090.0,108.0,6.586825,105.0,113.0
6100.0,108.0,7.9434156,105.0,113.0
6110.0,110.0,8.609643,106.0,120.0
6120.0,110.0,8.341787,106.0,119.0
6130.0,109.0,8.191939,106.0,119.0
6140.0,109.0,9.728023,106.0,119.0
6150.0,109.0,10.596887,106.0,125.0
6160.0,109.0,10.150322,106.0,123.0
6170.0,109.0,9.665874,108.0,123.0
6180.0,109.0,9.236728,108.0,121.0
6190.0,110.0,8.586799,108.0,121.0
6200.0,111.0,9.808138,107.0,121.0
6210.0,111.0,10.928503,107.0,128.0
6220.0,111.0,10.89175,108.0,127.25
6230.0,110.0,10.217555,108.0,125.0
6240.0,114.0,10.9886,110.0,125.0
6250.0,114.0,12.364153,110.0,132.0
6260.0,114.0,12.773424,109.0,132.0
6270.0,116.5,12.321683,109.0,130.0
6280.0,115.5,11.579598,110.0,130.0
6290.0,118.0,10.95505,110.0,127.0
6300.0,117.0,10.991077,112.0,127.0
6310.0,117.0,12.218579,112.0,134.0
6320.0,120.0,12.833847,111.75,134.0
6330.0,117.0,14.039707,110.0,132.0
6340.0,117.0,13.765502,110.0,129.0
6350.0,117.0,12.951888,110.0,129.0
6360.0,115.0,12.907852,110.0,129.0
6370.0,118.0,12.653897,111.5,128.75
6380.0,118.0,11.753786,110.75,128.75
6390.0,116.5,11.665512,110.75,128.75
6400.0,119.0,11.432996,111.0,134.0
6410.0,119.0,10.1177635,111.0,131.0
6420.0,117.0,10.026342,111.0,131.0
6430.0,117.0,9.754361,113.0,129.0
6440.0,117.0,8.834348,113.0,129.0
6450.0,120.0,11.478374,113.75,131.0
6460.0,121.0,11.522549,114.0,137.0
6470.0,121.0,10.645486,114.0,134.0
6480.0,121.0,9.96593,114.0,134.0
6490.0,120.0,9.982821,114.0,134.0
6500.0,126.0,9.265456,117.0,132.0
6510.0,123.0,8.486407,117.0,132.0
6520.0,122.0,8.4765835,117.0,132.0
6530.0,124.0,7.7918515,117.0,130.0
6540.0,130.0,9.510668,120.0,137.0
6550.0,130.0,9.58977,120.0,137.0
6560.0,127.0,9.362444,120.0,134.0
6570.0,127.0,7.5510874,123.0,134.0
6580.0,127.0,7.4099026,123.0,134.0
6590.0,126.0,7.281248,123.0,134.0
6600.0,126.0,7.716019,123.0,139.0
6610.0,132.0,8.45245,126.0,139.0
6620.0,130.0,8.5175295,126.0,139.0
6630.0,130.0,7.9544234,126.0,137.0
6640.0,130.0,7.629299,126.0,137.0
6650.0,130.0,7.976664,126.0,137.0
6660.0,130.0,6.4304113,126.0,139.0
6670.0,130.0,7.1895704,127.0,139.0
6680.0,133.5,7.30629,129.25,138.75
6690.0,132.5,6.791435,129.5,138.75
6700.0,132.5,6.2508,129.5,138.75
6710.0,134.0,5.814282,130.0,142.0
6720.0,134.0,5.2501526,130.0,142.0
6730.0,134.0,6.387533,132.0,142.0
6740.0,134.0,6.803125,133.0,142.0
6750.0,136.5,6.323564,133.75,141.75
6760.0,136.5,5.781703,133.75,141.75
6770.0,137.0,5.4273577,133.75,140.75
6780.0,139.0,5.1003237,134.0,146.0
6790.0,139.0,5.683844,135.0,146.0
6800.0,139.0,6.4206176,137.0,146.0
6810.0,141.0,6.4030147,137.75,146.75
6820.0,141.5,5.9754577,138.0,146.75
6830.0,141.5,5.576594,138.0,145.75
6840.0,142.0,5.1331644,139.0,145.75
6850.0,143.0,4.822817,140.0,151.0
6860.0,143.0,6.238623,141.0,150.0
6870.0,144.0,6.9028144,141.0,150.0
6880.0,144.0,6.89412,141.0,150.0
6890.0,147.0,9.405968,141.0,157.0
6900.0,147.5,8.862468,142.0,157.0
6910.0,150.0,8.774674,142.0,157.0
6920.0,150.0,11.338934,142.0,164.0
6930.0,150.0,10.705922,143.0,164.0
6940.0,149.0,10.630013,143.0,164.0
6950.0,149.0,9.985704,143.0,163.0
6960.0,149.0,9.267064,146.0,163.0
6970.0,150.0,9.091562,146.0,163.0
6980.0,150.0,10.373341,146.0,162.0
6990.0,152.5,10.585425,148.75,163.75
7000.0,150.0,10.518792,149.0,162.0
7010.0,153.5,9.673022,148.75,162.5
7020.0,153.5,8.91472,150.0,162.5
7030.0,152.0,8.797117,150.0,161.0
7040.0,154.0,7.8209906,150.75,160.5
7050.0,157.0,9.543817,153.0,165.0
7060.0,157.0,9.207962,153.0,165.0
7070.0,157.0,8.926447,153.0,164.0
7080.0,160.0,9.766494,156.0,170.0
7090.0,159.0,9.397424,156.0,170.0
7100.0,162.0,9.252273,156.0,167.0
7110.0,163.0,8.944038,159.0,168.0
7120.0,163.0,9.130528,159.0,173.0
7130.0,163.0,9.269167,159.0,173.0
7140.0,167.0,7.7792454,160.0,175.0
7150.0,167.0,6.2757397,163.0,175.0
7160.0,168.0,6.002341,164.0,171.0
7170.0,171.0,5.8649797,164.0,175.0
7180.0,171.0,5.5249043,168.0,178.0
7190.0,171.0,4.921256,169.0,178.0
7200.0,171.0,5.1319275,169.0,178.0
7210.0,176.0,5.5311522,173.0,178.0
7220.0,178.0,7.476756,175.0,185.0
7230.0,182.0,10.649914,176.0,193.0
7240.0,187.0,11.755916,180.0,196.0
7250.0,187.0,10.354929,182.0,192.0
7260.0,184.0,8.605631,183.0,192.0
7270.0,189.0,9.479903,184.0,198.0
7280.0,192.0,8.833602,185.0,198.0
7290.0,192.0,7.714357,189.0,196.0
7300.0,190.0,5.76038,189.0,194.0
7310.0,182.0,6.4625063,178.0,184.0
7320.0,174.0,8.321382,171.0,183.0
7330.0,177.0,7.398234,171.0,183.0
7340.0,177.0,7.0696864,174.0,182.0
7350.0,177.0,6.595159,175.0,187.0
7360.0,182.0,6.1346993,175.0,187.0
7370.0,182.0,5.5581446,176.0,182.0
7380.0,179.0,4.842853,178.0,182.0
7390.0,179.0,4.5576086,178.0,182.0
7400.0,182.0,4.2647834,178.0,184.0
7410.0,182.0,4.5960255,180.0,184.0
7420.0,184.0,6.586533,182.0,190.0
7430.0,184.0,6.746115,182.0,189.5
7440.0,185.0,6.1532702,184.0,189.0
7450.0,185.0,5.528057,184.0,189.0
7460.0,185.0,5.2054405,184.0,189.0
7470.0,189.0,4.6536994,185.0,189.0
7480.0,189.0,4.175217,187.0,189.0
7490.0,180.0,7.0959115,177.0,184.0
7500.0,163.0,14.8442,155.0,176.0
7510.0,163.0,14.093781,158.0,176.0
7520.0,167.0,12.895124,161.0,176.0
7530.0,167.0,11.935338,162.0,178.0
7540.0,170.0,11.137005,164.0,178.0
7550.0,171.0,10.198395,167.0,178.0
7560.0,172.0,9.2318325,169.0,180.0
7570.0,175.0,8.306004,171.0,180.0
7580.0,177.0,7.0900517,173.0,180.0
7590.0,179.0,10.803794,177.0,184.0
7600.0,182.0,16.075638,180.0,185.0
7610.0,185.0,19.541393,182.0,194.0
7620.0,187.0,18.829905,184.0,204.5
7630.0,189.0,18.158224,185.0,224.0
7640.0,196.0,16.686827,187.0,219.0
7650.0,196.0,14.268598,189.0,218.0
7660.0,196.0,12.443149,189.0,214.0
7670.0,194.0,10.939053,189.0,210.0
7680.0,194.0,9.048237,189.0,209.0
7690.0,194.0,7.611898,191.0,205.0
7700.0,196.0,6.3849473,192.0,203.0
7710.0,197.0,5.1544037,192.0,201.0
7720.0,196.0,4.2470593,192.0,199.0
7730.0,196.0,3.8453107,192.0,199.0
7740.0,195.0,3.5284708,194.0,199.0
7750.0,195.0,3.3926728,193.0,199.0
7760.0,195.0,3.8299184,193.0,199.0
7770.0,197.0,4.007616,193.0,202.0
7780.0,197.0,4.350546,194.0,202.0
7790.0,212.0,13.968559,196.0,219.5
7800.0,196.0,6.9939475,193.0,201.0
7810.0,196.0,7.3881865,193.0,205.0
7820.0,200.0,7.264436,193.0,205.0
7830.0,200.0,8.39633,196.0,210.0
7840.0,200.0,8.615239,196.0,210.0
7850.0,204.0,8.805115,196.0,210.0
7860.0,204.0,9.637008,200.0,216.0
7870.0,204.0,10.49865,196.0,216.0
7880.0,210.0,11.432559,196.0,216.0
7890.0,210.0,12.682868,200.0,224.0
7900.0,204.0,12.39485,200.0,224.0
7910.0,212.0,11.714826,197.0,217.0
7920.0,212.0,11.325344,197.0,217.0
7930.0,212.0,11.349128,202.0,218.0
7940.0,214.0,12.024777,202.0,224.0
7950.0,217.0,15.637874,202.0,235.0
7960.0,214.0,14.614565,202.0,235.0
7970.0,214.0,15.218254,199.0,229.0
7980.0,210.0,17.352295,199.0,229.0
7990.0,210.0,18.57097,197.0,225.0
8000.0,206.0,16.857037,195.0,219.0
8010.0,203.0,16.092716,195.0,218.0
8020.0,205.0,17.381279,195.0,218.0
8030.0,209.0,18.53012,197.0,224.0
8040.0,209.0,18.109812,198.0,227.0
8050.0,219.0,23.491106,199.0,246.0
8060.0,196.0,19.707912,193.0,210.0
8070.0,197.0,19.147846,194.0,210.0
8080.0,202.0,20.354424,196.0,227.0
8090.0,206.0,21.24988,198.0,227.0
8100.0,215.0,19.760046,199.0,238.0
8110.0,211.0,20.04978,199.0,238.0
8120.0,211.0,19.614607,203.0,238.0
8130.0,215.5,18.251453,203.0,234.0
8140.0,193.0,16.793129,190.0,206.0
8150.0,196.0,15.132123,194.0,211.0
8160.0,195.0,15.084246,193.0,209.0
8170.0,193.0,14.868322,192.0,207.5
8180.0,193.0,15.1208515,191.0,207.0
8190.0,192.0,15.565233,189.0,207.0
8200.0,192.0,15.56679,189.0,207.0
8210.0,192.0,15.422141,189.0,205.0
8220.0,193.0,15.147391,189.0,205.0
8230.0,195.0,14.901978,189.0,210.25
8240.0,195.0,14.392803,189.0,212.0
8250.0,196.0,13.827259,192.0,209.0
8260.0,196.0,13.04765,193.0,209.0
8270.0,197.0,12.46384,193.0,209.0
8280.0,197.0,12.195169,194.0,209.0
8290.0,197.0,11.706996,195.0,209.0
8300.0,197.0,11.338653,195.0,209.0
8310.0,198.0,14.976587,195.0,208.0
8320.0,202.0,25.589075,197.0,216.0
8330.0,202.0,29.08747,198.0,225.0
8340.0,208.0,28.275146,199.0,254.0
8350.0,216.0,26.178263,200.0,250.0
8360.0,216.0,23.895718,202.0,244.0
8370.0,223.0,21.722351,203.0,244.0
8380.0,217.0,20.283852,205.0,242.0
8390.0,217.0,18.58268,205.0,241.0
8400.0,217.0,17.060986,208.0,236.0
8410.0,218.0,20.295527,208.0,242.0
8420.0,209.0,12.822986,201.0,222.5
8430.0,209.0,12.535174,202.0,221.0
8440.0,209.0,11.755755,202.0,221.0
8450.0,209.0,12.136532,202.0,221.0
8460.0,209.0,11.873865,202.0,219.0
8470.0,208.5,11.808597,202.0,219.0
8480.0,210.0,12.360694,203.0,219.0
8490.0,210.0,12.1863785,205.0,225.0
8500.0,210.0,10.728551,205.0,225.0
8510.0,211.0,9.349308,205.0,225.0
8520.0,216.0,9.693571,208.0,224.0
8530.0,211.0,9.5663185,209.0,226.0
8540.0,216.0,10.148783,209.0,224.0
8550.0,216.0,10.998414,211.0,225.0
8560.0,218.0,10.994541,213.0,226.0
8570.0,216.0,8.737987,213.0,226.0
8580.0,220.0,8.983434,214.0,226.0
8590.0,220.0,9.875248,217.0,226.0
8600.0,220.0,9.784186,217.0,234.0
8610.0,223.0,12.310115,218.0,234.0
8620.0,225.0,13.070179,220.0,234.0
8630.0,225.0,12.508499,223.0,246.0
8640.0,223.0,13.563382,217.0,239.0
8650.0,218.0,12.394345,216.0,234.0
8660.0,225.0,13.809117,216.0,233.0
8670.0,225.0,14.4536295,216.0,233.0
8680.0,225.0,13.584385,217.0,233.0
8690.0,225.0,11.955606,220.0,233.0
8700.0,225.0,11.164338,223.0,230.0
8710.0,224.0,10.28238,223.0,238.0
8720.0,224.0,8.688268,223.0,238.0
8730.0,228.0,8.218138,224.0,235.0
8740.0,229.0,7.2093573,226.0,235.0
8750.0,230.0,6.8529778,229.0,235.0
8760.0,230.0,7.845946,230.0,242.0
8770.0,233.0,7.1988,230.0,239.0
8780.0,237.0,5.668135,232.0,239.0
8790.0,237.0,3.972113,235.0,239.0
8800.0,237.0,3.6128323,236.0,238.0
8810.0,237.0,3.1027122,236.0,242.0
8820.0,242.0,3.232641,237.0,242.0
8830.0,242.0,5.352266,241.0,247.0
8840.0,242.0,5.2162633,241.0,250.0
8850.0,241.0,4.378311,241.0,248.0
8860.0,244.0,5.0802917,241.0,248.0
8870.0,245.0,6.9051647,242.0,248.0
8880.0,245.0,7.2757716,243.0,256.0
8890.0,245.0,9.917478,245.0,256.0
8900.0,253.0,11.0089655,245.0,259.0
8910.0,253.0,10.464372,246.0,268.0
8920.0,251.0,8.793454,246.0,262.0
8930.0,251.0,10.83482,246.0,262.0
8940.0,259.0,12.08334,250.0,262.0
8950.0,258.0,11.101617,250.0,275.0
8960.0,268.0,13.216206,256.0,271.0
8970.0,256.0,12.789641,250.0,268.0
8980.0,256.0,11.77019,250.0,268.0
8990.0,256.0,14.28292,250.0,277.0
9000.0,256.0,15.870828,252.0,277.0
9010.0,256.0,15.287326,252.0,277.0
9020.0,256.0,14.237886,254.0,276.0
9030.0,259.0,13.405639,254.0,276.0
9040.0,259.0,12.416782,255.0,275.0
9050.0,263.0,12.042016,255.5,272.0
9060.0,264.0,11.764718,256.0,275.0
9070.0,264.0,12.987089,257.0,281.0
9080.0,257.0,12.458066,254.0,275.0
9090.0,257.0,12.7565365,254.0,276.0
9100.0,257.0,12.7565365,254.0,276.0
9110.0,257.0,12.7565365,254.0,276.0
9120.0,259.0,12.456595,255.0,277.0
9130.0,258.0,12.823922,255.0,277.0
9140.0,258.0,12.999061,253.0,278.0
9150.0,258.0,9.53973,253.0,267.0
9160.0,258.0,9.3091755,254.0,267.0
9170.0,258.0,8.955637,255.0,267.0
9180.0,256.0,7.8935933,255.0,268.0
9190.0,257.5,4.9547925,256.0,261.0
9200.0,259.0,4.613356,256.0,261.0
9210.0,256.0,29.092854,242.0,298.0
9220.0,258.0,16.229624,241.0,266.0
9230.0,258.0,15.946034,242.0,266.0
9240.0,258.0,15.4676895,242.0,264.0
9250.0,257.0,14.856364,242.0,264.0
9260.0,257.0,14.36818,247.0,261.0
9270.0,259.0,14.169526,247.0,262.0
9280.0,260.0,13.988804,248.0,262.75
9290.0,261.0,13.703025,249.0,263.0
9300.0,262.0,13.548363,249.0,264.0
9310.0,262.0,13.523266,250.0,266.0
9320.0,264.0,13.653902,252.0,267.0
9330.0,266.0,13.750672,252.0,268.0
9340.0,268.0,13.983387,253.0,271.0
9350.0,269.0,13.886865,257.0,273.0
9360.0,266.0,9.142929,262.0,273.0
9370.0,270.0,12.4465885,262.0,282.0
9380.0,268.0,11.987182,262.0,284.0
9390.0,268.0,11.644388,264.0,284.0
9400.0,268.0,11.122116,264.0,275.0
9410.0,274.0,11.699076,264.0,287.0
9420.0,274.0,12.440137,266.0,287.0
9430.0,278.0,12.829365,268.0,290.0
9440.0,266.0,14.785707,261.0,287.0
9450.0,267.0,15.477311,261.0,290.0
9460.0,267.0,16.009348,262.0,290.0
9470.0,267.0,16.759645,262.0,290.0
9480.0,269.0,17.172085,262.0,294.0
9490.0,269.0,14.376213,264.0,281.0
9500.0,267.0,12.810709,261.0,281.0
9510.0,268.0,12.3147135,262.0,281.0
9520.0,269.0,11.217401,262.0,281.0
9530.0,269.0,10.648622,263.0,279.0
9540.0,272.0,11.013962,264.0,285.0
9550.0,269.0,11.2043295,264.0,279.0
9560.0,266.0,10.029224,264.0,279.0
9570.0,268.0,7.051452,264.0,279.0
9580.0,268.0,7.719819,264.0,279.0
9590.0,268.0,8.00943,264.0,281.5
9600.0,264.0,6.6182966,264.0,271.0
9610.0,266.0,4.3635664,264.0,274.0
9620.0,268.0,4.8053565,264.0,274.0
9630.0,268.0,5.2796187,265.25,268.0
9640.0,268.0,6.135477,267.0,271.0
9650.0,268.0,6.393148,266.0,271.0
9660.0,268.0,4.889469,266.0,273.0
9670.0,267.0,3.7391727,266.0,273.0
9680.0,269.0,4.1101007,266.0,274.0
9690.0,267.0,4.2532635,265.0,271.0
9700.0,267.0,4.4790683,265.0,271.0
9710.0,267.0,5.295354,264.0,268.0
9720.0,267.0,5.5627856,266.0,275.0
9730.0,266.0,5.1684995,263.0,268.0
9740.0,268.0,5.499768,263.0,270.0
9750.0,267.0,6.9547853,261.0,270.0
9760.0,266.0,7.6498923,261.0,270.0
9770.0,266.0,11.157875,261.0,277.0
9780.0,267.0,13.203336,260.0,284.0
9790.0,271.0,13.274212,260.0,286.0
9800.0,271.0,12.424461,259.0,286.0
9810.0,269.0,12.713773,258.0,280.0
9820.0,266.0,12.424519,257.0,279.0
9830.0,252.0,13.260456,250.0,257.0
9840.0,252.0,14.952107,248.0,257.0
9850.0,248.0,14.554454,247.0,254.0
9860.0,247.0,14.671848,245.0,254.0
9870.0,246.0,17.01403,244.0,258.0
9880.0,244.0,18.677435,244.0,258.0
9890.0,244.0,18.13805,243.0,258.0
9900.0,246.0,18.180689,243.0,267.0
9910.0,246.0,20.96134,244.0,267.0
9920.0,255.0,16.678925,248.0,266.0
9930.0,267.0,21.365242,254.0,294.0
9940.0,267.0,21.365242,254.0,294.0
9950.0,267.0,21.365242,254.0,294.0
9960.0,257.0,12.5285,252.0,266.0
9970.0,257.0,12.5285,252.0,266.0
9980.0,257.0,12.5285,252.0,266.0
9990.0,255.0,12.417124,249.0,264.0
10000.0,259.0,11.396189,254.0,267.0
10010.0,263.0,3.575066,261.0,266.0
10020.0,262.0,3.602526,260.0,265.0
10030.0,262.0,3.7749336,258.0,264.0
10040.0,263.0,4.5848784,258.0,264.0
10050.0,261.0,5.554824,255.0,266.0
10060.0,262.0,6.7400193,255.0,266.0
10070.0,262.0,8.131485,252.0,268.0
10080.0,262.0,9.628357,252.0,271.0
10090.0,267.0,11.068542,252.0,272.0
10100.0,267.0,12.719613,252.0,274.0
10110.0,268.0,14.406577,252.0,278.0
10120.0,268.0,16.055752,252.0,281.0
10130.0,267.5,18.324827,249.0,284.0
10140.0,257.0,21.087238,247.0,290.0
10150.0,255.0,22.74704,247.0,283.0
10160.0,253.0,20.716852,245.0,266.0
10170.0,250.0,14.677327,244.5,262.0
10180.0,248.0,7.5466495,245.0,253.0
10190.0,248.0,7.2862735,244.0,258.0
10200.0,247.0,8.58864,243.0,258.0
10210.0,247.0,10.865504,243.0,258.0
10220.0,246.0,12.089574,246.0,266.0
10230.0,252.0,14.627952,244.0,266.0
10240.0,252.0,13.9825535,244.0,266.0
10250.0,248.0,13.25917,244.0,261.0
10260.0,248.0,12.251248,245.0,261.0
10270.0,247.0,10.7558155,245.0,256.0
10280.0,254.0,14.247286,245.0,270.75
10290.0,252.0,15.960909,244.0,267.0
10300.0,252.0,15.295817,244.0,267.0
10310.0,252.0,14.048589,244.0,267.0
10320.0,250.0,16.973635,244.0,278.25
10330.0,258.5,18.831686,246.5,273.0
10340.0,256.0,18.402037,246.0,273.0
10350.0,256.0,17.079697,246.0,273.0
10360.0,252.0,16.40523,244.0,267.0
10370.0,252.0,14.810218,244.0,267.0
10380.0,256.0,13.440261,245.0,267.0
10390.0,251.5,12.526605,245.0,269.0
10400.0,255.0,10.976968,247.0,272.0
10410.0,255.0,13.788252,247.0,272.0
10420.0,260.5,15.199585,248.25,272.0
10430.0,256.5,14.792938,248.25,275.75
10440.0,256.5,13.495095,246.75,275.75
10450.0,256.5,12.684596,249.0,270.0
10460.0,252.5,11.3232975,248.0,264.0
10470.0,256.0,10.565459,248.0,267.0
10480.0,256.0,8.459208,247.0,261.5
10490.0,252.5,8.082117,248.0,256.0
10500.0,248.0,8.24876,247.0,261.5
10510.0,251.0,6.9576406,248.0,254.0
10520.0,254.0,6.809902,248.0,264.0
10530.0,252.0,7.113215,247.0,264.0
10540.0,252.0,7.460184,247.0,260.0
10550.0,256.0,9.382809,252.0,260.0
10560.0,251.0,9.640995,249.0,266.0
10570.0,259.0,9.118001,249.0,264.0
10580.0,251.0,8.049322,250.0,264.0
10590.0,257.0,7.702024,250.5,264.0
10600.0,254.5,6.9045444,252.0,257.0
10610.0,257.0,6.0353403,252.0,266.0
10620.0,252.0,6.4684052,250.5,261.5
10630.0,256.0,5.014812,252.0,264.0
10640.0,256.0,5.014812,252.0,264.0
10650.0,256.0,5.014812,252.0,264.0
10660.0,264.0,7.3306026,255.5,268.5
10670.0,264.0,7.3306026,255.5,268.5
10680.0,264.0,7.3306026,255.5,268.5
10690.0,263.0,5.800511,257.0,267.0
10700.0,263.0,5.800511,257.0,267.0
10710.0,263.0,5.800511,257.0,267.0
10720.0,262.0,5.3083787,258.0,270.0
10730.0,266.0,8.411302,261.0,272.5
10740.0,266.0,8.411302,261.0,272.5
10750.0,265.0,7.8434505,261.5,272.5
10760.0,268.0,10.353744,262.0,277.0
10770.0,268.0,10.353744,262.0,277.0
10780.0,266.0,10.232618,262.0,277.0
10790.0,266.0,8.957678,262.0,274.0
10800.0,266.0,8.957678,262.0,274.0
10810.0,266.0,8.772684,262.0,274.0
10820.0,266.0,11.07616,262.0,282.0
10830.0,266.0,8.235868,262.0,273.0
10840.0,274.0,15.316124,266.0,288.0
10850.0,274.0,17.536476,266.0,300.0
10860.0,285.0,17.753485,266.0,307.0
10870.0,292.0,17.858418,271.0,307.0
10880.0,292.0,17.57724,271.0,305.0
10890.0,293.0,16.071157,279.0,305.0
10900.0,293.0,14.570148,279.0,304.0
10910.0,289.0,13.852141,277.0,301.0
10920.0,289.0,13.356469,277.0,301.0
10930.0,291.0,12.420678,277.0,301.0
10940.0,291.0,11.595982,279.0,301.0
10950.0,291.0,10.770934,281.0,301.0
10960.0,293.0,9.769738,282.0,301.0
10970.0,298.0,8.694017,285.0,301.0
10980.0,298.0,7.7065263,286.0,302.0
10990.0,298.0,7.028647,291.0,302.0
11000.0,298.0,7.219973,292.0,304.0
11010.0,286.0,17.977293,274.0,304.0
11020.0,281.0,19.54105,267.0,307.0
11030.0,281.0,20.91927,269.0,307.0
11040.0,285.0,20.90816,274.0,314.0
11050.0,285.0,19.46917,278.0,314.0
11060.0,291.0,15.576575,278.0,301.0
11070.0,287.5,17.789665,274.0,301.0
11080.0,287.5,18.451889,277.0,311.0
11090.0,284.0,16.849264,278.0,311.0
11100.0,262.0,15.027377,256.0,274.0
11110.0,271.0,12.26806,269.0,274.0
11120.0,270.0,12.188979,266.0,274.0
11130.0,266.0,11.191204,264.0,274.0
11140.0,264.0,11.904259,262.0,269.0
11150.0,262.0,11.709133,259.0,269.0
11160.0,262.0,11.157281,257.0,269.0
11170.0,261.0,11.790195,257.0,266.0
11180.0,261.0,12.103626,254.0,272.0
11190.0,261.0,14.836352,252.0,276.0
11200.0,262.0,18.427675,249.0,282.0
11210.0,277.0,19.810411,249.0,290.0
11220.0,281.0,13.204729,277.0,287.0
11230.0,287.0,6.005439,281.0,287.0
11240.0,282.0,5.312732,281.0,287.0
11250.0,282.0,4.7690606,282.0,287.0
11260.0,287.0,6.6536684,282.0,291.0
11270.0,291.0,4.679905,287.0,291.0
11280.0,290.0,4.408035,286.75,292.0
11290.0,292.0,3.0781333,291.0,292.75
11300.0,292.0,2.8378592,292.0,298.0
11310.0,293.0,2.0700269,292.25,296.0
11320.0,296.0,2.5391645,295.0,296.0
11330.0,297.0,2.4209034,295.5,300.0
11340.0,300.0,2.9991064,297.0,301.0
11350.0,299.0,3.927878,299.0,301.0
11360.0,300.0,4.1058908,299.0,307.0
11370.0,301.0,3.420364,300.0,307.0
11380.0,302.0,2.5966349,301.0,305.0
11390.0,302.0,1.9281528,301.0,305.0
11400.0,304.0,3.8364575,301.0,305.0
11410.0,304.5,4.409071,301.75,305.0
11420.0,303.0,3.905125,301.75,305.75
11430.0,301.0,5.8577476,301.0,308.0
11440.0,302.0,5.8038974,301.0,308.0
11450.0,303.0,3.8356516,301.0,308.0
11460.0,303.0,3.6748304,302.0,306.0
11470.0,302.0,3.5570812,302.0,306.0
11480.0,305.0,2.3213446,302.0,306.0
11490.0,304.0,2.34898,302.0,305.0
11500.0,304.0,2.3082201,303.0,305.0
11510.0,304.0,2.4280496,301.0,305.0
11520.0,303.0,2.6677399,301.0,305.0
11530.0,305.0,2.8302538,301.0,305.0
11540.0,302.0,3.956781,301.0,305.0
11550.0,305.0,3.6781952,301.0,305.0
11560.0,302.0,5.792339,300.0,305.0
11570.0,302.0,5.792339,300.0,305.0
11580.0,302.0,5.792339,300.0,305.0
11590.0,303.0,6.6730433,298.0,307.0
11600.0,303.0,6.6730433,298.0,307.0
11610.0,303.0,6.6730433,298.0,307.0
11620.0,300.0,8.870868,296.0,308.0
11630.0,300.0,8.548481,298.0,308.0
11640.0,300.0,9.407719,296.0,308.25
11650.0,299.5,9.65429,296.0,309.0
11660.0,299.0,9.094529,296.0,309.0
11670.0,296.0,6.3658185,295.0,300.0
11680.0,301.0,6.3207335,295.0,302.0
11690.0,296.0,6.5097,294.0,301.0
11900.0,289.5,4.365548,287.0,292.75
11910.0,291.0,7.486999,288.0,298.0
11920.0,289.0,7.622823,288.0,298.0
11930.0,290.0,6.881625,288.0,294.0
11940.0,290.0,5.324268,289.0,294.0
11950.0,290.0,5.57514,287.0,294.0
11960.0,290.0,4.0298886,287.0,291.0
11970.0,288.0,4.1665335,287.0,291.0
11980.0,289.0,3.0393772,287.0,291.0
11990.0,290.0,2.5604844,287.0,290.0
12000.0,290.0,2.275655,288.0,290.0
