distance,median,stdev,prc_25,prc_75
20.0,nan,nan,nan,nan
30.0,nan,nan,nan,nan
40.0,nan,nan,nan,nan
50.0,nan,nan,nan,nan
60.0,nan,nan,nan,nan
70.0,nan,nan,nan,nan
80.0,nan,nan,nan,nan
90.0,nan,nan,nan,nan
100.0,nan,nan,nan,nan
110.0,nan,nan,nan,nan
120.0,nan,nan,nan,nan
130.0,nan,nan,nan,nan
140.0,nan,nan,nan,nan
150.0,nan,nan,nan,nan
160.0,nan,nan,nan,nan
170.0,nan,nan,nan,nan
180.0,nan,nan,nan,nan
190.0,nan,nan,nan,nan
200.0,nan,nan,nan,nan
210.0,nan,nan,nan,nan
220.0,nan,nan,nan,nan
230.0,nan,nan,nan,nan
240.0,nan,nan,nan,nan
250.0,nan,nan,nan,nan
260.0,nan,nan,nan,nan
270.0,nan,nan,nan,nan
280.0,nan,nan,nan,nan
290.0,nan,nan,nan,nan
300.0,nan,nan,nan,nan
310.0,nan,nan,nan,nan
320.0,nan,nan,nan,nan
330.0,nan,nan,nan,nan
340.0,nan,nan,nan,nan
350.0,nan,nan,nan,nan
360.0,nan,nan,nan,nan
370.0,nan,nan,nan,nan
380.0,nan,nan,nan,nan
390.0,nan,nan,nan,nan
400.0,nan,nan,nan,nan
410.0,nan,nan,nan,nan
420.0,nan,nan,nan,nan
430.0,nan,nan,nan,nan
440.0,nan,nan,nan,nan
450.0,nan,nan,nan,nan
460.0,nan,nan,nan,nan
470.0,nan,nan,nan,nan
480.0,nan,nan,nan,nan
490.0,nan,nan,nan,nan
500.0,nan,nan,nan,nan
510.0,nan,nan,nan,nan
520.0,nan,nan,nan,nan
530.0,nan,nan,nan,nan
540.0,nan,nan,nan,nan
550.0,nan,nan,nan,nan
560.0,nan,nan,nan,nan
570.0,nan,nan,nan,nan
580.0,nan,nan,nan,nan
590.0,nan,nan,nan,nan
600.0,nan,nan,nan,nan
610.0,nan,nan,nan,nan
620.0,nan,nan,nan,nan
630.0,nan,nan,nan,nan
640.0,nan,nan,nan,nan
650.0,nan,nan,nan,nan
660.0,nan,nan,nan,nan
670.0,nan,nan,nan,nan
680.0,nan,nan,nan,nan
690.0,nan,nan,nan,nan
700.0,nan,nan,nan,nan
710.0,nan,nan,nan,nan
720.0,nan,nan,nan,nan
730.0,nan,nan,nan,nan
740.0,nan,nan,nan,nan
750.0,nan,nan,nan,nan
760.0,nan,nan,nan,nan
770.0,nan,nan,nan,nan
780.0,nan,nan,nan,nan
790.0,nan,nan,nan,nan
800.0,nan,nan,nan,nan
810.0,nan,nan,nan,nan
820.0,nan,nan,nan,nan
830.0,nan,nan,nan,nan
840.0,nan,nan,nan,nan
850.0,nan,nan,nan,nan
860.0,nan,nan,nan,nan
870.0,nan,nan,nan,nan
880.0,nan,nan,nan,nan
890.0,nan,nan,nan,nan
900.0,nan,nan,nan,nan
910.0,nan,nan,nan,nan
920.0,nan,nan,nan,nan
930.0,nan,nan,nan,nan
940.0,nan,nan,nan,nan
950.0,nan,nan,nan,nan
960.0,nan,nan,nan,nan
970.0,nan,nan,nan,nan
980.0,nan,nan,nan,nan
990.0,nan,nan,nan,nan
1000.0,nan,nan,nan,nan
1010.0,nan,nan,nan,nan
1020.0,nan,nan,nan,nan
1030.0,nan,nan,nan,nan
1040.0,nan,nan,nan,nan
1050.0,nan,nan,nan,nan
1060.0,nan,nan,nan,nan
1070.0,nan,nan,nan,nan
1080.0,nan,nan,nan,nan
1090.0,nan,nan,nan,nan
1100.0,nan,nan,nan,nan
1110.0,nan,nan,nan,nan
1120.0,nan,nan,nan,nan
1130.0,nan,nan,nan,nan
1140.0,nan,nan,nan,nan
1150.0,nan,nan,nan,nan
1160.0,nan,nan,nan,nan
1170.0,nan,nan,nan,nan
1180.0,nan,nan,nan,nan
1190.0,nan,nan,nan,nan
1200.0,nan,nan,nan,nan
1210.0,nan,nan,nan,nan
1220.0,nan,nan,nan,nan
1230.0,nan,nan,nan,nan
1240.0,nan,nan,nan,nan
1250.0,nan,nan,nan,nan
1260.0,nan,nan,nan,nan
1270.0,nan,nan,nan,nan
1280.0,nan,nan,nan,nan
1290.0,nan,nan,nan,nan
1300.0,nan,nan,nan,nan
1310.0,nan,nan,nan,nan
1320.0,nan,nan,nan,nan
1330.0,nan,nan,nan,nan
1340.0,nan,nan,nan,nan
1350.0,nan,nan,nan,nan
1360.0,nan,nan,nan,nan
1370.0,nan,nan,nan,nan
1380.0,nan,nan,nan,nan
1390.0,nan,nan,nan,nan
1400.0,nan,nan,nan,nan
1410.0,nan,nan,nan,nan
1420.0,nan,nan,nan,nan
1430.0,nan,nan,nan,nan
1440.0,nan,nan,nan,nan
1450.0,nan,nan,nan,nan
1460.0,nan,nan,nan,nan
1470.0,nan,nan,nan,nan
1480.0,nan,nan,nan,nan
1490.0,nan,nan,nan,nan
1500.0,nan,nan,nan,nan
1510.0,nan,nan,nan,nan
1520.0,nan,nan,nan,nan
1530.0,nan,nan,nan,nan
1540.0,nan,nan,nan,nan
1550.0,nan,nan,nan,nan
1560.0,nan,nan,nan,nan
1570.0,nan,nan,nan,nan
1580.0,nan,nan,nan,nan
1590.0,nan,nan,nan,nan
1600.0,nan,nan,nan,nan
1610.0,nan,nan,nan,nan
1620.0,nan,nan,nan,nan
1630.0,nan,nan,nan,nan
1640.0,nan,nan,nan,nan
1650.0,nan,nan,nan,nan
1660.0,nan,nan,nan,nan
1670.0,nan,nan,nan,nan
1680.0,nan,nan,nan,nan
1690.0,nan,nan,nan,nan
1700.0,nan,nan,nan,nan
1710.0,nan,nan,nan,nan
1720.0,nan,nan,nan,nan
1730.0,nan,nan,nan,nan
1740.0,nan,nan,nan,nan
1750.0,nan,nan,nan,nan
1760.0,nan,nan,nan,nan
1770.0,nan,nan,nan,nan
1780.0,nan,nan,nan,nan
1790.0,nan,nan,nan,nan
1800.0,nan,nan,nan,nan
1810.0,nan,nan,nan,nan
1820.0,nan,nan,nan,nan
1830.0,nan,nan,nan,nan
1840.0,nan,nan,nan,nan
1850.0,nan,nan,nan,nan
1860.0,nan,nan,nan,nan
1870.0,1.0,0.0,1.0,1.0
1880.0,1.0,0.0,1.0,1.0
1890.0,1.0,0.0,1.0,1.0
1900.0,1.0,0.0,1.0,1.0
1910.0,1.0,0.0,1.0,1.0
1920.0,1.0,0.0,1.0,1.0
1930.0,1.0,0.0,1.0,1.0
1940.0,1.0,0.0,1.0,1.0
1950.0,1.0,0.0,1.0,1.0
1960.0,nan,nan,nan,nan
1970.0,nan,nan,nan,nan
1980.0,nan,nan,nan,nan
1990.0,nan,nan,nan,nan
2000.0,nan,nan,nan,nan
2010.0,nan,nan,nan,nan
2020.0,nan,nan,nan,nan
2030.0,nan,nan,nan,nan
2040.0,nan,nan,nan,nan
2050.0,nan,nan,nan,nan
2060.0,nan,nan,nan,nan
2070.0,nan,nan,nan,nan
2080.0,nan,nan,nan,nan
2090.0,nan,nan,nan,nan
2100.0,nan,nan,nan,nan
2110.0,nan,nan,nan,nan
2120.0,nan,nan,nan,nan
2130.0,nan,nan,nan,nan
2140.0,nan,nan,nan,nan
2150.0,nan,nan,nan,nan
2160.0,nan,nan,nan,nan
2170.0,nan,nan,nan,nan
2180.0,nan,nan,nan,nan
2190.0,nan,nan,nan,nan
2200.0,nan,nan,nan,nan
2210.0,nan,nan,nan,nan
2220.0,nan,nan,nan,nan
2230.0,nan,nan,nan,nan
2240.0,nan,nan,nan,nan
2250.0,nan,nan,nan,nan
2260.0,nan,nan,nan,nan
2270.0,nan,nan,nan,nan
2280.0,nan,nan,nan,nan
2290.0,nan,nan,nan,nan
2300.0,nan,nan,nan,nan
2310.0,nan,nan,nan,nan
2320.0,nan,nan,nan,nan
2330.0,nan,nan,nan,nan
2340.0,nan,nan,nan,nan
2350.0,nan,nan,nan,nan
2360.0,nan,nan,nan,nan
2370.0,nan,nan,nan,nan
2380.0,nan,nan,nan,nan
2390.0,nan,nan,nan,nan
2400.0,nan,nan,nan,nan
2410.0,nan,nan,nan,nan
2420.0,nan,nan,nan,nan
2430.0,nan,nan,nan,nan
2440.0,nan,nan,nan,nan
2450.0,nan,nan,nan,nan
2460.0,nan,nan,nan,nan
2470.0,nan,nan,nan,nan
2480.0,nan,nan,nan,nan
2490.0,nan,nan,nan,nan
2500.0,nan,nan,nan,nan
2510.0,nan,nan,nan,nan
2520.0,nan,nan,nan,nan
2530.0,nan,nan,nan,nan
2540.0,nan,nan,nan,nan
2550.0,nan,nan,nan,nan
2560.0,nan,nan,nan,nan
2570.0,nan,nan,nan,nan
2580.0,nan,nan,nan,nan
2590.0,nan,nan,nan,nan
2600.0,nan,nan,nan,nan
2610.0,nan,nan,nan,nan
2620.0,nan,nan,nan,nan
2630.0,nan,nan,nan,nan
2640.0,nan,nan,nan,nan
2650.0,nan,nan,nan,nan
2660.0,nan,nan,nan,nan
2670.0,nan,nan,nan,nan
2680.0,nan,nan,nan,nan
2690.0,nan,nan,nan,nan
2700.0,nan,nan,nan,nan
2710.0,nan,nan,nan,nan
2720.0,nan,nan,nan,nan
2730.0,nan,nan,nan,nan
2740.0,nan,nan,nan,nan
2750.0,nan,nan,nan,nan
2760.0,nan,nan,nan,nan
2770.0,nan,nan,nan,nan
2780.0,nan,nan,nan,nan
2790.0,nan,nan,nan,nan
2800.0,nan,nan,nan,nan
2810.0,nan,nan,nan,nan
2820.0,1.0,0.0,1.0,1.0
2830.0,1.0,0.0,1.0,1.0
2840.0,1.0,0.0,1.0,1.0
2850.0,1.0,0.0,1.0,1.0
2860.0,1.0,0.0,1.0,1.0
2870.0,1.0,0.0,1.0,1.0
2880.0,1.0,0.0,1.0,1.0
2890.0,1.0,0.0,1.0,1.0
2900.0,1.0,0.0,1.0,1.0
2910.0,1.0,0.0,1.0,1.0
2920.0,1.0,0.0,1.0,1.0
2930.0,1.0,0.0,1.0,1.0
2940.0,1.0,0.0,1.0,1.0
2950.0,1.0,0.15560892,1.0,1.0
2960.0,1.0,0.25753936,1.0,1.0
2970.0,1.0,0.310999,1.0,1.0
2980.0,1.0,0.3126219,1.0,1.0
2990.0,1.0,0.31775475,1.0,1.0
3000.0,1.0,0.40034127,1.0,1.0
3010.0,1.0,0.4572356,1.0,2.0
3020.0,1.0,0.4856209,1.0,2.0
3030.0,1.0,0.49841985,1.0,2.0
3040.0,1.0,0.49931332,1.0,2.0
3050.0,1.0,0.49952284,1.0,2.0
3060.0,2.0,0.4989188,1.0,2.0
3070.0,2.0,0.49342877,1.0,2.0
3080.0,2.0,0.48732394,1.0,2.0
3090.0,2.0,0.47958195,1.0,2.0
3100.0,2.0,0.48209432,1.0,2.0
3110.0,2.0,0.48716685,1.0,2.0
3120.0,2.0,0.49367225,1.0,2.0
3130.0,2.0,0.49647298,1.0,2.0
3140.0,2.0,0.49676687,1.0,2.0
3150.0,2.0,0.49226528,1.0,2.0
3160.0,2.0,0.48171306,1.0,2.0
3170.0,2.0,0.48250374,1.0,2.0
3180.0,2.0,0.48926118,1.0,2.0
3190.0,2.0,0.48768705,1.0,2.0
3200.0,2.0,0.48121196,1.0,2.0
3210.0,2.0,0.4813839,1.0,2.0
3220.0,2.0,0.48618078,1.0,2.0
3230.0,2.0,0.48806307,1.0,2.0
3240.0,2.0,0.48398525,1.0,2.0
3250.0,2.0,0.48065224,1.0,2.0
3260.0,2.0,0.4830353,1.0,2.0
3270.0,2.0,0.48872066,1.0,2.0
3280.0,2.0,0.48665747,1.0,2.0
3290.0,2.0,0.48672897,1.0,2.0
3300.0,2.0,0.49297827,1.0,2.0
3310.0,2.0,0.49439716,1.0,2.0
3320.0,2.0,0.48902896,1.0,2.0
3330.0,2.0,0.48027152,1.0,2.0
3340.0,2.0,0.4797974,1.0,2.0
3350.0,2.0,0.48495317,1.0,2.0
3360.0,2.0,0.49217528,1.0,2.0
3370.0,2.0,0.4961279,1.0,2.0
3380.0,2.0,0.4970095,1.0,2.0
3390.0,2.0,0.49800128,1.0,2.0
3400.0,2.0,0.499837,1.0,2.0
3410.0,1.0,0.49968758,1.0,2.0
3420.0,1.0,0.49780986,1.0,2.0
3430.0,1.0,0.49441066,1.0,2.0
3440.0,1.0,0.49257314,1.0,2.0
3450.0,1.0,0.49014837,1.0,2.0
3460.0,1.0,0.48744476,1.0,2.0
3470.0,1.0,0.4870061,1.0,2.0
3480.0,1.0,0.49219814,1.0,2.0
3490.0,1.0,0.4937808,1.0,2.0
3500.0,1.0,0.48806208,1.0,2.0
3510.0,1.0,0.4813542,1.0,2.0
3520.0,1.0,0.47344315,1.0,2.0
3530.0,1.0,0.4644279,1.0,2.0
3540.0,1.0,0.46408018,1.0,2.0
3550.0,1.0,0.4689578,1.0,2.0
3560.0,1.0,0.46521246,1.0,2.0
3570.0,1.0,0.43606177,1.0,2.0
3580.0,1.0,0.40382755,1.0,1.0
3590.0,1.0,0.3897165,1.0,1.0
3600.0,1.0,0.37543878,1.0,1.0
3610.0,1.0,0.38556722,1.0,1.0
3620.0,1.0,0.40102026,1.0,1.0
3630.0,1.0,0.41792724,1.0,1.0
3640.0,1.0,0.4314607,1.0,1.0
3650.0,1.0,0.4324904,1.0,1.0
3660.0,1.0,0.4250549,1.0,1.0
3670.0,1.0,0.42520532,1.0,1.0
3680.0,1.0,0.44398984,1.0,2.0
3690.0,1.0,0.4621343,1.0,2.0
3700.0,1.0,0.47579676,1.0,2.0
3710.0,1.0,0.48454642,1.0,2.0
3720.0,1.0,0.4897181,1.0,2.0
3730.0,1.0,0.49219817,1.0,2.0
3740.0,1.0,0.49236494,1.0,2.0
3750.0,1.0,0.4853515,1.0,2.0
3760.0,1.0,0.47945997,1.0,2.0
3770.0,1.0,0.48116425,1.0,2.0
3780.0,1.0,0.4826958,1.0,2.0
3790.0,1.0,0.48618075,1.0,2.0
3800.0,1.0,0.495111,1.0,2.0
3810.0,1.0,0.49898234,1.0,2.0
3820.0,1.0,0.49688643,1.0,2.0
3830.0,1.0,0.49364704,1.0,2.0
3840.0,1.0,0.48571414,1.0,2.0
3850.0,1.0,0.47155738,1.0,2.0
3860.0,1.0,0.4649375,1.0,2.0
3870.0,1.0,0.47032496,1.0,2.0
3880.0,1.0,0.47170085,1.0,2.0
3890.0,1.0,0.46123034,1.0,2.0
3900.0,1.0,0.44976768,1.0,2.0
3910.0,1.0,0.43064296,1.0,1.0
3920.0,1.0,0.40717018,1.0,1.0
3930.0,1.0,0.4037953,1.0,1.0
3940.0,1.0,0.41048998,1.0,1.0
3950.0,1.0,0.4121754,1.0,1.0
3960.0,1.0,0.40519056,1.0,1.0
3970.0,1.0,0.39392003,1.0,1.0
3980.0,1.0,0.382993,1.0,1.0
3990.0,1.0,0.37314174,1.0,1.0
4000.0,1.0,0.36640966,1.0,1.0
4010.0,1.0,0.3619977,1.0,1.0
4020.0,1.0,0.3564694,1.0,1.0
4030.0,1.0,0.32464123,1.0,1.0
4040.0,1.0,0.29323897,1.0,1.0
4050.0,1.0,0.21272424,1.0,1.0
4060.0,1.0,0.058857128,1.0,1.0
4070.0,1.0,0.0,1.0,1.0
4080.0,1.0,0.0,1.0,1.0
4090.0,1.0,0.0,1.0,1.0
4100.0,1.0,0.0,1.0,1.0
4110.0,1.0,0.0,1.0,1.0
4120.0,1.0,0.0,1.0,1.0
4130.0,1.0,0.0,1.0,1.0
4140.0,1.0,0.0,1.0,1.0
4150.0,1.0,0.0,1.0,1.0
4160.0,1.0,0.0,1.0,1.0
4170.0,1.0,0.0,1.0,1.0
4180.0,1.0,0.0,1.0,1.0
4190.0,1.0,0.0,1.0,1.0
4200.0,1.0,0.0,1.0,1.0
4210.0,1.0,0.0,1.0,1.0
4220.0,1.0,0.0,1.0,1.0
4230.0,1.0,0.0,1.0,1.0
4240.0,1.0,0.0,1.0,1.0
4250.0,1.0,0.0,1.0,1.0
4260.0,1.0,0.0,1.0,1.0
4270.0,1.0,0.0,1.0,1.0
4280.0,1.0,0.0,1.0,1.0
4290.0,1.0,0.0,1.0,1.0
4300.0,1.0,0.0,1.0,1.0
4310.0,1.0,0.0,1.0,1.0
4320.0,1.0,0.0,1.0,1.0
4330.0,1.0,0.0,1.0,1.0
4340.0,1.0,0.0,1.0,1.0
4350.0,1.0,0.0,1.0,1.0
4360.0,1.0,0.0,1.0,1.0
4370.0,1.0,0.0,1.0,1.0
4380.0,1.0,0.0,1.0,1.0
4390.0,1.0,0.0,1.0,1.0
4400.0,1.0,0.0,1.0,1.0
4410.0,1.0,0.0,1.0,1.0
4420.0,1.0,0.0,1.0,1.0
4430.0,1.0,0.0,1.0,1.0
4440.0,1.0,0.0,1.0,1.0
4450.0,1.0,0.0,1.0,1.0
4460.0,1.0,0.0,1.0,1.0
4470.0,1.0,0.0,1.0,1.0
4480.0,1.0,0.0,1.0,1.0
4490.0,1.0,0.0,1.0,1.0
4500.0,1.0,0.0,1.0,1.0
4510.0,1.0,0.0,1.0,1.0
4520.0,1.0,0.0,1.0,1.0
4530.0,1.0,0.0,1.0,1.0
4540.0,1.0,0.0,1.0,1.0
4550.0,1.0,0.0,1.0,1.0
4560.0,1.0,0.0,1.0,1.0
4570.0,1.0,0.0,1.0,1.0
4580.0,1.0,0.0,1.0,1.0
4590.0,1.0,0.0,1.0,1.0
4600.0,1.0,0.0,1.0,1.0
4610.0,1.0,0.0,1.0,1.0
4620.0,1.0,0.0,1.0,1.0
4630.0,1.0,0.0,1.0,1.0
4640.0,1.0,0.0,1.0,1.0
4650.0,1.0,0.0,1.0,1.0
4660.0,1.0,0.0,1.0,1.0
4670.0,1.0,0.0,1.0,1.0
4680.0,1.0,0.0,1.0,1.0
4690.0,1.0,0.0,1.0,1.0
4700.0,1.0,0.0,1.0,1.0
4710.0,1.0,0.0,1.0,1.0
4720.0,1.0,0.0,1.0,1.0
4730.0,1.0,0.0,1.0,1.0
4740.0,1.0,0.0,1.0,1.0
4750.0,1.0,0.0,1.0,1.0
4760.0,1.0,0.0,1.0,1.0
4770.0,1.0,0.0,1.0,1.0
4780.0,1.0,0.0,1.0,1.0
4790.0,1.0,0.0,1.0,1.0
4800.0,1.0,0.0,1.0,1.0
4810.0,1.0,0.0,1.0,1.0
4820.0,1.0,0.0,1.0,1.0
4830.0,1.0,0.0,1.0,1.0
4840.0,1.0,0.0,1.0,1.0
4850.0,1.0,0.0,1.0,1.0
4860.0,1.0,0.0,1.0,1.0
4870.0,1.0,0.0,1.0,1.0
4880.0,1.0,0.0,1.0,1.0
4890.0,1.0,0.0,1.0,1.0
4900.0,1.0,0.0,1.0,1.0
4910.0,1.0,0.0,1.0,1.0
4920.0,1.0,0.0,1.0,1.0
4930.0,1.0,0.0,1.0,1.0
4940.0,1.0,0.0,1.0,1.0
4950.0,1.0,0.0,1.0,1.0
4960.0,1.0,0.0,1.0,1.0
4970.0,1.0,0.0,1.0,1.0
4980.0,1.0,0.0,1.0,1.0
4990.0,1.0,0.0,1.0,1.0
5000.0,1.0,0.0,1.0,1.0
5010.0,1.0,0.0,1.0,1.0
5020.0,1.0,0.0,1.0,1.0
5030.0,1.0,0.0,1.0,1.0
5040.0,1.0,0.0,1.0,1.0
5050.0,1.0,0.0,1.0,1.0
5060.0,1.0,0.0,1.0,1.0
5070.0,1.0,0.0,1.0,1.0
5080.0,1.0,0.0,1.0,1.0
5090.0,1.0,0.0,1.0,1.0
5100.0,1.0,0.0,1.0,1.0
5110.0,1.0,0.0,1.0,1.0
5120.0,1.0,0.0,1.0,1.0
5130.0,1.0,0.0,1.0,1.0
5140.0,1.0,0.0,1.0,1.0
5150.0,1.0,0.0,1.0,1.0
5160.0,1.0,0.0,1.0,1.0
5170.0,1.0,0.0,1.0,1.0
5180.0,1.0,0.0,1.0,1.0
5190.0,1.0,0.0,1.0,1.0
5200.0,1.0,0.0,1.0,1.0
5210.0,1.0,0.0,1.0,1.0
5220.0,1.0,0.0,1.0,1.0
5230.0,1.0,0.0,1.0,1.0
5240.0,1.0,0.0,1.0,1.0
5250.0,1.0,0.0,1.0,1.0
5260.0,1.0,0.0,1.0,1.0
5270.0,1.0,0.0,1.0,1.0
5280.0,1.0,0.0,1.0,1.0
5290.0,1.0,0.0,1.0,1.0
5300.0,1.0,0.0,1.0,1.0
5310.0,1.0,0.0,1.0,1.0
5320.0,1.0,0.0,1.0,1.0
5330.0,1.0,0.0,1.0,1.0
5340.0,1.0,0.0,1.0,1.0
5350.0,1.0,0.0,1.0,1.0
5360.0,1.0,0.0,1.0,1.0
5370.0,1.0,0.0,1.0,1.0
5380.0,1.0,0.0,1.0,1.0
5390.0,1.0,0.0,1.0,1.0
5400.0,1.0,0.0,1.0,1.0
5410.0,1.0,0.0,1.0,1.0
5420.0,1.0,0.0,1.0,1.0
5430.0,1.0,0.0,1.0,1.0
5440.0,1.0,0.0,1.0,1.0
5450.0,1.0,0.0,1.0,1.0
5460.0,1.0,0.0,1.0,1.0
5470.0,1.0,0.0,1.0,1.0
5480.0,1.0,0.0,1.0,1.0
5490.0,1.0,0.0,1.0,1.0
5500.0,1.0,0.0,1.0,1.0
5510.0,1.0,0.0,1.0,1.0
5520.0,1.0,0.0,1.0,1.0
5530.0,1.0,0.0,1.0,1.0
5540.0,1.0,0.0,1.0,1.0
5550.0,1.0,0.0,1.0,1.0
5560.0,1.0,0.0,1.0,1.0
5570.0,1.0,0.0,1.0,1.0
5580.0,1.0,0.0,1.0,1.0
5590.0,1.0,0.0,1.0,1.0
5600.0,1.0,0.0,1.0,1.0
5610.0,1.0,0.0,1.0,1.0
5620.0,1.0,0.0,1.0,1.0
5630.0,1.0,0.11637974,1.0,1.0
5640.0,1.0,0.18257403,1.0,1.0
5650.0,1.0,0.16997066,1.0,1.0
5660.0,1.0,0.15217651,1.0,1.0
5670.0,1.0,0.17441511,1.0,1.0
5680.0,1.0,0.23085143,1.0,1.0
5690.0,1.0,0.22258872,1.0,1.0
5700.0,1.0,0.21384005,1.0,1.0
5710.0,1.0,0.23136137,1.0,1.0
5720.0,1.0,0.28727368,1.0,1.0
5730.0,1.0,0.28115752,1.0,1.0
5740.0,1.0,0.2727496,1.0,1.0
5750.0,1.0,0.2662561,1.0,1.0
5760.0,1.0,0.24861327,1.0,1.0
5770.0,1.0,0.0,1.0,1.0
5780.0,1.0,0.0,1.0,1.0
5790.0,1.0,0.0,1.0,1.0
5800.0,1.0,0.0,1.0,1.0
5810.0,1.0,0.0,1.0,1.0
5820.0,1.0,0.0,1.0,1.0
5830.0,1.0,0.0,1.0,1.0
5840.0,1.0,0.0,1.0,1.0
5850.0,1.0,0.0,1.0,1.0
5860.0,1.0,0.0,1.0,1.0
5870.0,1.0,0.0,1.0,1.0
5880.0,1.0,0.0,1.0,1.0
5890.0,1.0,0.0,1.0,1.0
5900.0,1.0,0.0,1.0,1.0
5910.0,1.0,0.0,1.0,1.0
5920.0,1.0,0.0,1.0,1.0
5930.0,1.0,0.0,1.0,1.0
5940.0,1.0,0.0,1.0,1.0
5950.0,1.0,0.0,1.0,1.0
5960.0,1.0,0.0,1.0,1.0
5970.0,1.0,0.0,1.0,1.0
5980.0,1.0,0.0,1.0,1.0
5990.0,1.0,0.0,1.0,1.0
6000.0,1.0,0.0,1.0,1.0
6010.0,1.0,0.0,1.0,1.0
6020.0,1.0,0.0,1.0,1.0
6030.0,1.0,0.0,1.0,1.0
6040.0,1.0,0.0,1.0,1.0
6050.0,1.0,0.0,1.0,1.0
6060.0,1.0,0.0,1.0,1.0
6070.0,1.0,0.0,1.0,1.0
6080.0,1.0,0.0,1.0,1.0
6090.0,1.0,0.0,1.0,1.0
6100.0,1.0,0.0,1.0,1.0
6110.0,1.0,0.0,1.0,1.0
6120.0,1.0,0.0,1.0,1.0
6130.0,1.0,0.0,1.0,1.0
6140.0,1.0,0.0,1.0,1.0
6150.0,1.0,0.0,1.0,1.0
6160.0,1.0,0.0,1.0,1.0
6170.0,1.0,0.0,1.0,1.0
6180.0,1.0,0.0,1.0,1.0
6190.0,1.0,0.0,1.0,1.0
6200.0,1.0,0.0,1.0,1.0
6210.0,1.0,0.0,1.0,1.0
6220.0,1.0,0.0,1.0,1.0
6230.0,1.0,0.15407437,1.0,1.0
6240.0,1.0,0.33514878,1.0,1.0
6250.0,1.0,0.4212057,1.0,1.0
6260.0,1.0,0.41556618,1.0,1.0
6270.0,1.0,0.4088584,1.0,1.0
6280.0,1.0,0.41354254,1.0,1.0
6290.0,1.0,0.48735473,1.0,2.0
6300.0,1.0,0.48998424,1.0,2.0
6310.0,1.0,0.48425022,1.0,2.0
6320.0,1.0,0.48425022,1.0,2.0
6330.0,1.0,0.49887,1.0,2.0
6340.0,2.0,0.48456523,1.0,2.0
6350.0,2.0,0.4842502,1.0,2.0
6360.0,2.0,0.48456523,1.0,2.0
6370.0,2.0,0.49455568,1.0,2.0
6380.0,2.0,0.4977642,1.0,2.0
6390.0,2.0,0.4987429,1.0,2.0
6400.0,2.0,0.4974784,1.0,2.0
6410.0,2.0,0.49245676,1.0,2.0
6420.0,2.0,0.47975928,1.0,2.0
6430.0,2.0,0.47962782,1.0,2.0
6440.0,2.0,0.4856209,1.0,2.0
6450.0,2.0,0.49538052,1.0,2.0
6460.0,2.0,0.49756816,1.0,2.0
6470.0,2.0,0.4958331,1.0,2.0
6480.0,2.0,0.49275893,1.0,2.0
6490.0,2.0,0.4922202,1.0,2.0
6500.0,2.0,0.49222022,1.0,2.0
6510.0,2.0,0.49280098,1.0,2.0
6520.0,2.0,0.49692416,1.0,2.0
6530.0,2.0,0.49989185,1.0,2.0
6540.0,1.0,0.49934632,1.0,2.0
6550.0,1.0,0.49711868,1.0,2.0
6560.0,1.0,0.4976981,1.0,2.0
6570.0,1.0,0.49917254,1.0,2.0
6580.0,1.0,0.49941048,1.0,2.0
6590.0,1.0,0.4981399,1.0,2.0
6600.0,1.0,0.49417415,1.0,2.0
6610.0,1.0,0.49071208,1.0,2.0
6620.0,1.0,0.48191008,1.0,2.0
6630.0,1.0,0.5545412,1.0,2.0
6640.0,1.0,0.63313234,1.0,1.0
6650.0,1.0,0.5851926,1.0,1.0
6660.0,1.0,0.40358934,1.0,1.0
6670.0,1.0,0.15232901,1.0,1.0
6680.0,1.0,0.0,1.0,1.0
6690.0,1.0,0.0,1.0,1.0
6700.0,1.0,0.0,1.0,1.0
6710.0,1.0,0.0,1.0,1.0
6720.0,1.0,0.0,1.0,1.0
6730.0,1.0,0.0,1.0,1.0
6740.0,1.0,0.0,1.0,1.0
6750.0,1.0,0.0,1.0,1.0
6760.0,1.0,0.0,1.0,1.0
6770.0,1.0,0.0,1.0,1.0
6780.0,1.0,0.0,1.0,1.0
6790.0,1.0,0.0,1.0,1.0
6800.0,1.0,0.0,1.0,1.0
6810.0,1.0,0.0,1.0,1.0
6820.0,1.0,0.0,1.0,1.0
6830.0,1.0,0.0,1.0,1.0
6840.0,1.0,0.0,1.0,1.0
6850.0,1.0,0.0,1.0,1.0
6860.0,1.0,0.0,1.0,1.0
6870.0,1.0,0.0,1.0,1.0
6880.0,1.0,0.0,1.0,1.0
6890.0,1.0,0.0,1.0,1.0
6900.0,1.0,0.0,1.0,1.0
6910.0,1.0,0.0,1.0,1.0
6920.0,1.0,0.0,1.0,1.0
6930.0,1.0,0.0,1.0,1.0
6940.0,1.0,0.0,1.0,1.0
6950.0,1.0,0.0,1.0,1.0
6960.0,1.0,0.0,1.0,1.0
6970.0,1.0,0.0,1.0,1.0
6980.0,1.0,0.0,1.0,1.0
6990.0,1.0,0.0,1.0,1.0
7000.0,1.0,0.0,1.0,1.0
7010.0,1.0,0.0,1.0,1.0
7020.0,1.0,0.0,1.0,1.0
7030.0,1.0,0.0,1.0,1.0
7040.0,1.0,0.0,1.0,1.0
7050.0,1.0,0.0,1.0,1.0
7060.0,1.0,0.0,1.0,1.0
7070.0,1.0,0.0,1.0,1.0
7080.0,1.0,0.0,1.0,1.0
7090.0,1.0,0.0,1.0,1.0
7100.0,1.0,0.0,1.0,1.0
7110.0,1.0,0.0,1.0,1.0
7120.0,1.0,0.0,1.0,1.0
7130.0,1.0,0.0,1.0,1.0
7140.0,1.0,0.2222635,1.0,1.0
7150.0,1.0,0.32204318,1.0,1.0
7160.0,1.0,0.3767552,1.0,1.0
7170.0,1.0,0.40136957,1.0,1.0
7180.0,1.0,0.4153635,1.0,1.0
7190.0,1.0,0.42856792,1.0,1.0
7200.0,1.0,0.4417906,1.0,2.0
7210.0,1.0,0.45345604,1.0,2.0
7220.0,1.0,0.4602417,1.0,2.0
7230.0,1.0,0.46812186,1.0,2.0
7240.0,1.0,0.47069192,1.0,2.0
7250.0,1.0,0.47822815,1.0,2.0
7260.0,1.0,0.48518074,1.0,2.0
7270.0,1.0,0.48935118,1.0,2.0
7280.0,1.0,0.48704013,1.0,2.0
7290.0,1.0,0.5939303,1.0,2.0
7300.0,1.0,0.7452902,1.0,2.0
7310.0,1.0,0.78467536,1.0,2.0
7320.0,1.0,0.6810516,1.0,2.0
7330.0,2.0,0.52779716,1.0,2.0
7340.0,2.0,0.49826083,1.0,2.0
7350.0,2.0,0.52728415,1.0,2.0
7360.0,2.0,0.6727223,1.0,2.0
7370.0,2.0,0.73613304,1.0,2.0
7380.0,2.0,0.6639427,1.0,2.0
7390.0,2.0,0.48662433,1.0,2.0
7400.0,2.0,0.47328725,1.0,2.0
7410.0,2.0,0.47413975,1.0,2.0
7420.0,2.0,0.47140455,1.0,2.0
7430.0,2.0,0.51850116,1.0,2.0
7440.0,2.0,0.54730326,1.0,2.0
7450.0,2.0,0.5753205,1.0,2.0
7460.0,2.0,0.6110724,2.0,2.0
7470.0,2.0,0.64982945,1.0,2.0
7480.0,2.0,0.66025865,1.0,2.0
7490.0,2.0,0.6622772,1.0,2.0
7500.0,2.0,0.66524875,1.0,2.0
7510.0,2.0,0.6678367,1.0,2.0
7520.0,2.0,0.6913619,1.0,2.0
7530.0,2.0,0.7051194,1.0,2.0
7540.0,2.0,0.70219034,1.0,2.0
7550.0,2.0,0.6824498,1.0,2.0
7560.0,2.0,0.67846125,1.0,2.0
7570.0,2.0,0.69717914,1.0,2.0
7580.0,2.0,0.69539315,1.0,2.0
7590.0,2.0,0.68598086,1.25,2.0
7600.0,2.0,0.68737376,1.0,2.0
7610.0,2.0,0.72069484,1.0,3.0
7620.0,2.0,0.7327893,1.0,3.0
7630.0,2.0,0.703583,1.0,2.0
7640.0,2.0,0.6447755,2.0,2.0
7650.0,2.0,0.6183469,2.0,2.0
7660.0,2.0,0.65677655,2.0,2.0
7670.0,2.0,0.6779192,2.0,2.0
7680.0,2.0,0.65698034,2.0,2.0
7690.0,2.0,0.6179595,2.0,2.0
7700.0,2.0,0.6247249,2.0,2.0
7710.0,2.0,0.64379334,2.0,2.0
7720.0,2.0,0.6701392,2.0,2.0
7730.0,2.0,0.6797972,2.0,2.0
7740.0,2.0,0.6445034,2.0,2.0
7750.0,2.0,0.61299986,2.0,2.0
7760.0,2.0,0.62573946,2.0,2.0
7770.0,2.0,0.6531793,2.0,2.0
7780.0,2.0,0.6689009,2.0,2.0
7790.0,2.0,0.6509347,2.0,2.0
7800.0,2.0,0.6123676,2.0,2.0
7810.0,2.0,0.53740436,2.0,2.0
7820.0,2.0,0.5107956,2.0,2.0
7830.0,2.0,0.48158526,2.0,2.0
7840.0,2.0,0.46861124,2.0,2.0
7850.0,2.0,0.4346591,1.0,2.0
7860.0,2.0,0.4201885,2.0,2.0
7870.0,2.0,0.40841496,2.0,2.0
7880.0,2.0,0.40646312,2.0,2.0
7890.0,2.0,0.4247975,2.0,2.0
7900.0,2.0,0.43441707,1.0,2.0
7910.0,2.0,0.41517174,2.0,2.0
7920.0,2.0,0.41286194,2.0,2.0
7930.0,2.0,0.405625,2.0,2.0
7940.0,2.0,0.4259851,2.0,2.0
7950.0,2.0,0.43001288,2.0,2.0
7960.0,2.0,0.4266568,2.0,2.0
7970.0,2.0,0.44813165,2.0,2.0
7980.0,2.0,0.49499905,2.0,2.0
7990.0,2.0,0.51697534,2.0,2.0
8000.0,2.0,0.50597376,2.0,2.0
8010.0,2.0,0.5015833,2.0,2.0
8020.0,2.0,0.52055806,2.0,2.0
8030.0,2.0,0.57236284,2.0,2.0
8040.0,2.0,0.63823825,1.0,2.0
8050.0,2.0,0.6766464,1.0,2.0
8060.0,2.0,0.68334335,1.0,2.0
8070.0,2.0,0.7028816,1.0,2.0
8080.0,2.0,0.7316784,1.0,2.0
8090.0,2.0,0.7372742,1.0,2.0
8100.0,2.0,0.7177235,1.0,2.0
8110.0,2.0,0.6946971,1.0,2.0
8120.0,2.0,0.7100507,1.0,2.0
8130.0,2.0,0.73573303,1.0,2.0
8140.0,2.0,0.7618689,1.0,2.0
8150.0,2.0,0.7718011,1.0,2.0
8160.0,2.0,0.7745977,1.0,2.0
8170.0,2.0,0.7549601,1.0,2.0
8180.0,2.0,0.72451746,1.0,2.0
8190.0,2.0,0.7221149,1.0,2.0
8200.0,2.0,0.74180543,1.0,2.0
8210.0,1.0,0.774124,1.0,2.0
8220.0,1.0,0.7809412,1.0,2.0
8230.0,2.0,0.77555704,1.0,2.0
8240.0,2.0,0.75704336,1.0,2.0
8250.0,1.0,0.76664543,1.0,2.0
8260.0,1.0,0.7820139,1.0,2.0
8270.0,1.0,0.7833333,1.0,2.0
8280.0,1.0,0.7835845,1.0,2.0
8290.0,1.0,0.8027716,1.0,2.0
8300.0,1.0,0.8143811,1.0,2.0
8310.0,1.0,0.79304904,1.0,2.0
8320.0,1.0,0.7702389,1.0,2.0
8330.0,1.0,0.7627892,1.0,2.0
8340.0,1.0,0.7783923,1.0,2.0
8350.0,1.0,0.78033495,1.0,2.0
8360.0,1.0,0.78107554,1.0,2.0
8370.0,1.0,0.79014933,1.0,2.0
8380.0,1.0,0.81049126,1.0,2.0
8390.0,1.0,0.8020805,1.0,2.0
8400.0,1.0,0.7802643,1.0,2.0
8410.0,1.0,0.782357,1.0,2.0
8420.0,1.0,0.80471367,1.0,2.0
8430.0,1.0,0.816217,1.0,2.0
8440.0,1.0,0.8161535,1.0,2.0
8450.0,1.0,0.8171093,1.0,2.0
8460.0,1.0,0.80232644,1.0,2.0
8470.0,1.0,0.78107554,1.0,2.0
8480.0,1.0,0.7891667,1.0,2.0
8490.0,1.0,0.8160741,1.0,2.0
8500.0,1.0,0.81747174,1.0,2.0
8510.0,1.0,0.7908039,1.0,2.0
8520.0,1.0,0.78308195,1.0,2.0
8530.0,1.0,0.78803045,1.0,2.0
8540.0,1.0,0.7853004,1.0,2.0
8550.0,1.0,0.7900129,1.0,2.0
8560.0,1.0,0.78240514,1.0,2.0
8570.0,1.0,0.78772616,1.0,2.0
8580.0,1.0,0.7905354,1.0,2.0
8590.0,1.0,0.87100786,1.0,2.0
8600.0,1.0,0.97797817,1.0,2.0
8610.0,1.0,0.96551365,1.0,2.0
8620.0,1.0,0.8464853,1.0,2.0
8630.0,2.0,0.7902799,1.0,2.0
8640.0,1.0,0.79777324,1.0,2.0
8650.0,1.0,0.79807335,1.0,2.0
8660.0,1.0,0.7782026,1.0,2.0
8670.0,1.0,0.78440076,1.0,2.0
8680.0,2.0,0.8440338,1.0,2.0
8690.0,1.0,0.9462139,1.0,2.0
8700.0,2.0,0.98235106,1.0,2.0
8710.0,2.0,0.91914797,1.0,3.0
8720.0,2.0,0.83890444,1.0,3.0
8730.0,2.0,0.84933686,1.0,3.0
8740.0,1.0,0.85606104,1.0,3.0
8750.0,1.0,0.8541503,1.0,3.0
8760.0,1.0,0.84451455,1.0,3.0
8770.0,1.0,0.81911737,1.0,2.0
8780.0,1.0,0.80588865,1.0,2.0
8790.0,1.0,0.82422876,1.0,2.0
8800.0,1.0,0.8419788,1.0,3.0
8810.0,1.0,0.8805361,1.0,2.0
8820.0,2.0,0.9492913,1.0,2.0
8830.0,2.0,0.9354698,1.0,2.0
8840.0,2.0,0.85197604,1.0,2.0
8850.0,2.0,0.7934459,1.0,2.0
8860.0,2.0,0.7938169,1.0,2.0
8870.0,2.0,0.7688082,1.0,2.0
8880.0,2.0,0.7394032,1.0,2.0
8890.0,2.0,0.73481196,1.0,2.0
8900.0,2.0,0.75033206,1.0,2.0
8910.0,2.0,0.77456963,1.0,2.0
8920.0,2.0,0.7854772,1.0,2.0
8930.0,2.0,0.80671364,1.0,3.0
8940.0,2.0,0.82258725,1.0,3.0
8950.0,2.0,0.8416625,1.0,3.0
8960.0,2.0,0.84351087,1.0,3.0
8970.0,2.0,0.82663894,1.0,3.0
8980.0,2.0,0.81618464,1.0,2.0
8990.0,2.0,0.8363687,1.0,3.0
9000.0,2.0,0.84775925,1.0,3.0
9010.0,2.0,0.84998035,1.0,3.0
9020.0,2.0,0.849462,1.0,3.0
9030.0,2.0,0.8416704,1.0,3.0
9040.0,2.0,0.8187405,1.0,3.0
9050.0,2.0,0.8045799,1.0,2.0
9060.0,2.0,0.8288974,1.0,3.0
9070.0,2.0,0.94377494,1.0,3.0
9080.0,2.0,1.0149646,1.0,3.0
9090.0,2.0,0.98447895,1.0,3.0
9100.0,2.0,0.8692377,1.0,3.0
9110.0,2.0,0.8375829,1.0,3.0
9120.0,2.0,0.85029024,1.0,3.0
9130.0,2.0,0.8595466,1.0,3.0
9140.0,2.0,0.86230415,1.0,3.0
9150.0,2.0,0.86239743,1.0,3.0
9160.0,2.0,0.84742975,1.0,3.0
9170.0,2.0,0.93008345,1.0,3.0
9180.0,2.0,1.0186616,1.0,3.0
9190.0,2.0,1.002983,1.0,3.0
9200.0,2.0,0.906007,1.0,3.0
9210.0,2.0,0.8553843,1.0,3.0
9220.0,2.0,0.85384893,1.0,3.0
9230.0,2.0,0.85702586,1.0,3.0
9240.0,2.0,0.8754285,1.0,3.0
9250.0,2.0,0.8805956,1.0,3.0
9260.0,2.0,0.87774855,1.0,3.0
9270.0,2.0,0.87842965,1.0,3.0
9280.0,2.0,0.87443054,1.0,3.0
9290.0,2.0,0.8608856,1.0,3.0
9300.0,2.0,0.856637,1.0,3.0
9310.0,2.0,0.8561454,1.0,3.0
9320.0,2.0,0.84640074,1.0,3.0
9330.0,2.0,0.82582057,1.0,3.0
9340.0,2.0,0.8241849,1.0,3.0
9350.0,2.0,0.8417718,1.0,3.0
9360.0,2.0,0.85489887,1.0,3.0
9370.0,2.0,0.85797197,1.0,3.0
9380.0,2.0,0.85877526,1.0,3.0
9390.0,2.0,0.85433465,1.0,3.0
9400.0,2.0,0.84858686,1.0,3.0
9410.0,2.0,0.82802445,1.0,3.0
9420.0,2.0,0.80892575,1.0,3.0
9430.0,2.0,0.7968632,1.0,3.0
9440.0,2.0,0.7916488,1.0,3.0
9450.0,2.0,0.77153295,1.0,3.0
9460.0,2.0,0.7636271,1.0,2.0
9470.0,2.0,0.7845532,1.0,2.0
9480.0,2.0,0.8184134,1.0,3.0
9490.0,2.0,0.8197507,1.0,3.0
9500.0,2.0,0.8044029,1.0,3.0
9510.0,2.0,0.80444515,1.0,3.0
9520.0,2.0,0.7955049,1.0,3.0
9530.0,2.0,0.78452235,1.0,3.0
9540.0,2.0,0.7875782,1.0,3.0
9550.0,2.0,0.8078911,1.0,3.0
9560.0,2.0,0.80253917,1.0,3.0
9570.0,2.0,0.79207003,1.0,2.0
9580.0,2.0,0.8004369,1.0,3.0
9590.0,2.0,0.82531655,1.0,3.0
9600.0,2.0,0.8190744,1.0,3.0
9610.0,2.0,0.7775301,1.0,2.0
9620.0,2.0,0.7326528,1.0,2.0
9630.0,2.0,0.7159256,1.0,2.0
9640.0,2.0,0.71291244,1.0,2.0
9650.0,2.0,0.68614537,1.0,2.0
9660.0,2.0,0.6537411,1.0,2.0
9670.0,2.0,0.65144324,1.0,2.0
9680.0,2.0,0.6517648,1.0,2.0
9690.0,2.0,0.59566754,1.0,2.0
9700.0,2.0,0.5173877,1.0,2.0
9710.0,2.0,0.48801556,1.0,2.0
9720.0,2.0,0.48978668,1.0,2.0
9730.0,2.0,0.4877899,1.0,2.0
9740.0,2.0,0.48497313,1.0,2.0
9750.0,2.0,0.485741,1.0,2.0
9760.0,2.0,0.49178997,1.0,2.0
9770.0,2.0,0.49832526,1.0,2.0
9780.0,2.0,0.4998602,1.0,2.0
9790.0,2.0,0.49984455,1.0,2.0
9800.0,2.0,0.49655756,1.0,2.0
9810.0,2.0,0.49777257,1.0,2.0
9820.0,2.0,0.49973977,1.0,2.0
9830.0,2.0,0.49999952,1.0,2.0
9840.0,2.0,0.49940157,1.0,2.0
9850.0,2.0,0.49804434,1.0,2.0
9860.0,2.0,0.49843022,1.0,2.0
9870.0,2.0,0.49657515,1.0,2.0
9880.0,2.0,0.4939245,1.0,2.0
9890.0,2.0,0.49503502,1.0,2.0
9900.0,2.0,0.49968398,1.0,2.0
9910.0,2.0,0.49889436,1.0,2.0
9920.0,2.0,0.49695992,1.0,2.0
9930.0,2.0,0.4976579,1.0,2.0
9940.0,2.0,0.4999951,1.0,2.0
9950.0,1.0,0.49929905,1.0,2.0
9960.0,1.0,0.4983231,1.0,2.0
9970.0,1.0,0.4979296,1.0,2.0
9980.0,1.0,0.49810612,1.0,2.0
9990.0,1.0,0.49770853,1.0,2.0
10000.0,1.0,0.4990413,1.0,2.0
10010.0,1.0,0.4999335,1.0,2.0
10020.0,2.0,0.49999818,1.0,2.0
10030.0,1.0,0.4993331,1.0,2.0
10040.0,1.0,0.49682015,1.0,2.0
10050.0,1.0,0.49531722,1.0,2.0
10060.0,1.0,0.49481818,1.0,2.0
10070.0,1.0,0.4923158,1.0,2.0
10080.0,1.0,0.48562092,1.0,2.0
10090.0,1.0,0.48631623,1.0,2.0
10100.0,1.0,0.49340522,1.0,2.0
10110.0,1.0,0.49674097,1.0,2.0
10120.0,1.0,0.49922583,1.0,2.0
10130.0,1.0,0.49942687,1.0,2.0
10140.0,1.0,0.49738201,1.0,2.0
10150.0,1.0,0.49427488,1.0,2.0
10160.0,1.0,0.49330157,1.0,2.0
10170.0,1.0,0.492475,1.0,2.0
10180.0,1.0,0.49190328,1.0,2.0
10190.0,1.0,0.49130023,1.0,2.0
10200.0,1.0,0.49019012,1.0,2.0
10210.0,1.0,0.49009186,1.0,2.0
10220.0,1.0,0.48813376,1.0,2.0
10230.0,1.0,0.48829272,1.0,2.0
10240.0,1.0,0.48792765,1.0,2.0
10250.0,1.0,0.48792765,1.0,2.0
10260.0,1.0,0.48884815,1.0,2.0
10270.0,1.0,0.48884815,1.0,2.0
10280.0,1.0,0.4881904,1.0,2.0
10290.0,1.0,0.48792765,1.0,2.0
10300.0,1.0,0.49199024,1.0,2.0
10310.0,1.0,0.49575543,1.0,2.0
10320.0,1.0,0.49568784,1.0,2.0
10330.0,1.0,0.495909,1.0,2.0
10340.0,1.0,0.49568784,1.0,2.0
10350.0,1.0,0.496153,1.0,2.0
10360.0,1.0,0.4974814,1.0,2.0
10370.0,1.0,0.49779424,1.0,2.0
10380.0,1.0,0.49088007,1.0,2.0
10390.0,1.0,0.47991338,1.0,2.0
10400.0,1.0,0.47836483,1.0,2.0
10410.0,1.0,0.48403943,1.0,2.0
10420.0,1.0,0.4854695,1.0,2.0
10430.0,1.0,0.48518232,1.0,2.0
10440.0,1.0,0.4751002,1.0,2.0
10450.0,1.0,0.46294814,1.0,2.0
10460.0,1.0,0.4523411,1.0,2.0
10470.0,1.0,0.45132008,1.0,2.0
10480.0,1.0,0.45002946,1.0,2.0
10490.0,1.0,0.44559088,1.0,2.0
10500.0,1.0,0.44541904,1.0,2.0
10510.0,1.0,0.44524407,1.0,2.0
10520.0,1.0,0.430042,1.0,1.0
10530.0,1.0,0.40896818,1.0,1.0
10540.0,1.0,0.40544984,1.0,1.0
10550.0,1.0,0.40455607,1.0,1.0
10560.0,1.0,0.40271795,1.0,1.0
10570.0,1.0,0.40931675,1.0,1.0
10580.0,1.0,0.4451465,1.0,2.0
10590.0,1.0,0.4738766,1.0,2.0
10600.0,1.0,0.49263483,1.0,2.0
10610.0,1.0,0.4986879,1.0,2.0
10620.0,1.5,0.5,1.0,2.0
10630.0,1.5,0.5,1.0,2.0
10640.0,2.0,0.49971196,1.0,2.0
10650.0,2.0,0.49697393,1.0,2.0
10660.0,2.0,0.49402717,1.0,2.0
10670.0,2.0,0.49563363,1.0,2.0
10680.0,2.0,0.49498308,1.0,2.0
10690.0,2.0,0.49109986,1.0,2.0
10700.0,2.0,0.48602396,1.0,2.0
10710.0,2.0,0.48377833,1.0,2.0
10720.0,2.0,0.4769696,1.0,2.0
10730.0,2.0,0.47327793,1.0,2.0
10740.0,2.0,0.52565926,1.0,2.0
10750.0,2.0,0.6126271,1.0,2.0
10760.0,2.0,0.6794226,2.0,2.0
10770.0,2.0,0.7322995,2.0,3.0
10780.0,2.0,0.7674008,1.0,3.0
10790.0,2.0,0.7668146,2.0,3.0
10800.0,2.0,0.74364907,2.0,3.0
10810.0,2.0,0.77285516,2.0,3.0
10820.0,2.0,0.8146213,1.0,3.0
10830.0,2.0,0.8291349,1.0,3.0
10840.0,2.0,0.81794894,2.0,3.0
10850.0,3.0,0.8210733,2.0,3.0
10860.0,3.0,0.88159823,2.0,3.0
10870.0,2.0,0.98492014,2.0,3.0
10880.0,3.0,1.0624373,2.0,3.0
10890.0,3.0,1.0743424,2.0,3.0
10900.0,3.0,1.0783932,2.0,4.0
10910.0,3.0,1.0819423,2.0,4.0
10920.0,3.0,1.0950768,2.0,4.0
10930.0,3.0,1.095331,2.0,4.0
10940.0,3.0,1.0857339,2.0,4.0
10950.0,3.0,1.0922265,2.0,4.0
10960.0,3.0,1.0817162,2.0,4.0
10970.0,3.0,1.0778939,2.0,4.0
10980.0,3.0,1.0928991,2.0,4.0
10990.0,3.0,1.124071,2.0,4.0
11000.0,3.0,1.1289811,2.0,4.0
11010.0,3.0,1.1669343,2.0,4.0
11020.0,3.0,1.2239853,2.0,4.0
11030.0,3.0,1.2782354,2.0,4.0
11040.0,3.0,1.2833081,2.0,4.0
11050.0,3.0,1.2600932,2.0,4.0
11060.0,3.0,1.2714167,2.0,4.0
11070.0,3.0,1.2991359,2.0,4.0
11080.0,3.0,1.3350781,2.0,4.0
11090.0,3.0,1.330876,2.0,4.0
11100.0,3.0,1.3222178,2.0,4.0
11110.0,3.0,1.2747955,2.0,4.0
11120.0,3.0,1.2877184,2.0,4.0
11130.0,3.0,1.3232042,2.0,4.0
11140.0,3.0,1.3337698,2.0,4.0
11150.0,3.0,1.2524763,2.0,4.0
11160.0,3.0,1.1485186,2.0,4.0
11170.0,3.0,1.1034861,2.0,4.0
11180.0,3.0,1.100172,2.0,4.0
11190.0,3.0,1.1133223,2.0,4.0
11200.0,3.0,1.1169419,2.0,4.0
11210.0,3.0,1.1276171,2.0,4.0
11220.0,3.0,1.1143577,2.0,4.0
11230.0,3.0,1.1106532,2.0,4.0
11240.0,3.0,1.1188203,2.0,4.0
11250.0,3.0,1.124809,2.0,4.0
11260.0,3.0,1.0843347,2.0,4.0
11270.0,3.0,1.0326722,2.0,3.0
11280.0,3.0,1.0209056,2.0,3.0
11290.0,3.0,1.0142044,2.0,3.0
11300.0,3.0,0.9853837,2.0,3.0
11310.0,3.0,0.9385712,2.0,3.0
11320.0,3.0,0.8809177,2.0,3.0
11330.0,3.0,0.82322586,2.0,3.0
11340.0,2.0,0.8048854,2.0,3.0
11350.0,2.0,0.81312567,2.0,3.0
11360.0,2.0,0.82196647,1.0,3.0
11370.0,2.0,0.8118635,1.0,3.0
11380.0,2.0,0.8072848,1.0,3.0
11390.0,2.0,0.8106568,1.0,3.0
11400.0,2.0,0.8073865,1.0,3.0
11410.0,2.0,0.79291385,1.0,3.0
11420.0,2.0,0.7719969,1.0,3.0
11430.0,2.0,0.7614552,1.0,2.0
11440.0,2.0,0.72158927,1.0,2.0
11450.0,2.0,0.650106,1.0,2.0
11460.0,2.0,0.58137983,1.0,2.0
11470.0,2.0,0.54736656,1.0,2.0
11480.0,2.0,0.5120203,1.0,2.0
11490.0,2.0,0.4803227,1.0,2.0
11500.0,2.0,0.4749222,1.0,2.0
11510.0,2.0,0.47797093,1.0,2.0
11520.0,2.0,0.49133533,1.0,2.0
11530.0,2.0,0.4979784,1.0,2.0
11540.0,2.0,0.49952272,1.0,2.0
11550.0,2.0,0.49921104,1.0,2.0
11560.0,2.0,0.4994381,1.0,2.0
11570.0,2.0,0.49922967,1.0,2.0
11580.0,2.0,0.4993233,1.0,2.0
11590.0,2.0,0.49902248,1.0,2.0
11600.0,2.0,0.49790904,1.0,2.0
11610.0,2.0,0.49723253,1.0,2.0
11620.0,2.0,0.4973041,1.0,2.0
11630.0,2.0,0.49723616,1.0,2.0
11640.0,2.0,0.49561012,1.0,2.0
11650.0,2.0,0.49481818,1.0,2.0
11660.0,2.0,0.4951086,1.0,2.0
11670.0,2.0,0.49572843,1.0,2.0
11680.0,2.0,0.49484527,1.0,2.0
11690.0,2.0,0.4939542,1.0,2.0
11700.0,2.0,0.49481818,1.0,2.0
11710.0,2.0,0.49563274,1.0,2.0
11720.0,2.0,0.49609798,1.0,2.0
11730.0,2.0,0.49290192,1.0,2.0
11740.0,2.0,0.49167645,1.0,2.0
11750.0,2.0,0.4942961,1.0,2.0
11760.0,2.0,0.4973041,1.0,2.0
11770.0,2.0,0.49203283,1.0,2.0
11780.0,2.0,0.4875303,1.0,2.0
11790.0,2.0,0.4929542,1.0,2.0
11800.0,2.0,0.49704048,1.0,2.0
11810.0,2.0,0.49867764,1.0,2.0
11820.0,2.0,0.49967936,1.0,2.0
11830.0,2.0,0.49977493,1.0,2.0
11840.0,2.0,0.49871653,1.0,2.0
11850.0,2.0,0.4988036,1.0,2.0
11860.0,2.0,0.4999253,1.0,2.0
11870.0,1.0,0.49982518,1.0,2.0
11880.0,1.0,0.4998403,1.0,2.0
11890.0,1.5,0.5,1.0,2.0
11900.0,2.0,0.4999996,1.0,2.0
11910.0,1.0,0.49990615,1.0,2.0
11920.0,1.0,0.49899662,1.0,2.0
11930.0,1.0,0.49804023,1.0,2.0
11940.0,1.0,0.49639916,1.0,2.0
11950.0,1.0,0.49502867,1.0,2.0
11960.0,1.0,0.49484527,1.0,2.0
11970.0,1.0,0.49544722,1.0,2.0
11980.0,1.0,0.49701995,1.0,2.0
11990.0,1.0,0.4974043,1.0,2.0
12000.0,1.0,0.49746636,1.0,2.0
12010.0,1.0,0.49772108,1.0,2.0
12020.0,1.0,0.49924058,1.0,2.0
12030.0,1.0,0.49998334,1.0,2.0
12040.0,1.0,0.4999995,1.0,2.0
12050.0,1.0,0.49940157,1.0,2.0
12060.0,1.0,0.49817345,1.0,2.0
12070.0,1.0,0.49799752,1.0,2.0
12080.0,1.0,0.49881122,1.0,2.0
12090.0,1.0,0.49962682,1.0,2.0
12100.0,1.0,0.49947724,1.0,2.0
12110.0,1.0,0.49711353,1.0,2.0
12120.0,1.0,0.49378797,1.0,2.0
12130.0,1.0,0.49463737,1.0,2.0
12140.0,1.0,0.49753508,1.0,2.0
12150.0,1.0,0.49898618,1.0,2.0
12160.0,1.0,0.49929905,1.0,2.0
12170.0,1.0,0.49907434,1.0,2.0
12180.0,1.0,0.497941,1.0,2.0
12190.0,1.0,0.49760178,1.0,2.0
12200.0,1.0,0.4974043,1.0,2.0
12210.0,1.0,0.49746633,1.0,2.0
12220.0,1.0,0.4976018,1.0,2.0
12230.0,1.0,0.49417686,1.0,2.0
12240.0,1.0,0.49114874,1.0,2.0
12250.0,1.0,0.49050182,1.0,2.0
12260.0,1.0,0.48978668,1.0,2.0
12270.0,1.0,0.49006364,1.0,2.0
12280.0,1.0,0.490884,1.0,2.0
12290.0,1.0,0.4911487,1.0,2.0
12300.0,1.0,0.4918929,1.0,2.0
12310.0,1.0,0.4963409,1.0,2.0
12320.0,1.0,0.4981061,1.0,2.0
12330.0,1.0,0.49805158,1.0,2.0
12340.0,1.0,0.4995845,1.0,2.0
12350.0,2.0,0.4999887,1.0,2.0
12360.0,2.0,0.4999044,1.0,2.0
12370.0,1.0,0.4999574,1.0,2.0
12380.0,1.0,0.4999838,1.0,2.0
12390.0,1.0,0.49999592,1.0,2.0
12400.0,1.0,0.49970883,1.0,2.0
12410.0,1.0,0.49948454,1.0,2.0
12420.0,1.0,0.49991286,1.0,2.0
12430.0,2.0,0.49999818,1.0,2.0
12440.0,1.0,0.49999946,1.0,2.0
12450.0,1.5,0.5,1.0,2.0
12460.0,1.0,0.4991248,1.0,2.0
12470.0,1.0,0.49675608,1.0,2.0
12480.0,1.0,0.49910226,1.0,2.0
12490.0,1.0,0.49994573,1.0,2.0
12500.0,1.5,0.5,1.0,2.0
12510.0,1.5,0.5,1.0,2.0
12520.0,1.0,0.49999818,1.0,2.0
12530.0,1.0,0.49864286,1.0,2.0
12540.0,1.0,0.4950573,1.0,2.0
12550.0,1.0,0.49552387,1.0,2.0
12560.0,1.0,0.49722973,1.0,2.0
12570.0,1.0,0.4940636,1.0,2.0
12580.0,1.0,0.48697808,1.0,2.0
12590.0,1.0,0.48614642,1.0,2.0
12600.0,1.0,0.48842737,1.0,2.0
12610.0,1.0,0.48801556,1.0,2.0
12620.0,1.0,0.48901007,1.0,2.0
12630.0,1.0,0.49432674,1.0,2.0
12640.0,1.0,0.4974866,1.0,2.0
12650.0,1.0,0.49782437,1.0,2.0
12660.0,1.0,0.49643594,1.0,2.0
12670.0,1.0,0.49912867,1.0,2.0
12680.0,2.0,0.49989152,1.0,2.0
12690.0,2.0,0.49894324,1.0,2.0
12700.0,2.0,0.49893552,1.0,2.0
12710.0,2.0,0.49881384,1.0,2.0
12720.0,2.0,0.49990317,1.0,2.0
12730.0,1.0,0.49912795,1.0,2.0
12740.0,1.0,0.4990437,1.0,2.0
12750.0,1.0,0.49987084,1.0,2.0
12760.0,1.5,0.5,1.0,2.0
12770.0,2.0,0.49999905,1.0,2.0
12780.0,2.0,0.49945885,1.0,2.0
12790.0,2.0,0.4967793,1.0,2.0
12800.0,2.0,0.49977762,1.0,2.0
12810.0,1.0,0.49999622,1.0,2.0
12820.0,2.0,0.49978793,1.0,2.0
12830.0,2.0,0.49629152,1.0,2.0
12840.0,2.0,0.48912895,1.0,2.0
12850.0,2.0,0.48159558,1.0,2.0
12860.0,2.0,0.48546374,1.0,2.0
12870.0,2.0,0.49724007,1.0,2.0
12880.0,2.0,0.49841753,1.0,2.0
12890.0,2.0,0.49850616,1.0,2.0
12900.0,2.0,0.49978542,1.0,2.0
12910.0,1.0,0.49747354,1.0,2.0
12920.0,1.0,0.4971717,1.0,2.0
12930.0,1.0,0.49936935,1.0,2.0
12940.0,2.0,0.49968505,1.0,2.0
12950.0,2.0,0.49841753,1.0,2.0
12960.0,2.0,0.49939322,1.0,2.0
12970.0,1.0,0.49999878,1.0,2.0
12980.0,1.0,0.4994376,1.0,2.0
12990.0,1.0,0.49850613,1.0,2.0
13000.0,1.0,0.49881202,1.0,2.0
13010.0,1.0,0.49887827,1.0,2.0
13020.0,1.0,0.4931198,1.0,2.0
13030.0,1.0,0.4829435,1.0,2.0
13040.0,1.0,0.4816552,1.0,2.0
13050.0,1.0,0.47956797,1.0,2.0
13060.0,1.0,0.47919872,1.0,2.0
13070.0,1.0,0.4880423,1.0,2.0
13080.0,1.0,0.4959199,1.0,2.0
13090.0,1.0,0.49549195,1.0,2.0
13100.0,1.0,0.4949514,1.0,2.0
13110.0,1.0,0.4949514,1.0,2.0
13120.0,1.0,0.49332306,1.0,2.0
13130.0,1.0,0.48538643,1.0,2.0
13140.0,1.0,0.4718245,1.0,2.0
13150.0,1.0,0.45888507,1.0,2.0
13160.0,1.0,0.46679384,1.0,2.0
13170.0,1.0,0.47919872,1.0,2.0
13180.0,1.0,0.47628048,1.0,2.0
13190.0,1.0,0.47140452,1.0,2.0
13200.0,1.0,0.48424265,1.0,2.0
13210.0,1.0,0.4956393,1.0,2.0
13220.0,1.0,0.494713,1.0,2.0
13230.0,1.0,0.49416766,1.0,2.0
13240.0,1.0,0.49757394,1.0,2.0
13250.0,1.0,0.4985185,1.0,2.0
13260.0,1.0,0.4959634,1.0,2.0
13270.0,1.0,0.48944998,1.0,2.0
13280.0,1.0,0.4886217,1.0,2.0
13290.0,1.0,0.48499426,1.0,2.0
13300.0,1.0,0.4760503,1.0,2.0
13310.0,1.0,0.45839688,1.0,2.0
13320.0,1.0,0.45627937,1.0,2.0
13330.0,1.0,0.45556012,1.0,2.0
13340.0,1.0,0.44872153,1.0,2.0
13350.0,1.0,0.42622882,1.0,1.0
13360.0,1.0,0.41540337,1.0,1.0
13370.0,1.0,0.4164098,1.0,1.0
13380.0,1.0,0.41562748,1.0,1.0
13390.0,1.0,0.41540334,1.0,1.0
13400.0,1.0,0.41562748,1.0,1.0
13410.0,1.0,0.4037953,1.0,1.0
13420.0,1.0,0.37993488,1.0,1.0
13430.0,1.0,0.3720021,1.0,1.0
13440.0,1.0,0.3981786,1.0,1.0
13450.0,1.0,0.4156275,1.0,1.0
13460.0,1.0,0.4091959,1.0,1.0
13470.0,1.0,0.383986,1.0,1.0
13480.0,1.0,0.50530833,1.0,1.0
13490.0,1.0,0.62237567,1.0,1.0
13500.0,1.0,0.6126356,1.0,1.0
13510.0,1.0,0.46172765,1.0,1.0
13520.0,1.0,0.34278858,1.0,1.0
13530.0,1.0,0.3241189,1.0,1.0
13540.0,1.0,0.35623875,1.0,1.0
13550.0,1.0,0.4079273,1.0,1.0
13560.0,1.0,0.571945,1.0,1.0
13570.0,1.0,0.63569343,1.0,1.0
13580.0,1.0,0.5772943,1.0,1.0
13590.0,1.0,0.41800568,1.0,1.0
13600.0,1.0,0.38193613,1.0,1.0
13610.0,1.0,0.37921387,1.0,1.0
13620.0,1.0,0.38483724,1.0,1.0
13630.0,1.0,0.39096084,1.0,1.0
13640.0,1.0,0.41454828,1.0,1.0
13650.0,1.0,0.4274413,1.0,1.0
13660.0,1.0,0.43548128,1.0,2.0
13670.0,1.0,0.4414572,1.0,2.0
13680.0,1.0,0.45532137,1.0,2.0
13690.0,1.0,0.47120404,1.0,2.0
13700.0,1.0,0.49071208,1.0,2.0
13710.0,1.0,0.49614495,1.0,2.0
13720.0,1.0,0.4901647,1.0,2.0
13730.0,1.0,0.48142332,1.0,2.0
13740.0,1.0,0.5470267,1.0,2.0
13750.0,1.0,0.6977743,1.0,2.0
13760.0,1.0,0.7571015,1.0,2.0
13770.0,1.0,0.67025,1.0,2.0
13780.0,1.0,0.49858165,1.0,2.0
13790.0,1.0,0.49572846,1.0,2.0
13800.0,1.0,0.49055114,1.0,2.0
13810.0,1.0,0.48960525,1.0,2.0
13820.0,1.0,0.4808688,1.0,2.0
13830.0,1.0,0.46810466,1.0,2.0
13840.0,1.0,0.4545297,1.0,2.0
13850.0,1.0,0.45770904,1.0,2.0
13860.0,1.0,0.4491344,1.0,2.0
13870.0,1.0,0.42566887,1.0,1.0
13880.0,1.0,0.40230495,1.0,1.0
13890.0,1.0,0.376883,1.0,1.0
13900.0,1.0,0.2995163,1.0,1.0
13910.0,1.0,0.16761851,1.0,1.0
13920.0,1.0,0.0,1.0,1.0
13930.0,1.0,0.0,1.0,1.0
13940.0,1.0,0.0,1.0,1.0
13950.0,1.0,0.0,1.0,1.0
13960.0,1.0,0.0,1.0,1.0
13970.0,1.0,0.0,1.0,1.0
13980.0,1.0,0.0,1.0,1.0
13990.0,1.0,0.0,1.0,1.0
14000.0,1.0,0.0,1.0,1.0
14010.0,1.0,0.0,1.0,1.0
14020.0,1.0,0.041030444,1.0,1.0
14030.0,1.0,0.20487803,1.0,1.0
14040.0,1.0,0.29957083,1.0,1.0
14050.0,1.0,0.32881942,1.0,1.0
14060.0,1.0,0.3385367,1.0,1.0
14070.0,1.0,0.37619606,1.0,1.0
14080.0,1.0,0.38025522,1.0,1.0
14090.0,1.0,0.36172512,1.0,1.0
14100.0,1.0,0.359409,1.0,1.0
14110.0,1.0,0.35717082,1.0,1.0
14120.0,1.0,0.35223106,1.0,1.0
14130.0,1.0,0.4196824,1.0,1.0
14140.0,1.0,0.46120307,1.0,2.0
14150.0,1.0,0.45696813,1.0,2.0
14160.0,1.0,0.43662062,1.0,2.0
14170.0,1.0,0.44567055,1.0,2.0
14180.0,1.0,0.4681445,1.0,2.0
14190.0,1.0,0.47060218,1.0,2.0
14200.0,1.0,0.47113723,1.0,2.0
14210.0,1.0,0.4771825,1.0,2.0
14220.0,1.0,0.48654628,1.0,2.0
14230.0,1.0,0.48316824,1.0,2.0
14240.0,1.0,0.4815511,1.0,2.0
14250.0,1.0,0.4751271,1.0,2.0
14260.0,1.0,0.47113723,1.0,2.0
14270.0,1.0,0.47113723,1.0,2.0
14280.0,1.0,0.47949404,1.0,2.0
14290.0,1.0,0.493551,1.0,2.0
14300.0,1.0,0.49759132,1.0,2.0
14310.0,1.0,0.49926335,1.0,2.0
14320.0,1.0,0.4978614,1.0,2.0
14330.0,1.0,0.49926102,1.0,2.0
14340.0,1.0,0.49970886,1.0,2.0
14350.0,1.0,0.49801093,1.0,2.0
14360.0,1.0,0.4924374,1.0,2.0
14370.0,1.0,0.4931106,1.0,2.0
14380.0,1.0,0.49913418,1.0,2.0
14390.0,1.0,0.49866423,1.0,2.0
14400.0,1.0,0.49502325,1.0,2.0
14410.0,1.0,0.49225676,1.0,2.0
14420.0,1.0,0.497909,1.0,2.0
14430.0,1.0,0.49790904,1.0,2.0
14440.0,1.0,0.49790904,1.0,2.0
14450.0,1.0,0.49895084,1.0,2.0
14460.0,1.0,0.49993646,1.0,2.0
14470.0,1.0,0.49996868,1.0,2.0
14480.0,1.0,0.49999496,1.0,2.0
14490.0,2.0,0.49987206,1.0,2.0
14500.0,2.0,0.49625447,1.0,2.0
14510.0,2.0,0.49294275,1.0,2.0
14520.0,2.0,0.4927162,1.0,2.0
14530.0,2.0,0.49332166,1.0,2.0
14540.0,2.0,0.49685022,1.0,2.0
14550.0,2.0,0.4985799,1.0,2.0
14560.0,2.0,0.4969299,1.0,2.0
14570.0,2.0,0.4939855,1.0,2.0
14580.0,2.0,0.49999186,1.0,2.0
14590.0,1.0,0.49882236,1.0,2.0
14600.0,1.0,0.49779788,1.0,2.0
14610.0,1.0,0.49954942,1.0,2.0
14620.0,2.0,0.49999925,1.0,2.0
14630.0,1.0,0.49995494,1.0,2.0
14640.0,1.0,0.4986905,1.0,2.0
14650.0,1.0,0.49930286,1.0,2.0
14660.0,2.0,0.49982625,1.0,2.0
14670.0,2.0,0.49907795,1.0,2.0
14680.0,2.0,0.49917254,1.0,2.0
14690.0,2.0,0.4973801,1.0,2.0
14700.0,2.0,0.49277976,1.0,2.0
14710.0,2.0,0.49524686,1.0,2.0
14720.0,2.0,0.49953,1.0,2.0
14730.0,2.0,0.49996436,1.0,2.0
14740.0,2.0,0.49884105,1.0,2.0
14750.0,2.0,0.49917832,1.0,2.0
14760.0,2.0,0.49929905,1.0,2.0
14770.0,2.0,0.4985185,1.0,2.0
14780.0,2.0,0.49598736,1.0,2.0
14790.0,2.0,0.49782762,1.0,2.0
14800.0,2.0,0.4997669,1.0,2.0
14810.0,1.0,0.49986866,1.0,2.0
14820.0,2.0,0.49999964,1.0,2.0
14830.0,2.0,0.4993553,1.0,2.0
14840.0,2.0,0.49888235,1.0,2.0
14850.0,2.0,0.49937755,1.0,2.0
14860.0,2.0,0.499573,1.0,2.0
14870.0,2.0,0.5306367,1.0,2.0
14880.0,2.0,0.57195246,1.0,2.0
14890.0,2.0,0.5650696,1.0,2.0
14900.0,2.0,0.5511706,1.0,2.0
14910.0,2.0,0.5338027,1.0,2.0
14920.0,2.0,0.49648604,1.0,2.0
14930.0,2.0,0.434962,2.0,2.0
14940.0,2.0,0.44256747,2.0,2.0
14950.0,2.0,0.4659763,2.0,2.0
14960.0,2.0,0.43283427,2.0,2.0
14970.0,2.0,0.34703514,2.0,2.0
14980.0,2.0,0.29245517,2.0,2.0
14990.0,2.0,0.25423655,2.0,2.0
15000.0,2.0,0.25325114,2.0,2.0
15010.0,2.0,0.2949972,2.0,2.0
15020.0,2.0,0.32547298,2.0,2.0
15030.0,2.0,0.3506176,2.0,2.0
15040.0,2.0,0.3876305,2.0,2.0
15050.0,2.0,0.42413914,2.0,2.0
15060.0,2.0,0.44255185,2.0,3.0
15070.0,2.0,0.45484808,2.0,3.0
15080.0,2.0,0.4647555,2.0,3.0
15090.0,2.0,0.47371674,2.0,3.0
15100.0,2.0,0.483223,2.0,3.0
15110.0,2.0,0.49224326,2.0,3.0
15120.0,2.0,0.49970117,2.0,3.0
15130.0,3.0,0.48508975,2.0,3.0
15140.0,3.0,0.44125098,2.0,3.0
15150.0,3.0,0.4155643,3.0,3.0
15160.0,3.0,0.4125414,3.0,3.0
15170.0,3.0,0.40301105,3.0,3.0
15180.0,3.0,0.38234794,3.0,3.0
15190.0,3.0,0.37890202,3.0,3.0
15200.0,3.0,0.38569456,3.0,3.0
15210.0,3.0,0.40017867,3.0,3.0
15220.0,3.0,0.3918946,3.0,3.0
15230.0,3.0,0.3854166,3.0,3.0
15240.0,3.0,0.38394287,3.0,3.0
15250.0,3.0,0.3799671,3.0,3.0
15260.0,3.0,0.399994,3.0,3.0
15270.0,3.0,0.4808841,3.0,3.0
15280.0,3.0,0.5568844,3.0,3.0
15290.0,3.0,0.5765094,3.0,3.0
15300.0,3.0,0.587597,3.0,3.0
15310.0,3.0,0.61245847,3.0,4.0
15320.0,3.0,0.63388807,3.0,4.0
15330.0,3.0,0.63249046,3.0,4.0
15340.0,3.0,0.6681465,3.0,4.0
15350.0,4.0,0.7426066,3.0,4.0
15360.0,4.0,0.7741945,3.0,4.0
15370.0,4.0,0.7726999,3.0,4.0
15380.0,4.0,0.78573537,3.0,4.0
15390.0,4.0,0.8057968,3.0,4.0
15400.0,4.0,0.78431004,3.0,4.0
15410.0,4.0,0.7724185,3.0,4.0
15420.0,4.0,0.7771788,3.0,4.0
15430.0,4.0,0.80504435,3.0,4.0
15440.0,4.0,0.7965504,3.0,4.0
15450.0,4.0,0.7844938,3.0,4.0
15460.0,4.0,0.7814901,3.0,4.0
15470.0,4.0,0.8035711,3.0,4.0
15480.0,4.0,0.8250828,3.0,4.0
15490.0,4.0,0.82473093,3.0,4.0
15500.0,4.0,0.8179961,3.0,4.0
15510.0,4.0,0.810374,3.0,4.0
15520.0,4.0,0.83168477,3.0,4.0
15530.0,4.0,0.8323235,3.0,4.0
15540.0,4.0,0.8246575,3.0,4.0
15550.0,4.0,0.8101207,3.0,4.0
15560.0,4.0,0.82443666,3.0,4.0
15570.0,4.0,0.8336126,3.0,4.0
15580.0,4.0,0.8278247,3.0,4.0
15590.0,4.0,0.8246966,3.0,4.0
15600.0,4.0,0.8218527,3.0,4.0
15610.0,4.0,0.8148903,3.0,4.0
15620.0,4.0,0.80908453,3.0,4.0
15630.0,4.0,0.830199,3.0,4.0
15640.0,4.0,0.8529834,3.0,4.0
15650.0,4.0,0.8663846,2.0,4.0
15660.0,4.0,0.84692997,3.0,4.0
15670.0,4.0,0.8538937,3.0,4.0
15680.0,4.0,0.9239849,3.0,4.0
15690.0,4.0,0.9831437,2.0,4.0
15700.0,4.0,1.0275359,2.0,4.0
15710.0,4.0,1.0724882,2.0,4.0
15720.0,4.0,1.107238,2.0,4.0
15730.0,4.0,1.1138561,2.0,4.0
15740.0,4.0,1.1142644,2.0,4.0
15750.0,4.0,1.1094264,2.0,4.0
15760.0,4.0,1.0958953,2.0,4.0
15770.0,4.0,1.0811998,3.0,4.0
15780.0,4.0,1.0675614,3.0,4.0
15790.0,4.0,1.0684285,3.0,4.0
15800.0,3.0,1.0475329,2.0,4.0
15810.0,3.0,1.03946,2.0,4.0
15820.0,3.0,1.0140817,2.0,4.0
15830.0,3.0,0.94235224,2.0,3.0
15840.0,3.0,0.8406784,2.0,3.0
15850.0,3.0,0.77588505,2.0,3.0
15860.0,3.0,0.7772762,2.0,3.0
15870.0,3.0,0.7761218,2.0,3.0
15880.0,3.0,0.715191,2.0,3.0
15890.0,3.0,0.65781033,2.0,3.0
15900.0,3.0,0.6578116,2.0,3.0
15910.0,3.0,0.6519923,2.0,3.0
15920.0,2.0,0.6681136,2.0,3.0
15930.0,2.0,0.7200668,2.0,3.0
15940.0,2.0,0.7394701,2.0,3.0
15950.0,2.0,0.70844585,2.0,3.0
15960.0,2.0,0.6676901,2.0,3.0
15970.0,2.0,0.6402844,2.0,3.0
15980.0,2.0,0.64960575,2.0,3.0
15990.0,2.0,0.6885033,2.0,3.0
16000.0,2.0,0.7046734,2.0,3.0
16010.0,2.0,0.66821826,2.0,3.0
16020.0,2.0,0.6222454,2.0,3.0
16030.0,2.0,0.6099955,2.0,2.0
16040.0,2.0,0.61682653,2.0,2.0
16050.0,2.0,0.6140042,2.0,2.0
16060.0,2.0,0.61136097,2.0,2.0
16070.0,2.0,0.60450983,2.0,2.0
16080.0,2.0,0.6055628,2.0,2.0
16090.0,2.0,0.60938513,2.0,2.0
16100.0,2.0,0.5906116,1.0,2.0
16110.0,2.0,0.55076814,2.0,2.0
16120.0,2.0,0.5248889,2.0,2.0
16130.0,2.0,0.5494881,1.0,2.0
16140.0,2.0,0.54990816,1.0,2.0
16150.0,2.0,0.5213744,1.0,2.0
16160.0,2.0,0.4843923,1.0,2.0
16170.0,2.0,0.48470265,1.0,2.0
16180.0,2.0,0.48155114,1.0,2.0
16190.0,2.0,0.48420247,1.0,2.0
16200.0,2.0,0.4857503,1.0,2.0
16210.0,2.0,0.47738194,1.0,2.0
16220.0,2.0,0.4646136,1.0,2.0
16230.0,2.0,0.4677797,1.0,2.0
16240.0,2.0,0.48514876,1.0,2.0
16250.0,2.0,0.4986935,1.0,2.0
16260.0,1.5,0.5,1.0,2.0
16270.0,2.0,0.49960965,1.0,2.0
16280.0,2.0,0.49592796,1.0,2.0
16290.0,2.0,0.4982292,1.0,2.0
16300.0,1.5,0.5,1.0,2.0
16310.0,1.0,0.49588242,1.0,2.0
16320.0,1.0,0.49253607,1.0,2.0
16330.0,1.0,0.49070808,1.0,2.0
16340.0,1.0,0.49430212,1.0,2.0
16350.0,1.0,0.49098387,1.0,2.0
16360.0,1.0,0.49010807,1.0,2.0
16370.0,1.0,0.48790407,1.0,2.0
16380.0,1.0,0.4852265,1.0,2.0
16390.0,1.0,0.4794288,1.0,2.0
16400.0,1.0,0.47155675,1.0,2.0
16410.0,1.0,0.46922642,1.0,2.0
16420.0,1.0,0.47334912,1.0,2.0
16430.0,1.0,0.4778846,1.0,2.0
16440.0,1.0,0.47200388,1.0,2.0
16450.0,1.0,0.46663046,1.0,2.0
16460.0,1.0,0.46794608,1.0,2.0
16470.0,1.0,0.47941944,1.0,2.0
16480.0,1.0,0.48989797,1.0,2.0
16490.0,1.0,0.4942961,1.0,2.0
16500.0,1.0,0.49409246,1.0,2.0
16510.0,1.0,0.49484527,1.0,2.0
16520.0,1.0,0.49859878,1.0,2.0
16530.0,1.0,0.49941048,1.0,2.0
16540.0,1.0,0.49937162,1.0,2.0
16550.0,1.0,0.49954098,1.0,2.0
16560.0,1.5,0.5,1.0,2.0
16570.0,1.5,0.5,1.0,2.0
16580.0,1.5,0.5,1.0,2.0
16590.0,1.5,0.5,1.0,2.0
16600.0,1.0,0.49988183,1.0,2.0
16610.0,1.0,0.4991383,1.0,2.0
16620.0,1.0,0.49963644,1.0,2.0
16630.0,2.0,0.49997562,1.0,2.0
16640.0,2.0,0.4993792,1.0,2.0
16650.0,2.0,0.4996353,1.0,2.0
16660.0,2.0,0.49996978,1.0,2.0
16670.0,1.5,0.5,1.0,2.0
16680.0,2.0,0.49938998,1.0,2.0
16690.0,2.0,0.49790904,1.0,2.0
16700.0,2.0,0.49796027,1.0,2.0
16710.0,2.0,0.4987659,1.0,2.0
16720.0,2.0,0.49973977,1.0,2.0
16730.0,2.0,0.4999865,1.0,2.0
16740.0,2.0,0.4999863,1.0,2.0
16750.0,2.0,0.49904653,1.0,2.0
16760.0,2.0,0.49790904,1.0,2.0
16770.0,2.0,0.49790904,1.0,2.0
16780.0,2.0,0.4990178,1.0,2.0
16790.0,2.0,0.49865755,1.0,2.0
16800.0,2.0,0.4973746,1.0,2.0
16810.0,2.0,0.4941064,1.0,2.0
16820.0,2.0,0.4902417,1.0,2.0
16830.0,2.0,0.48803082,1.0,2.0
16840.0,2.0,0.48792765,1.0,2.0
16850.0,2.0,0.48203567,1.0,2.0
16860.0,2.0,0.47877017,1.0,2.0
16870.0,2.0,0.48085424,1.0,2.0
16880.0,2.0,0.47558913,1.0,2.0
16890.0,2.0,0.46363446,1.0,2.0
16900.0,2.0,0.45973665,1.0,2.0
16910.0,2.0,0.45938376,1.0,2.0
16920.0,2.0,0.44715157,1.0,2.0
16930.0,2.0,0.43472147,1.0,2.0
16940.0,2.0,0.4184125,2.0,2.0
16950.0,2.0,0.41798908,2.0,2.0
16960.0,2.0,0.40611053,2.0,2.0
16970.0,2.0,0.37526822,2.0,2.0
16980.0,2.0,0.30538142,2.0,2.0
16990.0,2.0,0.26958716,2.0,2.0
17000.0,2.0,0.23463485,2.0,2.0
17010.0,2.0,0.20439015,2.0,2.0
17020.0,2.0,0.2045054,2.0,2.0
17030.0,2.0,0.20439014,2.0,2.0
17040.0,2.0,0.20060514,2.0,2.0
17050.0,2.0,0.21087499,2.0,2.0
17060.0,2.0,0.25727025,2.0,2.0
17070.0,2.0,0.3250145,2.0,2.0
17080.0,2.0,0.39499408,2.0,2.0
17090.0,2.0,0.43317902,2.0,2.5
17100.0,2.0,0.45768857,2.0,3.0
17110.0,2.0,0.47885984,2.0,3.0
17120.0,2.0,0.49574137,2.0,3.0
17130.0,3.0,0.49552548,2.0,3.0
17140.0,3.0,0.42986205,3.0,3.0
17150.0,3.0,0.3141155,3.0,3.0
17160.0,3.0,0.23193237,3.0,3.0
17170.0,3.0,0.17822443,3.0,3.0
17180.0,3.0,0.08868299,3.0,3.0
17190.0,3.0,0.0,3.0,3.0
17200.0,3.0,0.0,3.0,3.0
17210.0,3.0,0.0,3.0,3.0
17220.0,3.0,0.0,3.0,3.0
17230.0,3.0,0.0,3.0,3.0
17240.0,3.0,0.100385964,3.0,3.0
17250.0,3.0,0.18405175,3.0,3.0
17260.0,3.0,0.28098288,3.0,3.0
17270.0,3.0,0.38387698,3.0,3.0
17280.0,3.0,0.47036967,3.0,4.0
17290.0,3.0,0.4999892,3.0,4.0
17300.0,4.0,0.47509697,3.0,4.0
17310.0,4.0,0.4093649,4.0,4.0
17320.0,4.0,0.33135915,4.0,4.0
17330.0,4.0,0.31519023,4.0,4.0
17340.0,4.0,0.3198895,4.0,4.0
17350.0,4.0,0.3257226,4.0,4.0
17360.0,4.0,0.3244525,4.0,4.0
17370.0,4.0,0.3310248,4.0,4.0
17380.0,4.0,0.3517652,4.0,4.0
17390.0,4.0,0.363691,4.0,4.0
17400.0,4.0,0.36624315,4.0,4.0
17410.0,4.0,0.3664043,4.0,4.0
17420.0,4.0,0.36523104,4.0,4.0
17430.0,4.0,0.37559658,4.0,4.0
17440.0,4.0,0.407889,4.0,4.0
17450.0,4.0,0.40261102,4.0,4.0
17460.0,4.0,0.44916692,4.0,4.0
17470.0,4.0,0.49165645,4.0,4.0
17480.0,4.0,0.48856932,4.0,4.0
17490.0,4.0,0.54960567,4.0,4.0
17500.0,4.0,0.5888533,4.0,4.0
17510.0,4.0,0.6521906,4.0,4.0
17520.0,4.0,0.72086096,4.0,4.0
17530.0,4.0,0.83204806,4.0,5.0
17540.0,4.0,0.88779694,4.0,5.0
17550.0,4.0,0.90204304,4.0,5.0
17560.0,4.0,0.9133895,4.0,5.0
17570.0,4.0,0.9484686,4.0,5.0
17580.0,4.0,0.9770561,4.0,5.0
17590.0,4.0,0.96405923,4.0,5.0
17600.0,4.0,0.9731932,4.0,5.0
17610.0,4.0,0.9626699,4.0,5.0
17620.0,4.0,0.95782715,4.0,5.0
17630.0,4.0,0.95904815,4.0,5.0
17640.0,4.0,0.9817502,4.0,5.0
17650.0,4.0,0.99739206,4.0,5.0
17660.0,4.0,0.957319,4.0,5.0
17670.0,4.0,0.94114107,4.0,5.0
17680.0,4.0,0.9611255,4.0,5.0
17690.0,4.0,0.9802647,4.0,5.0
17700.0,4.0,1.0070418,4.0,5.0
17710.0,4.0,1.0293361,4.0,5.0
17720.0,4.0,1.0263978,4.0,5.0
17730.0,4.0,0.9848804,4.0,5.0
17740.0,4.0,0.9502738,4.0,5.0
17750.0,4.0,0.9809873,3.0,5.0
17760.0,4.0,0.9959834,3.0,5.0
17770.0,4.0,1.0065867,3.0,5.0
17780.0,4.0,1.028614,3.0,5.0
17790.0,4.0,1.1013869,3.0,5.0
17800.0,4.0,1.1604315,3.0,5.0
17810.0,4.0,1.2165917,4.0,5.0
17820.0,4.0,1.2772886,3.0,5.0
17830.0,4.0,1.2960488,3.0,5.0
17840.0,4.0,1.2905972,3.5,6.0
17850.0,4.0,1.3283077,4.0,6.0
17860.0,4.5,1.3581853,4.0,6.0
17870.0,5.0,1.3901167,3.0,6.0
17880.0,5.0,1.3607631,3.0,6.0
17890.0,4.0,1.3865285,3.0,6.0
17900.0,4.0,1.472097,3.0,6.0
17910.0,4.0,1.5873913,3.0,6.0
17920.0,4.0,1.6575825,3.0,6.0
17930.0,4.0,1.6917608,3.0,6.25
17940.0,4.0,1.6927851,3.0,6.25
17950.0,4.0,1.7125293,3.0,6.0
17960.0,4.0,1.7351717,3.0,7.0
17970.0,4.0,1.7831881,3.0,7.0
17980.0,4.0,1.8400726,3.0,7.0
17990.0,4.0,1.8554131,3.0,7.0
18000.0,4.0,1.8753301,3.0,7.0
18010.0,4.5,1.875913,3.0,7.0
18020.0,4.0,1.9072398,3.0,7.0
18030.0,4.0,1.8782387,3.0,7.0
18040.0,4.0,1.3890599,3.0,6.0
18050.0,4.0,1.3552103,3.0,6.0
18060.0,4.0,1.3618654,3.0,6.0
18070.0,4.0,1.3481793,3.0,6.0
18080.0,4.0,1.3343545,3.0,6.0
18090.0,4.0,1.3114794,3.0,5.0
18100.0,4.0,1.246382,3.0,5.0
18110.0,4.0,1.1751062,3.0,5.0
18120.0,4.0,1.1373504,3.0,5.0
18130.0,4.0,1.1035762,3.0,5.0
18140.0,4.0,1.0887867,3.0,5.0
18150.0,4.0,1.0935175,3.0,5.0
18160.0,4.0,1.0874987,3.0,5.0
18170.0,4.0,1.0827019,3.0,5.0
18180.0,4.0,1.082949,3.0,5.0
18190.0,4.0,1.0915875,3.0,5.0
18200.0,4.0,1.0955298,3.0,5.0
18210.0,3.0,1.082051,3.0,5.0
18220.0,3.0,1.0822654,3.0,4.0
18230.0,3.0,1.1081728,3.0,4.0
18240.0,3.0,1.1296966,2.0,4.0
18250.0,3.0,1.1310713,2.0,4.0
18260.0,3.0,1.1192172,2.0,4.0
18270.0,3.0,1.0773364,2.0,4.0
18280.0,3.0,1.0350183,2.0,4.0
18290.0,3.0,1.0101645,2.0,4.0
18300.0,3.0,0.96638125,2.0,4.0
18310.0,3.0,0.9143965,2.0,4.0
18320.0,3.0,0.89781976,2.0,4.0
18330.0,3.0,0.89289445,2.0,4.0
18340.0,3.0,0.88037246,2.0,4.0
18350.0,3.0,0.8712346,2.0,4.0
18360.0,3.0,0.87101185,2.0,4.0
18370.0,3.0,0.8821553,2.0,4.0
18380.0,3.0,0.89327264,2.0,4.0
18390.0,3.0,0.90228707,2.0,4.0
18400.0,3.0,0.90537846,2.0,4.0
18410.0,3.0,0.900017,2.0,4.0
18420.0,3.0,0.89325786,2.0,4.0
18430.0,3.0,0.8973095,2.0,4.0
18440.0,3.0,0.93477476,2.0,4.0
18450.0,3.0,0.98717445,2.0,4.0
18460.0,3.0,1.034578,2.0,4.0
18470.0,3.0,1.0680646,2.0,4.0
18480.0,3.0,1.0727102,2.0,4.0
18490.0,3.0,1.0653808,2.0,4.0
18500.0,3.0,1.0900323,2.0,4.0
18510.0,3.0,1.1328808,2.0,4.0
18520.0,3.0,1.151195,2.0,4.0
18530.0,3.0,1.1803366,2.0,4.0
18540.0,3.0,1.5893306,2.0,5.0
18550.0,3.0,1.5226179,2.0,4.0
18560.0,3.0,1.5896338,2.0,4.0
18570.0,3.0,1.6018232,2.0,5.0
18580.0,3.0,1.4818627,2.0,5.0
18590.0,3.0,1.3808615,2.0,5.0
18600.0,3.0,1.3435434,2.0,5.0
18610.0,3.0,1.3466408,2.0,5.0
18620.0,3.0,1.3268938,2.0,4.0
18630.0,3.0,1.3344638,2.0,4.0
18640.0,3.0,1.3485218,2.0,4.0
18650.0,3.0,1.3575319,2.0,4.0
18660.0,3.0,1.3654596,2.0,4.0
18670.0,3.0,1.3617548,2.0,4.0
18680.0,3.0,1.3021722,2.0,4.0
18690.0,3.0,1.2403021,2.0,4.0
18700.0,3.0,1.1795555,2.0,4.0
18710.0,3.0,1.1693971,2.0,4.0
18720.0,3.0,1.1586413,2.0,4.0
18730.0,3.0,1.1557006,2.0,4.0
18740.0,3.0,1.1008326,2.0,4.0
18750.0,3.0,1.0370235,3.0,4.0
18760.0,3.0,0.93718827,3.0,4.0
18770.0,3.0,0.8617915,3.0,4.0
18780.0,3.0,0.7639926,3.0,4.0
18790.0,4.0,0.6887702,3.0,4.0
18800.0,4.0,0.6302794,3.0,4.0
18810.0,4.0,0.5957983,3.0,4.0
18820.0,4.0,0.55709463,3.0,4.0
18830.0,4.0,0.51396114,3.0,4.0
18840.0,4.0,0.49244574,3.0,4.0
18850.0,4.0,0.48181123,3.0,4.0
18860.0,4.0,0.47210756,3.0,4.0
18870.0,4.0,0.47922134,3.0,4.0
18880.0,4.0,0.48208773,3.0,4.0
18890.0,4.0,0.48704848,3.0,4.0
18900.0,4.0,0.47020176,3.0,4.0
18910.0,4.0,0.4377322,3.0,4.0
18920.0,4.0,0.39828175,4.0,4.0
18930.0,4.0,0.37595785,4.0,4.0
18940.0,4.0,0.3822259,4.0,4.0
18950.0,3.0,0.61431533,3.0,4.0
18960.0,3.0,0.6560354,3.0,4.0
18970.0,3.0,0.66362834,3.0,4.0
18980.0,3.0,0.66387755,3.0,4.0
18990.0,4.0,0.7126223,3.0,4.0
19000.0,4.0,0.72000885,3.0,4.0
19010.0,4.0,0.717709,3.0,4.0
19020.0,4.0,0.725008,3.0,4.0
19030.0,4.0,0.72506666,3.0,4.0
19040.0,4.0,0.72373325,3.0,4.0
19050.0,4.0,0.7718172,3.0,4.0
19060.0,4.0,0.7720792,3.0,4.0
19070.0,4.0,0.77234125,3.0,4.0
19080.0,4.0,0.7726034,3.0,4.0
19090.0,4.0,0.7897566,3.0,4.0
19100.0,4.0,0.9068407,3.0,4.0
19110.0,4.0,0.9240984,3.0,4.0
19120.0,4.0,0.9171591,3.0,4.0
19130.0,4.0,0.8020261,3.0,4.0
19140.0,4.0,0.7729655,3.0,4.0
19150.0,4.0,0.8169296,3.0,4.0
19160.0,4.0,0.8582171,3.0,4.0
19170.0,4.0,0.9604091,3.0,4.0
19180.0,4.0,1.0382175,3.0,4.0
19190.0,4.0,1.0869385,3.0,4.0
19200.0,4.0,0.8516365,3.0,4.0
19210.0,4.0,0.83300555,2.0,4.0
19220.0,4.0,0.8417175,2.75,4.0
19230.0,4.0,0.862149,3.0,4.0
19240.0,4.0,0.9121592,3.0,4.0
19250.0,4.0,0.9525737,3.0,4.0
19260.0,4.0,0.97571754,3.0,4.0
19270.0,4.0,0.9746256,3.0,4.0
19280.0,4.0,0.97463787,3.0,4.0
19290.0,4.0,0.9786695,3.0,4.0
19300.0,4.0,0.99800503,3.0,4.0
19310.0,4.0,1.0316876,3.0,4.0
19320.0,4.0,1.0287093,3.0,4.0
19330.0,4.0,0.99831265,3.0,4.0
19340.0,4.0,1.0014988,3.0,4.0
19350.0,4.0,1.0039229,3.0,4.0
19360.0,4.0,0.96736354,3.0,5.0
19370.0,4.0,0.6409539,3.0,4.0
19380.0,4.0,0.63969755,3.0,4.0
19390.0,4.0,0.6434292,3.0,4.0
19400.0,4.0,0.66870993,3.0,4.0
19410.0,4.0,0.6761777,3.0,4.0
19420.0,4.0,0.6724946,3.0,4.0
19430.0,4.0,0.6744868,3.0,4.0
19440.0,4.0,0.6935933,3.0,4.0
19450.0,4.0,0.72256297,3.0,4.0
19460.0,4.0,0.7457831,3.0,4.0
19470.0,4.0,0.76124305,3.0,4.0
19480.0,4.0,0.7659667,3.0,5.0
19490.0,4.0,0.7696965,3.0,5.0
19500.0,4.0,0.76894933,3.0,5.0
19510.0,4.0,0.7544259,3.0,5.0
19520.0,4.0,0.7472957,3.0,5.0
19530.0,4.0,0.6986523,4.0,5.0
19540.0,5.0,0.49998412,4.0,5.0
19550.0,5.0,0.48773193,4.0,5.0
19560.0,5.0,0.4827723,4.0,5.0
19570.0,5.0,0.4718683,4.0,5.0
19580.0,5.0,0.45961934,4.0,5.0
19590.0,5.0,0.43599358,4.0,5.0
19600.0,5.0,0.43635172,4.0,5.0
19610.0,5.0,0.43796322,4.0,5.0
19620.0,5.0,0.5002014,4.0,5.0
19630.0,5.0,0.5242247,4.0,5.0
19640.0,5.0,0.6462446,4.0,5.0
19650.0,5.0,0.7343151,4.0,5.0
19660.0,5.0,0.78697187,4.0,5.0
19670.0,5.0,0.81697893,4.0,5.0
19680.0,5.0,0.82183963,4.0,5.0
19690.0,5.0,0.8977805,4.0,6.0
19700.0,5.0,0.92440516,4.0,6.0
19710.0,5.0,0.9413009,4.0,6.0
19720.0,5.0,0.9650168,4.0,6.0
19730.0,5.0,0.93815655,4.0,5.0
19740.0,5.0,0.9644508,4.0,5.0
19750.0,5.0,0.9761899,4.0,5.0
19760.0,5.0,0.9755466,4.0,5.0
19770.0,5.0,0.977891,4.0,5.0
19780.0,5.0,0.95753014,4.0,5.0
19790.0,4.0,0.9266101,4.0,5.0
19800.0,4.0,0.93091583,4.0,5.0
19810.0,4.0,0.9341201,4.0,5.0
19820.0,4.0,0.91863537,4.0,5.0
19830.0,4.0,0.9047576,4.0,5.0
19840.0,4.0,0.94037646,4.0,5.0
19850.0,4.0,0.97713596,4.0,5.0
19860.0,4.0,0.9917369,4.0,5.0
19870.0,4.0,0.98808175,4.0,5.0
19880.0,4.0,0.9916106,4.0,5.0
19890.0,4.0,0.9595219,4.0,5.0
19900.0,4.0,0.92966866,4.0,5.0
19910.0,4.0,0.8862992,4.0,5.0
19920.0,4.0,0.88890916,4.0,5.0
19930.0,4.0,0.87732697,4.0,5.0
19940.0,4.0,0.9437748,4.0,5.0
19950.0,5.0,0.9376859,4.0,5.0
19960.0,5.0,0.87714374,4.0,5.0
19970.0,5.0,0.8559543,4.0,5.0
19980.0,5.0,0.8244557,4.0,5.0
19990.0,5.0,0.81383246,4.0,5.0
20000.0,5.0,0.7153442,4.0,5.0
20010.0,5.0,0.67083806,4.0,5.0
20020.0,5.0,0.69065726,4.0,5.0
20030.0,5.0,0.7135043,4.0,5.0
20040.0,5.0,0.7129432,4.0,5.0
20050.0,5.0,0.7123832,4.0,5.0
20060.0,5.0,0.7120159,4.0,5.0
20070.0,4.0,0.70708203,4.0,5.0
20080.0,4.0,0.70381975,4.0,5.0
20090.0,5.0,1.219938,4.0,6.0
20100.0,5.0,1.2702503,4.0,6.0
20110.0,5.0,1.2780713,4.0,6.0
20120.0,5.0,1.2520716,4.0,6.0
20130.0,5.0,1.2318727,4.0,5.0
20140.0,5.0,1.173254,4.0,5.0
20150.0,5.0,1.064837,4.0,5.0
20160.0,5.0,0.9655294,4.0,5.0
20170.0,5.0,0.9219311,4.0,5.0
20180.0,5.0,0.9017455,4.0,5.0
20190.0,5.0,0.8905199,4.0,5.0
20200.0,5.0,0.8704796,4.0,5.0
20210.0,5.0,0.86186653,4.0,5.0
20220.0,5.0,0.86617184,4.0,5.0
20230.0,5.0,0.704892,4.0,5.0
20240.0,5.0,0.6891267,5.0,6.0
20250.0,5.0,0.6895607,5.0,6.0
20260.0,5.0,0.6908677,5.0,6.0
20270.0,5.0,0.67998254,5.0,6.0
20280.0,5.0,0.702961,5.0,6.0
20290.0,5.0,0.69393957,5.0,6.0
20300.0,5.0,0.6813974,5.0,6.0
20310.0,5.0,0.67501205,5.0,6.0
20320.0,5.0,0.7129114,5.0,6.0
20330.0,5.0,0.73781824,5.0,6.0
20340.0,5.0,0.736456,5.0,6.0
20350.0,5.0,0.73600364,5.0,6.0
20360.0,5.0,0.7494372,5.0,6.0
20370.0,5.0,0.7277472,5.0,6.0
20380.0,5.0,0.70589244,5.0,6.0
20390.0,5.0,0.69686896,5.0,6.0
20400.0,5.0,0.6854538,5.0,6.0
20410.0,5.0,0.63934016,5.0,6.0
20420.0,5.0,0.6150151,5.0,5.0
20430.0,5.0,0.61427814,5.0,5.0
20440.0,5.0,0.58769447,5.0,5.0
20450.0,5.0,0.5841288,5.0,5.0
20460.0,5.0,0.55448693,5.0,5.0
20470.0,5.0,0.57076097,5.0,5.0
20480.0,5.0,0.5566348,5.0,5.0
20490.0,5.0,0.55690414,5.0,5.0
20500.0,5.0,0.6001851,5.0,5.0
20510.0,5.0,0.57187647,5.0,5.0
20520.0,5.0,0.557879,4.0,5.0
20530.0,5.0,0.49153018,4.0,5.0
20540.0,5.0,0.4887063,4.0,5.0
20550.0,5.0,0.49841443,4.0,5.0
20560.0,5.0,0.4940474,4.0,5.0
20570.0,5.0,0.49650025,4.0,5.0
20580.0,5.0,0.49306265,4.0,5.0
20590.0,4.0,0.49502975,4.0,5.0
20600.0,4.0,0.49753442,4.0,5.0
20610.0,4.0,0.49746096,4.0,5.0
20620.0,4.0,0.49490348,4.0,5.0
20630.0,4.0,0.4949035,4.0,5.0
20640.0,4.0,0.49502975,4.0,5.0
20650.0,5.0,0.4993862,4.0,5.0
20660.0,5.0,0.48581868,4.0,5.0
20670.0,5.0,0.48520213,4.0,5.0
20680.0,5.0,0.4769459,4.0,5.0
20690.0,5.0,0.44563547,4.0,5.0
20700.0,5.0,0.44488087,4.0,5.0
20710.0,5.0,0.42321253,5.0,5.0
20720.0,5.0,0.30634546,5.0,5.0
20730.0,5.0,0.29829395,5.0,5.0
20740.0,5.0,0.3134002,5.0,5.0
20750.0,5.0,0.37725002,5.0,5.0
20760.0,5.0,0.46311042,5.0,5.0
20770.0,5.0,0.5429465,5.0,5.0
20780.0,5.0,0.6052612,5.0,6.0
20790.0,5.0,0.63621587,5.0,6.0
20800.0,5.0,0.6415591,5.0,6.0
20810.0,5.0,0.63536274,5.0,6.0
20820.0,6.0,0.5972089,5.0,6.0
20830.0,6.0,0.6764847,5.0,6.0
20840.0,6.0,0.7919113,5.0,6.0
20850.0,6.0,0.87730855,5.0,7.0
20860.0,6.0,0.85448724,5.0,7.0
20870.0,6.0,0.90192914,5.0,7.0
20880.0,6.0,0.935091,5.0,7.0
20890.0,6.0,0.8961574,5.0,7.0
20900.0,6.0,0.8519166,5.0,7.0
20910.0,6.0,0.8519166,5.0,7.0
20920.0,6.0,0.8476109,5.0,7.0
20930.0,6.0,0.83246344,5.0,7.0
20940.0,6.0,0.8819809,5.0,7.0
20950.0,6.0,0.9345809,6.0,7.0
20960.0,6.0,0.97742265,6.0,7.0
20970.0,6.0,0.9837932,6.0,7.0
20980.0,6.0,0.99029577,6.0,7.0
20990.0,6.5,1.0210629,6.0,8.0
21000.0,6.0,1.0633874,6.0,8.0
21010.0,6.0,1.0763702,6.0,8.0
21020.0,7.0,1.0408156,6.0,8.0
21030.0,7.0,1.032053,6.0,8.0
21040.0,6.0,1.0465779,6.0,8.0
21050.0,6.5,1.061838,6.0,8.0
21060.0,6.0,1.074326,6.0,8.0
21070.0,6.0,1.0722743,6.0,8.0
21080.0,6.0,1.0746928,6.0,8.0
21090.0,6.0,1.049828,6.0,8.0
21100.0,7.0,1.0375602,6.0,8.0
21110.0,7.0,1.034442,6.0,8.0
21120.0,7.0,1.0204481,6.0,8.0
21130.0,7.0,0.9977707,6.0,8.0
21140.0,7.0,0.9680016,6.0,8.0
21150.0,7.0,0.9680016,6.0,8.0
21160.0,7.0,0.9557561,6.0,8.0
21170.0,7.0,0.92385083,6.0,8.0
21180.0,7.0,0.8816026,6.0,8.0
21190.0,7.0,0.8608795,6.0,7.0
21370.0,7.0,0.87045413,6.0,8.0
21380.0,7.0,0.8847259,6.0,8.0
21390.0,7.0,0.8779056,6.0,8.0
21400.0,7.0,0.8645482,6.0,8.0
21410.0,7.0,0.8660474,6.0,8.0
21420.0,7.0,0.8801934,6.0,8.0
21430.0,7.0,0.8818426,6.0,8.0
21440.0,7.0,0.8577882,6.0,8.0
21450.0,7.0,0.8691153,6.0,8.0
21460.0,7.0,0.8743017,6.0,8.0
21470.0,7.0,0.87039185,6.0,8.0
21480.0,7.0,0.85298187,6.0,8.0
21490.0,7.0,0.83462596,6.0,8.0
21500.0,7.0,0.8191658,6.0,8.0
21510.0,7.0,0.8071178,6.0,8.0
21520.0,7.0,0.7868618,6.0,8.0
21530.0,7.0,0.75460815,7.0,8.0
21540.0,7.0,0.7481158,7.0,8.0
21550.0,7.0,0.7552377,7.0,8.0
21560.0,7.0,0.76650316,7.0,8.0
21570.0,7.0,0.7611733,7.0,8.0
21580.0,7.0,0.74876267,7.0,8.0
21590.0,7.0,0.76622987,6.0,8.0
21600.0,7.0,0.79709965,6.0,8.0
21610.0,7.0,0.78664786,6.0,8.0
21620.0,7.0,0.7481501,7.0,8.0
21630.0,7.0,0.727602,7.0,8.0
21640.0,7.0,0.69706655,7.0,8.0
21650.0,7.0,0.6356794,7.0,7.0
21660.0,7.0,0.5631253,7.0,7.0
21670.0,7.0,0.48365662,7.0,7.0
21680.0,7.0,0.4408505,7.0,7.0
21690.0,7.0,0.4422728,6.0,7.0
21700.0,7.0,0.45950577,6.0,7.0
21710.0,7.0,0.46801168,6.0,7.0
21720.0,7.0,0.4776622,6.0,7.0
21730.0,7.0,0.49784634,6.0,7.0
21740.0,6.0,0.49591127,6.0,7.0
21750.0,6.0,0.45538744,6.0,7.0
21760.0,6.0,0.38457313,6.0,6.0
21770.0,6.0,0.28442192,6.0,6.0
21780.0,6.0,0.206012,6.0,6.0
21790.0,6.0,0.23079173,6.0,6.0
21800.0,6.0,0.26385295,6.0,6.0
21810.0,6.0,0.26646933,6.0,6.0
21820.0,6.0,0.26646936,6.0,6.0
21830.0,6.0,0.26749635,6.0,6.0
21840.0,6.0,0.32194847,6.0,6.0
21850.0,6.0,0.39091614,6.0,6.0
21860.0,6.0,0.4402525,5.0,6.0
21870.0,6.0,0.45670626,5.0,6.0
21880.0,6.0,0.47020668,5.0,6.0
21890.0,6.0,0.4810025,5.0,6.0
21900.0,6.0,0.4852154,5.0,6.0
21910.0,6.0,0.55916953,5.0,6.0
21920.0,6.0,0.61755794,5.0,6.0
21930.0,5.0,0.62701184,5.0,6.0
21940.0,5.0,0.5931493,5.0,6.0
21950.0,5.0,0.60244703,5.0,5.0
21960.0,5.0,0.6152023,5.0,5.0
21970.0,5.0,0.54553914,5.0,5.0
21980.0,5.0,0.47301117,5.0,5.0
21990.0,5.0,0.43620348,5.0,5.0
22000.0,5.0,0.40260535,5.0,5.0
22010.0,5.0,0.3926767,5.0,5.0
22020.0,5.0,0.3595458,5.0,5.0
22030.0,5.0,0.35101673,5.0,5.0
22040.0,5.0,0.37461942,5.0,5.0
22050.0,5.0,0.38196233,5.0,5.0
22060.0,5.0,0.56804216,5.0,5.0
22070.0,5.0,0.6305859,4.0,5.0
22080.0,5.0,0.64382493,4.0,5.0
22090.0,5.0,0.5800181,4.0,5.0
22100.0,5.0,0.571902,4.0,5.0
22110.0,5.0,0.5679195,4.0,5.0
22120.0,5.0,0.56791943,4.0,5.0
22130.0,5.0,0.5892905,4.0,5.0
22140.0,5.0,0.698719,4.0,5.0
22150.0,5.0,0.7325865,4.0,5.0
22160.0,5.0,0.6962803,4.0,5.0
22170.0,5.0,0.64554477,4.0,5.0
22180.0,5.0,0.58870625,4.0,5.0
22190.0,5.0,0.5616782,4.0,5.0
22200.0,5.0,0.59058934,4.0,5.0
22210.0,5.0,0.6626447,4.0,5.0
22220.0,5.0,0.6513876,4.0,5.0
22230.0,5.0,0.6513876,4.0,5.0
22240.0,5.0,0.6598289,4.0,5.0
22250.0,5.0,0.6604151,4.0,5.0
22260.0,5.0,0.6604151,4.0,5.0
22270.0,5.0,0.6604151,4.0,5.0
22280.0,5.0,0.6604151,4.0,5.0
22290.0,5.0,0.6535816,4.0,5.0
22300.0,5.0,0.51358527,4.25,5.0
22310.0,5.0,0.4334788,4.25,5.0
22320.0,5.0,0.43347883,4.25,5.0
22330.0,5.0,0.43092766,5.0,5.0
22340.0,5.0,0.426368,5.0,5.0
22350.0,5.0,0.3931387,5.0,5.0
22360.0,5.0,0.3931387,5.0,5.0
22370.0,5.0,0.3931387,5.0,5.0
22380.0,5.0,0.42636803,5.0,5.0
22390.0,5.0,0.42636803,5.0,5.0
22400.0,5.0,0.426368,5.0,5.0
22410.0,5.0,0.3931387,5.0,5.0
22420.0,5.0,0.3931387,5.0,5.0
22430.0,5.0,0.38613516,5.0,5.0
22440.0,5.0,0.38613516,5.0,5.0
22450.0,5.0,0.38613516,5.0,5.0
22460.0,5.0,0.35037586,5.0,5.0
22470.0,5.0,0.35037586,5.0,5.0
22480.0,5.0,0.35037586,5.0,5.0
22490.0,5.0,0.4265406,5.0,5.0
22500.0,5.0,0.42654064,5.0,5.0
22510.0,5.0,0.54383296,5.0,5.0
22520.0,5.0,0.6176388,5.0,6.0
22530.0,5.0,0.6643007,5.0,6.0
22540.0,5.0,0.68671113,5.0,6.0
22550.0,5.0,0.68671113,5.0,6.0
22560.0,5.0,0.65976167,5.0,6.0
22570.0,5.0,0.64937925,5.0,6.0
22580.0,5.0,0.6500998,5.0,6.0
22590.0,5.0,0.7017199,5.0,6.0
22600.0,5.0,0.6530323,5.0,6.0
22610.0,5.0,0.6370838,5.0,6.0
22620.0,5.0,0.66498697,5.0,6.0
22630.0,6.0,0.71825045,5.0,6.0
22640.0,5.0,0.7131112,5.0,6.0
22650.0,5.0,0.71276236,5.0,6.0
22660.0,5.0,0.7126298,5.0,6.0
22670.0,5.0,0.7033503,5.0,6.0
22680.0,5.0,0.688204,5.0,6.0
22690.0,5.0,0.68675935,5.0,6.0
22700.0,5.0,0.6427656,5.0,6.0
22710.0,5.0,0.6427656,5.0,6.0
22720.0,5.0,0.6423785,5.0,6.0
22730.0,5.0,0.6423785,5.0,6.0
22740.0,5.0,0.6144446,5.0,6.0
22750.0,5.0,0.5637088,5.0,6.0
22760.0,5.0,0.56554806,5.0,6.0
22770.0,5.0,0.5991711,5.0,6.0
22780.0,5.0,0.6318096,5.0,6.0
22790.0,5.0,0.6313995,5.0,6.0
22800.0,5.0,0.53562623,5.0,6.0
22810.0,5.0,0.48995686,5.0,6.0
22820.0,5.0,0.48995686,5.0,6.0
22830.0,5.0,0.48995686,5.0,6.0
22840.0,5.0,0.4893598,5.0,6.0
22850.0,5.0,0.4848869,5.0,6.0
22860.0,5.0,0.48563695,5.0,6.0
22870.0,5.0,0.48563698,5.0,6.0
22880.0,5.0,0.4854273,5.0,6.0
22890.0,5.0,0.48576522,5.0,6.0
22900.0,5.0,0.48563698,5.0,6.0
22910.0,5.0,0.48425582,5.0,6.0
22920.0,5.0,0.47408822,5.0,6.0
22930.0,5.0,0.46171457,5.0,6.0
22940.0,5.0,0.49292907,5.0,6.0
22950.0,5.0,0.5534396,5.0,6.0
22960.0,5.0,0.60336244,5.0,6.0
22970.0,5.0,0.63404566,5.0,6.0
22980.0,5.0,0.68324864,5.0,6.0
22990.0,5.0,0.7459204,5.0,6.0
23000.0,5.0,0.78968257,4.0,6.0
23010.0,5.0,0.79198897,4.0,6.0
23020.0,5.0,0.79198897,4.0,6.0
23030.0,5.0,0.7921609,4.0,6.0
23040.0,5.0,0.76954347,4.0,6.0
23050.0,5.0,0.7457248,5.0,6.0
23060.0,5.0,0.754593,4.0,6.0
23070.0,5.0,0.7676487,4.0,6.0
23080.0,5.0,0.7676487,4.0,6.0
23090.0,5.0,0.81449586,5.0,6.0
23100.0,5.0,0.86570513,5.0,6.0
23110.0,5.0,0.8819667,5.0,6.0
23120.0,5.0,0.8819667,5.0,6.0
23130.0,5.0,0.87999296,5.0,6.0
23140.0,5.0,1.0049393,5.0,6.0
23150.0,5.0,1.0387664,5.0,6.0
23160.0,5.0,0.9998306,5.0,6.5
23170.0,5.0,0.9551438,5.0,6.5
23180.0,5.0,0.99332815,5.0,7.0
23190.0,5.0,0.96503645,5.0,7.0
23200.0,5.0,0.8881006,5.0,7.0
23210.0,5.0,0.8893059,5.0,7.0
23220.0,5.0,0.8881006,5.0,7.0
23230.0,5.0,0.88930595,5.0,7.0
23240.0,5.0,0.8958321,5.0,7.0
23250.0,5.0,0.8730829,5.0,7.0
23260.0,5.0,0.87076056,5.0,7.0
23270.0,5.0,0.8557632,5.0,7.0
23280.0,5.0,0.8567697,5.0,7.0
23290.0,5.0,0.8567697,5.0,7.0
23300.0,5.0,0.856564,5.0,7.0
23310.0,5.0,0.7414076,5.0,6.0
23320.0,5.0,0.49474666,5.0,6.0
23330.0,5.0,0.49636456,5.0,6.0
23340.0,5.0,0.4990954,5.0,6.0
23350.0,6.0,0.4984328,5.0,6.0
23360.0,6.0,0.4909382,5.0,6.0
23370.0,6.0,0.4714045,5.0,6.0
23380.0,6.0,0.40071025,6.0,6.0
23390.0,6.0,0.33602467,6.0,6.0
23400.0,6.0,0.2995776,6.0,6.0
23410.0,6.0,0.28870404,6.0,6.0
23420.0,6.0,0.21908292,6.0,6.0
23430.0,6.0,0.29174438,6.0,6.0
23440.0,6.0,0.2995776,6.0,6.0
23450.0,6.0,0.25716284,6.0,6.0
23460.0,6.0,0.21908292,6.0,6.0
23470.0,6.0,0.21597376,6.0,6.0
23480.0,6.0,0.51853657,6.0,6.0
23490.0,6.0,0.6005698,6.0,6.0
23500.0,6.0,0.59078294,6.0,7.0
23510.0,6.0,0.5407387,6.0,7.0
23520.0,6.0,0.54374224,6.0,7.0
23530.0,6.0,0.58634514,6.0,7.0
23540.0,6.0,0.6132578,6.0,7.0
23550.0,6.0,0.6178106,6.0,7.0
23560.0,6.0,0.6083755,6.0,7.0
23570.0,6.0,0.58212155,6.0,7.0
23580.0,6.0,0.53849715,6.0,7.0
23590.0,6.0,0.48110983,6.0,7.0
23600.0,6.0,0.52898175,6.0,7.0
23610.0,6.0,0.5864344,6.0,7.0
23620.0,6.0,0.6291085,6.0,7.0
23630.0,6.0,0.5976602,6.0,7.0
23640.0,6.0,0.5414142,6.0,7.0
23650.0,6.0,0.55977035,6.0,7.0
23660.0,6.0,0.65487087,6.0,7.0
23670.0,6.0,0.6957906,6.0,7.0
23680.0,6.0,0.67146224,6.0,7.0
23690.0,6.0,0.64879316,6.0,7.0
23700.0,6.0,0.67150986,6.0,7.0
23710.0,6.0,0.6711802,6.0,7.0
23720.0,6.0,0.6596523,6.0,7.0
23730.0,6.0,0.6940729,6.0,7.0
23740.0,6.0,0.6703669,6.0,7.0
23750.0,6.0,0.6576643,6.0,7.0
23760.0,6.0,0.6135285,6.0,7.0
23770.0,6.0,0.59321576,6.0,7.0
23780.0,6.0,0.56979704,6.0,6.0
23790.0,6.0,0.5231709,6.0,6.0
23800.0,6.0,0.44515106,6.0,6.0
23810.0,6.0,0.3473384,6.0,6.0
23820.0,6.0,0.33993465,6.0,6.0
23830.0,6.0,0.321968,6.0,6.0
23840.0,6.0,0.36266837,6.0,6.0
23850.0,6.0,0.3609183,6.0,6.0
23860.0,6.0,0.2959296,6.0,6.0
23870.0,6.0,0.22923271,6.0,6.0
23880.0,6.0,0.25321183,6.0,6.0
23890.0,6.0,0.33093256,6.0,6.0
23900.0,6.0,0.3322049,6.0,6.0
23910.0,6.0,0.35788265,6.0,6.0
23920.0,6.0,0.36917457,6.0,6.0
23930.0,6.0,0.40359625,6.0,6.0
23940.0,6.0,0.40683562,6.0,6.0
23950.0,6.0,0.40683562,6.0,6.0
23960.0,6.0,0.40022573,6.0,6.0
23970.0,6.0,0.37019366,6.0,6.0
23980.0,6.0,0.32812387,6.0,6.0
23990.0,6.0,0.3168106,6.0,6.0
24000.0,6.0,0.36246538,6.0,6.0
24010.0,6.0,0.39479434,6.0,6.0
24020.0,6.0,0.5805133,5.0,6.0
24030.0,6.0,0.6341457,5.0,6.0
24040.0,6.0,0.6561235,5.0,6.0
24050.0,6.0,0.6835253,5.0,6.0
24060.0,6.0,0.6705517,5.0,6.0
24070.0,6.0,0.65072805,5.0,6.0
24080.0,6.0,0.6357448,5.0,6.0
24090.0,6.0,0.6466552,5.0,6.0
24100.0,6.0,0.6815731,5.0,6.0
24110.0,6.0,0.6739338,5.0,6.0
24120.0,6.0,0.6565813,5.0,6.0
24130.0,6.0,0.63373935,6.0,6.0
24140.0,6.0,0.61027783,6.0,6.0
24150.0,6.0,0.60143316,6.0,6.0
24160.0,6.0,0.6147895,6.0,6.0
24170.0,6.0,0.627858,6.0,6.0
24180.0,6.0,0.604691,6.0,6.0
24190.0,6.0,0.58179706,6.0,6.0
24200.0,6.0,0.69839996,6.0,6.0
24210.0,6.0,0.43262297,6.0,6.0
24220.0,6.0,0.43262297,6.0,6.0
24230.0,6.0,0.44917598,5.0,6.0
24240.0,6.0,0.4798942,5.0,6.0
24250.0,6.0,0.47124547,5.0,6.0
24260.0,6.0,0.47124547,5.0,6.0
24270.0,6.0,0.5693795,5.0,6.0
24280.0,6.0,0.65064853,5.0,6.0
24290.0,6.0,0.65064853,5.0,6.0
24300.0,6.0,0.6541859,5.0,6.0
24310.0,6.0,0.6146919,5.0,6.0
24320.0,6.0,0.6165974,5.0,6.0
24330.0,6.0,0.6752266,5.0,6.0
24340.0,5.5,0.837714,5.0,6.0
24350.0,5.5,0.8406461,5.0,6.0
24360.0,5.0,0.7202371,5.0,6.0
24370.0,5.0,0.7202371,5.0,6.0
24380.0,5.0,0.82896113,5.0,6.0
24390.0,5.0,0.82896113,5.0,6.0
24400.0,5.0,0.8290952,5.0,6.0
24410.0,5.0,0.7757212,5.0,6.0
24420.0,5.0,0.7757212,5.0,6.0
24430.0,5.0,0.77747357,5.0,6.0
24440.0,5.0,0.9508123,5.0,6.0
24450.0,5.0,0.9914357,5.0,6.0
24460.0,5.0,0.9915004,5.0,6.0
24470.0,5.0,0.91695607,5.0,6.0
24480.0,5.0,0.91695607,5.0,6.0
24490.0,5.0,0.91695607,5.0,6.0
24500.0,6.0,0.7813992,5.0,6.0
24510.0,6.0,0.6942305,5.0,6.0
24520.0,6.0,0.77438647,5.0,6.0
24530.0,6.0,0.8031785,5.0,6.0
24540.0,6.0,0.7996388,5.0,6.0
24550.0,6.0,0.8159929,5.0,6.0
24560.0,6.0,0.857804,5.0,6.0
24570.0,6.0,0.8531685,5.0,6.0
24580.0,6.0,0.8272303,5.0,6.0
24590.0,6.0,0.82428324,5.0,6.0
24600.0,6.0,0.8127924,5.0,6.0
24610.0,6.0,0.785422,5.0,6.0
24620.0,6.0,0.7577631,5.0,6.0
24630.0,6.0,0.75920284,5.0,6.0
24640.0,6.0,0.7660145,5.0,6.0
24650.0,6.0,0.77043676,5.0,6.0
24660.0,6.0,0.7702157,5.0,6.0
24670.0,6.0,0.8624331,5.0,6.0
24680.0,6.0,0.9467775,5.0,6.0
24690.0,6.0,1.0033592,5.0,6.0
24700.0,6.0,0.99610287,5.0,6.0
24710.0,6.0,0.9749785,5.0,6.0
24720.0,6.0,0.9597475,5.0,6.0
24730.0,6.0,0.9880724,5.0,6.0
24740.0,6.0,1.0414659,5.0,6.0
24750.0,6.0,1.0662777,4.0,6.0
24760.0,6.0,1.0464907,4.0,6.0
24770.0,6.0,0.77114666,5.0,6.0
24780.0,6.0,0.7427742,5.0,6.0
24790.0,5.0,0.7448348,5.0,6.0
24800.0,5.0,0.7522205,5.0,6.0
24810.0,5.0,0.76906407,5.0,6.0
24820.0,5.0,0.7870215,5.0,6.0
24830.0,5.0,0.79293454,5.0,6.0
24840.0,5.0,0.80886996,5.0,6.0
24850.0,5.0,0.90905744,5.0,6.0
24860.0,5.0,0.9905582,4.0,6.0
24870.0,5.0,0.97272813,4.0,6.0
24880.0,5.0,0.93494135,4.0,6.0
24890.0,5.0,0.9814577,4.0,6.0
24900.0,5.0,1.0435448,4.0,6.0
24910.0,5.0,1.0447967,4.0,6.0
24920.0,5.0,1.0197952,4.0,6.0
24930.0,5.0,1.018819,4.0,6.0
24940.0,5.0,1.0277398,4.0,6.0
24950.0,5.0,1.0409697,4.0,6.0
24960.0,5.0,1.0755707,4.0,6.0
24970.0,5.0,1.1272458,4.0,6.0
24980.0,5.0,1.1549567,4.0,6.0
24990.0,5.0,1.1367393,4.0,6.0
25000.0,5.0,1.1136196,4.0,6.0
25010.0,5.0,1.1066126,4.0,6.0
25020.0,5.0,1.1076047,4.0,6.0
25030.0,5.0,1.1092288,4.0,6.0
25040.0,5.0,1.1036261,4.0,6.0
25050.0,5.0,1.1058724,4.0,6.0
25060.0,5.0,0.9854907,4.0,6.0
25070.0,5.0,0.92213625,5.0,6.0
25080.0,5.0,0.9242279,4.0,6.0
25090.0,5.0,0.9460965,4.0,6.0
25100.0,5.0,0.9690916,4.0,6.0
25110.0,5.0,0.9394521,5.0,6.0
25120.0,5.0,0.8736631,5.0,6.0
25130.0,5.0,0.8123158,5.0,6.0
25140.0,5.0,0.7969405,5.0,6.0
25150.0,5.0,0.8115885,5.0,6.0
25160.0,5.0,0.80296147,5.0,6.0
25170.0,6.0,0.80791765,5.0,6.0
25180.0,5.5,0.8086928,5.0,6.0
25190.0,6.0,0.79012924,5.0,6.0
25200.0,6.0,0.76324254,5.0,6.0
25210.0,6.0,0.7548677,5.0,6.0
25220.0,6.0,0.80591494,5.0,6.0
25230.0,6.0,0.843781,5.0,6.0
25240.0,6.0,0.86622596,5.0,6.0
25250.0,6.0,0.8620166,5.0,6.0
25260.0,6.0,0.84239644,5.0,6.0
25270.0,6.0,0.8073706,5.0,7.0
25280.0,6.0,0.8005173,5.0,7.0
25290.0,6.0,0.8062824,5.0,7.0
25300.0,6.0,0.73671705,6.0,7.0
25310.0,6.0,0.71091586,6.0,7.0
25320.0,6.0,0.67713225,6.0,7.0
25330.0,6.0,0.6842369,6.0,7.0
25340.0,7.0,0.69375575,6.0,7.0
25350.0,7.0,0.6934542,6.0,7.0
25360.0,7.0,0.7417347,6.0,7.0
25370.0,7.0,0.7479843,6.0,7.0
25380.0,7.0,0.7491954,6.0,7.0
25390.0,7.0,0.7052599,6.0,7.0
25400.0,7.0,0.7063885,6.0,7.0
25410.0,7.0,0.70806044,6.0,7.0
25420.0,7.0,0.64867234,6.0,7.0
25430.0,7.0,0.6464592,6.0,7.0
25440.0,7.0,0.64867234,6.0,7.0
25450.0,7.0,0.64867234,6.0,7.0
25460.0,7.0,0.7137899,6.0,7.0
25470.0,7.0,0.7134722,6.0,7.0
25480.0,7.0,0.6517639,6.0,7.0
25490.0,7.0,0.6517639,6.0,7.0
25500.0,7.0,0.6492909,6.0,7.0
25510.0,7.0,0.6517639,6.0,7.0
25520.0,7.0,0.56411046,6.0,7.0
25530.0,7.0,0.5442865,7.0,7.0
25540.0,7.0,0.5477254,7.0,7.0
25550.0,7.0,0.5477132,7.0,7.0
25560.0,7.0,0.39975825,7.0,7.0
25570.0,7.0,0.39975825,7.0,7.0
25580.0,7.0,0.43278003,7.0,7.0
25590.0,7.0,0.556458,7.0,7.0
25600.0,7.0,0.55614,7.0,7.0
25610.0,7.0,0.556458,7.0,7.0
25620.0,7.0,0.43347582,6.25,7.0
25630.0,7.0,0.43278003,7.0,7.0
25640.0,7.0,0.4334758,6.25,7.0
25650.0,7.0,0.4074289,7.0,7.0
25660.0,7.0,0.40837628,7.0,7.0
25670.0,7.0,0.4074289,7.0,7.0
25680.0,7.0,0.40837628,7.0,7.0
25690.0,7.0,0.4074289,7.0,7.0
25700.0,7.0,0.36572498,7.0,7.0
25710.0,7.0,0.364391,7.0,7.0
25720.0,7.0,0.36279106,7.0,7.0
25730.0,7.0,0.3066626,7.0,7.0
25740.0,7.0,0.41630447,7.0,7.0
25750.0,7.0,0.53376645,7.0,7.0
25760.0,7.0,0.60841554,7.0,8.0
25770.0,7.0,0.6350568,7.0,8.0
25780.0,7.0,0.494683,7.0,8.0
25790.0,7.0,0.48203456,7.0,8.0
25800.0,7.0,0.48220563,7.0,8.0
25810.0,7.0,0.48249763,7.0,8.0
25820.0,7.0,0.4822056,7.0,8.0
25830.0,7.0,0.4937706,7.0,8.0
25840.0,7.0,0.4968145,7.0,8.0
25850.0,7.0,0.49692613,7.0,8.0
25860.0,7.0,0.48733893,7.0,8.0
25870.0,7.0,0.48774594,7.0,8.0
25880.0,7.0,0.48733893,7.0,8.0
25890.0,7.0,0.48774594,7.0,8.0
25900.0,7.0,0.48733893,7.0,8.0
25910.0,7.0,0.48774594,7.0,8.0
25920.0,7.0,0.4968145,7.0,8.0
25930.0,7.0,0.49890354,7.0,8.0
25940.0,8.0,0.4939073,7.0,8.0
25950.0,8.0,0.48733893,7.0,8.0
25960.0,8.0,0.48758826,7.0,8.0
25970.0,8.0,0.4592655,7.0,8.0
25980.0,8.0,0.38299304,8.0,8.0
25990.0,8.0,0.2253599,8.0,8.0
26000.0,8.0,0.0,8.0,8.0
26010.0,8.0,0.0,8.0,8.0
26020.0,8.0,0.0,8.0,8.0
26030.0,8.0,0.0,8.0,8.0
26040.0,8.0,0.0,8.0,8.0
26050.0,8.0,0.0,8.0,8.0
26060.0,8.0,0.0,8.0,8.0
26070.0,8.0,0.0,8.0,8.0
26080.0,8.0,0.0,8.0,8.0
26090.0,8.0,0.23149484,8.0,8.0
26100.0,8.0,0.38093612,8.0,8.0
26110.0,8.0,0.38093612,8.0,8.0
26120.0,8.0,0.3307189,8.0,8.0
26130.0,8.0,0.0,8.0,8.0
26140.0,8.0,0.0,8.0,8.0
26150.0,8.0,0.0,8.0,8.0
26160.0,8.0,0.0,8.0,8.0
26170.0,8.0,0.0,8.0,8.0
26180.0,8.0,0.19444045,8.0,8.0
26190.0,8.0,0.36890888,8.0,8.0
26200.0,8.0,0.4528378,7.0,8.0
26210.0,8.0,0.4764363,7.0,8.0
26220.0,8.0,0.56991845,7.0,8.0
26230.0,8.0,0.5685321,7.0,8.0
26240.0,8.0,0.5303267,7.0,8.0
26250.0,8.0,0.33911562,8.0,8.0
26260.0,8.0,0.04347818,8.0,8.0
26270.0,8.0,0.0,8.0,8.0
26280.0,8.0,0.0,8.0,8.0
26290.0,8.0,0.0,8.0,8.0
26300.0,8.0,0.0,8.0,8.0
26310.0,8.0,0.0,8.0,8.0
26320.0,8.0,0.0,8.0,8.0
26330.0,8.0,0.0,8.0,8.0
26340.0,8.0,0.0,8.0,8.0
26350.0,8.0,0.0,8.0,8.0
26360.0,8.0,0.0,8.0,8.0
26370.0,8.0,0.0,8.0,8.0
26380.0,8.0,0.0,8.0,8.0
26390.0,8.0,0.0,8.0,8.0
26400.0,8.0,0.06330839,8.0,8.0
26410.0,8.0,0.3304335,8.0,8.0
26420.0,8.0,0.3304335,8.0,8.0
26430.0,8.0,0.39001,8.0,8.0
26440.0,8.0,0.39000997,8.0,8.0
26450.0,8.0,0.47308955,8.0,8.0
26460.0,8.0,0.57273066,8.0,8.0
26470.0,8.0,0.67933595,7.0,8.0
26480.0,8.0,0.7255021,7.0,8.0
26490.0,8.0,0.75133675,7.0,8.0
26500.0,8.0,0.74932885,7.0,8.0
26510.0,8.0,0.75133675,7.0,8.0
26520.0,8.0,0.7499985,7.0,8.0
26530.0,8.0,0.7694908,7.0,8.0
26540.0,7.0,0.7678581,7.0,8.0
26550.0,8.0,0.7673676,7.0,8.0
26560.0,7.0,0.76785815,7.0,8.0
26570.0,8.0,0.7673676,7.0,8.0
26580.0,7.0,0.73223406,7.0,8.0
26590.0,8.0,0.69862556,7.0,8.0
26600.0,8.0,0.69913626,7.0,8.0
26610.0,8.0,0.69862556,7.0,8.0
26620.0,7.0,0.71033937,7.0,8.0
26630.0,7.0,0.71128196,7.0,8.0
26640.0,7.0,0.71158296,7.0,8.0
26650.0,7.0,0.55296975,7.0,8.0
26660.0,7.0,0.49889717,7.0,8.0
26670.0,7.0,0.4988197,7.0,8.0
26780.0,7.0,0.0,7.0,7.0
26790.0,7.0,0.0,7.0,7.0
26800.0,7.0,0.36410934,7.0,7.0
26810.0,7.0,0.39999998,7.0,7.0
26820.0,7.0,0.41701332,7.0,7.0
26830.0,7.0,0.44137904,7.0,8.0
26840.0,7.0,0.44251937,7.0,8.0
26850.0,7.0,0.57397217,7.0,8.0
26860.0,7.0,0.57397217,7.0,8.0
26870.0,7.0,0.57348835,7.0,8.0
26880.0,7.0,0.67974764,7.0,8.0
26890.0,7.0,0.67974764,7.0,8.0
26900.0,7.0,0.68048865,7.0,8.0
26910.0,7.0,0.7085766,7.0,8.0
26920.0,7.0,0.74705875,7.0,8.0
26930.0,7.0,0.8537499,7.0,8.0
26940.0,7.0,0.8508647,7.0,8.0
26950.0,7.0,0.9653994,6.0,8.0
26960.0,7.0,0.9987731,6.0,8.0
26970.0,7.0,0.9987731,6.0,8.0
26980.0,7.0,1.0408903,6.0,8.0
26990.0,7.0,1.0456258,6.0,8.0
27000.0,7.0,1.043404,6.0,8.0
27010.0,7.0,1.0887952,6.0,8.0
27020.0,7.0,1.0760139,6.0,8.0
27030.0,7.0,1.0842124,6.0,8.0
27040.0,7.0,1.1796159,6.0,9.0
27050.0,7.0,1.1999999,6.0,9.0
27060.0,7.0,1.1989888,6.0,9.0
27070.0,7.0,1.1777874,6.0,9.0
27080.0,7.0,1.1480072,6.0,9.0
27090.0,7.0,1.1480073,6.0,9.0
27100.0,7.0,1.1461871,6.0,9.0
27110.0,7.0,1.1471461,6.0,9.0
27120.0,8.0,1.1461871,6.0,9.0
27130.0,8.0,1.1348246,7.0,9.0
27140.0,8.0,1.2377521,7.0,9.0
27150.0,8.0,1.2373449,7.0,9.0
27160.0,8.0,1.2351902,7.0,9.0
27170.0,8.0,1.2251159,7.0,9.0
27180.0,8.0,1.2220645,7.0,9.0
27190.0,8.0,1.1470033,7.0,9.0
27200.0,8.0,1.2378104,7.0,9.0
27210.0,8.0,1.237054,7.0,9.0
27220.0,8.0,1.1522013,7.0,9.0
27230.0,8.0,1.1234866,7.0,9.0
27240.0,8.0,1.0555483,7.0,9.0
27250.0,8.0,1.0460914,7.0,9.0
27260.0,8.0,0.9987731,7.0,9.0
27270.0,8.0,1.0120205,7.0,9.0
27280.0,8.0,0.9863794,8.0,9.0
27290.0,8.0,1.0241528,8.0,9.0
27300.0,8.0,1.051794,7.5,9.0
27310.0,8.0,0.9987319,8.0,9.0
27320.0,8.0,0.9988587,8.0,9.0
27330.0,9.0,1.0007567,8.0,9.0
27340.0,9.0,0.9316177,8.0,9.0
27350.0,8.5,0.93332404,8.0,9.0
27360.0,9.0,0.8299171,8.0,9.0
27370.0,9.0,0.75067294,8.0,9.0
27380.0,9.0,1.0077664,8.0,9.0
27390.0,9.0,1.0255789,8.0,9.0
27400.0,9.0,1.0264293,8.0,9.0
27410.0,9.0,0.9726051,8.0,10.0
27420.0,9.0,0.97076553,8.0,10.0
27430.0,9.0,0.9613636,8.0,10.0
27440.0,9.0,0.94489825,8.0,10.0
27450.0,9.0,0.806818,8.0,10.0
27460.0,9.0,0.7575866,9.0,10.0
27470.0,9.0,0.7575866,9.0,10.0
27480.0,9.0,0.7575866,9.0,10.0
27490.0,9.0,0.74277973,9.0,10.0
27500.0,9.0,0.7051115,9.0,10.0
27510.0,9.0,0.70629686,9.0,10.0
27520.0,9.0,0.782153,9.0,10.0
27530.0,9.0,0.7314704,9.0,10.0
27540.0,9.0,0.775223,9.0,10.0
27550.0,9.0,0.88963634,9.0,10.0
27560.0,9.0,0.8918536,9.0,10.0
27570.0,9.0,0.8918535,9.0,10.0
27580.0,9.0,0.8918535,9.0,10.0
27590.0,10.0,0.8968554,9.0,10.0
27600.0,10.0,0.89532197,9.0,10.0
27610.0,10.0,0.91239244,9.0,10.0
27620.0,10.0,0.95641005,9.0,10.0
27630.0,10.0,0.8760845,9.0,10.0
27640.0,10.0,0.84856594,9.0,10.0
27650.0,10.0,0.90892,9.0,10.0
27660.0,10.0,0.9764046,9.0,10.0
27670.0,10.0,0.99601316,9.0,10.0
27680.0,9.0,1.0109428,9.0,10.0
27690.0,9.0,1.0065955,9.0,10.0
27700.0,9.0,1.0065955,9.0,10.0
27710.0,9.0,1.0085578,9.0,10.0
27720.0,9.0,1.0077953,9.0,10.0
27730.0,9.0,1.0009606,9.0,10.0
27740.0,9.0,1.040346,9.0,10.0
27750.0,9.0,1.040346,9.0,10.0
27760.0,9.0,1.040346,9.0,10.0
27770.0,9.0,1.0702599,8.0,10.0
27830.0,9.0,1.1260718,8.0,10.0
27840.0,9.0,1.1182445,8.0,10.0
27850.0,9.0,1.1182445,8.0,10.0
27860.0,9.0,1.1584736,8.0,10.0
27870.0,9.0,1.1122234,8.0,10.0
29380.0,10.0,0.7875886,10.0,11.0
29540.0,11.0,0.58198565,10.0,11.0
29550.0,11.0,0.58682805,10.0,11.0
29560.0,11.0,0.54092354,10.0,11.0
29570.0,11.0,0.48412293,10.0,11.0
29580.0,11.0,0.49238768,10.0,11.0
29590.0,11.0,0.4944234,10.0,11.0
29600.0,11.0,0.49960613,10.0,11.0
29610.0,10.0,0.499999,10.0,11.0
29620.0,10.0,0.499999,10.0,11.0
29630.0,10.0,0.499999,10.0,11.0
29640.0,10.0,0.499999,10.0,11.0
29650.0,10.0,0.49952343,10.0,11.0
29660.0,10.0,0.486103,10.0,11.0
29670.0,10.0,0.4838004,10.0,11.0
29680.0,10.0,0.48165524,10.0,11.0
29690.0,10.0,0.46336144,10.0,11.0
29700.0,10.0,0.47001618,10.0,11.0
29710.0,10.0,0.47798595,10.0,11.0
29720.0,10.0,0.47798595,10.0,11.0
29730.0,10.0,0.44449052,10.0,11.0
29740.0,10.0,0.42431965,10.0,10.0
29750.0,10.0,0.42459425,10.0,10.0
29760.0,10.0,0.49581283,10.0,10.0
29770.0,10.0,0.56630886,10.0,10.0
29780.0,10.0,0.62556374,10.0,10.0
29790.0,10.0,0.65827686,9.5,10.0
29800.0,10.0,0.68978035,9.0,10.0
29810.0,10.0,0.77653486,9.0,10.5
29820.0,10.0,0.78042376,9.0,10.5
29830.0,10.0,0.76031685,9.0,10.0
29840.0,10.0,0.7613897,9.0,10.0
29850.0,10.0,0.90151995,9.0,10.0
29860.0,10.0,0.90151995,9.0,10.0
29870.0,10.0,0.92595273,9.0,11.0
29880.0,10.0,0.99975353,9.0,11.0
29890.0,9.0,1.0765511,9.0,11.0
29900.0,9.0,1.0788809,9.0,11.0
29910.0,9.0,1.0789533,9.0,11.0
29920.0,9.0,1.0789533,9.0,11.0
29930.0,9.0,1.0778843,9.0,11.0
29940.0,9.0,1.1100255,9.0,11.0
29950.0,9.0,1.1871529,9.0,11.0
29960.0,9.0,1.176234,9.0,11.0
29970.0,9.0,1.163563,9.0,11.0
29980.0,9.0,1.1641812,9.0,11.0
29990.0,9.0,1.2024689,9.0,11.0
30000.0,9.0,1.2406147,9.0,11.0
30010.0,9.0,1.3630257,9.0,11.0
30020.0,9.0,1.4859707,8.0,11.0
30030.0,9.0,1.486227,8.0,11.0
30040.0,9.0,1.4847862,8.0,11.0
30050.0,9.0,1.4833399,9.0,11.0
30060.0,10.0,1.491146,9.0,11.0
30070.0,10.0,1.491146,9.0,11.0
30080.0,10.0,1.534765,8.0,11.0
30090.0,10.0,1.5951649,8.0,11.0
30100.0,10.0,1.6521112,8.0,11.0
30110.0,10.0,1.6695424,8.0,11.0
30120.0,9.0,1.7305228,8.0,12.0
30130.0,9.5,1.8085498,8.0,12.0
30140.0,9.5,1.8099599,8.0,12.0
30150.0,10.0,1.7493337,8.0,12.0
30160.0,10.0,1.6908131,8.0,11.0
30170.0,10.0,1.6711723,8.0,11.0
30180.0,10.0,1.6609643,8.0,11.0
30190.0,10.0,1.6592057,8.0,11.0
30200.0,10.0,1.663415,8.0,11.0
30210.0,10.0,1.6176423,9.0,11.0
30220.0,10.0,1.6655307,9.0,12.0
30230.0,10.0,1.7472847,9.0,12.0
30240.0,10.0,1.760569,8.0,12.0
30250.0,10.0,1.6580358,9.0,12.0
30260.0,10.0,1.6962603,9.0,12.0
30270.0,10.0,1.7260906,9.0,12.0
30280.0,10.0,1.7483062,9.0,12.0
30290.0,10.0,1.7044232,9.0,12.0
30300.0,10.0,1.7711749,9.0,12.0
30310.0,10.0,1.6995536,9.0,12.0
30320.0,10.0,1.6939262,9.0,12.0
30330.0,10.0,1.6475112,9.0,12.0
30340.0,10.0,1.6492295,9.0,12.0
30350.0,10.0,1.6202751,9.0,12.0
30360.0,10.0,1.5389615,9.0,12.0
30370.0,10.0,1.6058079,9.0,12.0
30380.0,10.0,1.6047072,9.0,12.0
30390.0,10.0,1.5716201,9.0,12.0
30400.0,10.0,1.496992,9.0,12.0
30410.0,10.0,1.4967782,9.0,12.0
30420.0,10.0,1.501218,9.0,12.0
30430.0,10.5,1.5577519,9.0,12.0
30440.0,10.5,1.556869,9.0,12.0
30450.0,10.5,1.5548476,9.0,12.0
30460.0,10.0,1.556673,9.0,12.0
30470.0,10.5,1.5563636,9.0,12.0
30480.0,10.5,1.5523231,9.0,12.0
30490.0,10.0,1.4944712,9.0,12.0
30500.0,10.0,1.4228089,9.0,12.0
30510.0,10.0,1.4133172,9.0,12.0
30520.0,10.0,1.3519272,9.0,12.0
30530.0,10.0,1.3423005,9.0,12.0
30540.0,10.0,1.3438736,9.0,12.0
30550.0,10.0,1.3438737,9.0,12.0
30560.0,10.0,1.3422272,9.0,12.0
30570.0,10.0,1.3422272,9.0,12.0
30580.0,10.0,1.3434174,9.0,12.0
30590.0,10.0,1.2436105,10.0,11.0
30600.0,10.0,1.0759649,10.0,11.0
30610.0,10.0,0.98513246,10.0,11.0
30620.0,10.0,0.97399837,10.0,11.0
30630.0,10.0,0.9696927,10.0,11.0
30640.0,10.0,1.0088139,10.0,11.0
30650.0,10.0,0.96531034,10.0,11.0
30660.0,10.0,1.0355532,9.0,11.0
30670.0,10.0,1.0719521,9.0,11.0
30680.0,10.0,1.05581,9.0,11.0
30690.0,10.0,0.9938079,9.0,10.0
30700.0,10.0,0.90991974,9.0,10.0
30710.0,9.0,0.9303425,9.0,10.0
30720.0,9.0,0.93034256,9.0,10.0
30730.0,9.0,0.92992127,9.0,10.0
30740.0,9.0,0.8795765,9.0,10.0
30750.0,9.0,0.88424015,9.0,10.0
30760.0,9.0,0.89389694,9.0,10.0
30770.0,9.0,0.8931003,9.0,10.0
30780.0,9.0,0.75115484,9.0,10.0
30790.0,9.0,0.7512109,9.0,10.0
30800.0,9.0,0.75300056,9.0,10.0
30810.0,9.0,0.75305814,9.0,10.0
30820.0,9.0,0.75305814,9.0,10.0
30830.0,9.0,0.75077647,9.0,10.0
30840.0,9.0,0.7493786,9.0,10.0
30850.0,9.0,0.7473803,9.0,10.0
30860.0,9.0,0.7495389,9.0,10.0
30870.0,9.0,0.891698,9.0,10.0
30880.0,9.0,0.9772369,9.0,10.0
30890.0,9.0,1.0351657,9.0,10.0
30900.0,9.0,1.0178797,9.0,10.0
30910.0,9.0,1.0710608,9.0,10.0
30920.0,9.0,1.118034,9.0,10.0
30930.0,9.0,1.1187445,9.0,10.0
30940.0,9.0,1.1176234,9.0,10.0
30950.0,9.0,1.1189727,9.0,10.0
30960.0,9.0,1.0508674,9.0,10.0
30970.0,9.0,1.0572014,9.0,10.0
30980.0,9.0,1.029064,9.0,10.0
30990.0,9.0,1.0295446,9.0,10.0
31000.0,9.0,1.0252515,9.0,10.0
31010.0,9.0,1.0225216,9.0,10.0
31020.0,9.0,1.0387348,9.0,10.0
31030.0,9.0,1.0438585,9.0,10.75
31040.0,9.0,1.1216598,9.0,10.0
31050.0,9.0,1.1068883,9.0,10.0
31060.0,9.0,1.2292684,9.0,11.0
31070.0,9.0,1.2283084,9.0,11.0
31080.0,10.0,1.282649,9.0,11.0
31090.0,10.0,1.2888061,9.0,11.0
31100.0,10.0,1.3080465,9.0,11.0
31110.0,10.0,1.3100206,9.0,11.0
31120.0,10.0,1.3535982,9.0,11.5
31130.0,10.0,1.359095,9.0,11.5
31140.0,10.0,1.2957058,10.0,11.5
31150.0,10.0,1.2127779,10.0,12.0
31160.0,10.0,1.1356692,10.0,12.0
31170.0,10.0,1.1356692,10.0,12.0
31180.0,11.0,1.1067574,10.0,12.0
31190.0,11.0,1.1129239,10.0,12.0
31200.0,11.0,1.1585054,10.0,12.0
31210.0,11.0,1.173701,10.0,12.0
31220.0,11.0,1.1505041,10.0,12.0
31230.0,11.0,1.1659894,10.0,12.0
31240.0,11.0,1.1659894,10.0,12.0
31250.0,11.0,1.1659894,10.0,12.0
31260.0,11.0,1.1456305,10.0,12.0
31270.0,11.0,1.2007551,10.0,12.0
31280.0,11.0,1.2007551,10.0,12.0
31290.0,11.0,1.2007551,10.0,12.0
31300.0,11.0,1.2007551,10.0,12.0
31310.0,11.0,1.2033049,10.0,12.0
31320.0,11.0,1.2034231,10.0,12.0
31330.0,11.0,1.2034231,10.0,12.0
31340.0,11.0,1.2034233,10.0,12.0
31350.0,11.0,1.1881795,10.0,12.0
31360.0,11.0,1.1750897,10.0,12.0
31370.0,11.0,1.1750897,10.0,12.0
31380.0,11.0,1.1918296,10.0,12.0
31390.0,11.0,1.2061212,10.0,12.0
31400.0,11.0,1.1810914,10.0,12.0
31410.0,11.0,1.1810914,10.0,12.0
31420.0,11.0,1.2035135,10.0,12.0
31430.0,11.0,1.3449887,10.0,12.0
31440.0,11.0,1.397517,10.0,12.0
31450.0,11.0,1.4365559,10.0,12.0
31460.0,11.0,1.397517,10.0,12.0
31470.0,11.0,1.3902502,10.0,12.0
31480.0,11.0,1.3645065,10.0,12.0
31490.0,11.0,1.3645064,10.0,12.0
31500.0,11.0,1.3643937,10.0,12.0
31510.0,11.0,1.4300686,10.0,12.0
31520.0,11.0,1.4655725,9.0,12.0
31530.0,11.0,1.4655725,9.0,12.0
31540.0,11.0,1.466533,9.0,12.0
31550.0,11.0,1.486634,9.0,12.0
31560.0,11.0,1.5024214,9.0,12.0
31570.0,11.0,1.5024214,9.0,12.0
31580.0,11.0,1.4807168,9.0,12.0
31590.0,11.0,1.4807168,9.0,12.0
31600.0,11.0,1.4807168,9.0,12.0
31610.0,10.0,1.375008,9.0,12.0
31620.0,10.0,1.3760593,9.0,12.0
31630.0,10.0,1.3757004,9.0,12.0
31640.0,10.0,1.3236831,9.0,12.0
31650.0,10.0,1.3478519,9.0,12.0
31660.0,10.0,1.3478519,9.0,12.0
31670.0,10.0,1.2811384,9.0,12.0
31680.0,10.0,1.2464434,9.0,12.0
31690.0,10.0,1.2464899,9.0,12.0
31700.0,11.0,1.2456245,9.0,12.0
31710.0,11.0,1.0274323,10.0,12.0
31720.0,11.0,1.0277095,10.0,12.0
31730.0,11.0,1.0566428,10.0,12.0
31740.0,11.0,0.928405,10.0,12.0
31750.0,11.0,0.927536,10.0,12.0
31760.0,11.0,0.927536,10.0,12.0
31770.0,11.0,0.92825896,10.0,12.0
31780.0,11.0,0.9284447,10.0,12.0
31790.0,11.0,0.9284447,10.0,12.0
31800.0,11.0,0.9210722,10.0,12.0
31810.0,11.0,0.9210722,10.0,12.0
31820.0,11.0,0.92109734,10.0,12.0
31830.0,11.0,0.92061335,10.0,12.0
31840.0,11.0,1.0085645,10.0,12.0
31850.0,11.0,0.9675829,10.0,12.0
31860.0,11.0,0.94868326,10.0,12.0
31870.0,11.0,0.9208882,10.0,12.0
31880.0,11.0,0.8944272,10.0,12.0
31890.0,11.0,0.8944272,10.0,12.0
31900.0,11.0,0.8944272,10.0,12.0
31910.0,11.0,0.88928425,10.0,12.0
31920.0,11.0,0.8612113,10.0,12.0
31930.0,11.0,0.85184515,10.0,12.0
31940.0,11.0,0.8412106,10.0,12.0
31950.0,11.0,0.8157423,10.0,12.0
31960.0,11.0,0.7770011,10.0,12.0
31970.0,11.0,0.7484024,11.0,12.0
31980.0,11.0,0.67300844,11.0,12.0
31990.0,11.0,0.5988703,11.0,12.0
32000.0,11.0,0.523194,11.0,12.0
32010.0,11.0,0.5168639,11.0,12.0
32020.0,11.0,0.42112842,11.0,11.0
32030.0,11.0,0.3464743,11.0,11.0
32040.0,11.0,0.29062232,11.0,11.0
32050.0,11.0,0.3142697,11.0,11.0
32060.0,11.0,0.3142697,11.0,11.0
32070.0,11.0,0.3142697,11.0,11.0
32080.0,11.0,0.3142697,11.0,11.0
32090.0,11.0,0.3142697,11.0,11.0
32100.0,11.0,0.3142697,11.0,11.0
32110.0,11.0,0.3486935,11.0,11.0
32120.0,11.0,0.32266003,11.0,11.0
32130.0,11.0,0.3142697,11.0,11.0
32140.0,11.0,0.36809832,11.0,11.0
32150.0,11.0,0.45037368,10.0,11.0
32160.0,11.0,0.4956705,10.0,11.0
32170.0,10.0,0.49473187,10.0,11.0
32180.0,10.0,0.46624345,10.0,11.0
32190.0,10.0,0.41538402,10.0,10.0
32200.0,10.0,0.33363461,10.0,10.0
32210.0,10.0,0.21915859,10.0,10.0
32220.0,10.0,0.09949874,10.0,10.0
32230.0,10.0,0.49712768,10.0,11.0
32240.0,10.0,0.48729745,10.0,11.0
32250.0,10.0,0.46545842,10.0,11.0
32260.0,10.0,0.43506482,10.0,11.0
32270.0,10.0,0.41916874,10.0,10.0
32280.0,10.0,0.4365415,10.0,10.0
32290.0,10.0,0.41192192,10.0,10.0
32300.0,10.0,0.36752945,10.0,10.0
32310.0,10.0,0.32986826,10.0,10.0
32320.0,10.0,0.3018345,10.0,10.0
32330.0,10.0,0.2592166,10.0,10.0
32340.0,10.0,0.29141366,10.0,10.0
32350.0,10.0,0.32642627,10.0,10.0
32360.0,10.0,0.3824095,10.0,10.0
32370.0,10.0,0.4247299,10.0,10.0
32380.0,10.0,0.4520519,9.0,10.0
32390.0,10.0,0.47507966,9.0,10.0
32400.0,10.0,0.488444,9.0,10.0
32410.0,10.0,0.4993153,9.0,10.0
32420.0,9.0,0.48493198,9.0,10.0
32430.0,9.0,0.4403038,9.0,10.0
32440.0,9.0,0.37844455,9.0,9.0
32450.0,9.0,0.28020093,9.0,9.0
32460.0,9.0,0.22580488,9.0,9.0
32470.0,9.0,0.15414293,9.0,9.0
32480.0,9.0,0.0,9.0,9.0
32490.0,9.0,0.15281071,9.0,9.0
32500.0,9.0,0.22646406,9.0,9.0
32510.0,9.0,0.27814677,9.0,9.0
32520.0,9.0,0.3173691,9.0,9.0
32530.0,9.0,0.3244715,9.0,9.0
32540.0,9.0,0.2894598,9.0,9.0
32550.0,9.0,0.24684817,9.0,9.0
32560.0,9.0,0.24999711,9.0,9.0
32570.0,9.0,0.25255302,9.0,9.0
32580.0,9.0,0.29873803,9.0,9.0
32590.0,9.0,0.335348,9.0,9.0
32600.0,9.0,0.33770674,9.0,9.0
32610.0,9.0,0.3410048,9.0,9.0
32620.0,9.0,0.33921772,9.0,9.0
32630.0,9.0,0.36175084,9.0,9.0
32640.0,9.0,0.35707143,9.0,9.0
32650.0,9.0,0.326483,9.0,9.0
32660.0,9.0,0.2889096,9.0,9.0
32670.0,9.0,0.2646882,9.0,9.0
32680.0,9.0,0.26217672,9.0,9.0
32680.0,9.0,0.26217672,9.0,9.0
32680.0,9.0,0.25229937,9.0,9.0
