distance,median,stdev,prc_25,prc_75
20.0,nan,nan,nan,nan
30.0,nan,nan,nan,nan
40.0,nan,nan,nan,nan
50.0,nan,nan,nan,nan
60.0,nan,nan,nan,nan
70.0,nan,nan,nan,nan
80.0,nan,nan,nan,nan
90.0,nan,nan,nan,nan
100.0,nan,nan,nan,nan
110.0,nan,nan,nan,nan
120.0,nan,nan,nan,nan
130.0,nan,nan,nan,nan
140.0,nan,nan,nan,nan
150.0,nan,nan,nan,nan
160.0,nan,nan,nan,nan
170.0,nan,nan,nan,nan
180.0,nan,nan,nan,nan
190.0,nan,nan,nan,nan
200.0,nan,nan,nan,nan
210.0,nan,nan,nan,nan
220.0,nan,nan,nan,nan
230.0,nan,nan,nan,nan
240.0,nan,nan,nan,nan
250.0,nan,nan,nan,nan
260.0,nan,nan,nan,nan
270.0,nan,nan,nan,nan
280.0,nan,nan,nan,nan
290.0,nan,nan,nan,nan
300.0,nan,nan,nan,nan
310.0,nan,nan,nan,nan
320.0,nan,nan,nan,nan
330.0,nan,nan,nan,nan
340.0,nan,nan,nan,nan
350.0,nan,nan,nan,nan
360.0,nan,nan,nan,nan
370.0,nan,nan,nan,nan
380.0,nan,nan,nan,nan
390.0,nan,nan,nan,nan
400.0,nan,nan,nan,nan
410.0,nan,nan,nan,nan
420.0,nan,nan,nan,nan
430.0,nan,nan,nan,nan
440.0,nan,nan,nan,nan
450.0,nan,nan,nan,nan
460.0,nan,nan,nan,nan
470.0,nan,nan,nan,nan
480.0,nan,nan,nan,nan
490.0,nan,nan,nan,nan
500.0,nan,nan,nan,nan
510.0,nan,nan,nan,nan
520.0,nan,nan,nan,nan
530.0,nan,nan,nan,nan
540.0,nan,nan,nan,nan
550.0,nan,nan,nan,nan
560.0,nan,nan,nan,nan
570.0,nan,nan,nan,nan
580.0,nan,nan,nan,nan
590.0,nan,nan,nan,nan
600.0,nan,nan,nan,nan
610.0,nan,nan,nan,nan
620.0,nan,nan,nan,nan
630.0,nan,nan,nan,nan
640.0,nan,nan,nan,nan
650.0,nan,nan,nan,nan
660.0,nan,nan,nan,nan
670.0,nan,nan,nan,nan
680.0,nan,nan,nan,nan
690.0,nan,nan,nan,nan
700.0,nan,nan,nan,nan
710.0,nan,nan,nan,nan
720.0,nan,nan,nan,nan
730.0,nan,nan,nan,nan
740.0,nan,nan,nan,nan
750.0,nan,nan,nan,nan
760.0,nan,nan,nan,nan
770.0,nan,nan,nan,nan
780.0,nan,nan,nan,nan
790.0,nan,nan,nan,nan
800.0,nan,nan,nan,nan
810.0,nan,nan,nan,nan
820.0,nan,nan,nan,nan
830.0,nan,nan,nan,nan
840.0,nan,nan,nan,nan
850.0,nan,nan,nan,nan
860.0,nan,nan,nan,nan
870.0,nan,nan,nan,nan
880.0,nan,nan,nan,nan
890.0,nan,nan,nan,nan
900.0,nan,nan,nan,nan
910.0,nan,nan,nan,nan
920.0,nan,nan,nan,nan
930.0,nan,nan,nan,nan
940.0,nan,nan,nan,nan
950.0,nan,nan,nan,nan
960.0,nan,nan,nan,nan
970.0,nan,nan,nan,nan
980.0,nan,nan,nan,nan
990.0,nan,nan,nan,nan
1000.0,nan,nan,nan,nan
1010.0,nan,nan,nan,nan
1020.0,nan,nan,nan,nan
1030.0,nan,nan,nan,nan
1040.0,nan,nan,nan,nan
1050.0,nan,nan,nan,nan
1060.0,nan,nan,nan,nan
1070.0,nan,nan,nan,nan
1080.0,nan,nan,nan,nan
1090.0,nan,nan,nan,nan
1100.0,nan,nan,nan,nan
1110.0,nan,nan,nan,nan
1120.0,nan,nan,nan,nan
1130.0,nan,nan,nan,nan
1140.0,nan,nan,nan,nan
1150.0,nan,nan,nan,nan
1160.0,nan,nan,nan,nan
1170.0,nan,nan,nan,nan
1180.0,nan,nan,nan,nan
1190.0,nan,nan,nan,nan
1200.0,nan,nan,nan,nan
1210.0,nan,nan,nan,nan
1220.0,nan,nan,nan,nan
1230.0,nan,nan,nan,nan
1240.0,nan,nan,nan,nan
1250.0,nan,nan,nan,nan
1260.0,nan,nan,nan,nan
1270.0,nan,nan,nan,nan
1280.0,nan,nan,nan,nan
1290.0,nan,nan,nan,nan
1300.0,nan,nan,nan,nan
1310.0,nan,nan,nan,nan
1320.0,nan,nan,nan,nan
1330.0,nan,nan,nan,nan
1340.0,nan,nan,nan,nan
1350.0,nan,nan,nan,nan
1360.0,nan,nan,nan,nan
1370.0,nan,nan,nan,nan
1380.0,nan,nan,nan,nan
1390.0,nan,nan,nan,nan
1400.0,nan,nan,nan,nan
1410.0,nan,nan,nan,nan
1420.0,nan,nan,nan,nan
1430.0,nan,nan,nan,nan
1440.0,nan,nan,nan,nan
1450.0,nan,nan,nan,nan
1460.0,nan,nan,nan,nan
1470.0,nan,nan,nan,nan
1480.0,nan,nan,nan,nan
1490.0,nan,nan,nan,nan
1500.0,nan,nan,nan,nan
1510.0,nan,nan,nan,nan
1520.0,nan,nan,nan,nan
1530.0,nan,nan,nan,nan
1540.0,nan,nan,nan,nan
1550.0,nan,nan,nan,nan
1560.0,nan,nan,nan,nan
1570.0,nan,nan,nan,nan
1580.0,nan,nan,nan,nan
1590.0,nan,nan,nan,nan
1600.0,nan,nan,nan,nan
1610.0,nan,nan,nan,nan
1620.0,nan,nan,nan,nan
1630.0,nan,nan,nan,nan
1640.0,nan,nan,nan,nan
1650.0,nan,nan,nan,nan
1660.0,nan,nan,nan,nan
1670.0,nan,nan,nan,nan
1680.0,nan,nan,nan,nan
1690.0,nan,nan,nan,nan
1700.0,1.0,0.0,1.0,1.0
1710.0,1.0,0.0,1.0,1.0
1720.0,1.0,0.0,1.0,1.0
1730.0,1.0,0.0,1.0,1.0
1740.0,1.0,0.0,1.0,1.0
1750.0,1.0,0.0,1.0,1.0
1760.0,1.0,0.0,1.0,1.0
1770.0,1.0,0.0,1.0,1.0
1780.0,1.0,0.0,1.0,1.0
1790.0,1.0,0.3204612,1.0,1.0
1800.0,1.0,0.40981916,1.0,1.0
1810.0,1.0,0.46943673,1.0,2.0
1820.0,1.0,0.49208608,1.0,2.0
1830.0,2.0,0.49991527,1.0,2.0
1840.0,2.0,0.4927961,1.0,2.0
1850.0,2.0,0.48727873,1.0,2.0
1860.0,2.0,0.48394206,1.0,2.0
1870.0,2.0,0.48166874,1.0,2.0
1880.0,2.0,0.47807518,1.0,2.0
1890.0,2.0,0.46171153,1.0,2.0
1900.0,2.0,0.43924034,1.0,2.0
1910.0,2.0,0.43062055,2.0,2.0
1920.0,2.0,0.4263054,2.0,2.0
1930.0,2.0,0.4344905,1.0,2.0
1940.0,2.0,0.45670626,1.0,2.0
1950.0,2.0,0.46313015,1.0,2.0
1960.0,2.0,0.48743373,1.0,2.0
1970.0,2.0,0.5409211,2.0,2.0
1980.0,2.0,0.6051129,1.0,2.0
1990.0,2.0,0.6214924,1.0,2.0
2000.0,2.0,0.61412305,1.0,2.0
2010.0,2.0,0.5201993,1.0,2.0
2020.0,2.0,0.44450325,1.0,2.0
2030.0,2.0,0.4674638,1.0,2.0
2040.0,2.0,0.4690003,1.0,2.0
2050.0,2.0,0.4562468,1.0,2.0
2060.0,2.0,0.4396389,1.0,2.0
2070.0,2.0,0.4626682,1.0,2.0
2080.0,2.0,0.46260098,1.0,2.0
2090.0,2.0,0.44757047,1.0,2.0
2100.0,2.0,0.41609102,2.0,2.0
2110.0,2.0,0.42539713,2.0,2.0
2120.0,2.0,0.4548083,1.0,2.0
2130.0,2.0,0.4682437,1.0,2.0
2140.0,2.0,0.4551063,1.0,2.0
2150.0,2.0,0.5354871,1.0,2.0
2160.0,2.0,0.6205127,1.0,2.0
2170.0,2.0,0.69406265,1.0,2.0
2180.0,2.0,0.64996475,1.0,2.0
2190.0,2.0,0.654675,1.0,2.0
2200.0,2.0,0.6560655,1.0,2.0
2210.0,2.0,0.6431986,1.0,2.0
2220.0,2.0,0.6413858,1.0,2.0
2230.0,2.0,0.65408814,1.0,2.0
2240.0,2.0,0.7038467,1.0,2.0
2250.0,2.0,0.6889875,1.0,2.0
2260.0,2.0,0.64065963,1.0,2.0
2270.0,2.0,0.64295554,1.0,2.0
2280.0,2.0,0.49993598,1.0,2.0
2290.0,2.0,0.46262062,1.0,2.0
2300.0,2.0,0.45329788,1.0,2.0
2310.0,2.0,0.36109644,2.0,2.0
2320.0,2.0,0.26351246,2.0,2.0
2330.0,2.0,0.0,2.0,2.0
2340.0,2.0,0.20740299,2.0,2.0
2350.0,2.0,0.29056287,2.0,2.0
2360.0,2.0,0.3091132,2.0,2.0
2370.0,2.0,0.38925683,2.0,2.0
2380.0,2.0,0.42288944,2.0,2.0
2390.0,2.0,0.47140455,2.0,3.0
2400.0,2.0,0.49568254,2.0,3.0
2410.0,2.0,0.4035001,2.0,2.0
2420.0,2.0,0.52046967,1.0,2.0
2430.0,2.0,0.5198149,1.0,2.0
2440.0,2.0,0.52019835,1.0,2.0
2450.0,2.0,0.59801966,1.0,2.0
2460.0,2.0,0.65363485,1.0,2.0
2470.0,2.0,0.65192145,1.0,2.0
2480.0,2.0,0.6514723,1.0,2.0
2490.0,2.0,0.6886086,1.0,2.0
2500.0,2.0,0.7073301,1.0,2.0
2510.0,2.0,0.75412786,1.0,3.0
2520.0,2.0,0.7536028,1.0,3.0
2530.0,2.0,0.77795017,1.0,3.0
2540.0,2.0,0.7792028,1.0,3.0
2550.0,2.0,0.77969104,1.0,3.0
2560.0,2.0,0.7801748,1.0,3.0
2570.0,2.0,0.7816663,1.0,3.0
2580.0,2.0,0.75951946,2.0,3.0
2590.0,2.0,0.7705364,2.0,3.0
2600.0,2.0,0.80432177,1.0,3.0
2610.0,2.0,0.80364895,1.0,3.0
2620.0,2.0,0.80414623,1.0,3.0
2630.0,2.0,0.80531406,1.0,3.0
2640.0,2.0,0.8058034,1.0,3.0
2650.0,2.0,0.80731374,1.0,3.0
2660.0,2.0,0.8077896,1.0,3.0
2670.0,2.0,0.8082609,1.0,3.0
2680.0,2.0,0.8077162,1.0,3.0
2690.0,2.0,0.8081834,1.0,3.0
2700.0,2.0,0.80750066,1.0,3.0
2710.0,2.0,0.8079624,1.0,3.0
2720.0,2.0,0.81387675,1.0,3.0
2730.0,2.0,0.82171315,1.0,3.0
2740.0,2.0,0.822914,1.0,3.0
2750.0,2.0,0.8232422,1.0,3.0
2760.0,2.0,0.80119014,1.0,3.0
2770.0,2.0,0.7721559,1.0,3.0
2780.0,2.0,0.80340225,1.0,3.0
2790.0,2.0,0.6621178,2.0,3.0
2800.0,2.0,0.6507564,2.0,3.0
2810.0,2.0,0.6365878,2.0,3.0
2820.0,2.0,0.61798334,2.0,3.0
2830.0,2.0,0.5538917,2.0,3.0
2840.0,2.0,0.48442855,2.0,3.0
2850.0,2.0,0.46762273,2.0,3.0
2860.0,2.0,0.46724296,2.0,3.0
2870.0,2.0,0.4629028,2.0,3.0
2880.0,2.0,0.46451586,2.0,3.0
2890.0,2.0,0.47274092,2.0,3.0
2900.0,2.0,0.47749537,2.0,3.0
2910.0,2.0,0.48284158,2.0,2.0
2920.0,2.0,0.50777555,2.0,2.0
2930.0,2.0,0.5129327,2.0,2.0
2940.0,2.0,0.48887524,2.0,2.0
2950.0,2.0,0.44941628,2.0,2.0
2960.0,2.0,0.4176075,2.0,2.0
2970.0,2.0,0.3979435,2.0,2.0
2980.0,2.0,0.3746999,2.0,2.0
2990.0,2.0,0.37839693,2.0,2.0
3000.0,2.0,0.38910663,2.0,2.0
3010.0,2.0,0.3977323,2.0,2.0
3020.0,2.0,0.40587682,2.0,2.0
3030.0,2.0,0.44180992,2.0,2.0
3040.0,2.0,0.47932345,2.0,2.0
3050.0,2.0,0.51394945,2.0,2.0
3060.0,2.0,0.54016197,2.0,2.0
3070.0,2.0,0.55773455,2.0,2.0
3080.0,2.0,0.5774565,2.0,2.0
3090.0,2.0,0.60629696,2.0,2.0
3100.0,2.0,0.16497271,2.0,2.0
3110.0,2.0,0.2260177,2.0,2.0
3120.0,2.0,0.3226081,2.0,2.0
3130.0,2.0,0.36582443,2.0,2.0
3140.0,2.0,0.39308903,2.0,2.0
3150.0,2.0,0.41492048,2.0,2.0
3160.0,2.0,0.43416128,1.0,2.0
3170.0,2.0,0.4335885,1.0,2.0
3180.0,2.0,0.43185183,2.0,2.0
3190.0,2.0,0.4300872,2.0,2.0
3200.0,2.0,0.44701678,1.0,2.0
3210.0,2.0,0.45912528,1.0,2.0
3220.0,2.0,0.4578198,1.0,2.0
3230.0,2.0,0.45649096,1.0,2.0
3240.0,2.0,0.45513842,1.0,2.0
3250.0,2.0,0.45329788,1.0,2.0
3260.0,2.0,0.45188937,1.0,2.0
3270.0,2.0,0.4504564,1.0,2.0
3280.0,2.0,0.4489989,1.0,2.0
3290.0,2.0,0.44701678,1.0,2.0
3300.0,2.0,0.44550085,1.0,2.0
3310.0,2.0,0.42829433,2.0,2.0
3320.0,2.0,0.0,2.0,2.0
3330.0,2.0,0.75550246,2.0,3.0
3340.0,2.0,0.76262444,2.0,3.0
3350.0,2.0,0.76963365,2.0,3.0
3360.0,2.0,0.76053816,2.0,3.0
3370.0,2.0,0.739922,2.0,3.0
3380.0,2.0,0.7194748,2.0,3.0
3390.0,2.0,0.71091413,2.0,3.0
3400.0,2.0,0.7203083,2.0,3.0
3410.0,2.0,0.7284943,2.0,3.0
3420.0,2.0,0.7058583,2.0,3.0
3430.0,2.0,0.67149913,2.0,3.0
3440.0,2.0,0.63521653,2.0,3.0
3450.0,2.0,0.59624743,2.0,3.0
3460.0,2.0,0.55387276,2.0,3.0
3470.0,2.0,0.50743544,2.0,3.0
3480.0,2.0,0.4881967,2.0,3.0
3490.0,2.0,0.48412293,2.0,3.0
3500.0,2.0,0.48307243,2.0,3.0
3510.0,2.0,0.4844762,2.0,3.0
3520.0,2.0,0.4861183,2.0,3.0
3530.0,2.0,0.4819865,2.0,3.0
3540.0,2.0,0.4769696,2.0,3.0
3550.0,2.0,0.47128654,2.0,3.0
3560.0,2.0,0.47175726,2.0,3.0
3570.0,2.0,0.47140455,2.0,3.0
3580.0,2.0,0.46330982,2.0,3.0
3590.0,2.0,0.44498992,2.0,3.0
3600.0,2.0,0.42524227,2.0,2.0
3610.0,2.0,0.38350227,2.0,2.0
3620.0,2.0,0.31902194,2.0,2.0
3630.0,2.0,0.24296299,2.0,2.0
3640.0,2.0,0.20948508,2.0,2.0
3650.0,2.0,0.176,2.0,2.0
3660.0,2.0,0.2848723,2.0,2.0
3670.0,2.0,0.57563734,2.0,3.0
3680.0,2.0,0.5772686,2.0,3.0
3690.0,2.0,0.5710463,2.0,3.0
3700.0,2.0,0.5959648,2.0,3.0
3710.0,3.0,0.6124948,2.0,3.0
3720.0,3.0,0.607455,2.0,3.0
3730.0,2.0,0.6046179,2.0,3.0
3740.0,2.0,0.59977424,2.0,3.0
3750.0,2.0,0.59048545,2.0,3.0
3760.0,2.0,0.58289206,2.0,3.0
3770.0,2.0,0.57512015,2.0,3.0
3780.0,2.0,0.5686144,2.0,3.0
3790.0,2.0,0.5550133,2.0,3.0
3800.0,2.0,0.5381626,2.0,3.0
3810.0,2.0,0.5158313,2.0,3.0
3820.0,2.0,0.44448504,2.0,3.0
3830.0,2.0,0.42098013,2.0,2.0
3840.0,2.0,0.41097155,2.0,2.0
3850.0,2.0,0.4088743,2.0,2.0
3860.0,2.0,0.40602654,2.0,2.0
3870.0,2.0,0.4038515,2.0,2.0
3880.0,2.0,0.40089813,2.0,2.0
3890.0,2.0,0.39864227,2.0,2.0
3900.0,2.0,0.36951447,2.0,2.0
3910.0,2.0,0.33423245,2.0,2.0
3920.0,2.0,0.3274268,2.0,2.0
3930.0,2.0,0.33971855,2.0,2.0
3940.0,2.0,0.3685995,2.0,2.0
3950.0,2.0,0.3971187,2.0,2.0
3960.0,2.0,0.43430525,2.0,3.0
3970.0,2.0,0.442533,2.0,3.0
3980.0,2.0,0.4272293,2.0,2.0
3990.0,2.0,0.39924803,2.0,2.0
4000.0,2.0,0.38666654,2.0,2.0
4010.0,2.0,0.38844773,2.0,2.0
4020.0,2.0,0.39323926,2.0,2.0
4030.0,2.0,0.39864227,2.0,2.0
4040.0,2.0,0.40370166,2.0,2.0
4050.0,2.0,0.40801835,2.0,2.0
4060.0,2.0,0.41166338,2.0,2.0
4070.0,2.0,0.41625836,2.0,2.0
4080.0,2.0,0.42083248,2.0,2.0
4090.0,2.0,0.41220263,2.0,2.0
4100.0,2.0,0.4038515,2.0,2.0
4110.0,2.0,0.4087248,2.0,2.0
4120.0,2.0,0.42524227,2.0,2.0
4130.0,2.0,0.44133323,2.0,3.0
4140.0,2.0,0.45559192,2.0,3.0
4150.0,2.0,0.5055422,2.0,3.0
4160.0,2.0,0.5353728,2.0,3.0
4170.0,2.0,0.5512308,2.0,3.0
4180.0,2.0,0.5674777,2.0,3.0
4190.0,2.0,0.57677984,2.0,3.0
4200.0,2.0,0.5835879,2.0,3.0
4210.0,2.0,0.5957978,2.0,3.0
4220.0,2.0,0.6084489,2.0,3.0
4230.0,2.0,0.62239456,2.0,3.0
4240.0,2.0,0.6334595,2.0,3.0
4250.0,3.0,0.62803745,2.0,3.0
4260.0,3.0,0.59749806,2.0,3.0
4270.0,3.0,0.57396036,2.0,3.0
4280.0,3.0,0.5523034,2.0,3.0
4290.0,2.0,0.5193044,2.0,3.0
4300.0,2.0,0.5054689,2.0,3.0
4310.0,2.0,0.5214748,2.0,3.0
4320.0,2.0,0.53089494,2.0,3.0
4330.0,2.0,0.50833064,2.0,3.0
4340.0,2.0,0.49619573,2.0,3.0
4350.0,2.0,0.49135178,2.0,3.0
4360.0,2.0,0.48692086,2.0,3.0
4370.0,2.0,0.4865953,2.0,3.0
4380.0,2.0,0.48412293,2.0,3.0
4390.0,2.0,0.47951815,2.0,3.0
4400.0,2.0,0.4750411,2.0,3.0
4410.0,2.0,0.45693657,2.0,3.0
4420.0,2.0,0.42708313,2.0,2.0
4430.0,2.0,0.4150691,2.0,2.0
4440.0,2.0,0.41823918,2.0,2.0
4450.0,2.0,0.40942767,2.0,2.0
4460.0,2.0,0.3783969,2.0,2.0
4470.0,2.0,0.34186783,2.0,2.0
4480.0,2.0,0.32972312,2.0,2.0
4490.0,2.0,0.35210088,2.0,2.0
4500.0,2.0,0.35224712,2.0,2.0
4510.0,2.0,0.33408985,2.0,2.0
4520.0,2.0,0.3079734,2.0,2.0
4530.0,2.0,0.2618914,2.0,2.0
4540.0,2.0,0.17058723,2.0,2.0
4550.0,2.0,0.054717317,2.0,2.0
4560.0,2.0,0.0,2.0,2.0
4570.0,2.0,0.0,2.0,2.0
4580.0,2.0,0.14990331,2.0,2.0
4590.0,2.0,0.19595918,2.0,2.0
4600.0,2.0,0.20740296,2.0,2.0
4610.0,2.0,0.2393303,2.0,2.0
4620.0,2.0,0.30013338,2.0,2.0
4630.0,2.0,0.34919587,2.0,2.0
4640.0,2.0,0.38082016,2.0,2.0
4650.0,2.0,0.3902081,2.0,2.0
4660.0,2.0,0.4165333,2.0,2.0
4670.0,2.0,0.4275411,2.0,2.0
4680.0,2.0,0.43615475,2.0,2.0
4690.0,2.0,0.45874178,2.0,2.0
4700.0,2.0,0.49439967,2.0,2.0
4710.0,2.0,0.49416494,2.0,2.0
4720.0,2.0,0.49229103,2.0,2.0
4730.0,2.0,0.56336045,2.0,2.0
4740.0,2.0,0.6449527,2.0,2.0
4750.0,2.0,0.696135,2.0,3.0
4760.0,2.0,0.7211711,2.0,3.0
4770.0,2.0,0.73699325,2.0,3.0
4780.0,2.0,0.7312448,2.0,3.0
4790.0,3.0,0.7141341,2.0,3.0
4800.0,3.0,0.6927737,2.0,3.0
4810.0,2.0,0.66699725,2.0,3.0
4820.0,2.0,0.6678136,2.0,3.0
4830.0,2.0,0.67511183,2.0,3.0
4840.0,2.0,0.67138594,2.0,3.0
4850.0,2.0,0.65071577,2.0,3.0
4860.0,2.0,0.55585515,2.0,3.0
4870.0,2.0,0.3923009,2.0,2.0
4880.0,2.0,0.39150858,2.0,2.0
4890.0,2.0,0.3658244,2.0,2.0
4900.0,2.0,0.36567608,2.0,2.0
4910.0,2.0,0.36567608,2.0,2.0
4920.0,2.0,0.36567608,2.0,2.0
4930.0,2.0,0.39308903,2.0,2.0
4940.0,2.0,0.39696848,2.0,2.0
4950.0,2.0,0.41573972,2.0,2.0
4960.0,2.0,0.41356865,2.0,2.0
4970.0,2.0,0.39308903,2.0,2.0
4980.0,2.0,0.40370166,2.0,2.0
4990.0,2.0,0.40942767,2.0,2.0
5000.0,2.0,0.41625834,2.0,2.0
5010.0,2.0,0.41640678,2.0,2.0
5020.0,2.0,0.43863425,2.0,3.0
5030.0,2.0,0.466089,2.0,3.0
5040.0,2.0,0.4797072,2.0,3.0
5050.0,2.0,0.4629028,2.0,3.0
5060.0,2.0,0.4440994,2.0,3.0
5070.0,2.0,0.42033702,2.0,2.0
5080.0,2.0,0.42829433,2.0,2.0
5090.0,2.0,0.44997334,2.0,3.0
5100.0,2.0,0.45188937,2.0,3.0
5110.0,2.0,0.46530744,2.0,3.0
5120.0,2.0,0.4656995,2.0,3.0
5130.0,2.0,0.47707966,2.0,3.0
5140.0,2.0,0.47665393,2.0,3.0
5150.0,2.0,0.4769696,2.0,3.0
5160.0,2.0,0.47911477,2.0,3.0
5170.0,2.0,0.489276,2.0,3.0
5180.0,2.0,0.49759325,2.0,3.0
5190.0,2.0,0.49999976,2.0,3.0
5200.0,3.0,0.49814752,2.0,3.0
5210.0,3.0,0.495757,2.0,3.0
5220.0,3.0,0.49535444,2.0,3.0
5230.0,3.0,0.49507573,2.0,3.0
5240.0,3.0,0.49464226,2.0,3.0
5250.0,3.0,0.4951364,2.0,3.0
5260.0,3.0,0.4990381,2.0,3.0
5270.0,3.0,0.4997109,2.0,3.0
5280.0,3.0,0.49959987,2.0,3.0
5290.0,3.0,0.49947077,2.0,3.0
5300.0,3.0,0.49937463,2.0,3.0
5310.0,3.0,0.4991855,2.0,3.0
5320.0,3.0,0.49685407,2.0,3.0
5330.0,3.0,0.48841685,2.0,3.0
5340.0,3.0,0.4624932,2.0,3.0
5350.0,3.0,0.43416128,2.0,3.0
5360.0,3.0,0.42462218,3.0,3.0
5370.0,3.0,0.42288944,3.0,3.0
5380.0,3.0,0.42098013,3.0,3.0
5390.0,3.0,0.41954258,3.0,3.0
5400.0,3.0,0.41823918,3.0,3.0
5410.0,3.0,0.41625836,3.0,3.0
5420.0,3.0,0.4142463,3.0,3.0
5430.0,3.0,0.41235167,3.0,3.0
5440.0,3.0,0.40730822,3.0,3.0
5450.0,3.0,0.38501817,3.0,3.0
5460.0,3.0,0.38251275,3.0,3.0
5470.0,3.0,0.3799671,3.0,3.0
5480.0,3.0,0.37824726,3.0,3.0
5490.0,3.0,0.3749013,3.0,3.0
5500.0,3.0,0.37297586,3.0,3.0
5510.0,3.0,0.37118053,3.0,3.0
5520.0,3.0,0.36845082,3.0,3.0
5530.0,3.0,0.37297586,3.0,3.0
5540.0,3.0,0.40370166,3.0,3.0
5550.0,3.0,0.37132955,3.0,3.0
5560.0,3.0,0.39696848,3.0,3.0
5570.0,3.0,0.3899115,3.0,3.0
5580.0,3.0,0.37312508,3.0,3.0
5590.0,3.0,0.3756328,3.0,3.0
5600.0,3.0,0.37650895,3.0,3.0
5610.0,3.0,0.37752998,3.0,3.0
5620.0,3.0,0.37910944,3.0,3.0
5630.0,3.0,0.3808202,3.0,3.0
5640.0,3.0,0.38166872,3.0,3.0
5650.0,3.0,0.38266265,3.0,3.0
5660.0,3.0,0.40942764,3.0,3.0
5670.0,3.0,0.42949274,3.0,3.0
5680.0,3.0,0.4296382,3.0,3.0
5690.0,3.0,0.41097155,3.0,3.0
5700.0,3.0,0.41220263,3.0,3.0
5710.0,3.0,0.41356865,3.0,3.0
5720.0,3.0,0.41371748,3.0,3.0
5730.0,3.0,0.41559112,3.0,3.0
5740.0,3.0,0.41625836,3.0,3.0
5750.0,3.0,0.41640678,3.0,3.0
5760.0,3.0,0.41823918,3.0,3.0
5770.0,3.0,0.4188926,3.0,3.0
5780.0,3.0,0.42018923,3.0,3.0
5790.0,3.0,0.420337,3.0,3.0
5800.0,3.0,0.42210898,3.0,3.0
5810.0,3.0,0.42274225,3.0,3.0
5820.0,3.0,0.42351925,3.0,3.0
5830.0,3.0,0.42462218,3.0,3.0
5840.0,3.0,0.4515502,2.0,3.0
5850.0,3.0,0.45912528,2.0,3.0
5860.0,3.0,0.4622089,2.0,3.0
5870.0,3.0,0.47233886,2.0,3.0
5880.0,3.0,0.47268486,2.0,3.0
5890.0,3.0,0.48263404,2.0,3.0
5900.0,3.0,0.48307243,2.0,3.0
5910.0,3.0,0.48360214,2.0,3.0
5920.0,3.0,0.4838636,2.0,3.0
5930.0,3.0,0.4842197,2.0,3.0
5940.0,3.0,0.48463488,2.0,3.0
5950.0,3.0,0.48513815,2.0,3.0
5960.0,3.0,0.48523256,2.0,3.0
5970.0,3.0,0.49050078,2.0,3.0
5980.0,3.0,0.49696583,2.0,3.0
5990.0,3.0,0.49712372,2.0,3.0
6000.0,3.0,0.49953663,2.0,3.0
6010.0,3.0,0.49963886,2.0,3.0
6020.0,3.0,0.4996759,2.0,3.0
6030.0,3.0,0.4997271,2.0,3.0
6040.0,3.0,0.499775,2.0,3.0
6050.0,3.0,0.499831,2.0,3.0
6060.0,3.0,0.499856,2.0,3.0
6070.0,3.0,0.4998895,2.0,3.0
6080.0,3.0,0.49991903,2.0,3.0
6090.0,3.0,0.49995103,2.0,3.0
6100.0,3.0,0.49995768,2.0,3.0
6110.0,3.0,0.49999103,2.0,3.0
6120.0,2.0,0.53637296,2.0,3.0
6130.0,2.0,0.60758865,2.0,3.0
6140.0,2.0,0.6076019,2.0,3.0
6150.0,2.0,0.5827546,2.0,3.0
6160.0,2.0,0.4988427,2.0,3.0
6170.0,2.0,0.49870232,2.0,3.0
6180.0,2.0,0.49996966,2.0,3.0
6190.0,2.0,0.49993595,2.0,3.0
6200.0,2.0,0.5656634,2.0,3.0
6210.0,3.0,0.6730941,2.0,3.0
6220.0,3.0,0.75312614,2.0,3.0
6230.0,3.0,0.75496686,2.0,3.0
6240.0,3.0,0.7558776,2.0,3.0
6250.0,3.0,0.75687325,2.0,3.0
6260.0,3.0,0.75857174,2.0,3.0
6270.0,3.0,0.76033616,2.0,3.0
6280.0,3.0,0.7604235,2.0,3.0
6290.0,3.0,0.76293576,2.0,3.0
6300.0,3.0,0.7630202,2.0,3.0
6310.0,3.0,0.76547956,2.0,3.0
6320.0,3.0,0.765561,2.0,3.0
6330.0,3.0,0.7679681,2.0,3.0
6340.0,3.0,0.7687854,2.0,3.0
6350.0,2.0,0.76436895,2.0,3.0
6360.0,2.0,0.7625709,2.0,3.0
6370.0,2.0,0.765011,2.0,3.0
6380.0,2.0,0.7673964,2.0,3.0
6390.0,2.0,0.75489676,2.0,3.0
6400.0,2.0,0.7293335,2.0,3.0
6410.0,2.0,0.7316872,2.0,3.0
6420.0,2.0,0.74340886,2.0,3.0
6430.0,2.0,0.7683829,2.0,3.0
6440.0,2.0,0.76770055,2.0,3.0
6450.0,2.0,0.7644162,2.0,3.0
6460.0,2.0,0.76412255,2.0,3.0
6470.0,2.0,0.76323295,2.0,3.0
6480.0,2.0,0.7623304,2.0,3.0
6490.0,2.0,0.7614151,2.0,3.0
6500.0,2.0,0.75634485,2.0,3.0
6510.0,2.0,0.49827132,2.0,3.0
6520.0,2.0,0.49835372,2.0,3.0
6530.0,2.0,0.494851,2.0,3.0
6540.0,2.0,0.4949947,2.0,3.0
6550.0,2.0,0.49493337,2.0,3.0
6560.0,2.0,0.4951364,2.0,3.0
6570.0,2.0,0.4951364,2.0,3.0
6580.0,2.0,0.4951364,2.0,3.0
6590.0,2.0,0.49527606,2.0,3.0
6600.0,2.0,0.49527606,2.0,3.0
6610.0,2.0,0.4954136,2.0,3.0
6620.0,2.0,0.49995768,2.0,3.0
6630.0,2.0,0.499964,2.0,3.0
6640.0,2.0,0.49996966,2.0,3.0
6650.0,3.0,0.49934804,2.0,3.0
6660.0,3.0,0.4992958,2.0,3.0
6670.0,3.0,0.4992958,2.0,3.0
6680.0,3.0,0.49667606,2.0,3.0
6690.0,3.0,0.49655905,2.0,3.0
6700.0,3.0,0.49655905,2.0,3.0
6710.0,3.0,0.49190825,2.0,3.0
6720.0,3.0,0.49183333,2.0,3.0
6730.0,3.0,0.48783785,2.0,3.0
6740.0,3.0,0.45481592,2.0,3.0
6750.0,3.0,0.45435748,2.0,3.0
6760.0,3.0,0.41640678,3.0,3.0
6770.0,3.0,0.41640678,3.0,3.0
6780.0,3.0,0.41640678,3.0,3.0
6790.0,3.0,0.4157397,3.0,3.0
6800.0,3.0,0.41625836,3.0,3.0
6810.0,3.0,0.4150691,3.0,3.0
6820.0,3.0,0.39245117,3.0,3.0
6830.0,3.0,0.39245117,3.0,3.0
6840.0,3.0,0.39245117,3.0,3.0
6850.0,3.0,0.3916588,3.0,3.0
6860.0,3.0,0.3916588,3.0,3.0
6870.0,3.0,0.39086238,3.0,3.0
6880.0,3.0,0.36394885,3.0,3.0
6890.0,3.0,0.36474103,3.0,3.0
6900.0,3.0,0.3630033,3.0,3.0
6910.0,3.0,0.2456701,3.0,3.0
6920.0,3.0,0.24456495,3.0,3.0
6930.0,3.0,0.24456495,3.0,3.0
6940.0,3.0,0.24456495,3.0,3.0
6950.0,3.0,0.24286251,3.0,3.0
6960.0,3.0,0.24286251,3.0,3.0
6970.0,3.0,0.24468057,3.0,3.0
6980.0,3.0,0.24114078,3.0,3.0
6990.0,3.0,0.24114078,3.0,3.0
7000.0,3.0,0.23939931,3.0,3.0
7010.0,3.0,0.23939931,3.0,3.0
7020.0,3.0,0.23951328,3.0,3.0
7030.0,3.0,0.23763768,3.0,3.0
7040.0,3.0,0.23763768,3.0,3.0
7050.0,3.0,0.23585543,3.0,3.0
7060.0,3.0,0.2885308,3.0,3.0
7070.0,3.0,0.28575778,3.0,3.0
7080.0,3.0,0.28588918,3.0,3.0
7090.0,3.0,0.28588918,3.0,3.0
7100.0,3.0,0.32997063,3.0,3.0
7110.0,3.0,0.4303526,3.0,3.0
7120.0,3.0,0.4306421,3.0,3.0
7130.0,3.0,0.48694128,3.0,3.0
7140.0,3.0,0.52672845,3.0,3.0
7150.0,3.0,0.5273618,3.0,3.0
7160.0,3.0,0.5174587,3.0,3.0
7170.0,3.0,0.424102,3.0,3.0
7180.0,3.0,0.38530996,3.0,3.0
7190.0,3.0,0.40530533,3.0,3.0
7200.0,3.0,0.40530533,3.0,3.0
7210.0,3.0,0.4045803,3.0,3.0
7220.0,3.0,0.42538893,3.0,3.0
7230.0,3.0,0.42524227,3.0,3.0
7240.0,3.0,0.42476895,3.0,3.0
7250.0,3.0,0.42414576,3.0,3.0
7260.0,3.0,0.42414576,3.0,3.0
7270.0,3.0,0.42414576,3.0,3.0
7280.0,3.0,0.45617536,2.0,3.0
7290.0,3.0,0.4688683,2.0,3.0
7300.0,3.0,0.4688683,2.0,3.0
7310.0,3.0,0.47911477,2.0,3.0
7320.0,3.0,0.4869209,2.0,3.0
7330.0,3.0,0.48715335,2.0,3.0
7340.0,3.0,0.48668623,2.0,3.0
7350.0,3.0,0.4929643,2.0,3.0
7360.0,3.0,0.4927935,2.0,3.0
7370.0,3.0,0.4994925,2.0,3.0
7380.0,2.0,0.4999436,2.0,3.0
7390.0,2.0,0.4999436,2.0,3.0
7400.0,2.0,0.49847674,2.0,3.0
7410.0,2.0,0.4954136,2.0,3.0
7420.0,2.0,0.4954136,2.0,3.0
7430.0,2.0,0.49858895,2.0,3.0
7440.0,2.0,0.4999797,2.0,3.0
7450.0,2.0,0.49996966,2.0,3.0
7460.0,3.0,0.4992958,2.0,3.0
7470.0,3.0,0.49226862,2.0,3.0
7480.0,3.0,0.4920895,2.0,3.0
7490.0,3.0,0.4856326,2.0,3.0
7500.0,3.0,0.4854803,2.0,3.0
7510.0,3.0,0.48523256,2.0,3.0
7520.0,3.0,0.48523256,2.0,3.0
7530.0,3.0,0.47644702,2.0,3.0
7540.0,3.0,0.4761273,2.0,3.0
7550.0,3.0,0.4761273,2.0,3.0
7560.0,3.0,0.4761273,2.0,3.0
7570.0,3.0,0.48488757,2.0,3.0
7580.0,3.0,0.48473054,2.0,3.0
7590.0,3.0,0.4844762,2.0,3.0
7600.0,3.0,0.4844762,2.0,3.0
7610.0,3.0,0.4842197,2.0,3.0
7620.0,3.0,0.4842197,2.0,3.0
7630.0,3.0,0.475154,2.0,3.0
7640.0,3.0,0.47482494,2.0,3.0
7650.0,3.0,0.47482494,2.0,3.0
7660.0,3.0,0.4750411,2.0,3.0
7670.0,3.0,0.47449347,2.0,3.0
7680.0,3.0,0.47449347,2.0,3.0
7690.0,3.0,0.48343685,2.0,3.0
7700.0,3.0,0.48343685,2.0,3.0
7710.0,3.0,0.48343685,2.0,3.0
7720.0,3.0,0.48317143,2.0,3.0
7730.0,3.0,0.48317143,2.0,3.0
7740.0,3.0,0.48307243,2.0,3.0
7750.0,3.0,0.48290387,2.0,3.0
7760.0,3.0,0.48290387,2.0,3.0
7770.0,3.0,0.48263404,2.0,3.0
7780.0,3.0,0.5263117,2.0,3.0
7790.0,3.0,0.5256199,2.0,3.0
7800.0,3.0,0.49866924,2.0,3.0
7810.0,3.0,0.48076603,2.0,3.0
7820.0,3.0,0.4923251,2.0,3.0
7830.0,3.0,0.5002101,2.0,3.0
7840.0,3.0,0.47541144,2.0,3.0
7850.0,3.0,0.43940634,2.0,3.0
7860.0,3.0,0.46040606,2.0,3.0
7870.0,3.0,0.48422205,2.0,3.0
7880.0,3.0,0.46988013,2.0,3.0
7890.0,3.0,0.43474016,3.0,3.0
7900.0,3.0,0.420376,3.0,3.0
7910.0,3.0,0.42212674,3.0,3.0
7920.0,3.0,0.41582888,3.0,3.0
7930.0,3.0,0.38666654,3.0,3.0
7940.0,3.0,0.38829756,3.0,3.0
7950.0,3.0,0.39549464,3.0,3.0
7960.0,3.0,0.47862715,3.0,3.0
7970.0,3.0,0.61146057,3.0,3.0
7980.0,3.0,0.6957612,3.0,3.0
7990.0,3.0,0.6939471,3.0,3.0
8000.0,3.0,0.62607914,3.0,4.0
8010.0,3.0,0.5852316,3.0,4.0
8020.0,3.0,0.59080774,3.0,4.0
8030.0,3.0,0.58106714,3.0,4.0
8040.0,3.0,0.5813119,3.0,4.0
8050.0,3.0,0.5982633,3.0,4.0
8060.0,3.0,0.6170779,3.0,4.0
8070.0,3.0,0.5773863,3.0,4.0
8080.0,3.0,0.58465314,3.0,4.0
8090.0,3.0,0.6390336,3.0,4.0
8100.0,3.0,0.63801545,3.0,4.0
8110.0,3.0,0.5978553,3.0,4.0
8120.0,3.0,0.5980593,3.0,4.0
8130.0,3.0,0.6390336,3.0,4.0
8140.0,3.0,0.63928,3.0,4.0
8150.0,3.0,0.6011448,3.0,4.0
8160.0,3.0,0.54370296,3.0,4.0
8170.0,3.0,0.49427822,3.0,4.0
8180.0,3.0,0.48783785,3.0,4.0
8190.0,3.0,0.4906975,3.0,4.0
8200.0,3.0,0.4906975,3.0,4.0
8210.0,3.0,0.49116215,3.0,4.0
8220.0,3.0,0.499831,3.0,4.0
8230.0,3.0,0.5422878,3.0,4.0
8240.0,3.0,0.5590911,3.0,4.0
8250.0,3.0,0.5463338,3.0,4.0
8260.0,3.0,0.5489909,3.0,4.0
8270.0,3.0,0.5592434,3.0,4.0
8280.0,3.0,0.56186575,3.0,4.0
8290.0,3.0,0.5511435,3.0,4.0
8300.0,3.0,0.5449541,3.0,4.0
8310.0,3.0,0.5545473,3.0,4.0
8320.0,3.0,0.5651517,3.0,4.0
8330.0,3.0,0.58802634,3.0,4.0
8340.0,3.0,0.60942465,3.0,4.0
8350.0,3.0,0.60412544,3.0,4.0
8360.0,3.0,0.5886771,3.0,4.0
8370.0,3.0,0.5924053,3.0,4.0
8380.0,3.0,0.6028636,3.0,4.0
8390.0,3.0,0.60236645,3.0,4.0
8400.0,3.0,0.5924314,3.0,4.0
8410.0,3.0,0.58551794,3.0,4.0
8420.0,3.0,0.59798896,3.0,4.0
8430.0,3.0,0.6101729,3.0,4.0
8440.0,3.0,0.62957317,3.0,4.0
8450.0,4.0,0.649618,3.0,4.0
8460.0,4.0,0.6405202,3.0,4.0
8470.0,4.0,0.6274903,3.0,4.0
8480.0,4.0,0.62778485,3.0,4.0
8490.0,4.0,0.64336884,3.0,4.0
8500.0,4.0,0.6648241,3.0,4.0
8510.0,3.0,0.67794454,3.0,4.0
8520.0,3.0,0.6816545,3.0,4.0
8530.0,3.0,0.6673261,3.0,4.0
8540.0,4.0,0.6942979,3.0,4.0
8550.0,3.0,0.66766393,3.0,4.0
8560.0,3.0,0.68580335,3.0,4.0
8570.0,3.0,0.6928677,3.0,4.0
8580.0,3.0,0.68000317,3.0,4.0
8590.0,3.0,0.6358294,3.0,4.0
8600.0,4.0,0.6101937,3.0,4.0
8610.0,4.0,0.60259426,3.0,4.0
8620.0,4.0,0.6016974,3.0,4.0
8630.0,4.0,0.6291576,3.0,4.0
8640.0,4.0,0.6310738,3.0,4.0
8650.0,4.0,0.62335926,3.0,4.0
8660.0,4.0,0.6160487,3.0,4.0
8670.0,4.0,0.64336884,3.0,4.0
8680.0,4.0,0.65281683,3.0,4.0
8690.0,4.0,0.642783,3.0,4.0
8700.0,4.0,0.3417236,4.0,4.0
8710.0,4.0,0.5888625,4.0,4.0
8720.0,4.0,0.60725945,4.0,4.0
8730.0,4.0,0.68384266,4.0,5.0
8740.0,4.0,0.6843274,4.0,5.0
8750.0,4.0,0.68349975,4.0,5.0
8760.0,4.0,0.7177736,4.0,5.0
8770.0,4.0,0.8118861,4.0,5.0
8780.0,4.0,0.80935246,4.0,5.0
8790.0,5.0,0.8233536,4.0,5.0
8800.0,5.0,0.97519183,4.0,5.0
8810.0,5.0,0.9769831,4.0,5.0
8820.0,5.0,1.1733285,4.0,5.0
8830.0,5.0,1.1760527,4.0,5.0
8840.0,5.0,1.1741241,4.0,5.0
8850.0,5.0,1.2274387,4.0,5.0
8860.0,5.0,1.3000124,3.0,5.0
8870.0,5.0,1.3008108,3.0,5.0
8880.0,5.0,1.3489103,3.0,6.0
8890.0,5.0,1.4150423,3.0,6.0
8900.0,5.0,1.4150423,3.0,6.0
8910.0,5.0,1.4365785,3.0,6.0
8920.0,5.0,1.4146372,3.0,6.0
8930.0,5.0,1.4146372,3.0,6.0
8940.0,5.0,1.3963724,3.0,6.0
8950.0,5.0,1.4584097,3.0,6.0
8960.0,5.0,1.4590276,3.0,6.0
8970.0,5.0,1.4370021,3.0,6.0
8980.0,5.0,1.4688939,3.0,5.0
8990.0,5.0,1.4688939,3.0,5.0
9000.0,5.0,1.4389145,3.0,5.0
9010.0,5.0,1.4432366,3.0,5.0
9020.0,5.0,1.4433928,3.0,5.0
9030.0,4.0,1.3740801,3.0,5.0
9040.0,4.0,1.1533957,3.0,5.0
9050.0,4.0,1.1529585,3.0,5.0
9060.0,4.0,1.1533957,3.0,5.0
9070.0,4.0,1.1785706,3.0,5.0
9080.0,4.0,1.179566,3.0,5.0
9090.0,4.0,1.1641301,3.0,5.0
9100.0,4.0,1.1974198,3.0,5.0
9110.0,4.0,1.2684474,3.0,5.0
9120.0,4.0,1.2683066,3.0,5.0
9130.0,4.0,1.1675929,3.0,5.0
9140.0,4.0,1.1682785,3.0,5.0
9150.0,4.0,1.1694769,3.0,5.0
9160.0,4.0,1.1587865,3.0,4.0
9170.0,4.0,1.2139649,3.0,4.0
9180.0,4.0,1.2120267,3.0,4.0
9190.0,4.0,1.0001875,2.0,4.0
9200.0,4.0,1.0001875,2.0,4.0
9210.0,4.0,0.9983167,2.0,4.0
9220.0,3.0,0.9899369,2.0,4.0
9230.0,3.0,0.98976886,2.0,4.0
9240.0,3.0,0.9915967,2.0,4.0
9250.0,3.0,0.9803082,2.0,4.0
9260.0,3.0,0.92494226,2.0,4.0
9270.0,3.0,0.92564076,2.0,4.0
9280.0,3.0,0.9131402,2.0,4.0
9290.0,3.0,0.9332604,3.0,4.0
9300.0,3.0,0.9332604,3.0,4.0
9310.0,3.0,0.93725073,3.0,4.0
9320.0,3.0,0.9388504,2.0,4.0
9330.0,3.0,0.94055253,2.0,4.0
9340.0,3.0,0.9061738,2.0,4.0
9350.0,3.0,0.8337227,2.0,4.0
9360.0,3.0,0.8342742,2.0,4.0
9370.0,3.0,0.8169303,2.0,3.0
9380.0,3.0,0.8169303,2.0,3.0
9390.0,3.0,0.8169303,2.0,3.0
9400.0,3.0,0.7877236,2.0,3.0
9410.0,3.0,0.6751542,2.0,3.0
9420.0,3.0,0.67682797,2.0,3.0
9430.0,3.0,0.67556715,2.0,3.0
9440.0,3.0,0.6341103,2.0,3.0
9450.0,3.0,0.63585454,2.0,3.0
9460.0,3.0,0.63429666,2.0,3.0
9470.0,3.0,0.6360377,2.0,3.0
9480.0,3.0,0.63778913,2.0,3.0
9490.0,3.0,0.6399959,2.0,3.0
9500.0,3.0,0.58380073,2.0,3.0
9510.0,3.0,0.585761,2.0,3.0
9520.0,3.0,0.59121567,2.0,3.0
9530.0,3.0,0.58936095,2.0,3.0
9540.0,3.0,0.593059,2.0,3.0
9550.0,3.0,0.5913705,2.0,3.0
9560.0,3.0,0.59699243,2.0,3.0
9570.0,3.0,0.6489676,2.0,3.0
9580.0,3.0,0.64748603,2.0,3.0
9590.0,3.0,0.6468384,2.0,3.0
9600.0,3.0,0.529871,2.0,3.0
9610.0,3.0,0.53419006,2.0,3.0
9620.0,3.0,0.53419006,2.0,3.0
9630.0,3.0,0.4783172,2.0,3.0
9640.0,3.0,0.4783172,2.0,3.0
9650.0,3.0,0.47851333,2.0,3.0
9660.0,3.0,0.47851333,2.0,3.0
9670.0,3.0,0.47801125,2.0,3.0
9680.0,3.0,0.4782092,2.0,3.0
9690.0,3.0,0.47801125,2.0,3.0
9700.0,3.0,0.47801125,2.0,3.0
9710.0,3.0,0.47801125,2.0,3.0
9720.0,3.0,0.4783172,2.0,3.0
9730.0,3.0,0.47851333,2.0,3.0
9740.0,3.0,0.4783172,2.0,3.0
9750.0,3.0,0.47801125,2.0,3.0
9760.0,3.0,0.47801125,2.0,3.0
9770.0,3.0,0.4927935,2.0,3.0
9780.0,3.0,0.62566483,2.0,3.0
9790.0,3.0,0.6257507,2.0,3.0
9800.0,3.0,0.62542063,2.0,3.0
9810.0,3.0,0.6627594,2.0,3.0
9820.0,3.0,0.66283935,2.0,3.0
9830.0,3.0,0.6627594,2.0,3.0
9840.0,3.0,0.6627594,2.0,3.0
9850.0,3.0,0.6627594,2.0,3.0
9860.0,3.0,0.67312986,2.0,3.0
9870.0,3.0,0.708034,2.0,3.0
9880.0,3.0,0.7080649,2.0,3.0
9890.0,3.0,0.708034,2.0,3.0
9900.0,3.0,0.708034,2.0,3.0
9910.0,3.0,0.7069562,2.0,3.0
9920.0,3.0,0.7069562,2.0,3.0
9930.0,3.0,0.70698726,2.0,3.0
9940.0,3.0,0.70769566,2.0,3.0
9950.0,3.0,0.7080649,2.0,3.0
9960.0,3.0,0.74002635,2.0,3.0
9970.0,3.0,0.73900723,2.0,3.0
9980.0,3.0,0.73900723,2.0,3.0
9990.0,3.0,0.73900723,2.0,3.0
10000.0,3.0,0.73900723,2.0,3.0
10010.0,3.0,0.73900723,2.0,3.0
10020.0,3.0,0.74002635,2.0,3.0
10030.0,3.0,0.7399964,2.0,3.0
10040.0,3.0,0.74002635,2.0,3.0
10050.0,3.0,0.74002635,2.0,3.0
10060.0,3.0,0.73900723,2.0,3.0
10070.0,3.0,0.7390372,2.0,3.0
10080.0,3.0,0.7269721,2.0,3.0
10090.0,3.0,0.72704816,2.0,3.0
10100.0,3.0,0.72801095,2.0,3.0
10110.0,3.0,0.69907147,2.0,3.0
10120.0,3.0,0.69959015,2.0,3.0
10130.0,3.0,0.69959015,2.0,3.0
10140.0,3.0,0.68175447,2.0,3.0
10150.0,3.0,0.68175447,2.0,3.0
10160.0,3.0,0.68199635,2.0,3.0
10170.0,3.0,0.7082137,2.0,3.0
10180.0,3.0,0.7326602,2.0,3.0
10190.0,3.0,0.7326602,2.0,3.0
10200.0,3.0,0.7082137,2.0,3.0
10210.0,3.0,0.7082137,2.0,3.0
10220.0,3.0,0.70846033,2.0,3.0
10230.0,3.0,0.70846033,2.0,3.0
10240.0,3.0,0.68199635,2.0,3.0
10250.0,3.0,0.68175447,2.0,3.0
10260.0,3.0,0.68175447,2.0,3.0
10270.0,3.0,0.682888,2.0,3.0
10280.0,3.0,0.682888,2.0,3.0
10290.0,3.0,0.682646,2.0,3.0
10300.0,3.0,0.7084604,2.0,3.0
10310.0,3.0,0.7082137,2.0,3.0
10320.0,3.0,0.7084604,2.0,3.0
10330.0,3.0,0.7326602,2.0,3.0
10340.0,3.0,0.7324059,2.0,3.0
10350.0,3.0,0.72353196,2.0,3.0
10360.0,3.0,0.6805998,3.0,3.0
10370.0,3.0,0.6799051,3.0,3.0
10380.0,3.0,0.6801623,3.0,3.0
10390.0,3.0,0.7004541,3.0,4.0
10400.0,3.0,0.7006334,3.0,4.0
10410.0,3.0,0.7018803,3.0,4.0
10420.0,3.0,0.7018803,3.0,4.0
10430.0,3.0,0.70143247,3.0,4.0
10440.0,3.0,0.7018803,3.0,4.0
10450.0,3.0,0.7200071,3.0,4.0
10460.0,3.0,0.71943635,3.0,4.0
10470.0,3.0,0.71943635,3.0,4.0
10480.0,3.0,0.7362933,3.0,4.0
10490.0,3.0,0.76134795,3.0,4.0
10500.0,3.0,0.7617454,2.75,4.0
10510.0,3.0,0.7617454,2.75,4.0
10520.0,3.0,0.7621214,2.5,4.0
10530.0,3.0,0.763057,2.0,4.0
10540.0,3.0,0.7621214,2.5,4.0
10550.0,3.0,0.74510926,2.5,4.0
10560.0,3.0,0.7445146,2.5,4.0
10570.0,3.0,0.7445146,2.5,4.0
10580.0,3.0,0.74489194,2.0,4.0
10590.0,3.0,0.7445146,2.5,4.0
10600.0,3.0,0.7628928,2.0,4.0
10610.0,3.0,0.7628928,2.0,4.0
10620.0,3.0,0.7628928,2.0,4.0
10630.0,3.0,0.7265337,2.0,4.0
10640.0,3.0,0.7268941,2.0,4.0
10650.0,3.0,0.7262397,2.0,4.0
10660.0,3.0,0.732332,2.0,4.0
10670.0,3.0,0.71272993,2.0,4.0
10680.0,3.0,0.7130866,2.0,4.0
10690.0,3.0,0.7845192,2.0,4.0
10700.0,3.0,0.78404254,2.0,4.0
10710.0,3.0,0.78404254,2.0,4.0
10720.0,3.0,0.8064056,2.0,4.0
10730.0,4.0,0.86861736,2.0,4.0
10740.0,4.0,0.8681536,2.0,4.0
10750.0,4.0,0.86786383,2.0,4.0
10760.0,4.0,0.86786383,2.0,4.0
10770.0,4.0,0.86786383,2.0,4.0
10780.0,4.0,0.86832654,2.0,4.0
10790.0,4.0,0.86872584,2.0,4.0
10800.0,4.0,0.8691858,2.0,4.0
10810.0,4.0,0.8691858,2.0,4.0
10820.0,4.0,0.86872584,2.0,4.0
10830.0,4.0,0.86872584,2.0,4.0
10840.0,4.0,0.868434,2.0,4.0
10850.0,4.0,0.868434,2.0,4.0
10860.0,4.0,0.868434,2.0,4.0
10870.0,4.0,0.86974937,2.0,4.0
10880.0,4.0,0.9217811,2.0,4.0
10890.0,4.0,0.9222126,2.0,4.0
10900.0,4.0,0.9222126,2.0,4.0
10910.0,4.0,0.9601327,2.0,4.0
10920.0,4.0,0.96035355,2.0,4.0
10930.0,4.0,0.9599375,2.0,4.0
10940.0,4.0,0.99751496,2.0,4.0
10950.0,4.0,0.99751496,2.0,4.0
10960.0,4.0,0.9979553,2.0,4.0
10970.0,4.0,0.9967929,2.0,4.0
10980.0,4.0,0.997196,2.0,4.0
10990.0,4.0,0.997196,2.0,4.0
11000.0,4.0,0.9967929,2.0,4.0
11010.0,4.0,1.0015488,2.0,4.0
11020.0,4.0,1.0011111,2.0,4.0
11030.0,4.0,1.0015488,2.0,4.0
11040.0,4.0,1.0024166,2.0,4.0
11050.0,4.0,1.0019815,2.0,4.0
11060.0,4.0,1.0008518,2.0,4.0
11070.0,4.0,1.0011548,2.0,4.0
11080.0,4.0,1.0011548,2.0,4.0
11090.0,4.0,0.9969353,2.0,4.0
11100.0,4.0,0.9965041,2.0,4.0
11110.0,4.0,0.9965041,2.0,4.0
11120.0,4.0,1.063681,2.0,4.0
11130.0,4.0,1.0645502,2.0,4.0
11140.0,4.0,1.0641313,2.0,4.0
11150.0,4.0,1.0644748,2.0,4.0
11160.0,4.0,1.0640572,2.0,4.0
11170.0,4.0,1.0644748,2.0,4.0
11180.0,4.0,1.063455,2.0,4.0
11190.0,4.0,1.0630373,2.0,4.0
11200.0,4.0,1.0630373,2.0,4.0
11210.0,4.0,1.0649661,2.0,4.0
11220.0,4.0,1.0956248,2.0,4.0
11230.0,4.0,1.0899976,2.0,4.0
11240.0,4.0,1.0890061,2.0,4.0
11250.0,4.0,1.2404965,2.0,5.0
11260.0,4.0,1.2404965,2.0,5.0
11270.0,4.0,1.2400025,2.0,5.0
11280.0,4.0,1.260206,2.0,5.0
11290.0,4.0,1.2602593,2.0,5.0
11300.0,4.0,1.2612174,2.0,5.0
11310.0,4.0,1.2562945,2.0,5.0
11320.0,4.0,1.2562945,2.0,5.0
11330.0,4.0,1.2562945,2.0,5.0
11340.0,4.0,1.2747545,2.0,5.0
11350.0,4.0,1.2424388,3.0,5.0
11360.0,4.0,1.2434878,2.5,5.0
11370.0,4.0,1.2434878,2.5,5.0
11380.0,4.0,1.2436928,2.75,5.0
11390.0,4.0,1.2436928,2.75,5.0
11400.0,4.0,1.2608144,2.75,5.0
11410.0,4.0,1.2525983,2.75,5.0
11420.0,4.0,1.2525983,2.75,5.0
11430.0,4.0,1.2525982,2.75,5.0
11440.0,4.0,1.1447121,3.0,5.0
11450.0,4.0,1.1447121,3.0,5.0
11460.0,4.0,1.1433537,3.0,5.0
11470.0,4.0,1.1034055,3.0,5.0
11480.0,4.0,1.1034055,3.0,5.0
11490.0,4.0,1.1034055,3.0,5.0
11500.0,4.5,0.9586862,3.0,5.0
11510.0,4.5,0.95934904,3.0,5.0
11520.0,5.0,0.96088785,3.0,5.0
11530.0,4.0,0.9050475,3.0,5.0
11540.0,4.0,0.9050475,3.0,5.0
11550.0,4.0,0.9050475,3.0,5.0
11560.0,4.0,0.8813418,3.0,5.0
11570.0,4.0,0.88213414,3.0,5.0
11580.0,4.0,0.8838272,3.0,5.0
11590.0,5.0,0.8645187,3.0,5.0
11600.0,5.0,0.8536619,3.0,5.0
11610.0,5.0,0.8535412,3.0,5.0
11620.0,5.0,0.8306744,4.0,5.0
11630.0,5.0,0.829964,4.0,5.0
11640.0,5.0,0.829964,4.0,5.0
11650.0,5.0,0.7047831,4.0,5.0
11660.0,5.0,0.559346,4.0,5.0
11670.0,5.0,0.55727375,4.0,5.0
11680.0,5.0,0.552179,4.0,5.0
11690.0,5.0,0.4817643,4.0,5.0
11700.0,5.0,0.48206383,4.0,5.0
11710.0,5.0,0.457973,4.0,5.0
11720.0,5.0,0.44229293,4.0,5.0
11730.0,5.0,0.44171935,4.0,5.0
11740.0,5.0,0.44229293,4.0,5.0
11750.0,5.0,0.0,5.0,5.0
11760.0,5.0,0.0,5.0,5.0
11770.0,5.0,0.0,5.0,5.0
11780.0,5.0,0.0,5.0,5.0
11790.0,5.0,0.0,5.0,5.0
11800.0,5.0,0.0,5.0,5.0
11810.0,5.0,0.29971057,5.0,5.0
11820.0,5.0,0.29971057,5.0,5.0
11830.0,5.0,0.30681878,5.0,5.0
11840.0,5.0,0.45844665,5.0,6.0
11850.0,5.0,0.45844665,5.0,6.0
11860.0,5.0,0.4965013,5.0,6.0
11870.0,5.0,0.4981625,5.0,6.0
11880.0,6.0,0.4861898,5.0,6.0
11890.0,6.0,0.4,6.0,6.0
11900.0,6.0,0.24707292,6.0,6.0
11910.0,6.0,0.0,6.0,6.0
11920.0,6.0,0.0,6.0,6.0
11930.0,6.0,0.0,6.0,6.0
11940.0,6.0,0.0,6.0,6.0
11950.0,6.0,0.0,6.0,6.0
11960.0,6.0,0.0,6.0,6.0
11970.0,6.0,0.0,6.0,6.0
11980.0,6.0,0.0,6.0,6.0
11990.0,6.0,0.093706295,6.0,6.0
12000.0,6.0,0.17830625,6.0,6.0
12010.0,6.0,0.17633031,6.0,6.0
12020.0,6.0,0.24702802,6.0,6.0
12030.0,6.0,0.3074526,6.0,6.0
12040.0,6.0,0.40348828,6.0,6.0
12050.0,6.0,0.4247442,6.0,6.0
12060.0,6.0,0.42570835,6.0,6.0
12070.0,6.0,0.42603692,6.0,6.0
12080.0,6.0,0.42713267,6.0,6.0
12090.0,6.0,0.4274534,6.0,6.0
12100.0,6.0,0.4285311,6.0,6.0
12110.0,6.0,0.42944932,6.0,6.0
12120.0,6.0,0.42975733,6.0,6.0
12130.0,6.0,0.43080583,6.0,6.0
12140.0,6.0,0.43169656,6.0,6.0
12150.0,6.0,0.43199247,6.0,6.0
12160.0,6.0,0.45337078,6.0,7.0
12170.0,6.0,0.47811973,6.0,7.0
12180.0,6.0,0.49346408,6.0,7.0
12190.0,6.0,0.49975926,6.0,7.0
12200.0,7.0,0.49763745,6.0,7.0
12210.0,7.0,0.4920152,6.0,7.0
12220.0,7.0,0.4895683,6.0,7.0
12230.0,7.0,0.48819667,6.0,7.0
12240.0,6.0,0.65678626,6.0,7.0
12250.0,6.0,0.6524319,6.0,7.0
12260.0,6.0,0.6390145,6.0,7.0
12270.0,6.0,0.63542104,6.0,7.0
12280.0,6.0,0.6315856,6.0,7.0
12290.0,6.0,0.6286448,6.0,7.0
12300.0,6.0,0.614035,6.0,7.0
12310.0,6.0,0.57775563,6.0,7.0
12320.0,6.0,0.5725311,6.0,7.0
12330.0,6.0,0.56868136,6.0,7.0
12340.0,6.0,0.5529665,6.0,7.0
12350.0,6.0,0.5858352,6.0,7.0
12360.0,6.0,0.5839365,6.0,7.0
12370.0,6.0,0.57668906,6.0,7.0
12380.0,6.0,0.5563098,6.0,7.0
12390.0,6.0,0.5492517,6.0,7.0
12400.0,6.0,0.60180384,6.0,7.0
12410.0,6.0,0.6124892,6.0,7.0
12420.0,7.0,0.61898077,6.0,7.0
12430.0,7.0,0.6209908,6.0,7.0
12440.0,7.0,0.6335716,6.0,7.0
12450.0,7.0,0.70051056,6.0,7.0
12460.0,7.0,0.74964994,6.0,7.0
12470.0,7.0,0.76244605,6.0,7.0
12480.0,7.0,0.7821355,6.0,7.0
12490.0,7.0,0.80357796,6.0,7.0
12500.0,7.0,0.82333297,6.0,7.0
12510.0,7.0,0.8373907,6.0,7.0
12520.0,7.0,0.850537,6.0,7.0
12530.0,7.0,0.86208117,6.0,7.0
12540.0,7.0,0.8509878,6.0,7.0
12550.0,7.0,0.8451164,6.0,7.0
12560.0,7.0,0.85506576,6.0,7.0
12570.0,7.0,0.8431151,6.0,7.0
12580.0,7.0,0.8568695,6.0,7.0
12590.0,7.0,0.8712071,6.0,7.0
12600.0,7.0,0.8095845,6.0,7.0
12610.0,7.0,0.8202539,6.0,7.0
12620.0,7.0,0.8394374,6.0,7.0
12630.0,7.0,0.854084,6.0,7.0
12640.0,7.0,0.8694764,6.0,7.0
12650.0,7.0,0.8830848,6.0,7.0
12660.0,7.0,0.8959197,6.0,7.0
12670.0,7.0,0.908641,6.0,7.0
12680.0,7.0,0.929013,6.0,7.0
12690.0,7.0,0.9251361,6.0,7.0
12700.0,7.0,0.8792206,6.0,7.0
12710.0,7.0,0.89093816,6.0,7.0
12720.0,7.0,0.8759902,6.0,7.0
12730.0,7.0,0.856194,6.0,7.0
12740.0,7.0,0.8620799,6.0,7.0
12750.0,7.0,0.87612087,6.0,7.0
12760.0,7.0,0.85926,6.0,7.0
12770.0,7.0,0.7557584,6.0,7.0
12780.0,7.0,0.6817908,6.0,7.0
12790.0,7.0,0.70884174,6.0,7.0
12800.0,7.0,0.7308358,6.0,7.0
12810.0,7.0,0.6799049,6.0,7.0
12820.0,7.0,0.6617719,6.0,7.0
12830.0,7.0,0.6685529,6.0,7.0
12840.0,7.0,0.67289,6.0,7.0
12850.0,7.0,0.6363906,6.0,7.0
12860.0,7.0,0.63397235,6.0,7.0
12870.0,7.0,0.6372042,6.0,7.0
12880.0,6.0,0.64193213,6.0,7.0
12890.0,6.0,0.84045136,6.0,7.0
12900.0,6.0,1.0012647,6.0,7.0
12910.0,6.0,0.9980956,5.0,7.0
12920.0,6.0,0.9695514,5.0,7.0
12930.0,6.0,0.9848121,5.0,7.0
12940.0,6.0,0.9957342,5.0,7.0
12950.0,6.0,1.0105361,5.0,7.0
12960.0,6.0,1.0038348,5.0,7.0
12970.0,6.0,0.9821362,5.0,7.0
12980.0,6.0,0.98129535,5.0,7.0
12990.0,6.0,1.0228419,5.0,7.0
13000.0,6.0,1.1099067,5.0,7.0
13010.0,6.0,1.1527699,5.0,7.0
13020.0,6.0,1.1554013,5.0,7.0
13030.0,6.0,1.1762097,5.0,7.0
13040.0,6.0,1.1618565,5.0,7.0
13050.0,6.0,1.111378,5.0,7.0
13060.0,6.0,1.1013709,5.0,6.0
13070.0,6.0,1.1358871,5.0,6.0
13080.0,6.0,1.1878903,5.0,6.0
13090.0,6.0,1.2319609,5.0,6.0
13100.0,6.0,1.254612,5.0,6.0
13110.0,6.0,1.2246275,5.0,6.0
13120.0,6.0,1.1805073,5.0,6.0
13130.0,6.0,1.1887436,5.0,6.0
13140.0,6.0,1.2354926,5.0,6.0
13150.0,6.0,1.2931776,5.0,6.0
13160.0,6.0,1.3433721,4.0,6.0
13170.0,6.0,1.3391188,5.0,6.0
13180.0,6.0,1.3977926,4.0,6.0
13190.0,6.0,1.3969212,4.0,6.0
13200.0,6.0,1.4005281,4.0,6.0
13210.0,6.0,1.3671225,4.0,6.0
13220.0,6.0,1.3774639,4.0,6.0
13230.0,6.0,1.3180103,4.0,6.0
13240.0,6.0,1.300769,4.0,6.0
13250.0,6.0,1.272993,4.0,6.0
13260.0,6.0,1.2945945,4.0,6.0
13270.0,6.0,1.3085427,4.0,6.0
13280.0,6.0,1.3054191,5.0,6.0
13290.0,6.0,1.3082,5.0,6.0
13300.0,6.0,1.2841833,4.0,6.0
13310.0,6.0,1.2287489,5.0,6.0
13320.0,6.0,1.2006661,5.0,6.0
13330.0,6.0,1.2390302,5.0,6.0
13340.0,6.0,1.2570245,5.0,6.0
13350.0,6.0,1.2335311,5.0,6.0
13360.0,6.0,1.1842297,5.0,6.0
13370.0,6.0,1.1718487,5.0,6.0
13380.0,6.0,1.1402526,5.0,6.0
13390.0,6.0,1.1172866,5.0,6.0
13400.0,6.0,1.1073408,5.0,6.0
13410.0,6.0,1.0762151,5.0,6.0
13420.0,6.0,1.06375,5.0,6.0
13430.0,6.0,1.0662904,5.0,6.0
13440.0,6.0,1.0671813,5.0,6.0
13450.0,6.0,1.0379796,5.0,6.0
13460.0,6.0,0.9762684,5.0,6.0
13470.0,6.0,0.98182225,5.0,6.0
13480.0,6.0,0.9866529,5.0,6.0
13490.0,6.0,0.98990244,5.0,6.0
13500.0,6.0,0.92994136,5.0,6.0
13510.0,6.0,0.87100863,5.0,6.0
13520.0,6.0,0.81707776,5.0,6.0
13530.0,6.0,0.79653895,5.0,6.0
13540.0,6.0,0.8083663,5.0,6.0
13550.0,6.0,0.81247705,5.0,6.0
13560.0,6.0,0.77004874,5.0,6.0
13570.0,6.0,0.7397946,5.0,6.0
13580.0,6.0,0.7085083,5.0,6.0
13590.0,6.0,0.71149564,5.0,6.0
13600.0,6.0,0.71824723,5.0,6.0
13610.0,6.0,0.7128927,5.0,6.0
13620.0,6.0,0.6734984,5.0,6.0
13630.0,6.0,0.6303142,5.0,6.0
13640.0,6.0,0.58081925,5.0,6.0
13650.0,6.0,0.5215784,5.0,6.0
13660.0,6.0,0.5301887,5.0,6.0
13670.0,6.0,0.5383967,5.0,6.0
13680.0,6.0,0.5309968,5.0,6.0
13690.0,6.0,0.49323863,5.0,6.0
13700.0,6.0,0.48206222,5.0,6.0
13710.0,6.0,0.46261865,5.0,6.0
13720.0,6.0,0.45163593,6.0,6.0
13730.0,6.0,0.5196528,6.0,6.0
13740.0,6.0,0.519999,5.0,6.0
13750.0,6.0,0.59729725,5.0,6.0
13760.0,6.0,0.6595373,5.0,6.0
13770.0,6.0,0.63292557,5.0,6.0
13780.0,6.0,0.6569627,5.0,6.0
13790.0,6.0,0.6690537,5.0,6.0
13800.0,6.0,0.6643727,5.0,6.0
13810.0,6.0,0.62659717,5.0,6.0
13820.0,6.0,0.63222224,5.0,6.0
13830.0,6.0,0.6587986,5.0,6.0
13840.0,6.0,0.68275625,5.0,6.0
13850.0,6.0,0.68751645,5.0,6.0
13860.0,6.0,0.67755735,5.0,6.0
13870.0,6.0,0.6673822,5.0,6.0
13880.0,6.0,0.6718156,5.0,6.0
13890.0,6.0,0.68005806,5.0,6.0
13900.0,6.0,0.647537,5.0,6.0
13910.0,6.0,0.62405324,5.0,6.0
13920.0,6.0,0.6106914,5.0,6.0
13930.0,6.0,0.63310033,5.0,6.0
13940.0,6.0,0.6564079,5.0,6.0
13950.0,6.0,0.6797528,5.0,6.0
13960.0,6.0,0.6859713,5.0,6.0
13970.0,6.0,0.6750147,5.0,6.0
13980.0,6.0,0.6636076,5.0,6.0
13990.0,6.0,0.6584831,5.0,6.0
14000.0,6.0,0.6692319,5.0,6.0
14010.0,6.0,0.65353733,5.0,6.0
14020.0,6.0,0.66703326,5.0,6.0
14030.0,6.0,0.66953635,5.0,6.0
14040.0,6.0,0.6595374,5.0,6.0
14050.0,6.0,0.6498571,5.0,6.0
14060.0,6.0,0.67332625,5.0,6.0
14070.0,6.0,0.68442124,5.0,6.0
14080.0,6.0,0.6734289,5.0,6.0
14090.0,6.0,0.66209894,5.0,6.0
14100.0,6.0,0.62243956,5.0,6.0
14110.0,6.0,0.6239458,5.0,6.0
14120.0,6.0,0.6229733,5.0,6.0
14130.0,6.0,0.6203428,5.0,6.0
14140.0,6.0,0.63117534,5.0,6.0
14150.0,6.0,0.68058205,5.0,6.0
14160.0,6.0,0.6642786,5.0,6.0
14170.0,6.0,0.6492755,5.0,6.0
14180.0,6.0,0.6682984,5.0,6.0
14190.0,6.0,0.73280793,5.0,6.0
14200.0,6.0,0.7653057,6.0,6.0
14210.0,6.0,0.79563266,6.0,6.0
14220.0,6.0,0.8582706,6.0,6.0
14230.0,6.0,0.8449278,6.0,6.0
14240.0,6.0,0.8312733,6.0,6.0
14250.0,6.0,0.8410278,6.0,6.0
14260.0,6.0,0.8543847,6.0,6.0
14270.0,6.0,0.8639051,6.0,6.0
14280.0,6.0,0.9377686,6.0,6.0
14290.0,6.0,0.98869,6.0,7.0
14300.0,6.0,0.975957,6.0,7.0
14310.0,6.0,0.94349533,6.0,6.0
14320.0,6.0,0.93235487,6.0,6.0
14330.0,6.0,0.9243007,6.0,6.0
14340.0,6.0,0.91520184,6.0,6.0
14350.0,6.0,0.9012056,6.0,6.0
14360.0,6.0,0.86041147,6.0,6.0
14370.0,6.0,0.8141086,6.0,6.0
14380.0,6.0,0.7635558,6.0,6.0
14390.0,6.0,0.722068,6.0,6.0
14400.0,6.0,0.6767151,6.0,6.0
14410.0,6.0,0.62665856,6.0,6.0
14420.0,6.0,0.61602485,6.0,6.0
14430.0,6.0,0.6091155,6.0,6.0
14440.0,6.0,0.602067,6.0,6.0
14450.0,6.0,0.59487426,6.0,6.0
14460.0,6.0,0.58753216,6.0,6.0
14470.0,6.0,0.580035,6.0,6.0
14480.0,6.0,0.6046112,6.0,6.0
14490.0,6.0,0.65252215,6.0,6.0
14500.0,6.0,0.6963572,6.0,6.0
14510.0,6.0,0.6582508,6.0,6.0
14520.0,6.0,0.6074006,6.0,6.0
14530.0,6.0,0.6083287,6.0,6.0
14540.0,6.0,0.6047819,6.0,6.0
14550.0,6.0,0.59765214,6.0,6.0
14560.0,6.0,0.59037507,6.0,6.0
14570.0,6.0,0.58294535,6.0,6.0
14580.0,6.0,0.575357,6.0,6.0
14590.0,6.0,0.56760377,6.0,6.0
14600.0,6.0,0.5596786,6.0,6.0
14610.0,6.0,0.5515743,6.0,6.0
14620.0,6.0,0.5432826,6.0,6.0
14630.0,6.0,0.53479505,6.0,6.0
14640.0,6.0,0.52610195,6.0,6.0
14650.0,6.0,0.5166562,6.0,6.0
14660.0,6.0,0.5246067,6.0,6.0
14670.0,6.0,0.51590514,6.0,6.0
14680.0,6.0,0.560934,6.0,6.0
14690.0,6.0,0.5723765,6.0,6.0
14700.0,6.0,0.5645504,6.0,6.0
14710.0,6.0,0.56299883,6.0,6.0
14720.0,6.0,0.46483105,6.0,6.0
14730.0,6.0,0.49164116,6.0,6.0
14740.0,6.0,0.47412166,5.0,6.0
14750.0,6.0,0.4504527,5.0,6.0
14760.0,6.0,0.45869383,5.0,6.0
14770.0,6.0,0.48274612,6.0,6.0
14780.0,6.0,0.4729282,6.0,6.0
14790.0,6.0,0.442311,6.0,6.0
14800.0,6.0,0.41969052,6.0,6.0
14810.0,6.0,0.43853673,6.0,6.0
14820.0,6.0,0.4698255,6.0,6.0
14830.0,6.0,0.48690856,6.0,6.0
14840.0,6.0,0.48022595,6.0,6.0
14850.0,6.0,0.4751379,6.0,6.0
14860.0,6.0,0.46667472,6.0,6.0
14870.0,6.0,0.46124104,6.0,6.0
14880.0,6.0,0.45171225,6.0,6.0
14890.0,6.0,0.4436275,6.0,6.0
14900.0,6.0,0.41230068,6.0,6.0
14910.0,6.0,0.38345274,6.0,6.0
14920.0,6.0,0.38096997,6.0,6.0
14930.0,6.0,0.37752998,6.0,6.0
14940.0,6.0,0.38165954,6.0,6.0
14950.0,6.0,0.40530527,6.0,6.0
14960.0,6.0,0.42822024,6.0,6.0
14970.0,6.0,0.45470756,6.0,6.0
14980.0,6.0,0.4660367,6.0,6.0
14990.0,6.0,0.4499697,6.0,6.0
15000.0,6.0,0.44016355,6.0,6.0
15010.0,6.0,0.4370605,6.0,6.0
15020.0,6.0,0.4541413,6.0,6.0
15030.0,6.0,0.4748684,6.0,6.0
15040.0,6.0,0.49329346,6.0,6.0
15050.0,6.0,0.5088906,6.0,6.0
15060.0,6.0,0.5176872,6.0,6.0
15070.0,6.0,0.48806164,6.0,6.0
15080.0,6.0,0.44557923,6.0,6.0
15090.0,6.0,0.41753563,6.0,6.0
15100.0,6.0,0.38230556,6.0,6.0
15110.0,6.0,0.35908335,6.0,6.0
15120.0,6.0,0.364741,6.0,6.0
15130.0,6.0,0.35224712,6.0,6.0
15140.0,6.0,0.348751,6.0,6.0
15150.0,6.0,0.3406632,6.0,6.0
15160.0,6.0,0.3111993,6.0,6.0
15170.0,6.0,0.2681716,6.0,6.0
15180.0,6.0,0.26986217,6.0,6.0
15190.0,6.0,0.27141714,6.0,6.0
15200.0,6.0,0.27295953,6.0,6.0
15210.0,6.0,0.27448976,6.0,6.0
15220.0,6.0,0.37606385,6.0,6.0
15230.0,6.0,0.48481533,6.0,6.0
15240.0,6.0,0.5109304,6.0,6.0
15250.0,6.0,0.51210576,6.0,6.0
15260.0,6.0,0.52496946,6.0,6.0
15270.0,6.0,0.4931715,6.0,6.0
15280.0,6.0,0.5232351,6.0,6.0
15290.0,6.0,0.5416405,6.0,6.0
15300.0,6.0,0.5507543,6.0,6.0
15310.0,6.0,0.55177593,6.0,6.0
15320.0,6.0,0.55279374,6.0,6.0
15330.0,6.0,0.55353415,6.0,6.0
15340.0,6.0,0.5548183,6.0,6.0
15350.0,6.0,0.5558252,6.0,6.0
15360.0,6.0,0.59843117,6.0,6.0
15370.0,6.0,0.6553018,6.0,7.0
15380.0,6.0,0.6804849,6.0,7.0
15390.0,6.0,0.6989593,6.0,7.0
15400.0,6.0,0.70017993,6.0,7.0
15410.0,6.0,0.70105815,6.0,7.0
15420.0,6.0,0.70193374,6.0,7.0
15430.0,6.0,0.7286723,6.0,7.0
15440.0,6.0,0.7294695,6.0,7.0
15450.0,6.0,0.7214683,6.0,6.0
15460.0,6.0,0.7249307,6.0,6.0
15470.0,6.0,0.72768706,6.0,6.0
15480.0,6.0,0.7508522,6.0,7.0
15490.0,6.0,0.7743219,5.0,7.0
15500.0,6.0,0.7678541,5.0,7.0
15510.0,6.0,1.1009272,5.0,6.25
15520.0,6.0,1.0870799,5.0,7.0
15530.0,6.0,1.1182685,5.0,7.0
15540.0,6.0,1.1639014,5.0,6.0
15550.0,6.0,1.1476339,5.0,6.0
15560.0,6.0,1.117344,5.0,6.0
15570.0,6.0,1.0831488,5.0,6.0
15580.0,6.0,1.1205382,5.0,6.0
15590.0,6.0,1.1368318,5.0,6.0
15600.0,6.0,1.1461264,5.0,6.0
15610.0,6.0,1.1039447,5.0,6.0
15620.0,6.0,1.0543913,5.0,6.0
15630.0,6.0,1.0515918,5.0,6.0
15640.0,6.0,1.094843,5.0,6.0
15650.0,6.0,1.1715713,5.0,7.0
15660.0,6.0,1.1957839,5.0,7.0
15670.0,6.0,1.2024952,5.0,7.0
15680.0,6.0,1.1422746,5.0,7.0
15690.0,6.0,1.0967076,5.0,7.0
15700.0,6.0,1.0778772,5.0,7.0
15710.0,6.0,1.121169,5.0,7.0
15720.0,6.0,1.1804241,5.0,7.0
15730.0,6.0,1.1657051,5.0,7.0
15740.0,6.0,1.1466439,5.0,7.0
15750.0,6.0,1.1250488,5.0,7.0
15760.0,6.0,1.156639,5.0,7.0
15770.0,6.0,1.1675979,5.0,7.0
15780.0,6.0,1.1788872,5.0,7.0
15790.0,6.0,1.1768477,5.0,7.0
15800.0,6.0,1.1670401,5.0,7.0
15810.0,6.0,1.1479207,5.0,7.0
15820.0,6.0,1.1330739,5.0,7.0
15830.0,6.0,1.1634647,5.0,7.0
15840.0,6.0,1.158431,5.0,7.0
15850.0,6.0,1.1706251,5.0,7.0
15860.0,6.0,1.1656741,5.0,7.0
15870.0,6.0,1.1789081,5.0,7.0
15880.0,6.0,1.1798358,5.0,7.0
15890.0,6.0,1.1920522,5.0,7.0
15900.0,6.0,1.1979067,5.0,7.0
15910.0,6.0,1.1800141,5.0,7.0
15920.0,6.0,1.1678709,5.0,7.0
15930.0,6.0,1.1744221,5.0,7.0
15940.0,6.0,1.1941912,5.0,7.0
15950.0,6.0,1.1779604,5.0,7.0
15960.0,6.0,1.1872118,5.0,7.0
15970.0,6.0,1.1873231,5.0,7.0
15980.0,6.0,1.1993462,5.0,7.0
15990.0,6.0,1.1940813,5.0,7.0
16000.0,6.0,1.1929446,5.0,7.0
16010.0,6.0,1.2017491,5.0,7.0
16020.0,6.0,1.1785706,5.0,7.0
16030.0,6.0,1.1539775,5.0,7.0
16040.0,6.0,1.1484592,5.0,7.0
16050.0,6.0,1.1568341,5.0,7.0
16060.0,6.0,1.1385813,5.0,7.0
16070.0,6.0,1.1531332,5.0,7.0
16080.0,6.0,1.175765,5.0,7.0
16090.0,6.0,1.1960232,5.0,7.0
16100.0,6.0,1.1940813,5.0,7.0
16110.0,6.0,1.1869705,5.0,7.0
16120.0,6.0,1.1797875,5.0,7.0
16130.0,6.0,1.1971437,5.0,7.0
16140.0,6.0,1.2083529,5.0,7.0
16150.0,6.0,1.1964093,5.0,7.0
16160.0,6.0,1.2022401,5.0,7.0
16170.0,6.0,1.2200184,5.0,7.0
16180.0,6.0,1.234303,5.0,7.0
16190.0,6.0,1.192217,5.0,7.0
16200.0,6.0,1.1557387,5.0,7.0
16210.0,6.0,1.1337899,5.0,7.0
16220.0,6.0,1.1487567,5.0,7.0
16230.0,6.0,1.1655834,5.0,7.0
16240.0,6.0,1.1677209,5.0,7.0
16250.0,6.0,1.1693034,5.0,7.0
16260.0,6.0,1.1521401,5.0,7.0
16270.0,6.0,1.1104219,5.0,7.0
16280.0,6.0,1.0726006,5.0,7.0
16290.0,6.0,1.0857224,5.0,7.0
16300.0,6.0,1.1069614,5.0,7.0
16310.0,6.0,1.0653899,5.0,6.0
16320.0,6.0,1.0225618,5.0,6.0
16330.0,6.0,0.9986352,5.0,6.0
16340.0,6.0,0.9757716,5.0,6.0
16350.0,6.0,0.9344318,5.0,6.0
16360.0,6.0,0.9347295,5.0,6.0
16370.0,6.0,0.93029356,5.0,6.0
16380.0,6.0,0.8949769,5.0,6.0
16390.0,6.0,0.8749333,5.0,6.0
16400.0,6.0,0.8377135,5.0,6.0
16410.0,6.0,0.7821788,5.0,6.0
16420.0,6.0,0.71366155,5.0,6.0
16430.0,6.0,0.734526,5.0,6.0
16440.0,6.0,0.7469065,5.0,6.0
16450.0,6.0,0.7211354,5.0,6.0
16460.0,6.0,0.6785513,5.0,6.0
16470.0,6.0,0.66515297,5.0,6.0
16480.0,6.0,0.6540664,5.0,6.0
16490.0,6.0,0.6386282,5.0,6.0
16500.0,6.0,0.6257766,5.0,6.0
16510.0,6.0,0.612955,5.0,6.0
16520.0,6.0,0.59962386,5.0,6.0
16530.0,6.0,0.5839376,5.0,6.0
16540.0,6.0,0.5624979,5.0,6.0
16550.0,6.0,0.5451119,5.0,6.0
16560.0,6.0,0.5312846,5.0,6.0
16570.0,6.0,0.5192306,5.0,6.0
16580.0,6.0,0.5003875,5.0,6.0
16590.0,6.0,0.48036036,5.0,6.0
16600.0,6.0,0.41731793,6.0,6.0
16610.0,6.0,0.47437957,6.0,7.0
16620.0,6.0,0.4756932,6.0,7.0
16630.0,6.0,0.49573785,6.0,7.0
16640.0,6.0,0.5152077,6.0,7.0
16650.0,6.0,0.50997937,6.0,7.0
16660.0,6.0,0.5045701,6.0,7.0
16670.0,6.0,0.5426011,6.0,7.0
16680.0,6.0,0.6015812,6.0,7.0
16690.0,6.0,0.6476388,6.0,7.0
16700.0,6.0,0.6491362,6.0,7.0
16710.0,6.0,0.6654717,6.0,7.0
16720.0,6.0,0.68539417,6.0,7.0
16730.0,6.0,0.7147964,6.0,7.0
16740.0,6.0,0.69656205,6.0,7.0
16750.0,6.0,0.70620084,6.0,7.0
16760.0,6.0,0.73465484,6.0,7.0
16770.0,6.0,0.7822175,6.0,7.0
16780.0,6.0,0.8086133,5.0,7.0
16790.0,6.0,0.80870783,5.0,7.0
16800.0,6.0,0.79373604,6.0,7.0
16810.0,6.0,0.78550714,6.0,7.0
16820.0,6.0,0.8110175,5.0,7.0
16830.0,6.0,0.04791867,6.0,6.0
16840.0,6.0,0.058620706,6.0,6.0
16850.0,6.0,0.19312435,6.0,6.0
16860.0,6.0,0.19564693,6.0,6.0
16870.0,6.0,0.20066993,6.0,6.0
16880.0,6.0,0.09205412,6.0,6.0
16890.0,6.0,0.09748243,6.0,6.0
16900.0,6.0,0.20342916,6.0,6.0
16910.0,6.0,0.42442206,6.0,6.0
16920.0,6.0,0.52623093,6.0,6.0
16930.0,6.0,0.61235905,6.0,7.0
16940.0,6.0,0.6550739,6.0,7.0
16950.0,6.0,0.6789901,6.0,7.0
16960.0,6.0,0.676413,6.0,7.0
16970.0,6.0,0.682524,6.0,7.0
16980.0,7.0,0.68476367,6.0,7.0
16990.0,7.0,0.6833003,6.0,7.0
17000.0,7.0,0.6852874,6.0,7.0
17010.0,7.0,0.6852124,6.0,7.0
17020.0,7.0,0.6825212,6.0,7.0
17030.0,7.0,0.66916144,6.0,7.0
17040.0,7.0,0.6309325,6.0,7.0
17050.0,7.0,0.62259203,6.0,7.0
17060.0,7.0,0.46608907,6.0,7.0
17070.0,7.0,0.46582374,6.0,7.0
17080.0,7.0,0.45249674,6.0,7.0
17090.0,7.0,0.45782632,6.0,7.0
17100.0,7.0,0.4612331,6.0,7.0
17110.0,7.0,0.46308607,6.0,7.0
17120.0,7.0,0.46569037,6.0,7.0
17130.0,7.0,0.46827808,6.0,7.0
17140.0,7.0,0.47084942,6.0,7.0
17150.0,7.0,0.4762258,6.0,7.0
17160.0,7.0,0.47228584,6.0,7.0
17170.0,7.0,0.46675205,6.0,7.0
17180.0,7.0,0.46938732,6.0,7.0
17190.0,7.0,0.4559375,7.0,7.0
17200.0,7.0,0.46103677,7.0,7.0
17210.0,7.0,0.45744538,7.0,7.0
17220.0,7.0,0.40204364,7.0,7.0
17230.0,7.0,0.40452576,7.0,7.0
17240.0,7.0,0.38966528,7.0,7.0
17250.0,7.0,0.39426985,7.0,7.0
17260.0,7.0,0.40205362,7.0,7.0
17270.0,7.0,0.40721676,7.0,7.0
17280.0,7.0,0.4114223,7.0,7.0
17290.0,7.0,0.6173865,7.0,7.0
17300.0,7.0,0.66144824,7.0,8.0
17310.0,7.0,0.67695564,7.0,8.0
17320.0,7.0,0.66495734,7.0,8.0
17330.0,7.0,0.66006285,7.0,8.0
17340.0,7.0,0.6623752,7.0,8.0
17350.0,7.0,0.6871213,7.0,8.0
17360.0,7.0,0.6964884,7.0,8.0
17370.0,7.0,0.69325626,7.0,8.0
17380.0,7.0,0.6894734,7.0,8.0
17390.0,7.0,0.71126837,7.0,8.0
17400.0,7.0,0.7025454,7.0,8.0
17410.0,7.0,0.7207048,7.0,8.0
17420.0,7.0,0.7084248,7.0,8.0
17430.0,7.0,0.70277756,7.0,8.0
17440.0,7.0,0.71695983,7.0,8.0
17450.0,7.0,0.7306296,7.0,8.0
17460.0,7.0,0.71788037,7.0,8.0
17470.0,7.0,0.5471736,7.0,8.0
17480.0,7.0,0.54668456,7.0,8.0
17490.0,7.0,0.55477476,7.0,8.0
17500.0,7.0,0.5608244,7.0,8.0
17510.0,7.0,0.60247403,7.0,8.0
17520.0,7.0,0.6233971,7.0,8.0
17530.0,7.0,0.62932026,7.0,8.0
17540.0,7.0,0.63390535,7.0,8.0
17550.0,7.0,0.63223726,7.0,8.0
17560.0,7.0,0.6346267,7.0,8.0
17570.0,7.0,0.6381191,7.0,8.0
17580.0,7.0,0.6430233,7.0,8.0
17590.0,7.0,0.6462198,7.0,8.0
17600.0,7.0,0.6496276,7.0,8.0
17610.0,7.0,0.67891014,7.0,8.0
17620.0,7.0,0.6939741,7.0,8.0
17630.0,7.0,0.69645965,7.0,8.0
17640.0,7.0,0.69942546,7.0,8.0
17650.0,7.0,0.7026514,7.0,8.0
17660.0,7.0,0.71838427,7.0,8.0
17670.0,7.0,0.738533,7.0,8.0
17680.0,7.0,0.75259554,6.0,8.0
17690.0,7.0,0.77225316,6.0,8.0
17700.0,7.0,0.77251214,6.0,8.0
17710.0,7.0,0.7567767,6.0,8.0
17720.0,7.0,0.7569307,6.0,7.0
17730.0,7.0,0.7775963,6.0,7.0
17740.0,7.0,0.7983458,6.0,7.0
17750.0,6.0,0.8017425,6.0,7.0
17760.0,6.0,0.79873335,6.0,7.0
17770.0,6.0,0.7958669,6.0,7.0
17780.0,6.0,0.7916255,6.0,7.0
17790.0,6.0,0.7897823,6.0,7.0
17800.0,6.0,0.790174,6.0,7.0
17810.0,7.0,1.0184355,6.0,8.0
17820.0,7.0,0.9122657,6.0,8.0
17830.0,7.0,0.8261403,6.0,8.0
17840.0,7.0,0.8233662,6.0,8.0
17850.0,7.0,0.8398679,6.0,8.0
17860.0,7.0,0.85409313,6.0,8.0
17870.0,7.0,0.8522737,6.0,8.0
17880.0,7.0,0.85634464,6.0,8.0
17890.0,7.0,0.8750655,6.0,8.0
17900.0,7.0,0.88750505,6.0,8.0
17910.0,7.0,0.87393266,6.0,8.0
17920.0,7.0,0.85899174,6.0,8.0
17930.0,7.0,0.85517997,6.0,8.0
17940.0,7.0,0.856191,6.0,8.0
17950.0,7.0,0.8569025,6.0,8.0
17960.0,7.0,0.60049003,7.0,7.0
17970.0,7.0,0.35916832,7.0,7.0
17980.0,7.0,0.40602654,7.0,7.0
17990.0,7.0,0.4330127,7.0,7.25
18000.0,7.0,0.4624932,7.0,8.0
18010.0,7.0,0.46812183,7.0,8.0
18020.0,7.0,0.4714045,7.0,8.0
18030.0,7.0,0.47163966,7.0,8.0
18040.0,7.0,0.47892225,7.0,8.0
18050.0,7.0,0.4866862,7.0,8.0
18060.0,7.0,0.48715335,7.0,8.0
18070.0,7.0,0.48659533,7.0,8.0
18080.0,7.0,0.49568254,7.0,8.0
18090.0,8.0,0.50124073,7.0,8.0
18100.0,8.0,0.5228231,7.0,8.0
18110.0,8.0,0.5216282,8.0,8.0
18120.0,8.0,0.5561315,8.0,8.0
18130.0,8.0,0.56127155,8.0,8.0
18140.0,8.0,0.58749557,8.0,8.0
18150.0,8.0,0.5691362,8.0,8.0
18160.0,8.0,0.5583881,8.0,8.0
18170.0,8.0,0.53885436,8.0,9.0
18180.0,8.0,0.5105537,8.0,9.0
18190.0,8.0,0.46261862,8.0,9.0
18200.0,8.0,0.44665292,8.0,9.0
18210.0,8.0,0.44550085,8.0,9.0
18220.0,8.0,0.443058,8.0,9.0
18230.0,8.0,0.44461575,8.0,9.0
18240.0,8.0,0.23374346,8.0,8.0
18250.0,8.0,0.25174588,8.0,8.0
18260.0,8.0,0.24521025,8.0,8.0
18270.0,8.0,0.21499462,8.0,8.0
18280.0,8.0,0.1768571,8.0,8.0
18290.0,8.0,0.17651278,8.0,8.0
18300.0,8.0,0.17488134,8.0,8.0
18310.0,8.0,0.30333927,8.0,8.0
18320.0,8.0,0.43063298,8.0,8.0
18330.0,8.0,0.47366658,8.0,8.0
18340.0,8.0,0.45744932,8.0,8.0
18350.0,8.0,0.46274608,8.0,8.0
18360.0,8.0,0.5112756,8.0,8.0
18370.0,8.0,0.5629468,8.0,8.0
18380.0,8.0,0.5509018,8.0,9.0
18390.0,8.0,0.5376672,8.0,9.0
18400.0,8.0,0.48798397,8.0,8.0
18410.0,8.0,0.47113806,8.0,8.0
18420.0,8.0,0.43397707,8.0,9.0
18430.0,8.0,0.4533644,8.0,9.0
18440.0,8.0,0.46319526,8.0,9.0
18450.0,8.0,0.47755453,8.0,9.0
18460.0,8.0,0.48275465,8.0,9.0
18470.0,8.0,0.48423594,8.0,9.0
18480.0,8.0,0.48366925,8.0,9.0
18490.0,8.0,0.49064112,8.0,9.0
18500.0,8.0,0.49283934,8.0,9.0
18510.0,8.0,0.5470339,8.0,9.0
18520.0,8.0,0.55361736,8.0,9.0
18530.0,8.0,0.558333,8.0,9.0
18540.0,8.0,0.5624258,8.0,9.0
18550.0,9.0,0.5948861,8.0,9.0
18560.0,9.0,0.6028461,8.0,9.0
18570.0,9.0,0.61656594,8.0,9.0
18580.0,9.0,0.6011611,8.0,9.0
18590.0,9.0,0.6124628,9.0,9.0
18600.0,9.0,0.6355445,9.0,9.0
18610.0,9.0,0.6503961,9.0,9.0
18620.0,9.0,0.67440605,9.0,10.0
18630.0,9.0,0.68762857,9.0,10.0
18640.0,9.0,0.69044715,9.0,10.0
18650.0,9.0,0.68652326,9.0,10.0
18660.0,9.0,0.75370944,9.0,10.0
18670.0,9.0,0.8000936,9.0,10.0
18680.0,9.0,0.80600286,9.0,10.0
18690.0,9.0,0.81504965,9.0,10.0
18700.0,9.0,0.8435226,9.0,10.0
18710.0,9.0,0.8979409,9.0,10.0
18720.0,9.0,0.96254563,9.0,10.0
18730.0,9.0,1.0129765,9.0,10.0
18740.0,9.0,1.0821899,9.0,11.0
18750.0,10.0,1.0776565,9.0,11.0
18760.0,10.0,1.0933571,9.0,11.0
18770.0,10.0,1.1424925,9.0,11.0
18780.0,10.0,1.1940914,9.0,11.0
18790.0,10.0,1.2063853,9.0,11.0
18800.0,10.0,1.1992861,9.0,11.0
18810.0,10.0,1.199165,9.0,11.0
18820.0,10.0,1.236633,9.0,11.0
18830.0,10.0,1.2647386,9.0,11.0
18840.0,10.0,1.3188058,9.0,11.0
18850.0,10.0,1.3400311,9.0,11.0
18860.0,10.0,1.3800751,9.0,11.0
18870.0,10.0,1.379858,9.0,11.0
18880.0,10.0,1.3662076,9.0,11.0
18890.0,10.0,1.4098132,9.0,11.0
18900.0,10.0,1.468189,9.0,11.0
18910.0,10.0,1.5724486,9.0,11.0
18920.0,10.0,1.5750628,9.0,11.0
18930.0,10.0,1.5969597,9.0,11.0
18940.0,10.0,1.4679234,9.0,11.0
18950.0,10.0,0.6887671,10.0,11.0
18960.0,10.0,0.6152853,10.0,11.0
18970.0,10.0,0.62270296,10.0,11.0
18980.0,10.0,0.57419163,10.0,11.0
18990.0,11.0,0.5742604,10.0,11.0
19000.0,11.0,0.63491416,10.0,11.0
19010.0,11.0,0.82800967,10.0,11.0
19020.0,11.0,0.89015955,10.0,11.0
19030.0,11.0,0.89015955,10.0,11.0
19040.0,11.0,0.8519977,10.0,11.0
19050.0,11.0,0.89619416,10.0,12.0
19060.0,11.0,0.8856274,10.0,12.0
19070.0,11.0,0.84452534,10.0,11.0
19080.0,11.0,0.82887536,10.0,11.0
19090.0,11.0,0.8289787,10.0,11.0
19100.0,11.0,0.7866702,11.0,12.0
19110.0,11.0,0.72695017,11.0,12.0
19120.0,11.0,0.77440804,11.0,12.0
19130.0,11.0,0.8163662,11.0,12.0
19140.0,11.0,0.8494081,11.0,12.0
19150.0,11.0,0.849467,11.0,12.0
19160.0,11.0,0.8615322,11.0,12.0
19170.0,11.0,0.9187306,11.0,12.0
19180.0,11.0,0.9750734,10.0,12.0
19190.0,11.0,0.9858362,10.0,12.0
19200.0,11.0,1.021244,10.0,12.0
19210.0,11.0,1.0280322,10.0,12.0
19220.0,11.0,0.9872465,10.0,12.0
19230.0,11.0,1.0178795,10.0,12.0
19240.0,11.0,1.017212,10.0,12.0
19250.0,11.0,1.0181625,10.0,12.0
19260.0,11.0,1.0162278,10.0,12.0
19270.0,11.0,1.1020921,10.0,12.0
19280.0,11.0,1.1303883,10.0,12.0
19290.0,11.0,1.1849675,10.0,12.0
19300.0,11.0,1.203121,10.0,12.0
19310.0,11.0,1.2001951,10.0,12.0
19320.0,11.0,1.2913268,10.0,12.0
19330.0,11.0,1.3057879,10.0,12.0
19340.0,11.0,1.3417962,9.0,12.0
19350.0,11.0,1.2642833,9.0,12.0
19360.0,11.0,1.252014,9.0,11.0
19370.0,11.0,1.274849,9.0,11.0
19380.0,11.0,1.3620667,9.0,12.0
19390.0,11.0,1.462883,9.0,12.0
19400.0,11.0,1.4320996,9.0,12.0
19410.0,11.0,1.3093126,9.0,11.0
19420.0,11.0,1.2370658,9.0,11.0
19430.0,11.0,1.1609393,9.0,11.0
19440.0,10.0,1.7859079,8.0,12.0
19450.0,11.0,1.7810012,8.0,12.0
19460.0,11.0,1.7719644,8.0,12.0
19470.0,11.0,1.7872789,8.0,12.0
19480.0,11.0,1.7957902,8.0,12.0
19490.0,11.0,1.7666612,8.0,12.0
19500.0,11.0,1.7353231,8.0,12.0
19510.0,11.0,1.7404565,8.0,12.0
19520.0,11.0,1.7330999,8.0,12.0
19530.0,11.0,1.7173755,8.0,12.0
19540.0,11.0,1.7170229,8.0,12.0
19550.0,11.0,1.7128947,8.0,12.0
19560.0,11.0,1.7068087,8.0,12.0
19570.0,11.0,1.7493955,8.0,12.0
19580.0,10.0,1.7923841,8.0,12.0
19590.0,11.0,1.7864505,8.0,12.0
19600.0,11.0,1.7695398,8.0,12.0
19610.0,11.0,1.7316966,9.0,11.0
19620.0,11.0,1.6925405,9.0,11.0
19630.0,11.0,1.6519053,9.0,11.0
19640.0,11.0,1.661211,8.0,11.0
19650.0,10.0,1.61009,8.0,11.0
19660.0,10.0,1.570853,8.0,11.0
19670.0,10.0,1.5405685,8.0,11.0
19680.0,10.0,1.5257729,8.0,11.0
19690.0,10.0,1.488913,8.0,11.0
19700.0,10.0,1.4639919,8.0,11.0
19710.0,10.0,1.0823303,9.0,11.0
19720.0,10.0,0.49362648,10.0,11.0
19730.0,10.0,0.49521613,10.0,11.0
19740.0,10.0,0.49743807,10.0,11.0
19750.0,10.0,0.5329081,10.0,11.0
19760.0,11.0,0.6221825,10.0,11.0
19770.0,11.0,0.69594556,10.0,11.0
19780.0,11.0,0.74146813,10.0,11.0
19790.0,11.0,0.70978945,11.0,12.0
19800.0,11.0,0.6066432,11.0,12.0
19810.0,11.0,0.5283257,11.0,12.0
19820.0,11.0,0.48819664,11.0,12.0
19830.0,11.0,0.48893547,11.0,12.0
19840.0,11.0,0.48706365,11.0,12.0
19850.0,11.0,0.48498267,11.0,12.0
19860.0,11.0,0.48774993,11.0,12.0
19870.0,11.0,0.48977497,11.0,12.0
19880.0,11.0,0.49201524,11.0,12.0
19890.0,11.0,0.49549064,11.0,12.0
19900.0,11.0,0.4986633,11.0,12.0
19910.0,12.0,0.49995103,11.0,12.0
19920.0,12.0,0.49810037,11.0,12.0
19930.0,12.0,0.49535438,11.0,12.0
19940.0,12.0,0.48850286,11.0,12.0
19950.0,12.0,0.47471148,11.0,12.0
19960.0,12.0,0.46503794,11.0,12.0
19970.0,12.0,0.46608904,11.0,12.0
19980.0,12.0,0.4758052,11.0,12.0
19990.0,12.0,0.47696963,11.0,12.0
20000.0,12.0,0.48473054,11.0,12.0
20010.0,12.0,0.4982329,11.0,12.0
20020.0,11.0,0.49877352,11.0,12.0
20030.0,11.0,0.48914853,11.0,12.0
20040.0,11.0,0.45737952,11.0,12.0
20050.0,11.0,0.3851682,11.0,11.0
20060.0,11.0,0.30655342,11.0,11.0
20070.0,11.0,0.21173953,11.0,11.0
20080.0,11.0,0.08908424,11.0,11.0
20090.0,11.0,0.9107447,10.0,12.0
20100.0,11.0,0.924201,10.0,12.0
20110.0,11.0,0.9308061,10.0,12.0
20120.0,11.0,0.9243544,10.0,11.0
20130.0,11.0,0.9137532,10.0,11.0
20140.0,11.0,0.88891846,10.0,11.0
20150.0,11.0,0.85137945,10.0,11.0
20160.0,11.0,0.8335317,10.0,11.0
20170.0,11.0,0.8483019,10.0,11.0
20180.0,11.0,0.8470965,10.0,11.0
20190.0,11.0,0.83534,10.0,11.0
20200.0,11.0,0.81858265,10.0,11.0
20210.0,11.0,0.82097507,10.0,11.0
20220.0,11.0,0.8073716,10.0,11.0
20230.0,11.0,0.79769295,10.0,11.0
20240.0,11.0,0.8088609,10.0,11.0
20250.0,10.0,0.90537536,10.0,11.0
20260.0,10.0,0.7036318,10.0,11.0
20270.0,10.0,0.70574754,10.0,11.0
20280.0,10.0,0.7157206,10.0,11.0
20290.0,10.0,0.7159264,10.0,11.0
20300.0,10.0,0.7043065,10.0,11.0
20310.0,10.0,0.7051752,10.0,11.0
20320.0,10.0,0.70668167,10.0,11.0
20330.0,10.0,0.70710075,10.0,11.0
20340.0,10.0,0.7191549,10.0,11.0
20350.0,10.0,0.7456618,10.0,11.0
20360.0,10.0,0.7619212,10.0,11.0
20370.0,10.0,0.7427009,10.0,11.0
20380.0,10.0,0.71651816,10.0,11.0
20390.0,10.0,0.6908213,10.0,11.0
20400.0,10.0,0.66030216,10.0,11.0
20410.0,10.0,0.6724284,10.0,11.0
20420.0,10.0,0.70129955,10.0,11.0
20430.0,10.0,0.7225383,10.0,11.0
20440.0,10.0,0.72099304,10.0,11.0
20450.0,10.0,0.50264204,10.0,11.0
20460.0,10.0,0.5061602,10.0,11.0
20470.0,10.0,0.49943832,10.0,11.0
20480.0,10.0,0.49038225,10.0,11.0
20490.0,10.0,0.49077645,10.0,11.0
20500.0,10.0,0.4913518,10.0,11.0
20510.0,10.0,0.48850286,10.0,11.0
20520.0,10.0,0.48523256,10.0,11.0
20530.0,10.0,0.48596928,10.0,11.0
20540.0,10.0,0.48644945,10.0,11.0
20550.0,10.0,0.47801128,10.0,11.0
20560.0,10.0,0.4772056,10.0,11.0
20570.0,10.0,0.52168965,10.0,11.0
20580.0,10.0,0.52094,10.0,11.0
20590.0,10.0,0.558345,10.0,11.0
20600.0,10.0,0.539429,10.0,11.0
20610.0,10.0,0.54050714,10.0,11.0
20620.0,10.0,0.49663976,10.0,11.0
20630.0,10.0,0.49455735,10.0,11.0
20640.0,10.0,0.46831444,10.0,10.0
20650.0,10.0,0.45833823,10.0,10.0
20660.0,10.0,0.4143951,10.0,10.0
20670.0,10.0,0.41640684,10.0,10.0
20680.0,10.0,0.39480323,10.0,10.0
20690.0,10.0,0.39635092,10.0,10.0
20700.0,10.0,0.39788246,10.0,10.0
20710.0,10.0,0.3924511,10.0,10.0
20720.0,10.0,0.37578222,10.0,10.0
20730.0,10.0,0.37753004,10.0,10.0
20740.0,10.0,0.3792592,10.0,10.0
20750.0,10.0,0.0,10.0,10.0
20760.0,10.0,0.4625051,10.0,10.0
20770.0,10.0,0.50608295,10.0,11.0
20780.0,10.0,0.5345139,10.0,11.0
20790.0,10.0,0.5449762,10.0,11.0
20800.0,10.0,0.58032316,10.0,11.0
20810.0,10.0,0.5983101,10.0,11.0
20820.0,10.0,0.57099366,10.0,11.0
20830.0,10.0,0.5128109,10.0,11.0
20840.0,10.0,0.49394503,10.0,11.0
20850.0,10.0,0.49493337,10.0,11.0
20860.0,10.0,0.49588707,10.0,11.0
20870.0,10.0,0.49674037,10.0,11.0
20880.0,10.0,0.49743807,10.0,11.0
20890.0,10.0,0.49806023,10.0,11.0
20900.0,10.0,0.5109598,10.0,11.0
20910.0,10.0,0.5709673,10.0,11.0
20920.0,10.0,0.6610033,10.0,11.0
20930.0,10.0,0.721285,10.0,11.0
20940.0,10.0,0.7510286,10.0,11.0
20950.0,10.0,0.78299654,10.0,11.0
20960.0,10.0,0.8237906,10.0,11.0
20970.0,11.0,0.84441537,10.0,12.0
20980.0,11.0,0.85780823,10.0,12.0
20990.0,11.0,0.8799158,10.0,12.0
21000.0,10.0,0.8983452,10.0,12.0
21010.0,11.0,0.8951042,10.0,12.0
21020.0,11.0,0.89909726,10.0,12.0
21030.0,11.0,0.9209945,10.0,12.0
21040.0,11.0,0.9383624,10.0,12.0
21050.0,11.0,0.9357586,10.0,12.0
21060.0,11.0,0.9193899,10.0,12.0
21070.0,11.0,0.9210841,10.0,12.0
21080.0,11.0,0.9441514,10.0,12.0
21090.0,11.0,0.9786108,10.0,12.0
21100.0,11.0,1.0013411,10.0,12.0
21110.0,11.0,1.0098397,10.0,12.0
21120.0,11.0,1.0260342,10.0,12.0
21130.0,11.0,1.0434438,10.0,12.0
21140.0,11.0,1.0581126,10.0,12.0
21150.0,11.0,1.0795014,10.0,12.0
21160.0,11.0,1.0998245,10.0,12.0
21170.0,11.0,1.1009364,10.0,12.0
21180.0,11.0,1.0952073,10.0,12.0
21190.0,11.0,1.0883235,10.0,12.0
21200.0,11.0,1.0835012,10.0,12.0
21210.0,11.0,1.0845798,10.0,12.0
21220.0,11.0,1.0932425,10.0,12.0
21230.0,11.0,1.099994,10.0,11.0
21240.0,11.0,1.1295658,10.0,11.0
21250.0,11.0,1.1659268,10.0,11.0
21260.0,11.0,1.2056717,10.0,11.0
21270.0,11.0,1.222757,9.5,11.0
21280.0,11.0,1.1969624,10.0,11.0
21290.0,10.0,1.1072375,10.0,11.0
21300.0,10.0,1.0214341,10.0,11.0
21310.0,10.0,0.99176157,9.0,11.0
21320.0,10.0,0.9844812,9.0,11.0
21330.0,10.0,0.98535216,10.0,11.0
21340.0,10.0,0.98242104,10.0,11.0
21350.0,10.0,0.96507776,9.0,11.0
21360.0,10.0,0.92840993,9.0,11.0
21370.0,10.0,0.9382452,9.0,10.0
21380.0,10.0,0.9392867,9.0,10.0
21390.0,10.0,0.9466066,9.0,10.0
21400.0,10.0,0.9505109,9.0,10.0
21410.0,10.0,0.92414254,9.0,10.0
21420.0,10.0,0.8941091,9.0,10.0
21430.0,10.0,0.90621054,9.0,10.0
21440.0,10.0,1.3889579,9.0,12.0
21450.0,10.0,1.376125,9.0,12.0
21460.0,10.0,1.4046378,9.0,12.0
21470.0,10.0,1.4088635,9.0,12.0
21480.0,10.0,1.4512758,9.0,12.0
21490.0,10.0,1.4610718,9.0,12.0
21500.0,10.0,1.4752145,9.0,12.0
21510.0,10.0,1.4997773,9.0,12.0
21520.0,10.0,1.5633755,9.0,12.0
21530.0,10.0,1.5788646,9.0,12.0
21540.0,10.0,1.6690363,9.0,12.0
21550.0,10.0,1.7107189,9.0,12.0
21560.0,10.0,1.7392735,8.0,12.0
21570.0,10.0,1.7520851,8.75,12.0
21580.0,10.0,1.7768279,9.0,12.0
21590.0,10.0,1.7980198,8.0,12.0
21600.0,10.0,1.7492028,8.0,12.0
21610.0,10.0,1.4285421,8.0,11.0
21620.0,10.0,1.3888386,8.0,10.0
21630.0,10.0,1.4338264,8.0,11.0
21640.0,10.0,1.4920961,8.0,11.0
21650.0,10.0,1.5360078,8.0,11.0
21660.0,10.0,1.5674876,8.0,11.0
21670.0,10.0,1.5810173,8.0,11.0
21680.0,10.0,1.5641942,8.0,11.0
21690.0,10.0,1.5897108,8.0,11.0
21700.0,10.0,1.6003699,8.0,11.0
21710.0,10.0,1.6168396,8.0,11.0
21720.0,10.0,1.6640551,8.0,11.0
21730.0,10.0,1.7415439,8.0,11.0
21740.0,10.0,1.8106313,8.0,11.0
21750.0,10.0,1.8233815,8.0,11.0
21760.0,10.0,1.8324848,8.0,11.0
21770.0,10.0,1.8582791,8.0,11.0
21780.0,11.0,1.8894455,8.0,11.0
21790.0,10.0,1.8977883,8.0,12.0
21800.0,10.0,1.8899355,8.0,12.0
21810.0,10.0,1.9188701,8.0,12.0
21820.0,11.0,1.9389145,8.0,12.0
21830.0,11.0,1.9431285,8.0,12.0
21840.0,10.0,1.3675555,9.0,11.0
21850.0,10.0,1.2100691,9.0,11.0
21860.0,11.0,1.1573994,9.0,11.0
21870.0,11.0,1.1161491,9.0,11.0
21880.0,11.0,1.1498476,9.0,11.0
21890.0,11.0,1.1752589,10.0,12.0
21900.0,11.0,1.175987,10.0,12.0
21910.0,11.0,1.1458808,10.0,12.0
21920.0,11.0,1.0714264,10.0,12.0
21930.0,11.0,1.0798821,10.0,12.0
21940.0,11.0,1.0718577,10.0,12.0
21950.0,11.0,1.0694661,10.0,12.0
21960.0,11.0,1.0267069,10.0,12.0
21970.0,11.0,1.0325868,10.0,12.0
21980.0,11.0,1.0039359,10.0,12.0
21990.0,11.0,0.9584276,10.0,12.0
22000.0,11.0,0.9353352,10.0,12.0
22010.0,11.0,0.78352123,10.0,12.0
22020.0,11.0,0.75142944,11.0,12.0
22030.0,11.0,0.7541912,11.0,12.0
22040.0,11.0,0.74672735,11.0,12.0
22050.0,11.0,0.71573174,11.0,12.0
22060.0,11.0,0.68883467,11.0,12.0
22070.0,11.0,0.6616985,11.0,12.0
22080.0,11.0,0.6439635,11.0,12.0
22090.0,11.0,0.65675324,11.0,12.0
22100.0,11.0,0.66530174,11.0,12.0
22110.0,11.0,0.64914876,11.0,12.0
22120.0,11.0,0.6164865,11.0,12.0
22130.0,11.0,0.6208318,11.0,12.0
22140.0,11.0,0.6087485,11.0,12.0
22150.0,11.0,0.5940869,11.0,12.0
22160.0,11.0,0.6004825,11.0,12.0
22170.0,11.0,0.6364303,11.0,12.0
22180.0,11.0,0.6529725,11.0,12.0
22190.0,11.0,0.651413,11.0,12.0
22200.0,11.0,0.6001348,11.0,12.0
22210.0,11.0,0.5730003,11.0,12.0
22220.0,11.0,0.5610755,11.0,11.0
22230.0,11.0,0.5446556,11.0,11.0
22240.0,11.0,0.5111174,11.0,11.0
22250.0,11.0,0.46755612,11.0,11.0
22260.0,11.0,0.40662712,11.0,11.0
22270.0,11.0,0.36363712,11.0,11.0
22280.0,11.0,0.33809584,11.0,11.0
22290.0,11.0,0.34579805,11.0,11.0
22300.0,11.0,0.35369766,11.0,11.0
22310.0,11.0,0.35861695,11.0,11.0
22320.0,11.0,0.363192,11.0,11.0
22330.0,11.0,0.36759904,11.0,11.0
22340.0,11.0,0.3708439,11.0,11.0
22350.0,11.0,0.37497061,11.0,11.0
22360.0,11.0,0.38228342,11.0,11.0
22370.0,11.0,0.38865247,11.0,11.0
22380.0,11.0,0.4051653,11.0,11.0
22390.0,11.0,0.429549,11.0,11.0
22400.0,11.0,0.4681445,10.0,11.0
22410.0,11.0,0.49491847,10.0,11.0
22420.0,10.0,0.49608707,10.0,11.0
22430.0,10.0,0.48745596,10.0,11.0
22440.0,10.0,0.48083988,10.0,11.0
22450.0,10.0,0.47893927,10.0,11.0
22460.0,10.0,0.46782276,10.0,11.0
22470.0,10.0,0.4611035,10.0,11.0
22480.0,10.0,0.40675452,10.0,10.0
22490.0,10.0,0.32490906,10.0,10.0
22500.0,10.0,0.16942297,10.0,10.0
22510.0,10.0,0.0,10.0,10.0
22520.0,10.0,0.0,10.0,10.0
22530.0,10.0,0.0,10.0,10.0
22540.0,10.0,0.0,10.0,10.0
22550.0,10.0,0.0,10.0,10.0
22560.0,10.0,0.0,10.0,10.0
22570.0,10.0,0.0,10.0,10.0
22580.0,10.0,0.48010495,10.0,11.0
22590.0,10.0,0.70948166,10.0,11.0
22600.0,10.0,0.6920704,10.0,11.0
22610.0,10.0,0.7528233,10.0,11.0
22620.0,10.0,0.81619954,9.0,11.0
22630.0,10.0,0.8477728,9.0,11.0
22640.0,10.0,0.86330974,9.0,11.0
22650.0,10.0,0.87563163,9.0,11.0
22660.0,10.0,0.8738893,9.0,11.0
22670.0,10.0,0.87095493,9.0,11.0
22680.0,10.0,0.8705195,9.0,11.0
22690.0,10.0,0.8807762,9.0,11.0
22700.0,10.0,0.8814618,9.0,11.0
22710.0,10.0,0.8785049,9.0,11.0
22720.0,10.0,0.8751937,9.0,11.0
22730.0,10.0,0.8760171,9.0,11.0
22740.0,10.0,0.8847547,9.0,11.0
