distance,median,stdev,prc_25,prc_75
20.0,1.0,0.4996742,1.0,2.0
30.0,1.0,0.49957582,1.0,2.0
40.0,1.0,0.49951315,1.0,2.0
50.0,1.0,0.49931857,1.0,2.0
60.0,1.0,0.49918383,1.0,2.0
70.0,1.0,0.49921167,1.0,2.0
80.0,1.0,0.49965554,1.0,2.0
90.0,1.0,0.49965698,1.0,2.0
100.0,1.0,0.49936134,1.0,2.0
110.0,1.0,0.49734372,1.0,2.0
120.0,1.0,0.49735188,1.0,2.0
130.0,1.0,0.49749908,1.0,2.0
140.0,1.0,0.49731356,1.0,2.0
150.0,1.0,0.49694344,1.0,2.0
160.0,1.0,0.49679813,1.0,2.0
170.0,1.0,0.49634627,1.0,2.0
180.0,1.0,0.4960619,1.0,2.0
190.0,1.0,0.49584633,1.0,2.0
200.0,1.0,0.4954098,1.0,2.0
210.0,1.0,0.49600536,1.0,2.0
220.0,1.0,0.4982466,1.0,2.0
230.0,1.0,0.4996471,1.0,2.0
240.0,2.0,0.49998298,1.0,2.0
250.0,2.0,0.4999781,1.0,2.0
260.0,1.0,0.49950537,1.0,2.0
270.0,1.0,0.49969402,1.0,2.0
280.0,2.0,0.49983078,1.0,2.0
290.0,2.0,0.49793833,1.0,2.0
300.0,2.0,0.49750954,1.0,2.0
310.0,2.0,0.49784216,1.0,2.0
320.0,2.0,0.49868006,1.0,2.0
330.0,2.0,0.49784318,1.0,2.0
340.0,2.0,0.49243155,1.0,2.0
350.0,2.0,0.48838553,1.0,2.0
360.0,2.0,0.48312497,1.0,2.0
370.0,2.0,0.47338733,1.0,2.0
380.0,2.0,0.4454083,1.0,2.0
390.0,2.0,0.42904076,2.0,2.0
400.0,2.0,0.4209801,2.0,2.0
410.0,2.0,0.4209801,2.0,2.0
420.0,2.0,0.42161992,2.0,2.0
430.0,2.0,0.4209801,2.0,2.0
440.0,2.0,0.41640678,2.0,2.0
450.0,2.0,0.41707045,2.0,2.0
460.0,2.0,0.4209801,2.0,2.0
470.0,2.0,0.4216199,2.0,2.0
480.0,2.0,0.41904062,2.0,2.0
490.0,2.0,0.40311888,2.0,2.0
500.0,2.0,0.3963509,2.0,2.0
510.0,2.0,0.3963509,2.0,2.0
520.0,2.0,0.37665847,2.0,2.0
530.0,2.0,0.33199146,2.0,2.0
540.0,2.0,0.26986215,2.0,2.0
550.0,2.0,0.22808771,2.0,2.0
560.0,2.0,0.20740296,2.0,2.0
570.0,2.0,0.19368787,2.0,2.0
580.0,2.0,0.18131661,2.0,2.0
590.0,2.0,0.1678879,2.0,2.0
600.0,2.0,0.14997657,2.0,2.0
610.0,2.0,0.13301642,2.0,2.0
620.0,2.0,0.14006862,2.0,2.0
630.0,2.0,0.19368787,2.0,2.0
640.0,2.0,0.18885258,2.0,2.0
650.0,2.0,0.17340155,2.0,2.0
660.0,2.0,0.15921266,2.0,2.0
670.0,2.0,0.14006862,2.0,2.0
680.0,2.0,0.12161236,2.0,2.0
690.0,2.0,0.14345431,2.0,2.0
700.0,2.0,0.19368787,2.0,2.0
710.0,2.0,0.23385319,2.0,2.0
720.0,2.0,0.24307634,2.0,2.0
730.0,2.0,0.23385319,2.0,2.0
740.0,2.0,0.22213203,2.0,2.0
750.0,2.0,0.25013813,2.0,2.0
760.0,2.0,0.2790083,2.0,2.0
770.0,2.0,0.3053955,2.0,2.0
780.0,2.0,0.30146253,2.0,2.0
790.0,2.0,0.29334623,2.0,2.0
800.0,2.0,0.29334623,2.0,2.0
810.0,2.0,0.316731,2.0,2.0
820.0,2.0,0.31794983,2.0,2.0
830.0,2.0,0.3105169,2.0,2.0
840.0,2.0,0.3053955,2.0,2.0
850.0,2.0,0.32857847,2.0,2.0
860.0,2.0,0.33311534,2.0,2.0
870.0,2.0,0.33086073,2.0,2.0
880.0,2.0,0.4306499,2.0,2.0
890.0,2.0,0.44242832,1.0,2.0
900.0,2.0,0.45344418,1.0,2.0
910.0,2.0,0.45939714,1.0,2.0
920.0,2.0,0.4649129,1.0,2.0
930.0,2.0,0.4662129,1.0,2.0
940.0,2.0,0.46799996,1.0,2.0
950.0,2.0,0.46849626,1.0,2.0
960.0,2.0,0.45912528,1.0,2.0
970.0,2.0,0.45925552,1.0,2.0
980.0,2.0,0.46371436,1.0,2.0
990.0,2.0,0.47482494,1.0,2.0
1000.0,2.0,0.47633606,1.0,2.0
1010.0,2.0,0.47393838,1.0,2.0
1020.0,2.0,0.46097788,1.0,2.0
1030.0,2.0,0.45780152,1.0,2.0
1040.0,2.0,0.45080543,1.0,2.0
1050.0,2.0,0.4466496,1.0,2.0
1060.0,2.0,0.4301704,2.0,2.0
1070.0,2.0,0.41140044,2.0,2.0
1080.0,2.0,0.4120485,2.0,2.0
1090.0,2.0,0.41344514,2.0,2.0
1100.0,2.0,0.41032588,2.0,2.0
1110.0,2.0,0.38775042,2.0,2.0
1120.0,2.0,0.38767958,2.0,2.0
1130.0,2.0,0.3962736,2.0,2.0
1140.0,2.0,0.41673234,2.0,2.0
1150.0,2.0,0.43206522,2.0,2.0
1160.0,2.0,0.43014532,2.0,2.0
1170.0,2.0,0.43142197,2.0,2.0
1180.0,2.0,0.44182932,1.0,2.0
1190.0,2.0,0.4518287,1.0,2.0
1200.0,2.0,0.4598843,1.0,2.0
1210.0,2.0,0.4636811,1.0,2.0
1220.0,2.0,0.4725775,1.0,2.0
1230.0,2.0,0.4771459,1.0,2.0
1240.0,2.0,0.48025984,1.0,2.0
1250.0,2.0,0.49219906,1.0,2.0
1260.0,2.0,0.49821082,1.0,2.0
1270.0,2.0,0.4998245,1.0,2.0
1280.0,2.0,0.49975902,1.0,2.0
1290.0,1.5,0.5,1.0,2.0
1300.0,1.0,0.49908704,1.0,2.0
1310.0,1.0,0.49732143,1.0,2.0
1320.0,1.0,0.4975276,1.0,2.0
1330.0,1.0,0.49772727,1.0,2.0
1340.0,1.0,0.49779788,1.0,2.0
1350.0,1.0,0.49637628,1.0,2.0
1360.0,1.0,0.49660832,1.0,2.0
1370.0,1.0,0.49683452,1.0,2.0
1380.0,1.0,0.49556065,1.0,2.0
1390.0,1.0,0.49300665,1.0,2.0
1400.0,1.0,0.49541795,1.0,2.0
1410.0,1.0,0.49749988,1.0,2.0
1420.0,1.0,0.49701214,1.0,2.0
1430.0,1.0,0.49067646,1.0,2.0
1440.0,1.0,0.55324215,1.0,2.0
1450.0,1.0,0.56580323,1.0,2.0
1460.0,1.0,0.5621056,1.0,2.0
1470.0,1.0,0.4969141,1.0,2.0
1480.0,1.0,0.49230677,1.0,2.0
1490.0,1.0,0.49263483,1.0,2.0
1500.0,1.0,0.4929585,1.0,2.0
1510.0,1.0,0.4932776,1.0,2.0
1520.0,1.0,0.49348378,1.0,2.0
1530.0,1.0,0.51156473,1.0,2.0
1540.0,1.0,0.5686854,1.0,2.0
1550.0,1.0,0.5690423,1.0,2.0
1560.0,1.0,0.569394,1.0,2.0
1570.0,1.0,0.5695577,1.0,2.0
1580.0,2.0,0.56690454,1.0,2.0
1590.0,2.0,0.5259329,1.0,2.0
1600.0,2.0,0.4728718,1.0,2.0
1610.0,2.0,0.44969687,1.0,2.0
1620.0,2.0,0.4197198,2.0,2.0
1630.0,2.0,0.36783254,2.0,2.0
1640.0,2.0,0.33325535,2.0,2.0
1650.0,2.0,0.31395835,2.0,2.0
1660.0,2.0,0.26352897,2.0,2.0
1670.0,2.0,0.19050439,2.0,2.0
1680.0,2.0,0.1603407,2.0,2.0
1690.0,2.0,0.20212533,2.0,2.0
1700.0,2.0,0.1829733,2.0,2.0
1710.0,2.0,0.19475518,2.0,2.0
1720.0,2.0,0.24298182,2.0,2.0
1730.0,2.0,0.23413482,2.0,2.0
1740.0,2.0,0.22003937,2.0,2.0
1750.0,2.0,0.22955187,2.0,2.0
1760.0,2.0,0.27681664,2.0,2.0
1770.0,2.0,0.31347692,2.0,2.0
1780.0,2.0,0.3444505,2.0,2.0
1790.0,2.0,0.3626789,2.0,2.0
1800.0,2.0,0.33203888,2.0,2.0
1810.0,2.0,0.24364571,2.0,2.0
1820.0,2.0,0.113218166,2.0,2.0
1830.0,2.0,0.13935904,2.0,2.0
1840.0,2.0,0.24917802,2.0,2.0
1850.0,2.0,0.26320538,2.0,2.0
1860.0,2.0,0.21260728,2.0,2.0
1870.0,2.0,0.16142616,2.0,2.0
1880.0,2.0,0.21117508,2.0,2.0
1890.0,2.0,0.26372287,2.0,2.0
1900.0,2.0,0.2876326,2.0,2.0
1910.0,2.0,0.28139246,2.0,2.0
1920.0,2.0,0.2730586,2.0,2.0
1930.0,2.0,0.2892827,2.0,2.0
1940.0,2.0,0.31008163,2.0,2.0
1950.0,2.0,0.3049095,2.0,2.0
1960.0,2.0,0.29937452,2.0,2.0
1970.0,2.0,0.31362155,2.0,2.0
1980.0,2.0,0.33502457,2.0,2.0
1990.0,2.0,0.33055034,2.0,2.0
2000.0,2.0,0.32574227,2.0,2.0
2010.0,2.0,0.32075962,2.0,2.0
2020.0,2.0,0.31344256,2.0,2.0
2030.0,2.0,0.30370235,2.0,2.0
2040.0,2.0,0.3230878,2.0,2.0
2050.0,2.0,0.35433704,2.0,2.0
2060.0,2.0,0.3739083,2.0,2.0
2070.0,2.0,0.37053466,2.0,2.0
2080.0,2.0,0.36576086,2.0,2.0
2090.0,2.0,0.3619505,2.0,2.0
2100.0,2.0,0.3873788,2.0,2.0
2110.0,2.0,0.4345593,2.0,2.0
2120.0,2.0,0.5017018,2.0,2.0
2130.0,2.0,0.5348407,2.0,2.0
2140.0,2.0,0.5563828,2.0,2.0
2150.0,2.0,0.55106044,2.0,2.0
2160.0,2.0,0.5357646,2.0,2.0
2170.0,2.0,0.52284706,2.0,2.0
2180.0,2.0,0.5177141,2.0,2.0
2190.0,2.0,0.51403314,2.0,2.0
2200.0,2.0,0.5126085,2.0,2.0
2210.0,2.0,0.54431343,2.0,2.0
2220.0,2.0,0.5859433,2.0,2.0
2230.0,2.0,0.5910343,2.0,2.0
2240.0,2.0,0.6084763,2.0,2.0
2250.0,2.0,0.6244638,2.0,2.0
2260.0,2.0,0.6226198,2.0,2.0
2270.0,2.0,0.62109333,2.0,2.0
2280.0,2.0,0.6182617,2.0,2.0
2290.0,2.0,0.6162276,2.0,2.0
2300.0,2.0,0.61340207,2.0,2.0
2310.0,2.0,0.6288647,2.0,2.0
2320.0,2.0,0.65973186,2.0,2.0
2330.0,2.0,0.65823585,2.0,2.0
2340.0,2.0,0.65732735,2.0,2.0
2350.0,2.0,0.64083713,2.0,2.0
2360.0,2.0,0.6087862,2.0,2.0
2370.0,2.0,0.57417566,2.0,2.0
2380.0,2.0,0.54062575,2.0,2.0
2390.0,2.0,0.529108,2.0,2.0
2400.0,2.0,0.51296073,2.0,2.0
2410.0,2.0,0.5321402,2.0,2.0
2420.0,2.0,0.5510511,1.0,2.0
2430.0,2.0,0.5581672,1.0,2.0
2440.0,2.0,0.558092,1.0,2.0
2450.0,2.0,0.5564739,1.0,2.0
2460.0,2.0,0.5232561,1.0,2.0
2470.0,2.0,0.52607816,1.0,2.0
2480.0,2.0,0.56218266,1.0,2.0
2490.0,2.0,0.58279186,1.0,2.0
2500.0,2.0,0.53987265,1.0,2.0
2510.0,2.0,0.4872208,1.0,2.0
2520.0,2.0,0.45868525,1.0,2.0
2530.0,2.0,0.45717204,1.0,2.0
2540.0,2.0,0.45561212,1.0,2.0
2550.0,2.0,0.45417118,1.0,2.0
2560.0,2.0,0.45192382,1.0,2.0
2570.0,2.0,0.46206188,1.0,2.0
2580.0,2.0,0.4700836,1.0,2.0
2590.0,2.0,0.47873867,1.0,2.0
2600.0,2.0,0.48600587,1.0,2.0
2610.0,2.0,0.4852578,1.0,2.0
2620.0,2.0,0.48448163,1.0,2.0
2630.0,2.0,0.4837984,1.0,2.0
2640.0,2.0,0.48250225,1.0,2.0
2650.0,2.0,0.47810474,1.0,2.0
2660.0,2.0,0.48085687,1.0,2.0
2670.0,2.0,0.48866192,1.0,2.0
2680.0,2.0,0.49413556,1.0,2.0
2690.0,2.0,0.49130997,1.0,2.0
2700.0,2.0,0.48994666,1.0,2.0
2710.0,2.0,0.48935142,1.0,2.0
2720.0,2.0,0.4887325,1.0,2.0
2730.0,2.0,0.4827944,1.0,2.0
2740.0,2.0,0.38225672,2.0,2.0
2750.0,2.0,0.38738555,2.0,2.0
2760.0,2.0,0.39160326,2.0,2.0
2770.0,2.0,0.39213532,2.0,2.0
2780.0,2.0,0.3929708,2.0,2.0
2790.0,2.0,0.3791815,2.0,2.0
2800.0,2.0,0.3318554,2.0,2.0
2810.0,2.0,0.2971188,2.0,2.0
2820.0,2.0,0.24004711,2.0,2.0
2830.0,2.0,0.17479892,2.0,2.0
2840.0,2.0,0.0,2.0,2.0
2850.0,2.0,0.0,2.0,2.0
2860.0,2.0,0.0,2.0,2.0
2870.0,2.0,0.0,2.0,2.0
2880.0,2.0,0.0,2.0,2.0
2890.0,2.0,0.0,2.0,2.0
2900.0,2.0,0.0,2.0,2.0
2910.0,2.0,0.0,2.0,2.0
2920.0,2.0,0.0,2.0,2.0
2930.0,2.0,0.0,2.0,2.0
2940.0,2.0,0.0,2.0,2.0
2950.0,2.0,0.0,2.0,2.0
2960.0,2.0,0.0,2.0,2.0
2970.0,2.0,0.0,2.0,2.0
2980.0,2.0,0.0,2.0,2.0
2990.0,2.0,0.0,2.0,2.0
3000.0,2.0,0.0,2.0,2.0
3010.0,2.0,0.0,2.0,2.0
3020.0,2.0,0.0,2.0,2.0
3030.0,2.0,0.0,2.0,2.0
3040.0,2.0,0.0,2.0,2.0
3050.0,2.0,0.0,2.0,2.0
3060.0,2.0,0.2078175,2.0,2.0
3070.0,2.0,0.31866094,2.0,2.0
3080.0,2.0,0.36951745,2.0,2.0
3090.0,2.0,0.37938997,2.0,2.0
3100.0,2.0,0.37921387,2.0,2.0
3110.0,2.0,0.38089713,2.0,2.0
3120.0,2.0,0.38226506,2.0,2.0
3130.0,2.0,0.3935274,2.0,2.0
3140.0,2.0,0.42442945,2.0,2.0
3150.0,2.0,0.43326,2.0,2.5
3160.0,2.0,0.43350756,2.0,2.75
3170.0,2.0,0.43642953,2.0,3.0
3180.0,2.0,0.4583337,2.0,3.0
3190.0,2.0,0.4720116,2.0,3.0
3200.0,2.0,0.4826466,2.0,3.0
3210.0,2.0,0.49163717,2.0,3.0
3220.0,2.0,0.49730477,2.0,3.0
3230.0,2.0,0.4987876,2.0,3.0
3240.0,2.0,0.49891195,2.0,3.0
3250.0,2.0,0.49891195,2.0,3.0
3260.0,2.0,0.4987876,2.0,3.0
3270.0,2.0,0.49897543,2.0,3.0
3280.0,2.0,0.49986947,2.0,3.0
3290.0,3.0,0.49999925,2.0,3.0
3300.0,2.5,0.5,2.0,3.0
3310.0,2.0,0.49999925,2.0,3.0
3320.0,2.0,0.4985083,2.0,3.0
3330.0,2.0,0.4942514,2.0,3.0
3340.0,2.0,0.4693109,2.0,3.0
3350.0,2.0,0.0,2.0,2.0
3360.0,2.0,0.0,2.0,2.0
3370.0,2.0,0.0,2.0,2.0
3380.0,2.0,0.0,2.0,2.0
3390.0,2.0,0.0,2.0,2.0
3400.0,2.0,0.0,2.0,2.0
3410.0,2.0,0.0,2.0,2.0
3420.0,2.0,0.0,2.0,2.0
3430.0,2.0,0.0,2.0,2.0
3440.0,2.0,0.0,2.0,2.0
3450.0,2.0,0.0,2.0,2.0
3460.0,2.0,0.0,2.0,2.0
3470.0,2.0,0.0,2.0,2.0
3480.0,2.0,0.0,2.0,2.0
3490.0,2.0,0.0,2.0,2.0
3500.0,2.0,0.0,2.0,2.0
3510.0,2.0,0.0,2.0,2.0
3520.0,2.0,0.0,2.0,2.0
3530.0,2.0,0.0,2.0,2.0
3540.0,2.0,0.0,2.0,2.0
3550.0,2.0,0.0,2.0,2.0
3560.0,2.0,0.0,2.0,2.0
3570.0,2.0,0.0,2.0,2.0
3580.0,2.0,0.0,2.0,2.0
3590.0,2.0,0.0,2.0,2.0
3600.0,2.0,0.20902991,2.0,2.0
3610.0,2.0,0.21374005,2.0,2.0
3620.0,2.0,0.21059036,2.0,2.0
3630.0,2.0,0.28843287,2.0,2.0
3640.0,2.0,0.28652054,2.0,2.0
3650.0,2.0,0.28652054,2.0,2.0
3660.0,2.0,0.28843287,2.0,2.0
3670.0,2.0,0.28843287,2.0,2.0
3680.0,2.0,0.28652054,2.0,2.0
3690.0,2.0,0.2828501,2.0,2.0
3700.0,2.0,0.2826694,2.0,2.0
3710.0,2.0,0.0,2.0,2.0
3720.0,2.0,0.0,2.0,2.0
3730.0,2.0,0.0,2.0,2.0
3740.0,2.0,0.0,2.0,2.0
3750.0,2.0,0.0,2.0,2.0
3760.0,2.0,0.0,2.0,2.0
3770.0,2.0,0.0,2.0,2.0
3780.0,2.0,0.0,2.0,2.0
3790.0,2.0,0.0,2.0,2.0
3800.0,2.0,0.0,2.0,2.0
3810.0,2.0,0.0,2.0,2.0
3820.0,2.0,0.03866219,2.0,2.0
3830.0,2.0,0.1796312,2.0,2.0
3840.0,2.0,0.22329688,2.0,2.0
3850.0,2.0,0.22542675,2.0,2.0
3860.0,2.0,0.22889972,2.0,2.0
3870.0,2.0,0.31265238,2.0,2.0
3880.0,2.0,0.37352282,2.0,2.0
3890.0,2.0,0.38900897,2.0,2.0
3900.0,2.0,0.3672672,2.0,2.0
3910.0,2.0,0.32510197,2.0,2.0
3920.0,2.0,0.31406343,2.0,2.0
3930.0,2.0,0.3092264,2.0,2.0
3940.0,2.0,0.30750477,2.0,2.0
3950.0,2.0,0.31406343,2.0,2.0
3960.0,2.0,0.3142697,2.0,2.0
3970.0,2.0,0.28844854,2.0,2.0
3980.0,2.0,0.23817386,2.0,2.0
3990.0,2.0,0.16659865,2.0,2.0
4000.0,2.0,0.0,2.0,2.0
4010.0,2.0,0.0,2.0,2.0
4020.0,2.0,0.0,2.0,2.0
4030.0,2.0,0.0,2.0,2.0
4040.0,2.0,0.0,2.0,2.0
4050.0,2.0,0.0,2.0,2.0
4060.0,2.0,0.0,2.0,2.0
4070.0,2.0,0.0,2.0,2.0
4080.0,2.0,0.0,2.0,2.0
4090.0,2.0,0.0,2.0,2.0
4100.0,2.0,0.0,2.0,2.0
4110.0,2.0,0.0,2.0,2.0
4120.0,2.0,0.0,2.0,2.0
4130.0,2.0,0.0,2.0,2.0
4140.0,2.0,0.0,2.0,2.0
4150.0,2.0,0.0,2.0,2.0
4160.0,2.0,0.0,2.0,2.0
4170.0,2.0,0.0,2.0,2.0
4180.0,2.0,0.0,2.0,2.0
4190.0,2.0,0.0,2.0,2.0
4200.0,2.0,0.0,2.0,2.0
4210.0,2.0,0.0,2.0,2.0
4220.0,2.0,0.0,2.0,2.0
4230.0,2.0,0.0,2.0,2.0
4240.0,2.0,0.0,2.0,2.0
4250.0,2.0,0.0,2.0,2.0
4260.0,2.0,0.0,2.0,2.0
4270.0,2.0,0.0,2.0,2.0
4280.0,2.0,0.04106502,2.0,2.0
4290.0,2.0,0.20425741,2.0,2.0
4300.0,2.0,0.49993813,2.0,3.0
4310.0,3.0,0.49945647,2.0,3.0
4320.0,3.0,0.49496436,2.0,3.0
4330.0,3.0,0.49487162,2.0,3.0
4340.0,3.0,0.48310396,2.0,3.0
4350.0,3.0,0.45623073,2.0,3.0
4360.0,3.0,0.4171394,3.0,3.0
4370.0,3.0,0.3681712,3.0,3.0
4380.0,3.0,0.35014656,3.0,3.0
4390.0,3.0,0.3499271,3.0,3.0
4400.0,3.0,0.3501466,3.0,3.0
4410.0,3.0,0.29936704,3.0,3.0
4420.0,3.0,0.26723954,3.0,3.0
4430.0,3.0,0.21908292,3.0,3.0
4440.0,3.0,0.21247879,3.0,3.0
4450.0,3.0,0.0,3.0,3.0
4460.0,3.0,0.0,3.0,3.0
4470.0,3.0,0.0,3.0,3.0
4480.0,3.0,0.0,3.0,3.0
4490.0,3.0,0.0,3.0,3.0
4500.0,3.0,0.0,3.0,3.0
4510.0,3.0,0.0,3.0,3.0
4520.0,3.0,0.0,3.0,3.0
4530.0,3.0,0.0,3.0,3.0
4540.0,3.0,0.0,3.0,3.0
4550.0,3.0,0.0,3.0,3.0
4560.0,3.0,0.14706375,3.0,3.0
4570.0,3.0,0.28624967,3.0,3.0
4580.0,3.0,0.35714886,3.0,3.0
4590.0,3.0,0.35714883,3.0,3.0
4600.0,3.0,0.35559416,3.0,3.0
4610.0,3.0,0.35714886,3.0,3.0
4620.0,3.0,0.35738134,3.0,3.0
4630.0,3.0,0.35714886,3.0,3.0
4640.0,3.0,0.35714886,3.0,3.0
4650.0,3.0,0.33049488,3.0,3.0
4660.0,3.0,0.22644515,3.0,3.0
4670.0,3.0,0.0,3.0,3.0
4680.0,3.0,0.0,3.0,3.0
4690.0,3.0,0.0,3.0,3.0
4700.0,3.0,0.0,3.0,3.0
4710.0,3.0,0.0,3.0,3.0
4720.0,3.0,0.0,3.0,3.0
4730.0,3.0,0.0,3.0,3.0
4740.0,3.0,0.0,3.0,3.0
4750.0,3.0,0.0,3.0,3.0
4760.0,3.0,0.0,3.0,3.0
4770.0,3.0,0.0,3.0,3.0
4780.0,3.0,0.0,3.0,3.0
4790.0,3.0,0.0,3.0,3.0
4800.0,3.0,0.0,3.0,3.0
4810.0,3.0,0.0,3.0,3.0
4820.0,3.0,0.0,3.0,3.0
4830.0,3.0,0.0,3.0,3.0
4840.0,3.0,0.0,3.0,3.0
4850.0,3.0,0.0,3.0,3.0
4860.0,3.0,0.0,3.0,3.0
4870.0,3.0,0.0,3.0,3.0
4880.0,3.0,0.0,3.0,3.0
4890.0,3.0,0.0,3.0,3.0
4900.0,3.0,0.0,3.0,3.0
4910.0,3.0,0.06867951,3.0,3.0
4920.0,3.0,0.25978294,3.0,3.0
4930.0,3.0,0.3076394,3.0,3.0
4940.0,3.0,0.39577243,3.0,3.0
4950.0,3.0,0.43000755,3.0,3.0
4960.0,3.0,0.49059567,2.0,3.0
4970.0,3.0,0.49751753,2.0,3.0
4980.0,3.0,0.4974297,2.0,3.0
4990.0,3.0,0.49735698,2.0,3.0
5000.0,3.0,0.49751753,2.0,3.0
5010.0,3.0,0.4999245,2.0,3.0
5020.0,3.0,0.4999994,2.0,3.0
5030.0,2.0,0.4999994,2.0,3.0
5040.0,3.0,0.4999994,2.0,3.0
5050.0,2.5,0.5,2.0,3.0
5060.0,3.0,0.4999994,2.0,3.0
5070.0,2.0,0.4999994,2.0,3.0
5080.0,2.0,0.4999994,2.0,3.0
5090.0,2.0,0.4999994,2.0,3.0
5100.0,2.0,0.49322295,2.0,3.0
5110.0,2.0,0.47482857,2.0,3.0
5120.0,2.0,0.4345971,2.0,3.0
5130.0,2.0,0.40188625,2.0,2.0
5140.0,2.0,0.35402557,2.0,2.0
5150.0,2.0,0.30146882,2.0,2.0
5160.0,2.0,0.29936704,2.0,2.0
5170.0,2.0,0.29936704,2.0,2.0
5180.0,2.0,0.29936704,2.0,2.0
5190.0,2.0,0.299367,2.0,2.0
5200.0,2.0,0.30168042,2.0,2.0
5210.0,2.0,0.29936704,2.0,2.0
5220.0,2.0,0.30146882,2.0,2.0
5230.0,2.0,0.30632815,2.0,2.0
5240.0,2.0,0.3082369,2.0,2.0
5250.0,2.0,0.3052092,2.0,2.0
5260.0,2.0,0.2995776,2.0,2.0
5270.0,2.0,0.29936704,2.0,2.0
5280.0,2.0,0.29936704,2.0,2.0
5290.0,2.0,0.30146882,2.0,2.0
5300.0,2.0,0.29936704,2.0,2.0
5310.0,2.0,0.30146882,2.0,2.0
5320.0,2.0,0.29936704,2.0,2.0
5330.0,2.0,0.30146882,2.0,2.0
5340.0,2.0,0.29936704,2.0,2.0
5350.0,2.0,0.2937522,2.0,2.0
5360.0,2.0,0.22117895,2.0,2.0
5370.0,2.0,0.22434476,2.0,2.0
5380.0,2.0,0.22452085,2.0,2.0
5390.0,2.0,0.22434476,2.0,2.0
5400.0,2.0,0.22452085,2.0,2.0
5410.0,2.0,0.21794495,2.0,2.0
5420.0,2.0,0.2190829,2.0,2.0
5430.0,2.0,0.2158119,2.0,2.0
5440.0,2.0,0.21908292,2.0,2.0
5450.0,2.0,0.21581191,2.0,2.0
5460.0,2.0,0.21908292,2.0,2.0
5470.0,2.0,0.21908292,2.0,2.0
5480.0,2.0,0.21597376,2.0,2.0
5490.0,2.0,0.2190829,2.0,2.0
5500.0,2.0,0.21597376,2.0,2.0
5510.0,2.0,0.149151,2.0,2.0
5520.0,2.0,0.0,2.0,2.0
5530.0,2.0,0.0,2.0,2.0
5540.0,2.0,0.0,2.0,2.0
5550.0,2.0,0.0,2.0,2.0
5560.0,2.0,0.0,2.0,2.0
5570.0,2.0,0.0,2.0,2.0
5580.0,2.0,0.21581191,2.0,2.0
5590.0,2.0,0.21908292,2.0,2.0
5600.0,2.0,0.21908292,2.0,2.0
5610.0,2.0,0.21908292,2.0,2.0
5620.0,2.0,0.2190829,2.0,2.0
5630.0,2.0,0.21597376,2.0,2.0
5640.0,2.0,0.0,2.0,2.0
5650.0,2.0,0.22452085,2.0,2.0
5660.0,2.0,0.22452085,2.0,2.0
5670.0,2.0,0.22434476,2.0,2.0
5680.0,2.0,0.22452085,2.0,2.0
5690.0,2.0,0.22031403,2.0,2.0
5700.0,2.0,0.21908292,2.0,2.0
5710.0,2.0,0.21597376,2.0,2.0
5720.0,2.0,0.21908292,2.0,2.0
5730.0,2.0,0.2158119,2.0,2.0
5740.0,2.0,0.25959376,2.0,2.0
5750.0,2.0,0.34760877,2.0,2.0
5760.0,2.0,0.35714883,2.0,2.0
5770.0,2.0,0.35714886,2.0,2.0
5780.0,2.0,0.35582626,2.0,2.0
5790.0,2.0,0.35177195,2.0,2.0
5800.0,2.0,0.30823693,2.0,2.0
5810.0,2.0,0.30632818,2.0,2.0
5820.0,2.0,0.30823693,2.0,2.0
5830.0,2.0,0.30632818,2.0,2.0
5840.0,2.0,0.30632815,2.0,2.0
5850.0,2.0,0.3019227,2.0,2.0
5860.0,2.0,0.29936704,2.0,2.0
5870.0,2.0,0.30146882,2.0,2.0
5880.0,2.0,0.29936704,2.0,2.0
5890.0,2.0,0.30146882,2.0,2.0
5900.0,2.0,0.29936704,2.0,2.0
5910.0,2.0,0.30146882,2.0,2.0
5920.0,2.0,0.26041654,2.0,2.0
5930.0,2.0,0.22452085,2.0,2.0
5940.0,2.0,0.22117896,2.0,2.0
5950.0,2.0,0.22434476,2.0,2.0
5960.0,2.0,0.22452085,2.0,2.0
5970.0,2.0,0.22434476,2.0,2.0
5980.0,2.0,0.21908292,2.0,2.0
5990.0,2.0,0.21597376,2.0,2.0
6000.0,2.0,0.21908292,2.0,2.0
6010.0,2.0,0.2158119,2.0,2.0
6020.0,2.0,0.21908292,2.0,2.0
6030.0,2.0,0.2158119,2.0,2.0
6040.0,2.0,0.21908292,2.0,2.0
6050.0,2.0,0.0,2.0,2.0
6060.0,2.0,0.0,2.0,2.0
6070.0,2.0,0.0,2.0,2.0
6080.0,2.0,0.0,2.0,2.0
6090.0,2.0,0.0,2.0,2.0
6100.0,2.0,0.0,2.0,2.0
6110.0,2.0,0.0,2.0,2.0
6120.0,2.0,0.0,2.0,2.0
6130.0,2.0,0.098929115,2.0,2.0
6140.0,2.0,0.21995378,2.0,2.0
6150.0,2.0,0.31797147,2.0,2.0
6160.0,2.0,0.299975,2.0,2.0
6170.0,2.0,0.21908292,2.0,2.0
6180.0,2.0,0.2158119,2.0,2.0
6190.0,2.0,0.21908292,2.0,2.0
6200.0,2.0,0.20955388,2.0,2.0
6210.0,2.0,0.15599833,2.0,2.0
6220.0,2.0,0.22117895,2.0,2.0
6230.0,2.0,0.22452085,2.0,2.0
6240.0,2.0,0.22117896,2.0,2.0
6250.0,2.0,0.22434476,2.0,2.0
6260.0,2.0,0.22452085,2.0,2.0
6270.0,2.0,0.22117895,2.0,2.0
6280.0,2.0,0.29977804,2.0,2.0
6290.0,2.0,0.3019227,2.0,2.0
6300.0,2.0,0.29936704,2.0,2.0
6310.0,2.0,0.29936704,2.0,2.0
6320.0,2.0,0.30146882,2.0,2.0
6330.0,2.0,0.26286674,2.0,2.0
6340.0,2.0,0.22452085,2.0,2.0
6350.0,2.0,0.22117895,2.0,2.0
6360.0,2.0,0.22452085,2.0,2.0
6370.0,2.0,0.22117896,2.0,2.0
6380.0,2.0,0.22434476,2.0,2.0
6390.0,2.0,0.22452085,2.0,2.0
6400.0,2.0,0.22434476,2.0,2.0
6410.0,2.0,0.22452085,2.0,2.0
6420.0,2.0,0.22117896,2.0,2.0
6430.0,2.0,0.22452085,2.0,2.0
6440.0,2.0,0.30632815,2.0,2.0
6450.0,2.0,0.30146882,2.0,2.0
6460.0,2.0,0.22434476,2.0,2.0
6470.0,2.0,0.22452085,2.0,2.0
6480.0,2.0,0.22117895,2.0,2.0
6490.0,2.0,0.22452085,2.0,2.0
6500.0,2.0,0.22117896,2.0,2.0
6510.0,2.0,0.22452085,2.0,2.0
6520.0,2.0,0.22117896,2.0,2.0
6530.0,2.0,0.22434476,2.0,2.0
6540.0,2.0,0.22452085,2.0,2.0
6550.0,2.0,0.22434476,2.0,2.0
6560.0,2.0,0.22452085,2.0,2.0
6570.0,2.0,0.22031404,2.0,2.0
6580.0,2.0,0.21908292,2.0,2.0
6590.0,2.0,0.2158119,2.0,2.0
6600.0,2.0,0.21908292,2.0,2.0
6610.0,2.0,0.2060804,2.0,2.0
6620.0,2.0,0.0,2.0,2.0
6630.0,2.0,0.0,2.0,2.0
6640.0,2.0,0.0,2.0,2.0
6650.0,2.0,0.0,2.0,2.0
6660.0,2.0,0.0,2.0,2.0
6670.0,2.0,0.0,2.0,2.0
6680.0,2.0,0.0,2.0,2.0
6690.0,2.0,0.0,2.0,2.0
6700.0,2.0,0.0,2.0,2.0
6710.0,2.0,0.0,2.0,2.0
6720.0,2.0,0.0,2.0,2.0
6730.0,2.0,0.0,2.0,2.0
6740.0,2.0,0.0,2.0,2.0
6750.0,2.0,0.0,2.0,2.0
6760.0,2.0,0.0,2.0,2.0
6770.0,2.0,0.0,2.0,2.0
6780.0,2.0,0.0,2.0,2.0
6790.0,2.0,0.0,2.0,2.0
6800.0,2.0,0.0,2.0,2.0
6810.0,2.0,0.0,2.0,2.0
6820.0,2.0,0.0,2.0,2.0
6830.0,2.0,0.0,2.0,2.0
6840.0,2.0,0.0,2.0,2.0
6850.0,2.0,0.0,2.0,2.0
6860.0,2.0,0.0,2.0,2.0
6870.0,2.0,0.0,2.0,2.0
6880.0,2.0,0.0,2.0,2.0
6890.0,2.0,0.0,2.0,2.0
6900.0,2.0,0.0,2.0,2.0
6910.0,2.0,0.0,2.0,2.0
6920.0,2.0,0.0,2.0,2.0
6930.0,2.0,0.0,2.0,2.0
6940.0,2.0,0.0,2.0,2.0
6950.0,2.0,0.0,2.0,2.0
6960.0,2.0,0.0,2.0,2.0
6970.0,2.0,0.0,2.0,2.0
6980.0,2.0,0.0,2.0,2.0
6990.0,2.0,0.0,2.0,2.0
7000.0,2.0,0.0,2.0,2.0
7010.0,2.0,0.0,2.0,2.0
7020.0,2.0,0.0,2.0,2.0
7030.0,2.0,0.0,2.0,2.0
7040.0,2.0,0.0,2.0,2.0
7050.0,2.0,0.0,2.0,2.0
7060.0,2.0,0.0,2.0,2.0
7070.0,2.0,0.0,2.0,2.0
7080.0,2.0,0.0,2.0,2.0
7090.0,2.0,0.0,2.0,2.0
7100.0,2.0,0.0,2.0,2.0
7110.0,2.0,0.0,2.0,2.0
7120.0,2.0,0.0,2.0,2.0
7130.0,2.0,0.0,2.0,2.0
7140.0,2.0,0.0,2.0,2.0
7150.0,2.0,0.0,2.0,2.0
7160.0,2.0,0.0,2.0,2.0
7170.0,2.0,0.0,2.0,2.0
7180.0,2.0,0.0,2.0,2.0
7190.0,2.0,0.0,2.0,2.0
7200.0,2.0,0.0,2.0,2.0
7210.0,2.0,0.0,2.0,2.0
7220.0,2.0,0.0,2.0,2.0
7230.0,2.0,0.0,2.0,2.0
7240.0,2.0,0.0,2.0,2.0
7250.0,2.0,0.0,2.0,2.0
7260.0,2.0,0.0,2.0,2.0
7270.0,2.0,0.0,2.0,2.0
7280.0,2.0,0.0,2.0,2.0
7290.0,2.0,0.0,2.0,2.0
7300.0,2.0,0.0,2.0,2.0
7310.0,2.0,0.0,2.0,2.0
7320.0,2.0,0.0,2.0,2.0
7330.0,2.0,0.0,2.0,2.0
7340.0,2.0,0.0,2.0,2.0
7350.0,2.0,0.0,2.0,2.0
7360.0,2.0,0.0,2.0,2.0
7370.0,2.0,0.0,2.0,2.0
7380.0,2.0,0.0,2.0,2.0
7390.0,2.0,0.0,2.0,2.0
7400.0,2.0,0.0,2.0,2.0
7410.0,2.0,0.0,2.0,2.0
7420.0,2.0,0.0,2.0,2.0
7430.0,2.0,0.0,2.0,2.0
7440.0,2.0,0.0,2.0,2.0
7450.0,2.0,0.10152909,2.0,2.0
7460.0,2.0,0.22452086,2.0,2.0
7470.0,2.0,0.22434473,2.0,2.0
7480.0,2.0,0.22452086,2.0,2.0
7490.0,2.0,0.22434473,2.0,2.0
7500.0,2.0,0.22117895,2.0,2.0
7510.0,2.0,0.22452085,2.0,2.0
7520.0,2.0,0.22117895,2.0,2.0
7530.0,2.0,0.22452085,2.0,2.0
7540.0,2.0,0.22117895,2.0,2.0
7550.0,2.0,0.22452085,2.0,2.0
7560.0,2.0,0.22739542,2.0,2.0
7570.0,2.0,0.22696544,2.0,2.0
7580.0,2.0,0.23019253,2.0,2.0
7590.0,2.0,0.22696546,2.0,2.0
7600.0,2.0,0.19678079,2.0,2.0
7610.0,2.0,0.1852737,2.0,2.0
7620.0,2.0,0.22434473,2.0,2.0
7630.0,2.0,0.22117895,2.0,2.0
7640.0,2.0,0.12791435,2.0,2.0
7650.0,2.0,0.0,2.0,2.0
7660.0,2.0,0.0,2.0,2.0
7670.0,2.0,0.0,2.0,2.0
7680.0,2.0,0.0,2.0,2.0
7690.0,2.0,0.0,2.0,2.0
7700.0,2.0,0.0,2.0,2.0
7710.0,2.0,0.0,2.0,2.0
7720.0,2.0,0.0,2.0,2.0
7730.0,2.0,0.0,2.0,2.0
7740.0,2.0,0.0,2.0,2.0
7750.0,2.0,0.0,2.0,2.0
7760.0,2.0,0.0,2.0,2.0
7770.0,2.0,0.0,2.0,2.0
7780.0,2.0,0.0,2.0,2.0
7790.0,2.0,0.0,2.0,2.0
7800.0,2.0,0.0,2.0,2.0
7810.0,2.0,0.0,2.0,2.0
7820.0,2.0,0.0,2.0,2.0
7830.0,2.0,0.0,2.0,2.0
7840.0,2.0,0.0,2.0,2.0
7850.0,2.0,0.1702479,2.0,2.0
7860.0,2.0,0.30689222,2.0,2.0
7870.0,2.0,0.4424636,2.0,3.0
7880.0,2.0,0.49740478,2.0,3.0
7890.0,3.0,0.4896815,2.0,3.0
7900.0,3.0,0.47140455,2.0,3.0
7910.0,3.0,0.47098866,2.0,3.0
7920.0,3.0,0.4741864,2.0,3.0
7930.0,3.0,0.4821847,2.0,3.0
7940.0,3.0,0.48263812,2.0,3.0
7950.0,3.0,0.4821847,2.0,3.0
7960.0,3.0,0.48263815,2.0,3.0
7970.0,3.0,0.4821847,2.0,3.0
7980.0,3.0,0.4821847,2.0,3.0
7990.0,3.0,0.48247167,2.0,3.0
8000.0,3.0,0.48483163,2.0,3.0
8010.0,3.0,0.48763093,2.0,3.0
8020.0,3.0,0.48738644,2.0,3.0
8030.0,3.0,0.47441465,2.0,3.0
8040.0,3.0,0.4716112,2.0,3.0
8050.0,3.0,0.5563466,2.0,3.0
8060.0,3.0,0.591813,2.0,3.0
8070.0,3.0,0.5917913,2.0,3.0
8080.0,3.0,0.58876914,2.0,3.0
8090.0,3.0,0.59203285,2.0,3.0
8100.0,3.0,0.58876914,2.0,3.0
8110.0,3.0,0.5920329,2.0,3.0
8120.0,3.0,0.58876914,2.0,3.0
8130.0,3.0,0.5916626,2.0,3.0
8140.0,3.0,0.50873864,2.0,3.0
8150.0,3.0,0.5920329,2.0,3.0
8160.0,3.0,0.58876914,2.0,3.0
8170.0,3.0,0.59203285,2.0,3.0
8180.0,3.0,0.59003127,2.0,3.0
8190.0,3.0,0.6710608,2.0,3.0
8200.0,3.0,0.67106074,2.0,3.0
8210.0,3.0,0.72864634,2.0,3.0
8220.0,3.0,0.7286463,2.0,3.0
8230.0,3.0,0.6632565,2.0,3.0
8240.0,3.0,0.6635033,2.0,3.0
8250.0,3.0,0.66350335,2.0,3.0
8260.0,3.0,0.663448,2.0,3.0
8270.0,3.0,0.7113084,2.0,3.0
8280.0,3.0,0.71726066,2.0,3.0
8290.0,3.0,0.7176156,2.0,3.0
8300.0,3.0,0.71761566,2.0,3.0
8310.0,3.0,0.75820714,2.0,3.0
8320.0,3.0,0.75820714,2.0,3.0
8330.0,2.0,0.73708504,2.0,3.0
8340.0,2.0,0.73573524,2.0,3.0
8350.0,2.0,0.70217836,2.0,3.0
8360.0,2.0,0.6113537,2.0,3.0
8370.0,2.0,0.5321681,2.0,2.0
8380.0,2.0,0.41659778,2.0,2.0
8390.0,2.0,0.41688898,2.0,2.0
8400.0,2.0,0.44792363,2.0,2.0
8410.0,2.0,0.44792363,2.0,2.0
8420.0,2.0,0.4009063,2.0,2.0
8430.0,2.0,0.21481073,2.0,2.0
8440.0,2.0,0.20406777,2.0,2.0
8450.0,2.0,0.0,2.0,2.0
8460.0,2.0,0.0,2.0,2.0
8470.0,2.0,0.0,2.0,2.0
8480.0,2.0,0.0,2.0,2.0
8490.0,2.0,0.0,2.0,2.0
8500.0,2.0,0.0,2.0,2.0
8510.0,2.0,0.0,2.0,2.0
8520.0,2.0,0.0,2.0,2.0
8530.0,2.0,0.0,2.0,2.0
8540.0,2.0,0.27354127,2.0,2.0
8550.0,2.0,0.2819503,2.0,2.0
8560.0,2.0,0.2819503,2.0,2.0
8570.0,2.0,0.33743805,2.0,2.0
8580.0,2.0,0.53658086,2.0,3.0
8590.0,2.0,0.5572457,2.0,3.0
8600.0,2.0,0.5588524,2.0,3.0
8610.0,2.0,0.50874096,2.0,3.0
8620.0,2.0,0.47421408,2.0,3.0
8630.0,2.0,0.45584357,2.0,2.0
8640.0,2.0,0.43067852,2.0,2.0
8650.0,2.0,0.43023252,2.0,2.0
8660.0,2.0,0.0,2.0,2.0
8670.0,2.0,0.0,2.0,2.0
8680.0,2.0,0.0,2.0,2.0
8690.0,2.0,0.0,2.0,2.0
8700.0,2.0,0.0,2.0,2.0
8710.0,2.0,0.0,2.0,2.0
8720.0,2.0,0.0,2.0,2.0
8730.0,2.0,0.0,2.0,2.0
8740.0,2.0,0.0,2.0,2.0
8750.0,2.0,0.0,2.0,2.0
8760.0,2.0,0.0,2.0,2.0
8770.0,2.0,0.0,2.0,2.0
8780.0,2.0,0.0,2.0,2.0
8790.0,2.0,0.0,2.0,2.0
8800.0,2.0,0.44701678,2.0,3.0
8810.0,2.0,0.38322765,2.0,2.0
8820.0,2.0,0.41186494,2.0,2.0
8830.0,2.0,0.40660614,2.0,2.0
8840.0,2.0,0.40265745,2.0,2.0
8850.0,2.0,0.3968408,2.0,2.0
8860.0,2.0,0.39156866,2.0,2.0
8870.0,2.0,0.41039604,2.0,2.0
8880.0,2.0,0.41784042,2.0,2.0
8890.0,2.0,0.41081744,2.0,2.0
8900.0,2.0,0.40226105,2.0,2.0
8910.0,2.0,0.39598107,2.0,2.0
8920.0,2.0,0.39066285,2.0,2.0
8930.0,2.0,0.39614064,2.0,2.0
8940.0,2.0,0.44066724,2.0,2.0
8950.0,2.0,0.47672537,2.0,2.0
8960.0,2.0,0.511661,2.0,2.0
8970.0,2.0,0.5054618,2.0,2.0
8980.0,2.0,0.49761903,2.0,2.0
8990.0,2.0,0.5053953,2.0,2.0
9000.0,2.0,0.54929465,2.0,2.0
9010.0,2.0,0.59276664,2.0,3.0
9020.0,2.0,0.6238536,2.0,3.0
9030.0,2.0,0.62506497,2.0,3.0
9040.0,2.0,0.6266701,2.0,3.0
9050.0,2.0,0.62848514,2.0,3.0
9060.0,2.0,0.7132868,2.0,3.0
9070.0,2.0,0.7367266,2.0,3.0
9080.0,2.0,0.7372995,2.0,3.0
9090.0,2.0,0.7382786,2.0,3.0
9100.0,2.0,0.73928314,2.0,3.0
9110.0,2.0,0.7384728,2.0,3.0
9120.0,2.0,0.7807471,2.0,3.0
9130.0,2.0,0.78156614,2.0,3.0
9140.0,2.0,0.7836288,2.0,3.0
9150.0,2.0,0.78442967,2.0,3.0
9160.0,2.0,0.78516614,2.0,3.0
9170.0,2.0,0.78373045,2.0,3.0
9180.0,2.0,0.7842124,2.0,3.0
9190.0,2.0,0.77884597,2.0,3.0
9200.0,2.0,0.77319366,2.0,3.0
9210.0,2.0,0.775135,2.0,3.0
9220.0,2.0,0.7758984,2.0,3.0
9230.0,2.0,0.7770068,2.0,3.0
9240.0,2.0,0.77735996,2.0,3.0
9250.0,2.0,0.7655902,2.0,3.0
9260.0,2.0,0.7483463,2.0,3.0
9270.0,2.0,0.77194667,2.0,3.0
9280.0,2.0,0.77234286,2.0,3.0
9290.0,2.0,0.79179525,2.0,3.0
9300.0,2.0,0.79220855,2.0,3.0
9310.0,2.0,0.78781575,2.0,3.0
9320.0,2.0,0.7710065,2.0,3.0
9330.0,2.0,0.78551203,2.0,3.0
9340.0,2.0,0.7999915,1.5,3.0
9350.0,2.0,0.79528725,2.0,3.0
9360.0,2.0,0.77767026,2.0,3.0
9370.0,2.0,0.8155362,1.0,3.0
9380.0,2.0,0.8029933,1.0,3.0
9390.0,2.0,0.78375125,1.75,3.0
9400.0,2.0,0.7901865,1.0,3.0
9410.0,2.0,0.83177143,1.0,3.0
9420.0,2.0,0.8073222,1.0,3.0
9430.0,2.0,0.7989389,1.75,3.0
9440.0,2.0,0.85179186,1.0,3.0
9450.0,2.0,0.86333066,1.0,3.0
9460.0,2.0,0.8423534,1.0,3.0
9470.0,2.0,0.8307967,1.0,3.0
9480.0,2.0,0.8381586,1.0,3.0
9490.0,2.0,0.85437727,1.0,3.0
9500.0,2.0,0.85996056,1.0,3.0
9510.0,2.0,0.8435026,1.0,3.0
9520.0,2.0,0.844223,1.0,3.0
9530.0,2.0,0.84610415,1.0,3.0
9540.0,2.0,0.8526794,1.0,3.0
9550.0,2.0,0.8193704,1.0,3.0
9560.0,2.0,0.7911848,1.0,3.0
9570.0,2.5,0.8978323,1.0,3.0
9580.0,3.0,0.81263816,2.0,3.0
9590.0,3.0,0.78543675,2.0,3.0
9600.0,3.0,0.8040328,2.0,3.0
9610.0,3.0,0.80389875,2.0,3.0
9620.0,3.0,0.8028354,2.0,3.0
9630.0,3.0,0.8034936,2.0,3.0
9640.0,3.0,0.7521158,2.0,3.0
9650.0,3.0,0.7231641,2.0,3.0
9660.0,3.0,0.6456237,2.0,3.0
9670.0,3.0,0.5647422,2.0,3.0
9680.0,3.0,0.56463295,2.0,3.0
9690.0,3.0,0.49399287,2.0,3.0
9700.0,3.0,0.49384198,2.0,3.0
9710.0,3.0,0.49376607,2.0,3.0
9720.0,3.0,0.49368986,2.0,3.0
9730.0,3.0,0.49927685,2.0,3.0
9740.0,3.0,0.49965692,2.0,3.0
9750.0,3.0,0.49965692,2.0,3.0
9760.0,2.0,0.49999964,2.0,3.0
9770.0,2.0,0.49856243,2.0,3.0
9780.0,2.0,0.4971218,2.0,3.0
9790.0,2.0,0.49638695,2.0,3.0
9800.0,2.0,0.48892546,2.0,3.0
9810.0,2.0,0.43910888,2.0,3.0
9820.0,2.0,0.40353242,2.0,2.0
9830.0,2.0,0.2948789,2.0,2.0
9840.0,2.0,0.24583799,2.0,2.0
9850.0,2.0,0.0,2.0,2.0
9860.0,2.0,0.0,2.0,2.0
9870.0,2.0,0.0,2.0,2.0
9880.0,2.0,0.0,2.0,2.0
9890.0,2.0,0.0,2.0,2.0
9900.0,2.0,0.0,2.0,2.0
9910.0,2.0,0.0,2.0,2.0
9920.0,2.0,0.0,2.0,2.0
9930.0,2.0,0.0,2.0,2.0
9940.0,2.0,0.0,2.0,2.0
9950.0,2.0,0.0,2.0,2.0
9960.0,2.0,0.0,2.0,2.0
9970.0,2.0,0.0,2.0,2.0
9980.0,2.0,0.0,2.0,2.0
9990.0,2.0,0.0,2.0,2.0
10000.0,2.0,0.0,2.0,2.0
10010.0,2.0,0.0,2.0,2.0
10020.0,2.0,0.0,2.0,2.0
10030.0,2.0,0.0,2.0,2.0
10040.0,2.0,0.0,2.0,2.0
10050.0,2.0,0.0,2.0,2.0
10060.0,2.0,0.0,2.0,2.0
10070.0,2.0,0.0,2.0,2.0
10080.0,2.0,0.0,2.0,2.0
10090.0,2.0,0.0,2.0,2.0
10100.0,2.0,0.0,2.0,2.0
10110.0,2.0,0.0,2.0,2.0
10120.0,2.0,0.30416954,2.0,2.0
10130.0,2.0,0.29999998,2.0,2.0
10140.0,2.0,0.31471342,2.0,2.0
10150.0,2.0,0.3573088,2.0,2.0
10160.0,2.0,0.42519468,2.0,2.0
10170.0,2.0,0.4453618,2.0,3.0
10180.0,2.0,0.4455659,2.0,3.0
10190.0,2.0,0.4499102,2.0,3.0
10200.0,2.0,0.47598684,2.0,3.0
10210.0,2.0,0.47628048,2.0,3.0
10220.0,2.0,0.47643632,2.0,3.0
10230.0,2.0,0.48150104,2.0,3.0
10240.0,2.0,0.48160377,2.0,3.0
10250.0,2.0,0.48160377,2.0,3.0
10260.0,2.0,0.48377007,2.0,3.0
10270.0,2.0,0.49375084,2.0,3.0
10280.0,2.0,0.49365923,2.0,3.0
10290.0,2.0,0.49657282,2.0,3.0
10300.0,2.0,0.49969333,2.0,3.0
10310.0,2.0,0.499671,2.0,3.0
10320.0,2.0,0.49962425,2.0,3.0
10330.0,2.0,0.64150506,2.0,3.0
10340.0,2.0,0.77455205,2.0,3.0
10350.0,2.0,0.83960134,2.0,3.0
10360.0,2.0,0.8763759,2.0,4.0
10370.0,2.0,0.8774537,2.0,4.0
10380.0,2.0,0.94700825,2.0,4.0
10390.0,2.0,1.0091411,2.0,4.0
10400.0,2.0,1.1192619,2.0,4.0
10410.0,2.0,1.180469,2.0,4.0
10420.0,2.0,1.2289457,2.0,4.0
10430.0,2.0,1.2504575,2.0,4.0
10440.0,2.0,1.252985,2.0,4.0
10450.0,2.0,1.2379616,2.0,4.0
10460.0,2.0,1.4973898,2.0,5.0
10470.0,2.0,1.5090399,2.0,4.0
10480.0,2.0,1.4838874,2.0,4.0
10490.0,2.0,1.4497622,2.0,4.0
10500.0,2.0,1.4906156,2.0,5.0
10510.0,2.0,1.5249529,2.0,5.0
10520.0,2.0,1.5539675,2.0,5.0
10530.0,2.0,1.547033,2.0,5.0
10540.0,3.0,1.5199142,2.0,5.0
10550.0,3.0,1.4638253,2.0,5.0
10560.0,4.0,1.4029665,2.0,5.0
10570.0,4.0,1.3814154,2.0,5.0
10580.0,4.0,1.3703104,2.0,5.0
10590.0,4.0,1.3493752,2.0,5.0
10600.0,4.0,1.2925204,2.0,5.0
10610.0,4.0,1.2730768,2.0,5.0
10620.0,4.0,1.2776288,2.0,5.0
10630.0,4.0,1.2892478,2.0,5.0
10640.0,4.0,1.2837788,2.0,5.0
10650.0,4.0,1.2601451,2.0,5.0
10660.0,3.5,1.250568,2.0,5.0
10670.0,3.0,1.2637594,2.0,5.0
10680.0,3.0,1.2590871,2.0,5.0
10690.0,3.0,1.2253445,2.0,5.0
10700.0,3.0,1.1830183,2.0,4.0
10710.0,3.0,1.1487316,2.0,4.0
10720.0,4.0,1.0937929,2.0,4.0
10730.0,4.0,1.0311056,2.0,4.0
10740.0,3.0,0.94264704,2.0,4.0
10750.0,3.0,0.87546897,2.0,4.0
10760.0,3.0,0.81079036,3.0,4.0
10770.0,3.0,0.7927381,3.0,4.0
10780.0,3.0,0.9219149,3.0,5.0
10790.0,3.0,0.8535448,3.0,5.0
10800.0,3.0,0.844667,3.0,5.0
10810.0,3.0,0.8543264,3.0,5.0
10820.0,4.0,0.8482066,3.0,5.0
10830.0,4.0,0.8447979,3.0,5.0
10840.0,4.0,0.8418112,3.0,5.0
10850.0,4.0,0.8208314,3.0,5.0
10860.0,4.0,0.78690493,3.0,5.0
10870.0,4.0,0.75705934,3.0,5.0
10880.0,4.0,0.74207693,3.0,5.0
10890.0,4.0,0.7052865,3.0,4.0
10900.0,4.0,0.6577124,4.0,4.0
10910.0,4.0,0.6520882,4.0,5.0
10920.0,4.0,0.44896585,4.0,4.0
10930.0,4.0,0.43994504,4.0,5.0
10940.0,4.0,0.44200513,4.0,5.0
10950.0,4.0,0.44665292,4.0,5.0
10960.0,4.0,0.46011215,4.0,5.0
10970.0,4.0,0.46736568,4.0,5.0
10980.0,4.0,0.5148202,4.0,5.0
10990.0,4.0,0.6029899,4.0,5.0
11000.0,4.0,0.66849625,4.0,5.0
11010.0,4.0,0.7009352,4.0,5.0
11020.0,4.0,0.7336197,4.0,5.0
11030.0,4.0,0.73905945,4.0,5.0
11040.0,4.0,0.738673,4.0,5.0
11050.0,4.0,0.7525687,4.0,5.0
11060.0,5.0,0.76555765,4.0,5.0
11070.0,4.0,0.7334269,4.0,5.0
11080.0,4.0,0.6681656,4.0,5.0
11090.0,4.0,0.6202096,4.0,5.0
11100.0,5.0,0.57926345,4.0,5.0
11110.0,5.0,0.5330901,4.0,5.0
11120.0,5.0,0.49758893,4.0,5.0
11130.0,5.0,0.49464533,4.0,5.0
11140.0,5.0,0.49492165,4.0,5.0
11150.0,5.0,0.49855462,4.0,5.0
11160.0,5.0,0.49912128,4.0,5.0
11170.0,5.0,0.49788824,4.0,5.0
11180.0,5.0,0.49699396,4.0,5.0
11190.0,5.0,0.497828,4.0,5.0
11200.0,5.0,0.49989283,4.0,5.0
11210.0,4.0,0.4973306,4.0,5.0
11220.0,4.0,0.48380166,4.0,5.0
11230.0,4.0,0.45531258,4.0,5.0
11240.0,4.0,0.39617652,4.0,4.0
11250.0,4.0,0.31339526,4.0,4.0
11260.0,4.0,0.20104401,4.0,4.0
11270.0,4.0,0.07925374,4.0,4.0
11280.0,4.0,0.13064462,4.0,4.0
11290.0,4.0,0.4469914,4.0,5.0
11300.0,4.0,0.28078946,4.0,4.0
11310.0,4.0,0.24219736,4.0,4.0
11320.0,4.0,0.18448615,4.0,4.0
11330.0,4.0,0.09781863,4.0,4.0
11340.0,4.0,0.0,4.0,4.0
11350.0,4.0,0.0,4.0,4.0
11360.0,4.0,0.0,4.0,4.0
11370.0,4.0,0.0,4.0,4.0
11380.0,4.0,0.0,4.0,4.0
11390.0,4.0,0.061351962,4.0,4.0
11400.0,4.0,0.17399263,4.0,4.0
11410.0,4.0,0.0,4.0,4.0
11420.0,4.0,0.0,4.0,4.0
11430.0,4.0,0.0,4.0,4.0
11440.0,4.0,0.0,4.0,4.0
11450.0,4.0,0.13631102,4.0,4.0
11460.0,4.0,0.2065673,4.0,4.0
11470.0,4.0,0.2125796,4.0,4.0
11480.0,4.0,0.21346773,4.0,4.0
11490.0,4.0,0.2600642,4.0,4.0
11500.0,4.0,0.34406513,4.0,4.0
11510.0,4.0,0.4,4.0,4.0
11520.0,4.0,0.4346184,4.0,5.0
11530.0,4.0,0.45115742,4.0,5.0
11540.0,4.0,0.46161735,4.0,5.0
11550.0,4.0,0.467374,4.0,5.0
11560.0,4.0,0.46933302,4.0,5.0
11570.0,4.0,0.47051764,4.0,5.0
11580.0,4.0,0.47869822,4.0,5.0
11590.0,4.0,0.49079943,4.0,5.0
11600.0,4.0,0.4970244,4.0,5.0
11610.0,4.0,0.49975926,4.0,5.0
11620.0,4.0,0.4999968,4.0,5.0
11630.0,5.0,0.49997154,4.0,5.0
11640.0,5.0,0.49908417,4.0,5.0
11650.0,5.0,0.4945251,4.0,5.0
11660.0,4.0,0.5192226,4.0,4.0
11670.0,4.0,0.4701803,4.0,4.0
11680.0,4.0,0.4799844,4.0,4.0
11690.0,4.0,0.5591493,4.0,4.0
11700.0,4.0,0.64146334,4.0,5.0
11710.0,4.0,0.70171154,4.0,5.0
11720.0,5.0,0.73911685,4.0,5.0
11730.0,5.0,0.75512075,4.0,5.0
11740.0,5.0,0.7704567,4.0,5.0
11750.0,5.0,0.7865485,4.0,5.0
11760.0,5.0,0.8110077,4.0,5.0
11770.0,5.0,0.8251677,4.0,5.0
11780.0,5.0,0.8408719,4.0,5.0
11790.0,5.0,0.852851,4.0,5.0
11800.0,5.0,0.8697728,4.0,5.0
11810.0,5.0,0.8774421,4.0,5.0
11820.0,5.0,0.8900705,4.0,5.0
11830.0,5.0,0.9729732,4.0,5.0
11840.0,5.0,0.99681705,4.0,5.0
11850.0,5.0,1.0050905,4.0,5.0
11860.0,5.0,1.0127591,4.0,5.0
11870.0,5.0,1.0231951,4.0,5.0
11880.0,5.0,1.0346117,4.0,5.0
11890.0,5.0,1.0352517,4.0,5.0
11900.0,5.0,1.0398983,4.0,5.0
11910.0,5.0,1.041076,4.0,5.0
11920.0,5.0,1.0258204,4.0,5.0
11930.0,5.0,0.94573784,4.0,5.0
11940.0,5.0,0.85269684,4.0,5.0
11950.0,5.0,0.8504302,4.0,5.0
11960.0,5.0,0.71398455,4.0,5.0
11970.0,5.0,0.7140266,4.0,5.0
11980.0,5.0,0.7140266,4.0,5.0
11990.0,5.0,0.7159181,4.0,5.0
12000.0,5.0,0.71398455,4.0,5.0
12010.0,5.0,0.71398455,4.0,5.0
12020.0,5.0,0.71416664,4.0,5.0
12030.0,5.0,0.71398455,4.0,5.0
12040.0,5.0,0.71398455,4.0,5.0
12050.0,5.0,0.7159628,4.0,5.0
12060.0,5.0,0.7140266,4.0,5.0
12070.0,5.0,0.71398455,4.0,5.0
12080.0,5.0,0.65450007,4.0,5.0
12090.0,5.0,0.6567056,4.0,5.0
12100.0,5.0,0.6567056,4.0,5.0
12110.0,5.0,0.6566059,4.0,5.0
12120.0,5.0,0.656103,4.0,5.0
12130.0,5.0,0.6561047,4.0,5.0
12140.0,5.0,0.6561047,4.0,5.0
12150.0,4.5,0.64986974,4.0,5.0
12160.0,4.0,0.6516427,4.0,5.0
12170.0,4.0,0.6516427,4.0,5.0
12180.0,5.0,0.6567564,4.0,5.0
12190.0,5.0,0.65460217,4.0,5.0
12200.0,5.0,0.65460217,4.0,5.0
12210.0,4.5,0.7096954,4.0,5.0
12220.0,4.0,0.7111029,4.0,5.0
12230.0,5.0,0.61262965,4.0,5.0
12240.0,5.0,0.65942335,4.0,5.0
12250.0,5.0,0.6578442,4.0,5.0
12260.0,4.0,0.6525509,4.0,5.0
12270.0,4.0,0.61743224,4.0,5.0
12280.0,4.5,0.58924025,4.0,5.0
12290.0,4.0,0.5867955,4.0,5.0
12300.0,4.0,0.5770392,4.0,5.0
12310.0,4.0,0.5615432,4.0,5.0
12320.0,4.0,0.55672014,4.0,5.0
12330.0,4.0,0.55672014,4.0,5.0
12340.0,4.0,0.5490472,4.0,5.0
12350.0,4.0,0.5981228,4.0,5.0
12360.0,4.0,0.5894193,4.0,5.0
12370.0,4.0,0.5318191,4.0,4.0
12380.0,4.0,0.43564725,4.0,4.0
12390.0,4.0,0.35661277,4.0,4.0
12400.0,4.0,0.35661277,4.0,4.0
12410.0,4.0,0.35661277,4.0,4.0
12420.0,4.0,0.36844507,4.0,4.0
12430.0,4.0,0.3641559,4.0,4.0
12440.0,4.0,0.3641559,4.0,4.0
12450.0,4.0,0.34800464,4.0,4.0
12460.0,4.0,0.30644777,4.0,4.0
12470.0,4.0,0.32303527,4.0,4.0
12480.0,4.0,0.35941842,4.0,4.0
12490.0,4.0,0.41553098,4.0,4.0
12500.0,4.0,0.41553098,4.0,4.0
12510.0,4.0,0.42546445,4.0,4.0
12520.0,4.0,0.44157225,3.0,4.0
12530.0,4.0,0.49841943,3.0,4.0
12540.0,4.0,0.56096673,3.0,4.0
12550.0,4.0,0.5568644,3.0,4.0
12560.0,4.0,0.47307828,4.0,4.0
12570.0,4.0,0.3866958,4.0,4.0
12580.0,4.0,0.39031237,4.0,4.0
12590.0,4.0,0.40564737,4.0,4.0
12600.0,4.0,0.49094135,4.0,4.0
12610.0,4.0,0.5547921,4.0,4.0
12620.0,4.0,0.5177544,4.0,4.0
12630.0,4.0,0.45356596,4.0,4.0
12640.0,4.0,0.44368368,3.0,4.0
12650.0,4.0,0.46240127,3.0,4.0
12660.0,4.0,0.486403,3.0,4.0
12670.0,4.0,0.54161686,3.0,4.0
12680.0,4.0,0.57246286,3.0,4.0
12690.0,4.0,0.53434664,3.0,4.0
12700.0,4.0,0.48378718,3.0,4.0
12710.0,4.0,0.48453212,3.0,4.0
12720.0,4.0,0.4858417,3.0,4.0
12730.0,4.0,0.51470387,3.0,4.0
12740.0,4.0,0.57568306,3.0,4.0
12750.0,4.0,0.74837255,3.0,4.0
12760.0,4.0,0.73652065,3.0,4.0
12770.0,4.0,0.7246431,3.0,4.0
12780.0,4.0,0.734198,3.0,4.0
12790.0,4.0,0.73999214,3.0,4.0
12800.0,4.0,0.72267145,3.0,4.0
12810.0,4.0,0.70635074,3.0,4.0
12820.0,4.0,0.68928057,3.0,4.0
12830.0,4.0,0.67747694,3.0,4.0
12840.0,4.0,0.6884991,3.0,4.0
12850.0,4.0,0.69905,3.0,4.0
12860.0,4.0,0.68782675,3.0,4.0
12870.0,4.0,0.67156947,3.0,4.0
12880.0,4.0,0.6532174,3.0,4.0
12890.0,4.0,0.51817864,3.0,4.0
12900.0,4.0,0.3386778,4.0,4.0
12910.0,4.0,0.4008981,4.0,4.0
12920.0,4.0,0.43126675,4.0,4.0
12930.0,4.0,0.44253296,4.0,5.0
12940.0,4.0,0.4586927,4.0,5.0
12950.0,4.0,0.46849626,4.0,5.0
12960.0,4.0,0.467243,4.0,5.0
12970.0,4.0,0.4658237,4.0,5.0
12980.0,4.0,0.46996534,4.0,5.0
12990.0,4.0,0.48439068,4.0,5.0
13000.0,4.0,0.49113876,4.0,5.0
13010.0,4.0,0.49299085,4.0,5.0
13020.0,4.0,0.49318135,4.0,5.0
13030.0,4.0,0.49655545,4.0,5.0
13040.0,4.0,0.4496244,4.0,5.0
13050.0,4.0,0.0,4.0,4.0
13060.0,4.0,0.03162276,4.0,4.0
13070.0,4.0,0.06315039,4.0,4.0
13080.0,4.0,0.07726535,4.0,4.0
13090.0,4.0,0.19838516,4.0,4.0
13100.0,4.0,0.20295404,4.0,4.0
13110.0,4.0,0.26339135,4.0,4.0
13120.0,4.0,0.27141714,4.0,4.0
13130.0,4.0,0.30146253,4.0,4.0
13140.0,4.0,0.32155982,4.0,4.0
13150.0,4.0,0.32510194,4.0,4.0
13160.0,4.0,0.3274268,4.0,4.0
13170.0,4.0,0.5610417,4.0,5.0
13180.0,4.0,0.6482523,4.0,5.0
13190.0,4.0,0.68897605,4.0,5.0
13200.0,4.0,0.69009435,4.0,5.0
13210.0,4.0,0.6965616,4.0,5.0
13220.0,4.0,0.7276552,4.0,5.0
13230.0,4.0,0.7272728,4.0,5.0
13240.0,4.0,0.72688115,4.0,5.0
13250.0,4.0,0.7266818,4.0,5.0
13260.0,4.0,0.73910797,4.0,5.0
13270.0,4.0,0.7949792,3.0,5.0
13280.0,4.0,0.7999032,3.0,5.0
13290.0,4.0,0.7993266,3.0,5.0
13300.0,4.0,0.7995465,3.0,5.0
13310.0,4.0,0.79895324,3.0,5.0
13320.0,4.0,0.79862714,3.0,5.0
13330.0,4.0,0.79800725,3.0,5.0
13340.0,4.0,0.7965847,3.0,5.0
13350.0,4.0,0.7683671,3.0,5.0
13360.0,4.0,0.6946933,3.0,4.0
13370.0,4.0,0.61219347,3.0,4.0
13380.0,4.0,0.5809298,3.0,4.0
13390.0,4.0,0.86023945,3.0,5.0
13400.0,4.0,0.75049806,3.0,4.0
13410.0,4.0,0.8473592,3.0,4.0
13420.0,4.0,0.86608964,3.0,4.0
13430.0,4.0,0.8517661,3.0,4.0
13440.0,4.0,0.89553046,3.0,5.0
13450.0,4.0,0.933801,3.0,5.0
13460.0,4.0,0.92327434,3.0,5.0
13470.0,4.0,0.89537233,3.0,5.0
13480.0,4.0,0.9154726,3.0,5.0
13490.0,4.0,0.9693533,3.0,5.0
13500.0,4.0,0.98781985,3.0,5.0
13510.0,4.0,0.9644021,3.0,5.0
13520.0,4.0,0.9393346,3.0,5.0
13530.0,4.0,0.8963722,3.0,5.0
13540.0,4.0,0.851288,3.0,5.0
13550.0,4.0,0.7848401,3.0,5.0
13560.0,4.0,0.5623151,3.0,4.0
13570.0,4.0,0.5734078,3.0,4.0
13580.0,4.0,0.63698846,3.0,4.0
13590.0,4.0,0.6378191,3.0,4.0
13600.0,4.0,0.6566243,3.0,4.0
13610.0,4.0,0.7174187,3.0,4.0
13620.0,4.0,0.7772615,3.0,4.0
13630.0,4.0,0.84493035,3.0,4.0
13640.0,4.0,0.8833449,3.0,4.0
13650.0,4.0,0.9060325,3.0,5.0
13660.0,4.0,0.87002045,3.0,5.0
13670.0,4.0,0.8914906,3.0,5.0
13680.0,4.0,0.9075657,3.0,5.0
13690.0,4.0,0.88219565,3.0,5.0
13700.0,4.0,0.8062476,3.0,5.0
13710.0,4.0,0.8029356,3.0,5.0
13720.0,4.0,0.38387454,4.0,4.0
13730.0,4.0,0.3884086,4.0,4.0
13740.0,4.0,0.38723925,4.0,4.0
13750.0,4.0,0.3862719,4.0,4.0
13760.0,4.0,0.36608475,4.0,4.0
13770.0,4.0,0.28815413,4.0,4.0
13780.0,4.0,0.20959908,4.0,4.0
13790.0,4.0,0.26104403,4.0,4.0
13800.0,4.0,0.35913274,4.0,4.0
13810.0,4.0,0.41299435,4.0,4.0
13820.0,4.0,0.43506035,4.0,4.0
13830.0,4.0,0.4497746,4.0,4.0
13840.0,4.0,0.48758593,4.0,4.0
13850.0,4.0,0.51483417,4.0,4.0
13860.0,4.0,0.5026296,4.0,4.0
13870.0,4.0,0.49548948,4.0,5.0
13880.0,4.0,0.5270963,4.0,5.0
13890.0,4.0,0.57254606,4.0,5.0
13900.0,4.0,0.5804748,4.0,5.0
13910.0,4.0,0.57889265,4.0,5.0
13920.0,4.0,0.56766933,4.0,5.0
13930.0,4.0,0.5563372,4.0,5.0
13940.0,4.0,0.5664106,4.0,5.0
13950.0,4.0,0.54999876,4.0,5.0
13960.0,4.0,0.55817777,4.0,5.0
13970.0,4.0,0.5576958,4.0,5.0
13980.0,4.0,0.5575351,4.0,5.0
13990.0,4.0,0.5573159,4.0,5.0
14000.0,4.0,0.60118645,4.0,5.0
14010.0,4.0,0.55188596,4.0,5.0
14020.0,4.0,0.5447617,4.0,5.0
14030.0,4.0,0.545974,4.0,5.0
14040.0,4.0,0.5462961,4.0,5.0
14050.0,4.0,0.53788,4.0,5.0
14060.0,4.0,0.5501798,4.0,5.0
14070.0,4.0,0.70090926,4.0,5.0
14080.0,4.0,0.5464139,4.0,4.0
14090.0,4.0,0.58080065,4.0,4.0
14100.0,4.0,0.6083607,4.0,4.0
14110.0,4.0,0.6212197,4.0,4.0
14120.0,4.0,0.64033467,4.0,4.0
14130.0,4.0,0.65594435,4.0,4.0
14140.0,4.0,0.6565207,4.0,4.0
14150.0,4.0,0.6574536,4.0,4.0
14160.0,4.0,0.6603923,4.0,4.0
14170.0,4.0,0.65058815,4.0,4.0
14180.0,4.0,0.6259267,4.0,4.0
14190.0,4.0,0.60774064,4.0,4.0
14200.0,4.0,0.5932084,4.0,4.0
14210.0,4.0,0.5949919,4.0,4.0
14220.0,4.0,0.61194474,4.0,5.0
14230.0,4.0,0.6279072,4.0,5.0
14240.0,4.0,0.6251886,4.0,5.0
14250.0,4.0,0.5885369,4.0,5.0
14260.0,4.0,0.2697214,4.0,4.0
14270.0,4.0,0.48301885,4.0,4.0
14280.0,4.0,0.41409907,4.0,4.0
14290.0,4.0,0.3997422,4.0,4.0
14300.0,4.0,0.3294899,4.0,4.0
14310.0,4.0,0.2711335,4.0,4.0
14320.0,4.0,0.24069175,4.0,4.0
14330.0,4.0,0.3470919,4.0,4.0
14340.0,4.0,0.46550238,4.0,4.0
14350.0,4.0,0.56609607,4.0,4.0
14360.0,4.0,0.57130456,4.0,4.0
14370.0,4.0,0.5380927,4.0,4.0
14380.0,4.0,0.49650645,4.0,4.0
14390.0,4.0,0.4908489,4.0,4.0
14400.0,4.0,0.48952588,4.0,4.0
14410.0,4.0,0.49570456,4.0,4.0
14420.0,4.0,0.5417838,4.0,4.0
14430.0,4.0,0.6347771,4.0,5.0
14440.0,4.0,0.6152729,4.0,5.0
14450.0,4.0,0.7058984,4.0,5.0
14460.0,4.0,0.7293496,4.0,5.0
14470.0,4.0,0.71359026,4.0,5.0
14480.0,4.0,0.7097154,4.0,5.0
14490.0,4.0,0.713967,4.0,5.0
14500.0,4.0,0.6969006,4.0,5.0
14510.0,4.0,0.6900077,4.0,5.0
14520.0,4.0,0.69063985,4.0,5.0
14530.0,4.0,0.70432276,4.0,5.0
14540.0,4.0,0.7105406,4.0,5.0
14550.0,4.0,0.71101254,4.0,5.0
14560.0,4.0,0.7489033,4.0,5.0
14570.0,4.0,0.65262234,4.0,5.0
14580.0,4.0,0.7165239,4.0,5.0
14590.0,4.0,0.49162957,4.0,5.0
14600.0,4.0,0.49167526,4.0,5.0
14610.0,4.0,0.4918393,4.0,5.0
14620.0,4.0,0.48464742,4.0,5.0
14630.0,4.0,0.53491443,4.0,5.0
14640.0,4.0,0.5455599,4.0,5.0
14650.0,4.0,0.5425093,4.0,5.0
14660.0,4.0,0.57304543,4.0,5.0
14670.0,4.0,0.6345371,4.0,5.0
14680.0,4.0,0.6646163,4.0,5.0
14690.0,4.0,0.60760885,4.0,5.0
14700.0,4.0,0.53861266,4.0,5.0
14710.0,4.0,0.55898666,4.0,5.0
14720.0,4.0,0.6451685,4.0,5.0
14730.0,4.0,0.7573705,4.0,5.0
14740.0,4.0,0.7820485,4.0,5.0
14750.0,5.0,0.7798816,4.0,5.0
14760.0,5.0,0.8215707,4.0,5.0
14770.0,4.0,0.87273675,4.0,5.0
14780.0,4.0,0.838598,4.0,5.0
14790.0,4.0,0.8246176,4.0,5.0
14800.0,4.0,0.76291716,4.0,5.0
14810.0,4.5,0.71506244,4.0,5.0
14820.0,5.0,0.78413534,4.0,5.0
14830.0,5.0,0.80328196,4.0,5.0
14840.0,5.0,0.78120375,4.0,5.0
14850.0,5.0,0.78120375,4.0,5.0
14860.0,5.0,0.78120375,4.0,5.0
14870.0,5.0,0.8041204,4.0,5.0
14880.0,5.0,0.8425822,4.0,5.0
14890.0,5.0,0.8744766,4.0,5.0
14900.0,5.0,0.8912597,4.0,5.0
14910.0,5.0,0.9099455,4.0,5.0
14920.0,5.0,0.937876,4.0,5.0
14930.0,5.0,0.93519175,4.0,5.0
14940.0,5.0,0.93983465,4.0,5.0
14950.0,5.0,0.93277854,4.0,5.0
14960.0,5.0,0.8933695,4.0,5.0
14970.0,5.0,0.86194545,4.0,5.0
14980.0,5.0,0.8572494,3.0,5.0
15040.0,5.0,1.0850233,3.0,5.0
15050.0,5.0,1.1404086,3.0,5.0
15060.0,5.0,1.1140012,3.0,5.0
15070.0,5.0,1.0440304,4.0,5.0
15080.0,5.0,1.0480561,4.0,5.0
15090.0,5.0,1.0954561,3.0,5.0
15100.0,5.0,1.0993226,3.0,5.0
15110.0,5.0,1.0753405,3.5,5.0
15120.0,5.0,1.0862885,4.0,5.0
15130.0,5.0,1.12192,4.0,5.0
15140.0,5.0,1.1397041,4.0,5.0
15150.0,5.0,1.135362,4.0,5.0
15160.0,5.0,1.1085316,3.0,5.0
15170.0,5.0,0.79794556,4.0,5.0
15180.0,5.0,0.79794556,4.0,5.0
15190.0,5.0,0.79794556,4.0,5.0
15200.0,5.0,0.79794556,4.0,5.0
15210.0,5.0,0.79794556,4.0,5.0
15220.0,5.0,0.79794556,4.0,5.0
15230.0,5.0,0.79794556,4.0,5.0
15240.0,5.0,0.76010525,4.0,5.0
15250.0,5.0,0.70421934,4.0,5.0
15260.0,5.0,0.70421934,4.0,5.0
15270.0,5.0,0.7039784,4.0,5.0
15280.0,5.0,0.70421934,4.0,5.0
15290.0,5.0,0.70421934,4.0,5.0
15300.0,5.0,0.7056596,4.0,5.0
15310.0,5.0,0.70370483,4.0,5.0
15320.0,5.0,0.70370483,4.0,5.0
15330.0,5.0,0.70370483,4.0,5.0
15340.0,5.0,0.8213552,4.0,5.0
15350.0,5.0,0.82039666,4.0,5.0
15350.0,5.0,0.82039666,4.0,5.0
15350.0,5.0,0.82039666,4.0,5.0
