distance,median,stdev,prc_25,prc_75
20.0,2.0,0.48650426,1.0,2.0
30.0,2.0,0.502191,1.0,2.0
40.0,2.0,0.84345466,1.0,2.0
50.0,2.0,0.906327,1.0,2.0
60.0,2.0,0.9733372,1.0,2.0
70.0,2.0,0.74962455,1.0,2.0
80.0,2.0,0.7423075,1.0,2.0
90.0,2.0,0.65937066,1.0,2.0
100.0,2.0,0.70477694,1.0,2.0
110.0,2.0,0.8850987,1.0,2.0
120.0,2.0,0.8849043,1.0,2.0
130.0,2.0,0.81102353,1.0,2.0
140.0,2.0,0.610286,1.0,2.0
150.0,2.0,0.610286,1.0,2.0
160.0,2.0,0.56029457,1.0,2.0
170.0,2.0,0.70214653,1.0,2.0
180.0,2.0,0.8,1.0,2.0
190.0,2.0,0.8006256,1.0,2.0
200.0,2.0,0.6283716,1.0,2.0
210.0,2.0,0.49487162,1.0,2.0
220.0,2.0,0.49999496,1.0,2.0
230.0,2.0,0.49487165,1.0,2.0
240.0,2.0,0.49410126,1.0,2.0
250.0,2.0,0.4963545,1.0,2.0
260.0,1.0,0.49939677,1.0,2.0
270.0,1.0,0.78077793,1.0,2.0
280.0,1.0,0.7955654,1.0,2.0
290.0,1.0,0.80107504,1.0,2.0
300.0,2.0,0.5133049,1.0,2.0
310.0,2.0,0.4985185,1.0,2.0
320.0,2.0,0.49851853,1.0,2.0
330.0,2.0,0.4986165,1.0,2.0
340.0,1.0,0.4999408,1.0,2.0
350.0,1.0,0.49799648,1.0,2.0
360.0,1.0,0.48566496,1.0,2.0
370.0,1.0,0.47808415,1.0,2.0
380.0,1.0,0.4778846,1.0,2.0
390.0,1.0,0.4868,1.0,2.0
400.0,1.0,0.67474526,1.0,2.0
410.0,1.0,0.7139294,1.0,2.0
420.0,1.0,0.7139294,1.0,2.0
430.0,1.0,0.52671653,1.0,2.0
440.0,1.0,0.4823764,1.0,2.0
450.0,1.0,0.48209137,1.0,2.0
460.0,1.0,0.49330497,1.0,2.0
470.0,1.0,0.71414286,1.0,2.0
480.0,1.0,0.72018707,1.0,2.0
490.0,1.0,0.7292845,1.0,2.0
500.0,1.0,0.49372798,1.0,2.0
510.0,1.0,0.49372798,1.0,2.0
520.0,1.0,0.49424273,1.0,2.0
530.0,1.0,0.49908835,1.0,2.0
540.0,1.0,0.49667072,1.0,2.0
550.0,1.0,0.49487165,1.0,2.0
560.0,1.0,0.49487165,1.0,2.0
570.0,1.0,0.49487165,1.0,2.0
580.0,1.0,0.49487165,1.0,2.0
590.0,1.0,0.49695924,1.0,2.0
600.0,1.0,0.4998326,1.0,2.0
610.0,1.5,0.5,1.0,2.0
620.0,1.0,0.49999943,1.0,2.0
630.0,2.0,0.49999943,1.0,2.0
640.0,1.5,0.5,1.0,2.0
650.0,1.5,0.5,1.0,2.0
660.0,2.0,0.49972048,1.0,2.0
670.0,2.0,0.49943274,1.0,2.0
680.0,2.0,0.49935582,1.0,2.0
690.0,2.0,0.49923015,1.0,2.0
700.0,2.0,0.5785127,1.0,2.0
710.0,2.0,0.6569661,1.0,2.0
720.0,2.0,0.71601355,1.0,2.0
730.0,2.0,0.71372586,1.0,2.0
740.0,2.0,0.71269655,1.0,2.0
750.0,2.0,0.71269655,1.0,2.0
760.0,2.0,0.71269655,1.0,2.0
770.0,2.0,0.7126966,1.0,2.0
780.0,2.0,0.71269655,1.0,2.0
790.0,2.0,0.7110824,1.0,2.0
800.0,2.0,0.6997244,1.0,2.0
810.0,2.0,0.6996603,1.0,2.0
820.0,2.0,0.69955075,1.0,2.0
830.0,2.0,0.6953435,1.0,2.0
840.0,2.0,0.7060544,1.0,2.0
850.0,2.0,0.72876316,1.0,2.0
860.0,2.0,0.728237,1.0,2.0
870.0,2.0,0.7284066,1.0,2.0
880.0,2.0,0.72838354,1.0,2.0
890.0,2.0,0.732613,1.0,2.0
900.0,2.0,0.72200096,1.0,2.0
910.0,2.0,0.70994526,1.0,2.0
920.0,2.0,0.716539,1.0,2.0
930.0,2.0,0.7154131,1.0,2.0
940.0,2.0,0.67520666,1.0,2.0
950.0,2.0,0.614206,1.0,2.0
960.0,2.0,0.58031344,1.0,2.0
970.0,2.0,0.5524382,1.0,2.0
980.0,2.0,0.5142511,1.0,2.0
990.0,2.0,0.45845014,1.0,2.0
1000.0,2.0,0.4347074,1.0,2.0
1010.0,2.0,0.43675575,1.0,2.0
1020.0,2.0,0.44841143,1.0,2.0
1030.0,2.0,0.44739056,1.0,2.0
1040.0,2.0,0.44582585,1.0,2.0
1050.0,2.0,0.44475988,1.0,2.0
1060.0,2.0,0.44312602,1.0,2.0
1070.0,2.0,0.43405205,1.0,2.0
1080.0,2.0,0.4084184,2.0,2.0
1090.0,2.0,0.40269414,2.0,2.0
1100.0,2.0,0.40208268,2.0,2.0
1110.0,2.0,0.3985177,2.0,2.0
1120.0,2.0,0.39787176,2.0,2.0
1130.0,2.0,0.39415592,2.0,2.0
1140.0,2.0,0.3934732,2.0,2.0
1150.0,2.0,0.3895979,2.0,2.0
1160.0,2.0,0.38887593,2.0,2.0
1170.0,2.0,0.38483143,2.0,2.0
1180.0,2.0,0.37872526,2.0,2.0
1190.0,2.0,0.38032112,2.0,2.0
1200.0,2.0,0.37975937,2.0,2.0
1210.0,2.0,0.3807353,2.0,2.0
1220.0,2.0,0.35811663,2.0,2.0
1230.0,2.0,0.33336,2.0,2.0
1240.0,2.0,0.3339339,2.0,2.0
1250.0,2.0,0.33431804,2.0,2.0
1260.0,2.0,0.33489677,2.0,2.0
1270.0,2.0,0.41798168,2.0,2.0
1280.0,2.0,0.5023964,2.0,2.0
1290.0,2.0,0.54141456,2.0,2.0
1300.0,2.0,0.53882504,2.0,2.0
1310.0,2.0,0.53988516,2.0,2.0
1320.0,2.0,0.5868776,2.0,2.0
1330.0,2.0,0.5545977,2.0,2.0
1340.0,2.0,0.55365545,2.0,2.0
1350.0,2.0,0.55133253,2.0,2.0
1360.0,2.0,0.5703918,2.0,2.0
1370.0,2.0,0.5327151,2.0,2.0
1380.0,2.0,0.5310425,2.0,2.0
1390.0,2.0,0.68397164,2.0,2.0
1400.0,2.0,0.7754017,2.0,3.0
1410.0,2.0,0.7896766,2.0,3.0
1420.0,2.0,0.79418606,2.0,3.0
1430.0,2.0,0.80764663,2.0,3.0
1440.0,2.0,0.82524496,2.0,3.0
1450.0,2.0,0.81857586,2.0,3.0
1460.0,2.0,0.8166435,2.0,3.0
1470.0,2.0,0.8181679,2.0,3.0
1480.0,2.0,0.90929925,2.0,3.0
1490.0,2.0,1.0223497,2.0,3.0
1500.0,2.0,1.0466253,2.0,3.0
1510.0,2.0,1.0512217,2.0,3.0
1520.0,2.0,1.0689592,2.0,3.0
1530.0,2.0,1.1302562,2.0,3.0
1540.0,2.0,1.111243,2.0,3.0
1550.0,2.0,1.099244,2.0,3.0
1560.0,2.0,1.125607,2.0,3.0
1570.0,2.0,1.1180036,2.0,3.0
1580.0,2.0,1.1104033,2.0,3.0
1590.0,2.0,1.1108137,2.0,3.0
1600.0,2.0,1.1845174,2.0,3.0
1610.0,2.0,1.2880718,2.0,3.0
1620.0,2.0,1.2929788,2.0,3.0
1630.0,2.0,1.2815428,2.0,3.0
1640.0,2.0,1.270728,2.0,3.0
1650.0,2.0,1.2850336,2.0,3.0
1660.0,2.0,1.279881,2.0,3.0
1670.0,2.0,1.2527602,2.0,3.0
1680.0,2.0,1.2346351,2.0,3.0
1690.0,2.0,1.2222242,2.0,3.0
1700.0,2.0,1.1495187,2.0,3.0
1710.0,2.0,1.1294345,2.0,3.0
1720.0,2.0,1.1216874,2.0,3.0
1730.0,2.0,1.1413375,2.0,3.0
1740.0,2.0,1.0863858,2.0,3.0
1750.0,2.0,1.0223112,2.0,3.0
1760.0,2.0,1.0112231,2.0,3.0
1770.0,2.0,0.9204205,2.0,3.0
1780.0,2.0,0.9047299,2.0,2.0
1790.0,2.0,0.8599096,2.0,2.0
1800.0,2.0,0.88242006,2.0,2.0
1810.0,2.0,0.8967391,1.0,2.0
1820.0,2.0,0.90451866,1.0,2.0
1830.0,2.0,0.89463437,1.0,2.0
1840.0,1.0,0.8260069,1.0,2.0
1850.0,1.0,0.8265727,1.0,2.0
1860.0,1.0,0.7164443,1.0,2.0
1870.0,1.0,0.36469838,1.0,1.0
1880.0,1.0,0.3338206,1.0,1.0
1890.0,1.0,0.20614283,1.0,1.0
1900.0,1.0,0.05329996,1.0,1.0
1910.0,1.0,0.0,1.0,1.0
1920.0,1.0,0.0,1.0,1.0
1930.0,1.0,0.0,1.0,1.0
1940.0,1.0,0.0,1.0,1.0
1950.0,1.0,0.0,1.0,1.0
1960.0,1.0,0.0,1.0,1.0
1970.0,1.0,0.0,1.0,1.0
1980.0,1.0,0.0,1.0,1.0
1990.0,1.0,0.0,1.0,1.0
2000.0,1.0,0.0,1.0,1.0
2010.0,1.0,0.0,1.0,1.0
2020.0,1.0,0.0,1.0,1.0
2030.0,1.0,0.0,1.0,1.0
2040.0,1.0,0.0,1.0,1.0
2050.0,1.0,0.0,1.0,1.0
2060.0,1.0,0.0,1.0,1.0
2070.0,1.0,0.0,1.0,1.0
2080.0,1.0,0.0,1.0,1.0
2090.0,1.0,0.0,1.0,1.0
2100.0,1.0,0.0,1.0,1.0
2110.0,1.0,0.0,1.0,1.0
2120.0,nan,nan,nan,nan
2130.0,nan,nan,nan,nan
2140.0,nan,nan,nan,nan
2150.0,nan,nan,nan,nan
2160.0,nan,nan,nan,nan
2170.0,nan,nan,nan,nan
2180.0,nan,nan,nan,nan
2190.0,nan,nan,nan,nan
2200.0,nan,nan,nan,nan
2210.0,nan,nan,nan,nan
2220.0,nan,nan,nan,nan
2230.0,nan,nan,nan,nan
2240.0,nan,nan,nan,nan
2250.0,nan,nan,nan,nan
2260.0,nan,nan,nan,nan
2270.0,nan,nan,nan,nan
2280.0,nan,nan,nan,nan
2290.0,nan,nan,nan,nan
2300.0,nan,nan,nan,nan
2310.0,nan,nan,nan,nan
2320.0,nan,nan,nan,nan
2330.0,nan,nan,nan,nan
2340.0,nan,nan,nan,nan
2350.0,nan,nan,nan,nan
2360.0,nan,nan,nan,nan
2370.0,nan,nan,nan,nan
2380.0,nan,nan,nan,nan
2390.0,nan,nan,nan,nan
2400.0,nan,nan,nan,nan
2410.0,nan,nan,nan,nan
2420.0,nan,nan,nan,nan
2430.0,nan,nan,nan,nan
2440.0,1.0,0.0,1.0,1.0
2450.0,1.0,0.0,1.0,1.0
2460.0,1.0,0.0,1.0,1.0
2470.0,1.0,0.0,1.0,1.0
2480.0,1.0,0.0,1.0,1.0
2490.0,1.0,0.0,1.0,1.0
2500.0,1.0,0.0,1.0,1.0
2510.0,1.0,0.0,1.0,1.0
2520.0,1.0,0.0,1.0,1.0
2530.0,1.0,0.0,1.0,1.0
2540.0,1.0,0.0,1.0,1.0
2550.0,1.0,0.0,1.0,1.0
2560.0,1.0,0.0,1.0,1.0
2570.0,1.0,0.0,1.0,1.0
2580.0,1.0,0.0,1.0,1.0
2590.0,1.0,0.0,1.0,1.0
2600.0,1.0,0.0,1.0,1.0
2610.0,1.0,0.0,1.0,1.0
2620.0,1.0,0.0,1.0,1.0
2630.0,1.0,0.0,1.0,1.0
2640.0,1.0,0.0,1.0,1.0
2650.0,1.0,0.21066555,1.0,1.0
2660.0,1.0,0.31283417,1.0,1.0
2670.0,1.0,0.31566757,1.0,1.0
2680.0,1.0,0.36346418,1.0,1.0
2690.0,1.0,0.41173947,1.0,1.0
2700.0,1.0,0.37983257,1.0,1.0
2710.0,1.0,0.43555328,1.0,2.0
2720.0,1.0,0.45591828,1.0,2.0
2730.0,1.0,0.4787753,1.0,2.0
2740.0,1.0,0.49436682,1.0,2.0
2750.0,1.0,0.49856243,1.0,2.0
2760.0,1.0,0.49959192,1.0,2.0
2770.0,1.0,0.49999857,1.0,2.0
2780.0,2.0,0.49892452,1.0,2.0
2790.0,2.0,0.49337143,1.0,2.0
2800.0,2.0,0.48123175,1.0,2.0
2810.0,2.0,0.46393952,1.0,2.0
2820.0,2.0,0.45279977,1.0,2.0
2830.0,2.0,0.47310293,1.0,2.0
2840.0,2.0,0.52293557,2.0,2.0
2850.0,2.0,0.5524747,2.0,2.0
2860.0,2.0,0.55102056,2.0,2.0
2870.0,2.0,0.5510113,2.0,2.0
2880.0,2.0,0.55732983,2.0,2.0
2890.0,2.0,0.55456173,2.0,2.0
2900.0,2.0,0.57706547,2.0,2.0
2910.0,2.0,0.62929934,2.0,3.0
2920.0,2.0,0.66451657,2.0,3.0
2930.0,2.0,0.6682058,2.0,3.0
2940.0,2.0,0.67619365,2.0,3.0
2950.0,2.0,0.6887222,2.0,3.0
2960.0,2.0,0.6709957,2.0,3.0
2970.0,2.0,0.66329825,2.0,3.0
2980.0,2.0,0.693761,2.0,3.0
2990.0,2.0,0.73358387,2.0,3.0
3000.0,2.0,0.7308004,2.0,3.0
3010.0,2.0,0.702568,2.0,3.0
3020.0,2.0,0.682145,2.0,3.0
3030.0,2.0,0.67056525,2.0,3.0
3040.0,2.0,0.6987705,2.0,3.0
3050.0,2.0,0.7485036,2.0,3.0
3060.0,2.0,0.7752056,1.0,3.0
3070.0,2.0,0.786448,2.0,3.0
3080.0,2.0,0.7841742,2.0,3.0
3090.0,2.0,0.7850158,2.0,3.0
3100.0,2.0,0.7954997,2.0,3.0
3110.0,3.0,0.8301163,2.0,3.0
3120.0,3.0,0.870305,1.0,3.0
3130.0,3.0,0.87933815,1.0,3.0
3140.0,3.0,0.8615261,1.0,3.0
3150.0,3.0,0.8342603,2.0,3.0
3160.0,3.0,0.82263446,2.0,3.0
3170.0,3.0,0.8198855,2.0,3.0
3180.0,3.0,0.79495263,2.0,3.0
3190.0,3.0,0.7728401,2.0,3.0
3200.0,3.0,0.77948636,2.0,3.0
3210.0,3.0,0.79040784,2.0,3.0
3220.0,3.0,0.8344699,2.0,3.0
3230.0,3.0,0.9045515,2.0,3.0
3240.0,3.0,0.9586962,2.0,3.0
3250.0,3.0,0.97675604,2.0,3.0
3260.0,3.0,0.9795748,2.0,3.0
3270.0,3.0,0.9801777,2.0,3.0
3280.0,3.0,1.0229185,2.0,3.0
3290.0,3.0,1.0887586,1.0,3.0
3300.0,3.0,1.132216,1.0,3.0
3310.0,3.0,1.1554894,1.0,3.75
3320.0,3.0,1.1831692,1.0,4.0
3330.0,3.0,1.1815722,1.0,4.0
3340.0,3.0,1.1695046,1.0,3.0
3350.0,3.0,1.176784,1.0,3.0
3360.0,3.0,1.1897845,1.0,3.0
3370.0,3.0,1.192461,1.0,3.0
3380.0,3.0,1.1883838,1.0,3.0
3390.0,3.0,1.1832006,1.0,3.0
3400.0,2.0,1.1708678,1.0,3.0
3410.0,2.0,1.1598494,1.0,3.0
3420.0,2.0,1.1510513,1.0,3.0
3430.0,2.0,1.1476755,1.0,3.0
3440.0,2.0,1.1563305,1.0,3.0
3450.0,2.0,1.160758,1.0,3.0
3460.0,2.0,1.1458817,1.0,3.0
3470.0,3.0,1.1298833,1.0,3.0
3480.0,3.0,1.113869,1.0,3.0
3490.0,3.0,1.0962551,2.0,3.0
3500.0,3.0,1.0942903,2.0,3.0
3510.0,3.0,1.0627092,2.0,4.0
3520.0,3.0,1.0031949,2.0,4.0
3530.0,3.0,0.95999175,2.0,4.0
3540.0,3.0,0.9071268,2.0,4.0
3550.0,3.0,0.84455425,2.0,4.0
3560.0,3.0,0.8428754,2.0,4.0
3570.0,3.0,0.85754937,2.0,4.0
3580.0,3.0,0.8652306,2.0,4.0
3590.0,3.0,0.85298944,2.0,4.0
3600.0,3.0,0.8406991,2.0,4.0
3610.0,3.0,0.8445851,2.0,4.0
3620.0,3.0,0.8923401,2.0,4.0
3630.0,3.0,0.95686775,2.0,4.0
3640.0,3.0,1.041655,2.0,4.0
3650.0,3.0,1.0749321,2.0,4.0
3660.0,3.0,1.0542481,2.0,4.0
3670.0,3.0,1.0618056,2.0,4.0
3680.0,3.0,1.0708311,2.0,4.0
3690.0,3.0,1.0844495,2.75,4.0
3700.0,4.0,1.1232737,2.0,5.0
3710.0,4.0,1.1696427,2.0,5.0
3720.0,4.0,1.2018834,2.0,5.0
3730.0,4.0,1.2132685,2.0,5.0
3740.0,4.0,1.2028096,3.0,5.0
3750.0,4.0,1.1984173,3.0,5.0
3760.0,4.0,1.2166836,2.0,5.0
3770.0,4.0,1.2468516,2.0,5.0
3780.0,4.0,1.2719371,2.75,5.0
3790.0,4.0,1.3230417,3.0,5.0
3800.0,4.0,1.4249926,2.75,5.0
3810.0,4.0,1.490299,2.0,5.0
3820.0,4.0,1.4846165,2.0,5.0
3830.0,4.0,1.4727335,3.0,5.0
3840.0,4.0,1.4789561,3.0,5.0
3850.0,4.0,1.5067153,3.0,6.0
3860.0,4.0,1.5485319,3.0,6.0
3870.0,5.0,1.5685037,3.0,6.0
3880.0,5.0,1.5799632,3.0,6.0
3890.0,5.0,1.6102718,3.0,6.0
3900.0,5.0,1.6663865,3.0,6.0
3910.0,5.0,1.7460603,3.0,6.0
3920.0,5.0,1.7925355,3.0,6.0
3930.0,5.0,1.8002152,3.0,6.0
3940.0,5.0,1.8057616,3.0,6.0
3950.0,5.0,1.84677,3.0,6.0
3960.0,5.0,1.9070228,3.0,6.0
3970.0,5.0,1.93185,3.0,7.0
3980.0,6.0,1.9207335,3.0,7.0
3990.0,6.0,1.9067994,3.0,7.0
4000.0,6.0,1.9267769,3.0,7.0
4010.0,6.0,1.983269,3.0,7.0
4020.0,6.0,2.0980945,3.0,7.0
4030.0,6.0,2.1812832,3.0,7.0
4040.0,6.0,2.1705992,3.0,7.0
4050.0,6.0,2.1502407,3.0,8.0
4060.0,7.0,2.144984,3.0,8.0
4070.0,7.0,2.1433954,3.0,8.0
4080.0,6.0,2.1432452,4.0,8.0
4090.0,6.0,2.128629,4.0,8.0
4100.0,7.0,2.1633298,4.0,8.0
4110.0,7.0,2.2611659,4.0,8.0
4120.0,7.0,2.3073602,4.0,8.0
4130.0,7.0,2.2992327,4.0,8.0
4140.0,7.0,2.3216527,4.0,9.0
4150.0,7.0,2.351949,4.0,9.0
4160.0,7.0,2.3519354,4.0,9.0
4170.0,7.0,2.3351874,4.0,9.0
4180.0,7.0,2.3478482,4.0,9.0
4190.0,7.0,2.4233513,4.0,9.0
4200.0,7.0,2.470263,4.0,9.0
4210.0,7.0,2.4480274,4.0,9.0
4220.0,7.0,2.4689066,4.0,9.0
4230.0,7.0,2.563631,4.0,9.0
4240.0,8.0,2.6302392,4.0,9.0
4250.0,8.0,2.6335585,4.0,9.0
4260.0,8.0,2.6437852,4.0,9.0
4270.0,8.0,2.6560452,4.0,9.0
4280.0,7.5,2.6642358,4.0,9.0
4290.0,7.0,2.6670876,4.0,9.0
4300.0,7.0,2.6545234,4.0,9.0
4310.0,8.0,2.6514432,4.0,9.0
4320.0,8.0,2.6906786,4.0,9.0
4330.0,8.0,2.7187195,4.0,9.0
4340.0,8.0,2.8550138,4.0,9.0
4350.0,8.0,2.9673705,4.0,9.0
4360.0,8.0,2.9945283,4.0,9.0
4370.0,8.0,3.02707,4.0,9.0
4380.0,8.0,3.0457144,4.0,9.0
4390.0,8.0,3.0425153,4.0,9.0
4400.0,8.0,3.0281067,4.0,9.0
4410.0,8.0,3.0047066,4.0,9.0
4420.0,8.0,3.0163562,4.0,9.0
4430.0,8.0,3.0084467,4.0,9.0
4440.0,8.0,3.0084965,4.0,9.0
4450.0,7.0,2.9766228,4.0,9.0
4460.0,8.0,2.99511,4.0,9.0
4470.0,8.0,3.0035567,4.0,9.0
4480.0,8.0,3.0170393,3.5,10.0
4490.0,8.0,3.0351205,3.0,10.0
4500.0,7.0,3.0464163,3.0,10.0
4510.0,7.0,3.0369318,3.0,10.0
4520.0,7.0,2.9848619,3.0,9.0
4530.0,7.0,2.9835305,3.0,9.0
4540.0,7.0,2.9921017,3.0,9.0
4550.0,7.0,3.0001733,3.0,9.0
4560.0,7.0,2.976424,3.0,9.0
4570.0,7.0,2.9595656,3.0,9.0
4580.0,7.0,2.9369435,3.0,9.0
4590.0,7.0,2.8774292,3.0,9.0
4600.0,7.0,2.8222413,3.0,8.0
4610.0,7.0,2.7850006,3.0,9.0
4620.0,7.0,2.7569258,3.0,9.0
4630.0,7.0,2.6970983,3.0,9.0
4640.0,6.0,2.691319,3.0,9.0
4650.0,6.0,2.6748009,3.0,8.0
4660.0,6.0,2.6362193,3.0,8.0
4670.0,6.0,2.580983,3.0,8.0
4680.0,6.0,2.4894626,3.0,8.0
4690.0,5.0,2.416916,3.0,8.0
4700.0,5.0,2.4060109,3.0,8.0
4710.0,5.0,2.421116,3.0,8.0
4720.0,5.0,2.3645887,2.75,8.0
4730.0,5.0,2.224897,2.0,7.0
4740.0,5.0,2.12324,2.0,7.0
4750.0,5.0,2.0753562,2.0,7.0
4760.0,4.0,2.0464363,2.0,7.0
4770.0,4.0,2.0093973,2.0,7.0
4780.0,4.0,1.9354213,3.0,6.0
4790.0,4.0,1.9598889,3.0,6.0
4800.0,4.0,1.9997329,2.5,6.0
4810.0,4.0,1.9718901,2.0,6.0
4820.0,4.0,1.9176227,2.0,6.0
4830.0,4.0,1.887296,2.0,6.0
4840.0,4.0,1.8713715,2.0,6.0
4850.0,3.0,1.8404078,2.0,6.0
4860.0,3.0,1.8034999,2.0,6.0
4870.0,3.0,1.7757918,2.0,6.0
4880.0,4.0,1.7383316,2.0,5.0
4890.0,3.0,1.7433603,2.0,5.0
4900.0,3.0,1.7482121,2.0,5.0
4910.0,3.0,1.7485583,2.0,5.0
4920.0,3.0,1.6584529,2.0,5.0
4930.0,3.0,1.6152104,2.0,5.0
4940.0,3.0,1.5579597,2.0,5.0
4950.0,3.0,1.4976351,2.0,5.0
4960.0,3.0,1.4998603,2.0,5.0
4970.0,3.0,1.5002221,2.0,5.0
4980.0,3.0,1.5042285,2.0,5.0
4990.0,3.0,1.4656136,2.0,5.0
5000.0,3.0,1.4627447,2.0,5.0
5010.0,3.0,1.5073885,2.0,5.0
5020.0,3.0,1.5919225,2.0,5.0
5030.0,3.0,1.657471,2.0,5.0
5040.0,3.0,1.6799535,2.0,5.0
5050.0,3.0,1.690345,2.0,5.0
5060.0,3.0,1.6854968,2.0,5.0
5070.0,3.0,1.7009332,2.0,5.0
5080.0,3.0,1.692202,2.0,5.0
5090.0,3.0,1.7015781,2.0,5.0
5100.0,3.0,1.764141,2.0,5.0
5110.0,3.0,1.8238938,1.0,5.0
5120.0,3.0,1.8386463,1.0,5.0
5130.0,3.0,1.8515346,1.0,5.0
5140.0,3.0,1.8737324,1.0,5.0
5150.0,3.0,1.9102719,1.0,5.0
5160.0,3.0,1.9171338,1.0,5.0
5170.0,3.0,1.9010669,1.0,5.0
5180.0,3.0,1.875217,1.0,5.0
5190.0,3.0,1.9030056,1.0,5.0
5200.0,3.0,1.9321843,1.0,5.0
5210.0,3.0,1.9337643,1.0,5.0
5220.0,3.0,1.9087219,1.0,5.0
5230.0,3.0,1.9186573,1.0,5.0
5240.0,3.0,1.928234,1.0,5.0
5250.0,3.0,1.9076333,1.0,5.0
5260.0,3.0,1.9045014,1.0,5.0
5270.0,3.0,1.9101853,1.0,5.0
5280.0,3.0,1.8998682,1.0,5.0
5290.0,3.0,1.8543936,1.0,5.0
5300.0,3.0,1.8396195,1.0,5.0
5310.0,3.0,1.8284273,1.0,5.0
5320.0,3.0,1.8238152,1.0,5.0
5330.0,3.0,1.7976907,1.0,5.0
5340.0,3.0,1.7747563,1.0,5.0
5350.0,4.0,1.7339592,1.0,5.0
5360.0,3.0,1.7160151,2.0,5.0
5370.0,4.0,1.7612162,2.0,5.0
5380.0,4.0,1.7338048,2.0,5.0
5390.0,3.0,1.6817695,2.0,5.0
5400.0,4.0,1.6159471,2.0,5.0
5410.0,4.0,1.5576062,2.0,5.0
5420.0,4.0,1.584756,2.0,5.0
5430.0,3.0,1.5676644,2.0,5.0
5440.0,3.5,1.5726347,2.0,5.0
5450.0,4.0,1.5594711,2.0,5.0
5460.0,4.0,1.547256,2.0,5.0
5470.0,3.0,1.4964279,2.0,4.0
5480.0,3.0,1.4977695,2.0,4.0
5490.0,3.0,1.5036838,2.0,4.0
5500.0,3.0,1.4989243,2.0,4.0
5510.0,3.0,1.4709306,2.0,5.0
5520.0,3.0,1.4595913,2.0,4.0
5530.0,3.0,1.4356697,2.0,4.0
5540.0,3.0,1.372397,2.0,4.0
5550.0,3.0,1.29476,2.0,4.0
5560.0,3.0,1.2362136,2.0,4.0
5570.0,3.0,1.2096914,2.0,4.0
5580.0,3.0,1.1748043,2.0,4.0
5590.0,3.0,1.1560067,2.0,4.0
5600.0,3.0,1.1657921,2.0,4.0
5610.0,3.0,1.1747038,2.0,4.0
5620.0,3.0,1.1698447,1.0,4.0
5630.0,3.0,1.1287458,2.0,4.0
5640.0,3.0,1.0876038,2.0,3.0
5650.0,3.0,1.0811096,2.0,3.0
5660.0,3.0,1.0999135,1.0,3.0
5670.0,2.0,1.0618479,2.0,3.0
5680.0,3.0,0.96651006,2.0,3.0
5690.0,3.0,0.9013018,2.0,3.0
5700.0,3.0,0.8915552,2.0,3.0
5710.0,3.0,0.8673325,1.0,3.0
5720.0,3.0,0.8500174,1.0,3.0
5730.0,2.0,0.829027,1.0,3.0
5740.0,2.0,0.8063241,2.0,3.0
5750.0,2.0,0.8102208,2.0,3.0
5760.0,2.0,0.82242423,1.75,3.0
5770.0,2.0,0.87658435,1.0,3.0
5780.0,2.0,0.86120707,1.0,3.0
5790.0,2.0,0.86902773,1.0,3.0
5800.0,2.0,0.8520797,1.0,3.0
5810.0,2.0,0.86725336,1.0,3.0
5820.0,2.0,0.81588453,1.0,3.0
5830.0,2.0,0.91418654,1.0,3.0
5840.0,2.0,0.94888085,1.0,3.0
5850.0,2.0,0.9227179,1.0,3.0
5860.0,2.0,0.88569677,2.0,3.0
5870.0,2.5,0.96129113,2.0,3.0
5880.0,3.0,1.0325564,2.0,3.0
5890.0,3.0,1.0440263,2.0,3.0
5900.0,3.0,1.0854735,1.0,3.0
5910.0,3.0,1.1254736,1.0,3.0
5920.0,2.0,1.155908,1.0,4.0
5930.0,3.0,1.1596007,2.0,4.0
5940.0,3.0,1.153853,2.0,4.0
5950.0,3.0,1.1410555,2.0,4.0
5960.0,3.0,1.1033032,2.0,4.0
5970.0,3.0,1.1653035,2.0,4.0
5980.0,3.0,1.1929499,2.0,4.0
5990.0,3.0,1.1633593,2.0,4.0
6000.0,3.0,1.2494898,2.0,4.0
6010.0,3.0,1.3266426,2.0,4.0
6020.0,3.0,1.4607787,2.0,5.0
6030.0,3.0,1.4198477,2.0,4.0
6040.0,3.0,1.4016013,2.0,5.0
6050.0,3.0,1.4199095,2.0,5.0
6060.0,3.0,1.49095,2.0,5.0
6070.0,3.0,1.5389416,2.0,5.0
6080.0,4.0,1.568612,2.0,5.0
6090.0,4.0,1.6629622,2.0,5.0
6100.0,4.0,1.6831129,2.0,5.0
6110.0,4.0,1.7119589,2.0,5.0
6120.0,4.0,1.7590349,2.0,6.0
6130.0,4.0,1.895489,2.0,6.0
6140.0,4.0,2.003323,2.0,6.0
6150.0,4.0,2.0410225,2.0,6.0
6160.0,5.0,2.0291386,2.0,6.0
6170.0,4.0,2.0671892,2.0,6.0
6180.0,4.0,2.120183,2.0,6.0
6190.0,5.0,2.1549382,2.0,6.0
6200.0,5.0,2.1895087,2.0,7.0
6210.0,5.0,2.2617598,2.0,7.0
6220.0,5.0,2.3676963,3.0,7.0
6230.0,5.0,2.3876672,3.0,7.0
6240.0,5.0,2.3851762,3.0,7.0
6250.0,5.0,2.3678737,3.0,7.0
6260.0,5.0,2.4960997,3.0,7.0
6270.0,6.0,2.5307672,3.0,8.0
6280.0,6.0,2.6390855,3.0,8.0
6290.0,6.0,2.7629387,3.0,8.0
6300.0,6.0,2.8831377,3.0,8.0
6310.0,6.0,2.985404,3.0,9.0
6320.0,6.0,3.0008316,3.0,9.0
6330.0,6.0,3.0347943,3.0,9.0
6340.0,6.0,3.0578136,3.0,9.0
6350.0,7.0,3.062848,4.0,9.0
6360.0,7.0,3.0438852,4.0,9.0
6370.0,6.0,2.6401575,4.0,9.0
6380.0,6.0,2.637883,4.0,9.0
6390.0,6.0,2.754267,4.0,9.0
6400.0,7.0,2.740967,4.0,9.0
6410.0,7.0,2.7646563,4.0,9.0
6420.0,7.0,2.8625555,4.0,9.0
6430.0,7.0,2.9751096,4.0,9.0
6440.0,7.0,3.0129743,4.0,10.0
6450.0,7.0,3.0422175,4.0,10.0
6460.0,7.0,3.1319678,4.0,10.0
6470.0,7.0,3.1814127,4.0,10.0
6480.0,7.0,3.228093,4.0,10.0
6490.0,7.0,3.3247302,4.0,10.0
6500.0,7.0,3.48604,4.0,10.0
6510.0,7.0,3.570612,4.0,11.0
6520.0,7.5,3.5981367,4.0,11.0
6530.0,7.0,3.6156454,4.0,11.0
6540.0,7.0,3.6349976,4.0,11.0
6550.0,7.0,3.6511185,4.0,11.0
6560.0,7.0,3.715907,4.0,11.0
6570.0,8.0,3.8367639,4.0,11.0
6580.0,8.0,3.8783808,4.0,11.0
6590.0,7.0,3.9063792,4.0,11.0
6600.0,7.0,3.9831686,4.0,11.0
6610.0,8.0,4.0576205,4.0,11.0
6620.0,8.0,4.1261168,3.0,11.0
6630.0,8.0,4.190586,3.0,12.0
6640.0,8.0,4.218486,3.0,12.0
6650.0,8.0,4.1498356,4.0,12.0
6660.0,8.0,4.160986,4.0,12.0
6670.0,8.0,4.2826886,3.0,12.0
6680.0,7.0,4.353938,3.0,12.0
6690.0,7.0,4.388893,3.0,12.0
6700.0,7.0,4.423091,3.0,12.0
6710.0,8.0,4.5686073,3.0,12.0
6720.0,8.0,4.604551,3.0,12.0
6730.0,8.0,4.585047,3.0,12.0
6740.0,8.0,4.526543,3.0,12.0
6750.0,8.0,4.547482,3.0,12.0
6760.0,8.0,4.5637107,3.0,12.0
6770.0,8.0,4.585904,3.0,12.0
6780.0,8.0,4.7551866,3.0,12.0
6790.0,8.0,4.8379865,3.0,13.0
6800.0,8.0,4.8309445,3.0,13.0
6810.0,8.0,4.758385,3.0,13.0
6820.0,8.0,4.7493505,3.0,13.0
6830.0,8.0,4.7541475,4.0,13.0
6840.0,8.0,4.789502,4.0,13.0
6850.0,8.0,4.8809295,3.0,13.0
6860.0,8.0,4.8987355,3.0,13.0
6870.0,8.0,4.946211,3.0,13.0
6880.0,8.0,4.9922104,4.0,13.0
6890.0,9.0,4.9256883,4.0,13.0
6900.0,9.0,4.8086853,4.0,13.0
6910.0,8.0,4.769934,4.0,13.0
6920.0,8.0,4.7723217,4.0,13.0
6930.0,10.0,4.7506,4.0,13.0
6940.0,8.0,4.8887906,4.0,13.0
6950.0,8.0,4.9822774,4.0,13.0
6960.0,9.0,4.886725,5.0,13.0
6970.0,9.0,4.747202,5.0,14.0
6980.0,9.0,4.694277,5.0,14.0
6990.0,9.0,4.6738834,5.0,14.0
7000.0,9.0,4.6765227,5.0,13.0
7010.0,9.0,4.845302,5.0,13.0
7020.0,9.0,4.9088736,5.0,13.0
7030.0,10.0,4.81861,5.0,13.0
7040.0,10.0,4.69045,5.0,14.0
7050.0,10.0,4.66357,5.0,14.0
7060.0,10.0,4.6694083,5.0,14.0
7070.0,10.0,4.736239,5.0,14.0
7080.0,10.0,4.8607326,5.0,14.0
7090.0,10.0,4.8722816,5.0,14.0
7100.0,10.0,4.908943,5.0,14.0
7110.0,10.0,4.9149404,6.0,14.0
7120.0,10.0,4.8057055,6.0,13.0
7130.0,10.0,4.660626,6.0,13.0
7140.0,10.0,4.6022854,6.0,13.0
7150.0,10.0,4.6182485,6.0,13.25
7160.0,11.0,4.6409035,7.0,14.0
7170.0,11.0,4.759923,6.0,14.0
7180.0,11.0,4.805082,6.0,14.0
7190.0,11.0,4.719201,6.0,14.0
7200.0,11.0,4.6222134,6.0,14.0
7210.0,10.0,4.596979,6.0,14.0
7220.0,10.0,4.58451,6.0,14.0
7230.0,10.0,4.555041,7.0,14.0
7240.0,10.0,4.619416,6.0,14.0
7250.0,10.0,4.637985,6.0,14.0
7260.0,10.0,4.5862803,6.0,14.0
7270.0,10.0,4.5201745,6.0,13.0
7280.0,11.0,4.6263433,5.0,13.0
7290.0,11.0,4.7111735,5.0,13.0
7300.0,10.5,4.619783,5.0,13.0
7310.0,10.0,4.4857883,5.0,13.0
7320.0,10.0,4.4878345,5.0,13.0
7330.0,10.0,4.5667744,5.0,13.0
7340.0,10.0,4.533475,5.0,13.0
7350.0,10.0,4.4387436,5.0,13.0
7360.0,10.0,4.323601,5.0,13.0
7370.0,10.0,4.3270793,5.0,13.0
7380.0,10.0,4.406121,5.0,13.0
7390.0,10.0,4.471495,4.0,13.0
7400.0,10.0,4.4499636,4.0,12.0
7410.0,10.0,4.375554,4.0,12.0
7420.0,10.0,4.2824283,4.0,12.0
7430.0,9.0,4.2284994,4.0,12.0
7440.0,9.0,4.152746,4.0,12.0
7450.0,10.0,4.0281982,5.0,12.0
7460.0,10.0,3.8975463,5.0,12.0
7470.0,9.0,3.8944447,5.0,12.0
7480.0,9.0,3.880616,4.0,12.0
7490.0,9.0,3.771355,4.0,12.0
7500.0,10.0,3.592361,5.0,12.0
7510.0,10.0,3.4407194,5.0,11.0
7520.0,9.0,3.3715625,5.0,11.0
7530.0,9.0,3.3670712,5.0,11.0
7540.0,10.0,3.384938,5.0,11.0
7550.0,10.0,3.3201165,5.0,11.0
7560.0,9.0,3.2246013,5.0,11.0
7570.0,9.0,3.1618257,5.0,11.0
7580.0,9.0,3.1288178,5.0,11.0
7590.0,9.0,3.0442722,6.0,11.0
7600.0,9.0,2.9538984,6.0,11.0
7610.0,9.0,2.940841,5.0,11.0
7620.0,9.0,2.9120433,5.0,11.0
7630.0,10.0,3.0568695,6.0,11.0
7640.0,10.0,3.0437827,6.0,11.0
7650.0,10.0,2.983781,6.0,11.0
7660.0,10.0,2.9515567,6.0,11.0
7670.0,9.0,2.9602036,6.0,11.0
7680.0,9.0,2.8959186,6.0,11.0
7690.0,9.0,2.881365,6.0,11.0
7700.0,9.0,2.8454497,6.0,11.0
7710.0,9.0,2.8149629,6.0,11.0
7720.0,9.0,2.8008637,6.0,11.0
7730.0,9.0,2.9108243,6.0,11.0
7740.0,9.0,2.9346821,6.0,11.0
7750.0,9.0,2.932305,6.0,11.0
7760.0,9.0,2.902108,6.0,11.0
7770.0,9.0,2.8773122,6.0,11.0
7780.0,9.0,2.8505297,6.0,11.0
7790.0,9.0,2.828326,6.0,11.0
7800.0,9.0,2.895229,6.0,11.0
7810.0,9.0,2.9152508,6.0,11.0
7820.0,9.0,2.9199927,6.0,11.0
7830.0,9.0,2.9335945,6.0,11.0
7840.0,9.0,2.868903,6.0,11.0
7850.0,9.0,2.8917313,6.0,11.0
7860.0,9.0,2.905172,6.0,11.0
7870.0,9.0,2.9791367,6.0,11.0
7880.0,9.0,2.9153793,6.0,11.0
7890.0,9.0,2.882058,6.0,11.0
7900.0,9.0,2.8742042,6.0,11.0
7910.0,9.0,2.8758657,6.0,11.0
7920.0,9.0,2.8747435,6.0,11.0
7930.0,9.0,2.9474258,6.0,11.0
7940.0,9.0,3.09609,5.0,11.0
7950.0,9.0,3.1247141,5.0,11.0
7960.0,9.0,3.0975344,6.0,11.0
7970.0,9.0,3.1021404,6.0,11.0
7980.0,9.0,3.1699212,6.0,11.0
7990.0,9.0,3.1599011,6.0,11.0
8000.0,9.0,3.1400278,6.0,11.0
8010.0,9.0,3.194933,5.0,11.0
8020.0,9.0,3.2447498,5.0,11.0
8030.0,9.0,3.1960793,6.0,11.0
8040.0,9.0,3.1358378,6.0,11.0
8050.0,9.0,3.1756444,5.0,11.0
8060.0,9.0,3.2169862,5.0,11.0
8070.0,9.0,3.20966,6.0,11.0
8080.0,9.0,3.1819415,6.0,11.0
8090.0,9.0,3.1896882,6.0,11.0
8100.0,9.0,3.1794298,6.0,11.0
8110.0,9.0,3.1337056,6.0,11.0
8120.0,9.0,3.0814776,6.0,11.0
8130.0,9.0,3.0831347,6.0,12.0
8140.0,9.0,3.1177325,6.0,12.0
8150.0,9.0,3.1338844,6.0,11.0
8160.0,9.0,3.0678103,6.0,11.0
8170.0,9.0,3.0202985,6.0,11.0
8180.0,9.0,3.0238173,6.0,11.0
8190.0,9.0,3.0140722,6.0,11.0
8200.0,9.0,2.9943113,6.0,11.0
8210.0,9.0,2.9591808,6.0,12.0
8220.0,9.0,2.9494705,6.0,12.0
8230.0,9.0,2.9716377,6.0,11.0
8240.0,9.0,2.956818,6.0,11.0
8250.0,9.0,2.928115,6.0,11.0
8260.0,9.0,2.9284286,6.0,12.0
8270.0,9.0,2.9096797,6.0,11.0
8280.0,9.0,2.9194036,6.0,11.0
8290.0,9.0,3.0351937,6.0,11.0
8300.0,9.0,3.0704577,6.0,12.0
8310.0,9.0,3.023784,6.0,12.0
8320.0,9.0,2.9752142,6.0,11.0
8330.0,9.0,3.0118265,6.0,11.0
8340.0,9.0,3.061338,6.0,12.0
8350.0,9.0,3.0175614,6.0,12.0
8360.0,9.0,2.973539,6.0,11.0
8370.0,9.0,3.035437,6.0,11.0
8380.0,9.0,3.1148026,6.0,11.25
8390.0,9.0,3.1111112,6.0,12.0
8400.0,9.0,3.1871312,6.0,11.0
8410.0,9.0,3.2106197,5.0,11.0
8420.0,9.0,3.2085783,5.0,11.0
8430.0,9.0,3.2271667,6.0,12.0
8440.0,9.0,3.3127208,6.0,12.0
8450.0,9.0,3.3871484,5.0,12.0
8460.0,9.0,3.388099,5.0,12.0
8470.0,9.0,3.3151526,6.0,11.0
8480.0,9.0,3.253908,6.0,11.0
8490.0,9.0,3.3013804,5.75,11.0
8500.0,9.0,3.3060682,5.0,12.0
8510.0,9.0,3.3122675,5.0,12.0
8520.0,9.0,3.3482494,5.0,12.0
8530.0,9.0,3.4164016,5.0,12.0
8540.0,9.0,3.3935728,6.0,12.0
8550.0,9.0,3.3897398,6.0,12.0
8560.0,9.0,3.4041028,5.0,12.0
8570.0,9.0,3.3766704,5.0,12.0
8580.0,9.0,3.2595806,6.0,11.0
8590.0,9.0,3.2484272,6.0,11.0
8600.0,9.0,3.3328965,6.0,11.0
8610.0,9.0,3.3590198,5.0,12.0
8620.0,9.0,3.3351312,5.0,12.0
8630.0,9.0,3.3517158,5.0,12.0
8640.0,9.0,3.3671734,5.0,12.0
8650.0,9.0,3.3197222,6.0,12.0
8660.0,9.0,3.2781067,6.0,12.0
8670.0,9.0,3.2805486,5.0,12.0
8680.0,9.0,3.2639656,5.0,12.0
8690.0,9.0,3.2400432,6.0,12.0
8700.0,9.0,3.2421591,6.0,12.0
8710.0,9.0,3.2247143,6.0,12.0
8720.0,9.0,3.1884532,6.0,12.0
8730.0,9.0,3.2147887,6.0,12.0
8740.0,9.0,3.2329788,6.0,12.0
8750.0,9.0,3.2242606,6.0,12.0
8760.0,9.0,3.2282033,6.0,12.0
8770.0,9.0,3.2154624,6.0,12.0
8780.0,9.0,3.1561217,6.0,12.0
8790.0,9.0,3.1168826,6.0,12.0
8800.0,9.0,3.1502125,6.0,12.0
8810.0,9.0,3.1806736,6.0,12.0
8820.0,9.0,3.1513546,6.0,12.0
8830.0,8.0,3.145844,6.0,12.0
8840.0,8.0,3.1871767,6.0,12.0
8850.0,8.0,3.2387896,6.0,12.0
8860.0,8.0,3.2452002,6.0,12.0
8870.0,9.0,3.239632,6.0,12.0
8880.0,9.0,3.2020853,6.0,12.0
8890.0,9.0,3.082392,6.0,12.0
8900.0,8.0,3.0226758,6.0,11.0
8910.0,8.0,3.0948148,6.0,11.0
8920.0,8.0,3.179776,6.0,11.0
8930.0,9.0,3.266462,6.0,11.0
8940.0,8.0,3.3031707,6.0,12.0
8950.0,8.0,3.2551858,6.0,12.0
8960.0,8.0,3.1966593,6.0,12.0
8970.0,8.0,3.2145238,5.0,12.0
8980.0,8.0,3.3133533,5.0,12.0
8990.0,8.0,3.3725538,5.0,12.0
9000.0,9.0,3.2850246,6.0,12.0
9010.0,9.0,3.16606,6.0,11.0
9020.0,9.0,3.2188866,6.0,11.0
9030.0,9.0,3.3383648,5.0,12.0
9040.0,8.0,3.4113092,5.0,12.0
9050.0,8.0,3.3713427,5.0,12.0
9060.0,8.0,3.3057375,5.0,11.25
9070.0,8.0,3.3230815,5.0,11.0
9080.0,8.0,3.3978403,5.0,11.0
9090.0,9.0,3.477783,5.0,11.0
9100.0,7.0,3.514598,5.0,12.0
9110.0,7.0,3.4807909,5.0,12.0
9120.0,8.0,3.4106343,5.0,12.0
9130.0,8.0,3.4526653,5.0,11.0
9140.0,8.0,3.4782522,4.0,11.0
9150.0,8.0,3.4548998,4.0,11.0
9160.0,8.0,3.3977814,5.0,11.0
9170.0,8.0,3.4037673,5.0,11.0
9180.0,8.0,3.4861531,5.0,11.0
9190.0,8.0,3.5232813,4.0,11.0
9200.0,8.0,3.5138853,4.0,11.0
9210.0,8.0,3.5034904,4.0,11.0
9220.0,8.0,3.5126882,4.0,11.0
9230.0,8.0,3.579998,4.0,12.0
9240.0,8.0,3.6204898,4.0,11.0
9250.0,7.0,3.5623567,4.0,11.0
9260.0,7.0,3.528322,5.0,11.0
9270.0,7.0,3.5825489,5.0,11.0
9280.0,7.0,3.6179967,4.0,11.0
9290.0,7.0,3.6056387,4.0,11.0
9300.0,7.0,3.5873353,4.0,11.0
9310.0,7.0,3.5831516,4.0,11.0
9320.0,8.0,3.5998662,4.0,11.0
9330.0,8.0,3.602981,4.0,11.0
9340.0,8.0,3.5713582,4.0,11.0
9350.0,8.0,3.5713892,4.0,11.0
9360.0,7.0,3.6056201,4.0,11.0
9370.0,7.0,3.6661239,4.0,11.0
9380.0,7.0,3.7092628,4.0,11.0
9390.0,8.0,3.6880534,4.0,11.0
9400.0,8.0,3.6195228,4.0,11.0
9410.0,8.0,3.5257597,4.0,11.0
9420.0,8.0,3.5611618,4.0,11.0
9430.0,8.0,3.658614,4.0,11.0
9440.0,8.0,3.741978,4.0,11.0
9450.0,8.0,3.7087038,4.0,12.0
9460.0,8.0,3.6562297,4.0,12.0
9470.0,8.0,3.6406102,4.0,11.0
9480.0,9.0,3.6749117,4.0,11.0
9490.0,8.0,3.719916,4.0,12.0
9500.0,8.0,3.677816,4.0,12.0
9510.0,8.0,3.5969105,4.0,12.0
9520.0,8.0,3.5444634,4.0,12.0
9530.0,8.0,3.6078632,4.0,12.0
9540.0,8.0,3.6646042,4.0,12.0
9550.0,8.0,3.6566343,5.0,12.0
9560.0,8.0,3.646367,5.0,12.0
9570.0,8.0,3.6489944,5.0,12.0
9580.0,8.0,3.6571434,5.0,11.0
9590.0,8.0,3.6142738,5.0,11.0
9600.0,8.0,3.5286827,5.0,11.0
9610.0,8.0,3.520403,5.0,11.0
9620.0,8.0,3.6173687,5.0,12.0
9630.0,8.0,3.6588182,5.0,12.0
9640.0,8.0,3.5815735,5.0,12.0
9650.0,8.0,3.529719,6.0,12.0
9660.0,8.0,3.5248873,6.0,12.0
9670.0,8.0,3.5473554,5.0,12.0
9680.0,8.0,3.5701077,5.0,12.0
9690.0,8.0,3.5591335,5.0,12.0
9700.0,8.0,3.4778383,5.0,12.0
9710.0,8.0,3.4205472,5.0,12.0
9720.0,8.0,3.4578166,5.0,12.0
9730.0,8.0,3.4994674,5.0,12.0
9740.0,8.0,3.4878206,5.0,12.0
9750.0,8.0,3.4938307,5.0,12.0
9760.0,8.0,3.490265,5.0,12.0
9770.0,8.0,3.3999977,6.0,12.0
9780.0,8.0,3.213663,6.0,12.0
9790.0,8.0,3.1741307,6.0,12.0
9800.0,8.0,3.2564518,5.0,12.0
9810.0,9.0,3.3370526,5.0,12.0
9820.0,9.0,3.3875322,6.0,12.0
9830.0,9.0,3.3632627,6.0,12.0
9840.0,8.0,3.2011018,6.0,11.0
9850.0,8.0,3.0878448,6.0,11.0
9860.0,8.0,3.1416805,6.0,11.0
9870.0,9.0,3.2328548,5.0,12.0
9880.0,9.0,3.2271032,5.0,12.0
9890.0,9.0,3.2950466,5.0,12.0
9900.0,9.0,3.3268301,5.0,12.0
9910.0,8.5,3.253686,5.0,11.0
9920.0,8.0,3.218136,5.0,11.0
9930.0,8.0,3.235267,5.0,11.0
9940.0,8.0,3.2752402,5.0,11.0
9950.0,8.0,3.2975879,5.0,11.0
9960.0,8.0,3.3287005,5.0,11.0
9970.0,8.0,3.267214,5.0,11.0
9980.0,8.0,3.2385178,5.0,11.0
9990.0,8.0,3.182478,5.0,11.0
10000.0,8.0,3.201049,5.0,11.0
10010.0,8.0,3.2316952,5.0,11.0
10020.0,8.0,3.2691412,5.0,11.0
10030.0,8.0,3.2918792,5.0,11.0
10040.0,8.0,3.2910259,4.0,11.0
10050.0,8.0,3.3084784,4.0,11.0
10060.0,8.0,3.274532,5.0,11.0
10070.0,8.0,3.2529607,5.0,11.0
10080.0,8.0,3.2545602,5.0,11.0
10090.0,8.0,3.315819,4.0,11.0
10100.0,8.0,3.3076286,5.0,11.0
10110.0,8.0,3.3142128,5.0,11.0
10120.0,8.0,3.3082614,5.0,11.0
10130.0,8.0,3.3632696,5.0,11.0
10140.0,8.0,3.4163675,5.0,11.0
10150.0,8.0,3.5072525,5.0,11.0
10160.0,8.0,3.5518043,4.0,11.0
10170.0,8.0,3.4818084,5.0,11.0
10180.0,8.0,3.3787227,5.0,11.0
10190.0,8.0,3.3434305,5.0,11.0
10200.0,8.0,3.4086943,5.0,11.0
10210.0,8.0,3.3994408,5.0,11.0
10220.0,8.0,3.3372426,5.0,11.0
10230.0,8.0,3.242343,5.0,11.0
10240.0,8.0,3.241863,5.0,11.0
10250.0,8.0,3.254844,6.0,11.0
10260.0,8.0,3.1857047,6.0,11.0
10270.0,8.0,3.1949096,5.0,11.0
10280.0,8.0,3.2352517,5.0,11.0
10290.0,8.0,3.235561,5.0,11.0
10300.0,8.0,3.15454,5.0,11.0
10310.0,8.0,3.1663759,6.0,11.0
10320.0,8.0,3.188515,6.0,11.0
10330.0,8.0,3.168432,6.0,11.0
10340.0,8.0,3.092136,6.0,11.0
10350.0,8.0,3.0033906,6.0,11.0
10360.0,8.0,2.9341867,6.0,11.0
10370.0,8.0,2.8962767,6.0,11.0
10380.0,8.0,2.9335175,6.0,11.0
10390.0,8.0,2.9342082,6.0,11.0
10400.0,8.0,2.898779,6.0,11.0
10410.0,9.0,2.822192,6.0,11.0
10420.0,8.0,2.8118014,6.0,11.0
10430.0,8.0,2.7943041,6.0,11.0
10440.0,8.0,2.7704298,6.0,11.0
10450.0,8.0,2.70537,6.0,11.0
10460.0,8.0,2.6326425,6.0,11.0
10470.0,8.0,2.5976193,7.0,11.0
10480.0,8.0,2.561097,7.0,11.0
10490.0,8.0,2.5531034,7.0,11.0
10500.0,8.0,2.5220797,7.0,11.0
10510.0,8.0,2.4690173,7.0,11.0
10520.0,8.0,2.3772092,7.0,11.0
10530.0,8.0,2.390264,7.0,11.0
10540.0,8.0,2.4294245,7.0,11.0
10550.0,8.0,2.4099782,7.0,11.0
10560.0,8.0,2.336556,7.0,11.0
10570.0,8.0,2.3127556,7.0,11.0
10580.0,8.0,2.36188,7.0,11.0
10590.0,8.0,2.3649058,7.0,11.0
10600.0,8.0,2.3739903,7.0,11.0
10610.0,9.0,2.3830776,7.0,11.0
10620.0,9.0,2.4126146,7.0,11.0
10630.0,9.0,2.3847044,7.0,11.0
10640.0,9.0,2.3652503,7.0,11.0
10650.0,9.0,2.340471,7.0,11.0
10660.0,9.0,2.3633683,7.0,11.0
10670.0,9.0,2.4037044,7.0,12.0
10680.0,9.0,2.4022584,7.0,12.0
10690.0,9.0,2.3413947,7.0,11.0
10700.0,9.0,2.2815933,7.0,11.0
10710.0,9.0,2.307216,7.0,12.0
10720.0,9.0,2.3314085,7.0,12.0
10730.0,9.0,2.3483858,7.0,12.0
10740.0,9.0,2.3733225,7.0,12.0
10750.0,9.0,2.3513772,7.0,12.0
10760.0,10.0,2.2947052,7.0,11.0
10770.0,9.0,2.3044095,7.0,11.75
10780.0,9.0,2.3726103,7.0,12.0
10790.0,9.0,2.3621905,7.0,12.0
10800.0,9.0,2.3272595,7.0,12.0
10810.0,9.0,2.326063,7.0,12.0
10820.0,9.0,2.3438807,7.0,12.0
10830.0,9.0,2.3475852,7.0,12.0
10840.0,9.0,2.3413413,7.0,12.0
10850.0,9.0,2.3543675,7.0,12.0
10860.0,9.0,2.3137655,7.0,12.0
10870.0,10.0,2.2335696,7.0,12.0
10880.0,10.0,2.1666136,8.0,12.0
10890.0,10.0,2.22394,8.0,12.0
10900.0,10.0,2.2560055,8.0,12.0
10910.0,10.0,2.2021184,8.0,12.0
10920.0,10.0,2.1371894,8.0,12.0
10930.0,9.0,2.1381607,8.0,12.0
10940.0,10.0,2.1500974,8.0,12.0
10950.0,10.0,2.1510081,8.0,12.0
10960.0,9.0,2.1115906,8.0,12.0
10970.0,10.0,2.0819156,8.0,12.0
10980.0,10.0,2.0422213,8.0,12.0
10990.0,10.0,1.9938545,8.0,12.0
11000.0,10.0,1.9579298,8.0,12.0
11010.0,10.0,1.9406574,8.0,12.0
11020.0,9.0,1.8843403,8.0,11.0
11030.0,9.0,1.8368068,8.0,11.0
11040.0,9.0,1.8273176,8.0,11.0
11050.0,9.0,1.8350146,8.0,11.0
11060.0,10.0,1.8347656,8.0,11.0
11070.0,9.0,1.8403558,8.0,11.0
11080.0,10.0,1.843753,8.0,11.0
11090.0,9.0,1.8448862,8.0,11.0
11100.0,9.0,1.8131965,8.0,11.0
11110.0,9.0,1.7581912,8.0,11.0
11120.0,9.0,1.7338802,8.0,11.0
11130.0,9.0,1.7145289,8.0,11.0
11140.0,9.0,1.7193093,8.0,11.0
11150.0,9.0,1.6879973,8.0,11.0
11160.0,9.0,1.659624,8.0,11.0
11170.0,9.0,1.6460166,8.0,11.0
11180.0,9.0,1.6302354,8.0,11.0
11190.0,9.0,1.565914,8.0,11.0
11200.0,9.0,1.514104,8.0,10.0
11210.0,9.0,1.5106186,7.0,10.0
11220.0,9.0,1.4928409,7.0,10.0
11230.0,9.0,1.4687426,8.0,10.0
11240.0,9.0,1.4425203,8.0,10.0
11250.0,8.0,1.4479034,8.0,10.0
11260.0,9.0,1.4606392,8.0,10.0
11270.0,9.0,1.4625887,8.0,10.0
11280.0,9.0,1.4461339,8.0,10.0
11290.0,9.0,1.4451945,7.0,10.0
11300.0,9.0,1.4749016,7.0,10.0
11310.0,9.0,1.47567,7.0,10.0
11320.0,9.0,1.4679321,7.0,10.0
11330.0,9.0,1.4661839,7.0,10.0
11340.0,9.0,1.4759294,7.0,10.0
11350.0,8.0,1.4445437,7.0,10.0
11360.0,8.0,1.4497617,8.0,10.0
11370.0,8.0,1.4710332,8.0,10.0
11380.0,9.0,1.478974,8.0,10.0
11390.0,9.0,1.4773331,8.0,10.0
11400.0,9.0,1.530098,7.0,10.0
11410.0,9.0,1.5986228,7.0,10.0
11420.0,9.0,1.6064947,7.0,10.0
11430.0,9.0,1.5910851,7.0,10.0
11440.0,9.0,1.615058,7.0,10.0
11450.0,9.0,1.6737092,7.0,10.0
11460.0,9.0,1.6629404,7.0,10.0
11470.0,9.0,1.6129237,8.0,10.0
11480.0,9.0,1.5974665,8.0,10.0
11490.0,9.0,1.6393665,8.0,10.0
11500.0,9.0,1.6543907,8.0,11.0
11510.0,9.0,1.688321,8.0,11.0
11520.0,9.0,1.749491,8.0,11.0
11530.0,9.0,1.7990015,8.0,11.0
11540.0,9.0,1.8262093,8.0,11.0
11550.0,9.0,1.8332398,8.0,11.0
11560.0,9.0,1.8302946,8.0,11.0
11570.0,9.0,1.7969575,8.0,11.0
11580.0,9.0,1.7709986,8.0,11.0
11590.0,9.0,1.7446567,8.0,11.0
11600.0,9.0,1.7423965,8.0,11.0
11610.0,9.0,1.730724,9.0,11.0
11620.0,9.0,1.7210553,8.0,11.0
11630.0,9.0,1.7212623,8.0,11.0
11640.0,9.0,1.7326998,8.0,11.0
11650.0,10.0,1.7538978,8.0,11.0
11660.0,10.0,1.7641882,9.0,11.0
11670.0,9.0,1.7777202,8.0,11.0
11680.0,9.0,1.7821714,8.0,11.0
11690.0,10.0,1.7867185,8.0,11.0
11700.0,10.0,1.7818638,9.0,11.0
11710.0,10.0,1.8031898,8.0,11.0
11720.0,9.0,1.8543355,8.0,11.0
11730.0,10.0,1.9270476,8.0,12.0
11740.0,10.0,1.9618945,8.0,12.0
11750.0,10.0,1.9560486,8.0,12.0
11760.0,9.0,1.9427872,8.0,11.0
11770.0,10.0,1.9711642,8.0,12.0
11780.0,10.0,1.9986655,8.0,12.0
11790.0,10.0,2.0072603,8.0,12.0
11800.0,9.0,2.0175683,8.0,11.0
11810.0,9.5,2.0658119,8.0,12.0
11820.0,10.0,2.1085165,8.0,12.0
11830.0,10.0,2.1110055,8.0,12.0
11840.0,9.0,2.0782804,8.0,12.0
11850.0,9.0,2.033362,8.0,12.0
11860.0,9.0,1.9982382,8.0,12.0
11870.0,9.0,2.0258582,8.0,11.0
11880.0,9.0,2.1131427,8.0,12.0
11890.0,9.0,2.1430593,8.0,12.0
11900.0,9.0,2.0886152,8.0,12.0
11910.0,9.0,2.0630507,8.0,12.0
11920.0,9.0,2.1082,8.0,12.0
11930.0,9.0,2.137119,8.0,12.0
11940.0,9.0,2.0822809,8.0,11.0
11950.0,9.0,2.087816,8.0,11.0
11960.0,9.0,2.1191478,7.0,11.0
11970.0,9.0,2.1159756,8.0,11.0
11980.0,9.0,2.0885522,8.0,11.0
11990.0,9.0,2.07571,8.0,11.0
12000.0,9.0,2.0439591,8.0,11.0
12010.0,9.0,1.9554507,8.0,11.0
12020.0,9.0,1.9211662,8.0,11.0
12030.0,9.0,1.9698697,8.0,11.0
12040.0,9.0,2.0053127,8.0,11.0
12050.0,9.0,1.9842949,8.0,11.0
12060.0,9.0,1.9694468,8.0,11.0
12070.0,9.0,1.9891461,8.0,11.0
12080.0,9.0,2.0088933,8.0,12.0
12090.0,10.0,2.0520723,8.0,12.0
12100.0,10.0,2.0609095,8.0,12.0
12110.0,10.0,2.050634,8.0,12.0
12120.0,10.0,2.040443,8.0,12.0
12130.0,10.0,2.056373,8.0,12.0
12140.0,9.0,2.0823452,8.0,12.0
12150.0,9.0,2.0802784,8.0,12.0
12160.0,10.0,2.0392058,8.0,12.0
12170.0,10.0,2.0009556,8.0,12.0
12180.0,10.0,2.03366,8.0,12.0
12190.0,10.0,2.043767,8.0,12.0
12200.0,10.0,2.0115516,8.0,12.0
12210.0,10.0,1.971478,8.0,12.0
12220.0,10.0,1.9697429,8.0,12.0
12230.0,10.0,1.9729714,8.0,12.0
12240.0,10.0,1.950941,8.0,12.0
12250.0,10.0,1.9383949,8.0,12.0
12260.0,10.0,1.9159207,8.0,12.0
12270.0,10.0,1.9023335,8.0,12.0
12280.0,10.0,1.8969467,8.0,12.0
12290.0,10.0,1.9262708,8.0,12.0
12300.0,10.0,1.9290388,8.0,12.0
12310.0,10.0,1.8914876,8.0,12.0
12320.0,10.0,1.8788927,8.0,12.0
12330.0,10.0,1.8648436,9.0,12.0
12340.0,10.0,1.8427775,9.0,12.0
12350.0,10.0,1.8291224,9.0,12.0
12360.0,10.0,1.882773,9.0,12.0
12370.0,10.0,1.8958603,9.0,12.0
12380.0,10.0,1.8580189,9.0,12.0
12390.0,10.0,1.8175064,9.0,12.0
12400.0,10.0,1.8428797,9.0,12.0
12410.0,10.0,1.8443946,9.0,12.0
12420.0,10.0,1.7948704,9.0,12.0
12430.0,10.0,1.7566407,9.0,12.0
12440.0,11.0,1.7597371,9.0,12.0
12450.0,11.0,1.7707753,9.0,12.5
12460.0,10.0,1.7252804,9.0,12.0
12470.0,10.0,1.7031134,9.0,12.0
12480.0,10.0,1.6990042,9.0,12.0
12490.0,10.0,1.655135,9.0,12.0
12500.0,10.0,1.5638382,9.0,12.0
12510.0,10.0,1.5872722,9.0,12.0
12520.0,11.0,1.6669618,9.0,12.0
12530.0,10.5,1.6599039,9.0,12.0
12540.0,10.0,1.5912335,9.0,12.0
12550.0,10.0,1.5747435,9.0,12.0
12560.0,11.0,1.6113259,9.0,12.0
12570.0,10.0,1.6245672,9.0,12.0
12580.0,10.0,1.6127217,9.0,12.0
12590.0,11.0,1.5983912,9.0,12.0
12600.0,11.0,1.6232535,9.0,12.0
12610.0,11.0,1.6469535,9.0,12.0
12620.0,10.5,1.6699744,9.0,12.0
12630.0,10.0,1.6920305,9.0,12.25
12640.0,10.0,1.7086558,9.0,12.0
12650.0,10.0,1.709929,9.0,12.0
12660.0,11.0,1.6839522,9.0,12.0
12670.0,11.0,1.6436397,9.0,12.0
12680.0,10.0,1.6268774,9.0,12.0
12690.0,10.0,1.686463,9.0,12.0
12700.0,11.0,1.7443542,9.0,12.5
12710.0,10.5,1.7830877,9.0,12.25
12720.0,11.0,1.7907022,9.0,12.5
12730.0,11.0,1.8380995,9.0,13.0
12740.0,11.0,1.9061325,9.0,13.0
12750.0,11.0,1.9700574,9.0,13.0
12760.0,11.0,2.0250463,9.0,13.0
12770.0,11.0,2.0443084,9.0,13.0
12780.0,11.0,2.0498421,9.0,13.0
12790.0,11.0,2.0567408,9.0,13.0
12800.0,11.0,2.090647,9.0,13.0
12810.0,11.0,2.0599513,9.0,13.0
12820.0,11.0,2.0185244,9.0,13.0
12830.0,11.0,2.0347543,9.0,13.0
12840.0,11.0,2.0862918,9.0,13.0
12850.0,11.0,2.124761,9.0,13.0
12860.0,11.0,2.137057,9.0,13.0
12870.0,11.0,2.1589797,9.0,13.0
12880.0,11.0,2.177021,9.0,13.0
12890.0,11.0,2.1794493,9.0,13.0
12900.0,11.0,2.1783154,9.0,13.0
12910.0,11.0,2.2263272,9.0,13.0
12920.0,11.0,2.2788167,9.0,13.0
12930.0,11.0,2.2789378,8.5,13.0
12940.0,11.0,2.2563615,8.75,13.0
12950.0,11.0,2.266152,9.0,13.0
12960.0,12.0,2.286241,9.0,13.0
12970.0,12.0,2.2850592,9.0,13.0
12980.0,12.0,2.2904856,9.0,13.0
12990.0,12.0,2.3166983,9.0,13.0
13000.0,11.5,2.3171558,9.0,13.25
13010.0,12.0,2.3028018,9.0,13.5
13020.0,12.0,2.283323,9.0,14.0
13030.0,12.0,2.2888956,9.0,14.0
13040.0,12.0,2.2718394,9.0,14.0
13050.0,12.0,2.2778168,9.0,14.0
13060.0,12.0,2.2750545,9.0,14.0
13070.0,12.0,2.3292537,9.0,14.0
13080.0,12.0,2.3829114,9.0,14.0
13090.0,12.0,2.3954573,9.0,14.0
13100.0,12.0,2.3750193,9.0,14.0
13110.0,12.0,2.367678,9.0,14.0
13120.0,12.0,2.40063,9.0,14.0
13130.0,12.0,2.4030204,9.0,14.0
13140.0,12.0,2.3961198,9.0,14.0
13150.0,12.0,2.3319461,9.0,14.0
13160.0,12.0,2.2919915,9.0,14.0
13170.0,12.0,2.2578444,9.0,14.0
13180.0,12.0,2.2546566,9.0,14.0
13190.0,12.0,2.240071,9.0,14.0
13200.0,12.0,2.2693853,9.0,14.0
13210.0,12.0,2.2892516,9.0,14.0
13220.0,12.0,2.2373765,9.0,14.0
13230.0,12.0,2.1865585,9.0,14.0
13240.0,12.0,2.2150006,9.0,14.0
13250.0,12.0,2.2616315,9.0,14.0
13260.0,12.0,2.261692,9.0,14.0
13270.0,12.0,2.2334232,9.0,14.0
13280.0,12.0,2.241002,9.5,14.0
13290.0,12.0,2.267043,9.0,14.0
13300.0,12.0,2.2642374,9.0,14.0
13310.0,12.0,2.2623959,9.0,14.0
13320.0,12.0,2.2971568,9.0,14.0
13330.0,12.0,2.318218,9.0,14.0
13340.0,12.0,2.286636,9.0,14.0
13350.0,12.0,2.2631688,9.0,14.0
13360.0,12.0,2.268665,9.0,14.0
13370.0,12.0,2.2625813,9.0,14.0
13380.0,12.0,2.2609355,9.0,14.0
13390.0,12.0,2.283258,9.0,14.0
13400.0,12.0,2.2798088,9.0,14.0
13410.0,12.0,2.2508185,9.0,14.0
13420.0,12.0,2.2455516,9.0,14.0
13430.0,12.0,2.2506466,9.75,14.0
13440.0,12.0,2.2533689,9.0,14.0
13450.0,12.0,2.239874,10.0,14.0
13460.0,12.0,2.2156148,10.0,14.0
13470.0,12.0,2.1814978,10.0,14.0
13480.0,12.0,2.1852424,10.0,14.0
13490.0,12.0,2.1952844,10.0,14.0
13500.0,11.5,2.1906612,10.0,14.0
13510.0,12.0,2.1124094,10.0,14.0
13520.0,12.0,2.077092,10.0,14.0
13530.0,12.0,2.0923388,10.0,14.0
13540.0,12.0,2.1092548,10.0,14.0
13550.0,12.0,2.0285788,10.0,14.0
13560.0,12.0,1.931871,10.0,14.0
13570.0,12.0,1.9336649,10.0,14.0
13580.0,12.0,1.959645,10.0,14.0
13590.0,12.0,1.9292188,10.0,14.0
13600.0,12.0,1.8741305,10.0,14.0
13610.0,12.0,1.8764657,10.0,14.0
13620.0,12.0,1.8846203,10.0,14.0
13630.0,12.0,1.875311,10.0,14.0
13640.0,12.0,1.8698711,10.0,14.0
13650.0,12.0,1.8596306,10.0,14.0
13660.0,12.0,1.828117,10.25,14.0
13670.0,12.0,1.7553812,11.0,14.0
13680.0,12.0,1.7493194,11.0,14.0
13690.0,12.0,1.8014688,11.0,14.0
13700.0,12.0,1.8320876,11.0,14.0
13710.0,12.0,1.7740546,11.0,14.0
13720.0,12.0,1.6938466,11.0,14.0
13730.0,12.0,1.6274798,11.0,14.0
13740.0,12.0,1.5634031,11.0,14.0
13750.0,12.0,1.5379134,11.0,14.0
13760.0,12.0,1.563494,11.0,14.0
13770.0,12.0,1.6281315,11.0,14.0
13780.0,12.0,1.6588954,11.0,14.0
13790.0,12.0,1.6822067,11.0,14.0
13800.0,12.0,1.720801,11.0,14.0
13810.0,12.0,1.7229258,11.0,15.0
13820.0,12.0,1.6844966,11.0,14.0
13830.0,12.0,1.6689618,11.0,14.0
13840.0,12.0,1.7023621,11.0,14.0
13850.0,13.0,1.7242182,11.0,15.0
13860.0,12.0,1.7185316,11.0,14.0
13870.0,12.0,1.7051587,11.0,14.0
13880.0,12.0,1.7133839,11.0,14.0
13890.0,13.0,1.7084892,11.0,15.0
13900.0,13.0,1.7084336,11.0,15.0
13910.0,13.0,1.6879104,11.0,15.0
13920.0,13.0,1.675835,11.0,15.0
13930.0,13.0,1.724861,11.0,15.0
13940.0,13.0,1.808952,11.0,15.0
13950.0,13.0,1.8850919,11.0,15.0
13960.0,13.0,1.9452511,11.0,15.0
13970.0,13.0,2.012608,11.0,15.0
13980.0,13.0,2.03875,11.0,15.0
13990.0,13.0,2.073785,11.0,15.0
14000.0,13.0,2.067125,11.0,15.0
14010.0,13.0,2.0357535,11.0,15.0
14020.0,13.0,1.9935797,11.0,15.0
14030.0,13.0,1.9968166,11.0,15.0
14040.0,13.0,2.0597153,11.0,15.0
14050.0,13.0,2.1594756,11.0,15.0
14060.0,13.0,2.191913,11.0,15.0
14070.0,13.0,2.1403224,11.0,15.0
14080.0,13.0,2.1126585,11.0,15.0
14090.0,13.0,2.1172364,11.0,15.0
14100.0,13.0,2.1199365,11.0,15.0
14110.0,13.0,2.142292,11.0,15.0
14120.0,13.0,2.1855066,11.0,15.0
14130.0,13.0,2.1921144,11.0,15.0
14140.0,13.0,2.164453,11.0,15.0
14150.0,13.0,2.1971436,10.0,15.0
14160.0,13.0,2.2753594,10.0,15.0
14170.0,13.0,2.3317556,10.0,15.0
14180.0,13.0,2.3227568,10.0,15.0
14190.0,13.0,2.2839785,10.0,15.0
14200.0,12.0,2.2813456,10.0,15.0
14210.0,12.0,2.2899075,10.0,15.0
14220.0,12.0,2.33018,10.0,15.0
14230.0,12.0,2.3917973,10.0,15.0
14240.0,12.0,2.4282153,10.0,15.0
14250.0,12.0,2.4260066,10.0,15.0
14260.0,12.0,2.4160988,10.0,15.0
14270.0,13.0,2.4332662,10.0,15.0
14280.0,13.0,2.4444275,10.0,15.0
14290.0,12.0,2.4641855,10.0,14.0
14300.0,12.0,2.5075169,10.0,14.0
14310.0,12.0,2.5698779,10.0,14.0
14320.0,12.0,2.5598912,10.0,15.0
14330.0,12.0,2.5824296,10.0,15.0
14340.0,13.0,2.6550462,9.0,15.0
14350.0,13.0,2.6544218,10.0,15.0
14360.0,12.0,2.592895,10.0,15.0
14370.0,12.0,2.5914469,10.0,15.0
14380.0,12.0,2.6221547,10.0,15.0
14390.0,12.0,2.6078131,10.0,15.0
14400.0,12.0,2.6548963,10.0,15.0
14410.0,12.0,2.7083306,9.0,15.0
14420.0,12.0,2.6880648,9.0,14.0
14430.0,12.0,2.6231678,9.0,14.0
14440.0,12.0,2.69974,9.0,14.0
14450.0,12.0,2.8058243,9.0,15.0
14460.0,12.0,2.7888978,9.0,15.0
14470.0,12.0,2.7896495,9.0,15.0
14480.0,12.0,2.7816472,9.0,15.0
14490.0,12.0,2.750702,9.0,15.0
14500.0,12.0,2.6895442,9.0,15.0
14510.0,12.0,2.793919,9.0,15.0
14520.0,12.0,2.894679,9.0,15.0
14530.0,12.0,2.8769376,9.0,15.0
14540.0,12.0,2.776191,9.0,15.0
14550.0,12.0,2.721529,9.0,15.0
14560.0,12.0,2.759353,9.0,15.0
14570.0,12.0,2.754796,9.0,15.0
14580.0,12.0,2.7558098,9.0,15.0
14590.0,12.0,2.7581396,9.0,15.0
14600.0,12.0,2.75182,9.0,14.0
14610.0,12.0,2.6802974,9.0,14.0
14620.0,12.0,2.673477,9.0,14.0
14630.0,12.0,2.716892,9.0,14.0
14640.0,12.0,2.698098,9.0,14.0
14650.0,12.0,2.6546512,9.0,14.0
14660.0,12.0,2.650274,9.0,14.0
14670.0,12.0,2.6818616,9.0,14.0
14680.0,12.0,2.6411085,9.0,14.0
14690.0,12.0,2.5971553,9.0,14.0
14700.0,12.0,2.5888822,9.0,14.0
14710.0,12.0,2.5949817,9.0,14.0
14720.0,12.0,2.5794978,9.0,14.0
14730.0,12.0,2.578319,9.0,14.0
14740.0,12.0,2.5994525,9.0,14.0
14750.0,12.0,2.5706322,9.0,14.0
14760.0,12.0,2.5392869,9.0,14.0
14770.0,12.0,2.5477936,9.0,14.0
14780.0,12.0,2.5966642,9.0,14.0
14790.0,12.0,2.5728972,9.0,14.0
14800.0,12.0,2.5219688,9.0,14.0
14810.0,12.0,2.5050173,9.0,14.0
14820.0,12.0,2.5227516,9.0,14.0
14830.0,12.0,2.4501977,9.0,14.0
14840.0,12.0,2.3287287,9.0,14.0
14850.0,12.0,2.2803962,9.0,14.0
14860.0,12.0,2.2910295,9.0,14.0
14870.0,12.0,2.2800817,9.0,14.0
14880.0,12.0,2.228028,9.0,14.0
14890.0,12.0,2.214973,9.0,14.0
14900.0,12.0,2.2452526,9.0,14.0
14910.0,12.0,2.2375135,9.0,14.0
14920.0,12.0,2.191633,9.0,14.0
14930.0,12.0,2.1718886,9.0,14.0
14940.0,12.0,2.1843765,9.0,14.0
14950.0,12.0,2.172374,9.0,14.0
14960.0,12.0,2.1244967,10.0,14.0
14970.0,11.0,2.078083,10.0,14.0
14980.0,11.0,2.0489678,10.0,14.0
14990.0,12.0,1.9979241,10.0,14.0
15000.0,12.0,1.9560754,10.0,14.0
15010.0,11.5,1.9190304,10.0,14.0
15020.0,12.0,1.8753557,10.0,14.0
15030.0,12.0,1.8340224,10.0,14.0
15040.0,12.0,1.8064581,10.0,14.0
15050.0,12.0,1.7999725,10.0,14.0
15060.0,12.0,1.8116964,10.0,14.0
15070.0,12.0,1.8063346,10.0,13.0
15080.0,11.0,1.7580533,10.0,13.0
15090.0,11.0,1.7448026,10.0,13.0
15100.0,12.0,1.7515831,10.0,14.0
15110.0,12.0,1.7468402,10.0,14.0
15120.0,12.0,1.7222005,10.0,14.0
15130.0,11.0,1.6847464,10.0,14.0
15140.0,11.0,1.636399,10.0,14.0
15150.0,11.0,1.6180171,10.0,14.0
15160.0,11.0,1.6399773,10.0,14.0
15170.0,11.0,1.6600344,10.0,14.0
15180.0,11.0,1.6633257,10.0,13.0
15190.0,11.0,1.6775794,10.0,13.0
15200.0,11.0,1.7259669,10.0,13.0
15210.0,12.0,1.7772118,10.0,14.0
15220.0,12.0,1.770732,10.0,14.0
15230.0,12.0,1.7633866,10.0,13.0
15240.0,11.0,1.7754416,10.0,13.0
15250.0,11.0,1.78499,10.0,13.0
15260.0,11.0,1.767022,10.0,14.0
15270.0,11.0,1.7637899,10.0,14.0
15280.0,11.0,1.75367,10.0,14.0
15290.0,11.0,1.7777243,10.0,14.0
15300.0,11.0,1.7836952,10.0,14.0
15310.0,11.0,1.7924901,10.0,14.0
15320.0,12.0,1.7808441,10.0,14.0
15330.0,12.0,1.7685595,10.0,14.0
15340.0,12.0,1.7581722,10.0,14.0
15350.0,11.5,1.7726927,10.0,14.0
15360.0,12.0,1.8066167,10.0,14.0
15370.0,12.0,1.8213837,10.0,14.0
15380.0,11.0,1.8276551,10.0,14.0
15390.0,11.0,1.8117439,10.0,14.0
15400.0,12.0,1.8060286,10.0,14.0
15410.0,12.0,1.7812046,10.0,14.0
15420.0,11.0,1.7658937,10.0,14.0
15430.0,11.0,1.7636927,10.0,14.0
15440.0,12.0,1.7844763,10.0,14.0
15450.0,12.0,1.7983044,10.0,14.0
15460.0,12.0,1.8155463,10.0,14.0
15470.0,12.0,1.8069634,10.0,14.0
15480.0,12.0,1.8002392,10.0,14.0
15490.0,12.0,1.8108708,10.0,14.0
15500.0,12.0,1.8054909,10.0,14.0
15510.0,12.0,1.7859362,10.0,14.0
15520.0,12.0,1.7937133,10.0,14.0
15530.0,12.0,1.8366354,10.0,14.0
15540.0,12.0,1.8562005,10.0,14.0
15550.0,12.0,1.8521118,10.0,14.0
15560.0,12.0,1.8101902,10.0,14.0
15570.0,12.0,1.7713006,10.0,14.0
15580.0,11.0,1.7904547,10.0,14.0
15590.0,11.0,1.8073456,10.0,14.0
15600.0,11.0,1.7662203,10.0,13.0
15610.0,11.0,1.7121001,10.0,13.0
15620.0,11.0,1.7505479,10.0,13.0
15630.0,11.5,1.7949365,10.0,14.0
15640.0,11.0,1.7693732,10.0,13.0
15650.0,11.0,1.6995492,10.0,13.0
15660.0,11.0,1.6675147,10.0,13.0
15670.0,11.0,1.6466476,10.0,13.0
15680.0,11.0,1.6211854,10.0,13.0
15690.0,11.0,1.6028693,10.0,13.0
15700.0,11.0,1.652777,10.0,13.0
15710.0,11.0,1.7032692,10.0,13.0
15720.0,11.0,1.7288888,10.0,13.0
15730.0,11.0,1.7418466,10.0,13.0
15740.0,11.0,1.8064897,10.0,13.0
15750.0,11.0,1.8809958,10.0,13.0
15760.0,11.0,1.8898239,9.0,13.0
15770.0,11.0,1.8414553,9.0,13.0
15780.0,11.0,1.825684,9.0,13.0
15790.0,11.0,1.8474004,9.0,13.0
15800.0,11.0,1.8291208,9.0,13.0
15810.0,11.0,1.8293421,9.0,13.0
15820.0,10.0,1.8807766,9.0,13.0
15830.0,10.0,1.9109675,9.0,13.0
15840.0,10.0,1.8808038,9.0,13.0
15850.0,11.0,1.8574111,9.0,13.0
15860.0,10.0,1.8620722,9.0,13.0
15870.0,10.0,1.846082,9.0,13.0
15880.0,10.0,1.8371923,9.0,13.0
15890.0,10.5,1.8632226,9.0,13.0
15900.0,10.5,1.9038367,9.0,13.0
15910.0,11.0,1.9055649,9.0,13.0
15920.0,11.0,1.9476619,9.0,13.0
15930.0,11.0,2.0271409,9.0,13.0
15940.0,11.0,2.076564,9.0,13.0
15950.0,11.0,2.122761,9.0,13.0
15960.0,11.0,2.1851869,9.0,13.0
15970.0,11.0,2.2273972,9.0,13.0
15980.0,11.0,2.1981254,9.0,13.0
15990.0,11.0,2.218618,9.0,13.0
16000.0,11.0,2.259575,9.0,13.0
16010.0,11.0,2.2540722,9.0,13.0
16020.0,11.0,2.2128208,9.0,13.0
16030.0,10.0,2.2289753,9.0,13.0
16040.0,10.0,2.2951882,8.0,13.0
16050.0,11.0,2.3387444,8.0,13.0
16060.0,11.0,2.3575819,8.0,14.0
16070.0,11.0,2.3497045,8.0,13.0
16080.0,11.0,2.3345234,8.0,13.0
16090.0,11.0,2.3285694,8.0,13.0
16100.0,11.0,2.3435044,8.0,13.0
16110.0,11.0,2.3853261,8.0,13.0
16120.0,11.0,2.4064858,8.0,13.0
16130.0,11.0,2.421496,8.0,13.0
16140.0,11.0,2.3963752,8.0,13.0
16150.0,11.0,2.3442187,8.0,13.0
16160.0,11.0,2.292153,8.0,13.0
16170.0,11.0,2.33367,8.0,13.0
16180.0,11.0,2.3568041,8.0,13.0
16190.0,11.0,2.3400443,8.0,13.0
16200.0,11.0,2.351421,8.0,13.0
16210.0,11.0,2.4011016,8.0,13.0
16220.0,11.0,2.48164,8.0,13.0
16230.0,11.0,2.5167887,8.0,13.0
16240.0,11.0,2.5246563,8.0,13.0
16250.0,11.0,2.5119283,8.0,13.0
16260.0,11.0,2.5501485,8.0,13.0
16270.0,11.0,2.5860941,8.0,13.0
16280.0,11.0,2.6011682,8.0,14.0
16290.0,11.0,2.5311124,8.0,13.0
16300.0,11.0,2.434355,8.0,13.0
16310.0,11.0,2.4301543,8.0,13.0
16320.0,11.0,2.45541,8.0,14.0
16330.0,11.0,2.426002,8.0,14.0
16340.0,11.0,2.3543923,8.0,13.0
16350.0,11.5,2.312906,8.0,13.0
16360.0,11.5,2.2943337,9.0,13.0
16370.0,11.0,2.274822,9.0,13.0
16380.0,11.0,2.2596684,9.0,13.0
16390.0,11.0,2.2973573,8.0,13.0
16400.0,11.0,2.3414936,8.0,13.0
16410.0,11.0,2.350354,8.0,13.0
16420.0,11.0,2.3277242,8.0,13.0
16430.0,11.0,2.3176587,8.0,13.0
16440.0,11.0,2.3223624,8.0,13.0
16450.0,11.0,2.3182487,8.0,13.0
16460.0,12.0,2.3453722,8.0,13.0
16470.0,11.0,2.362442,8.0,13.0
16480.0,11.5,2.3396804,8.0,13.0
16490.0,11.0,2.2877257,8.0,13.0
16500.0,11.0,2.2841382,8.0,13.0
16510.0,11.0,2.307395,8.0,13.0
16520.0,11.0,2.3114016,8.0,13.0
16530.0,11.0,2.3024142,8.0,13.0
16540.0,11.0,2.3053982,8.0,13.0
16550.0,11.0,2.3308334,8.0,13.0
16560.0,11.5,2.3462443,8.0,13.0
16570.0,11.5,2.3534684,8.0,13.0
16580.0,11.0,2.3194587,9.0,13.0
16590.0,11.0,2.3061385,9.0,13.0
16600.0,11.0,2.3260531,9.0,13.0
16610.0,11.0,2.3463135,8.0,13.0
16620.0,11.0,2.358143,9.0,13.0
16630.0,11.0,2.3938332,9.0,14.0
16640.0,11.0,2.3992097,9.0,14.0
16650.0,11.0,2.3864474,8.0,13.0
16660.0,11.0,2.4251132,8.0,13.0
16670.0,11.5,2.5043967,8.0,13.0
16680.0,11.5,2.5415206,8.0,14.0
16690.0,11.0,2.499602,9.0,13.0
16700.0,11.0,2.4892342,9.0,13.0
16710.0,11.0,2.5403125,9.0,13.0
16720.0,11.0,2.5700805,8.0,14.0
16730.0,11.0,2.5229044,9.0,14.0
16740.0,12.0,2.4920616,9.0,14.0
16750.0,12.0,2.4765925,9.0,14.0
16760.0,12.0,2.4761631,9.0,14.0
16770.0,11.5,2.4464777,9.0,14.0
16780.0,12.0,2.4305267,9.0,14.0
16790.0,12.0,2.4144983,9.0,14.0
16800.0,12.0,2.4480386,9.0,14.0
16810.0,12.0,2.4928052,9.0,14.0
16820.0,12.0,2.5078769,9.0,14.0
16830.0,12.0,2.493924,9.0,14.0
16840.0,12.0,2.446929,10.0,14.0
16850.0,12.0,2.4202793,10.0,14.0
16860.0,12.0,2.3814197,10.0,14.0
16870.0,12.0,2.33294,10.0,14.0
16880.0,12.0,2.2729897,10.0,14.0
16890.0,12.0,2.286275,10.0,14.0
16900.0,12.0,2.3570588,10.0,14.0
16910.0,12.0,2.349306,10.0,14.0
16920.0,12.0,2.3062098,10.0,14.0
16930.0,12.0,2.2732368,10.0,14.0
16940.0,12.0,2.279858,10.0,14.0
16950.0,12.0,2.2182333,10.0,14.0
16960.0,12.0,2.2036803,10.0,14.0
16970.0,12.0,2.1835341,10.0,14.0
16980.0,12.0,2.138612,10.0,14.0
16990.0,12.0,2.07999,10.0,14.0
17000.0,12.0,2.1442928,10.0,14.0
17010.0,12.0,2.2064931,10.0,14.0
17020.0,12.0,2.158522,10.0,14.0
17030.0,12.0,2.0725465,10.0,14.0
17040.0,12.0,2.0224757,10.0,14.0
17050.0,12.0,2.0069306,10.0,14.0
17060.0,12.0,1.960293,11.0,14.0
17070.0,12.0,1.9337101,11.0,14.0
17080.0,12.0,1.9310521,11.0,14.0
17090.0,12.0,1.8937929,11.0,14.0
17100.0,12.0,1.8644955,11.0,14.0
17110.0,13.0,1.9060887,11.0,14.0
17120.0,12.0,1.980887,11.0,14.0
17130.0,12.0,1.9376196,11.0,14.0
17140.0,12.0,1.8599145,11.0,14.0
17150.0,12.0,1.8432575,11.0,14.0
17160.0,12.0,1.9064121,11.0,14.0
17170.0,12.0,1.9115951,11.0,14.0
17180.0,12.0,1.8615915,11.0,14.0
17190.0,12.0,1.8092685,11.0,14.0
17200.0,12.0,1.7656544,11.0,14.0
17210.0,12.0,1.7768562,11.0,14.0
17220.0,12.0,1.8082347,11.0,14.0
17230.0,12.0,1.8533489,11.0,14.0
17240.0,12.0,1.8592631,11.0,14.0
17250.0,12.0,1.8763729,11.0,14.0
17260.0,12.0,1.8838196,11.0,14.0
17270.0,12.0,1.9418758,11.0,14.0
17280.0,12.0,2.0060766,11.0,14.0
17290.0,12.0,2.0524223,11.0,14.0
17300.0,12.0,2.0607574,11.0,14.0
17310.0,13.0,2.0287554,11.0,14.0
17320.0,12.5,2.0014925,11.0,14.0
17330.0,13.0,2.0240798,11.0,14.0
17340.0,13.0,2.072724,11.0,14.0
17350.0,13.0,2.0949662,11.0,14.0
17360.0,13.0,2.1135488,11.0,14.0
17370.0,13.0,2.157102,11.0,14.0
17380.0,13.0,2.301508,10.0,15.0
17390.0,13.0,2.4553523,10.0,15.0
17400.0,13.0,2.5020611,10.0,15.0
17410.0,13.0,2.462975,10.0,15.0
17420.0,13.0,2.4221585,10.0,15.0
17430.0,13.0,2.4220355,10.0,15.0
17440.0,13.0,2.5778482,10.0,15.0
17450.0,12.5,2.6792684,10.0,15.0
17460.0,13.0,2.7217321,10.0,15.0
17470.0,13.0,2.6952271,10.0,15.0
17480.0,13.0,2.6654289,10.0,15.0
17490.0,13.0,2.753496,10.0,15.0
17500.0,13.0,2.7583241,10.0,15.0
17510.0,13.0,2.7513523,10.0,14.0
17520.0,13.0,2.7476008,10.0,14.25
17530.0,13.0,2.8341727,10.0,14.0
17540.0,13.0,2.871403,9.5,15.0
17550.0,13.0,2.9129024,9.75,15.0
17560.0,13.0,2.8851016,10.0,15.0
17570.0,13.0,2.8983908,10.0,15.0
17580.0,13.0,2.9555979,10.0,15.0
17590.0,13.0,2.9219403,10.0,15.0
17600.0,13.0,2.887686,10.0,14.0
17610.0,13.0,2.869835,9.75,15.0
17620.0,13.0,2.8825028,9.5,15.0
17630.0,13.0,2.8753657,10.0,15.0
17640.0,13.0,2.9581807,10.0,15.0
17650.0,13.0,2.9954436,10.0,15.0
17660.0,13.0,2.9364889,10.0,15.0
17670.0,13.0,2.9060767,10.0,15.0
17680.0,13.0,2.9832191,9.0,15.0
17690.0,13.0,2.957664,9.0,15.0
17700.0,13.0,2.917382,9.0,14.0
17710.0,13.0,2.907394,9.0,14.0
17720.0,13.0,2.9020443,9.0,14.0
17730.0,13.0,2.8848739,9.0,14.0
17740.0,13.0,2.8747027,10.0,14.0
17750.0,13.0,2.9578707,9.0,14.0
17760.0,13.0,2.9455724,9.0,14.0
17770.0,13.0,2.944824,9.0,14.0
17780.0,13.0,2.9004638,9.0,14.0
17790.0,13.0,2.8366125,9.0,14.0
17800.0,13.0,2.7717183,9.0,14.0
17810.0,13.0,2.7825966,10.0,14.0
17820.0,13.0,2.8360586,9.0,14.0
17830.0,13.0,2.7852685,9.0,14.0
17840.0,13.0,2.7613919,9.0,14.0
17850.0,13.0,2.73692,9.0,14.0
17860.0,13.0,2.7390933,9.0,14.0
17870.0,13.0,2.7505388,9.0,14.0
17880.0,13.0,2.7882578,9.0,14.0
17890.0,13.0,2.8085625,9.0,14.0
17900.0,13.0,2.796872,9.0,14.0
17910.0,13.0,2.8075771,9.0,14.0
17920.0,13.0,2.82096,9.0,14.0
17930.0,12.5,2.7871783,8.75,14.0
17940.0,12.5,2.7728567,8.75,14.0
17950.0,12.0,2.7887425,9.0,14.0
17960.0,12.0,2.8117049,9.0,14.0
17970.0,12.0,2.817082,9.0,14.0
17980.0,12.0,2.778961,9.0,14.0
17990.0,12.0,2.8062599,9.0,14.0
18000.0,12.0,2.7970507,8.75,14.0
18010.0,12.5,2.7827258,8.75,14.0
18020.0,12.0,2.7372527,9.0,13.0
18030.0,12.0,2.5599685,8.0,13.0
18040.0,12.0,2.082057,9.0,13.0
18050.0,11.0,2.154205,9.0,13.0
18060.0,11.0,2.2003968,9.0,13.0
18070.0,11.0,2.2159665,9.0,13.0
18080.0,11.0,2.2528887,9.0,13.0
18090.0,11.0,2.2854419,9.0,13.0
18100.0,11.0,2.304186,9.0,13.0
18110.0,11.0,2.3133059,9.0,13.0
18120.0,11.0,2.3389845,8.0,13.0
18130.0,11.0,2.356411,8.0,13.0
18140.0,11.0,2.3982081,8.0,13.0
18150.0,11.0,2.4492273,9.0,13.0
18160.0,11.0,2.4793756,8.25,13.0
18170.0,11.0,2.49836,8.5,13.0
18180.0,11.0,2.556773,8.0,13.0
18190.0,11.0,2.6148949,8.0,13.0
18200.0,11.0,2.65713,8.0,13.0
18210.0,11.0,2.6480014,8.0,13.0
18220.0,11.0,2.6375868,8.0,13.0
18230.0,11.0,2.6219478,8.0,13.0
18240.0,11.0,2.6324575,9.0,13.0
18250.0,11.0,2.7448494,9.0,14.0
18260.0,11.0,2.8616986,8.0,14.0
18270.0,11.0,2.8974764,8.0,14.0
18280.0,12.0,2.9017048,8.0,14.0
18290.0,12.0,2.8996544,9.0,14.0
18300.0,12.0,2.894339,9.0,14.0
18310.0,12.0,2.9455729,9.0,14.0
18320.0,12.0,2.98337,8.0,14.0
18330.0,12.0,2.9830422,9.0,14.0
18340.0,12.0,3.025064,9.0,15.0
18350.0,12.0,3.0759466,9.0,15.0
18360.0,12.0,3.0736003,9.0,15.0
18370.0,12.0,3.099388,9.0,15.0
18380.0,13.0,3.1789482,9.0,15.0
18390.0,13.0,3.2807612,9.0,15.0
18400.0,13.0,3.327259,9.0,16.0
18410.0,13.0,3.272021,9.0,15.0
18420.0,13.0,3.1788344,10.0,15.0
18430.0,13.0,3.1588018,10.0,16.0
18440.0,13.0,3.2085023,10.0,16.0
18450.0,14.0,3.2279208,10.0,16.0
18460.0,14.0,3.1474702,11.0,16.0
18470.0,14.0,3.1402216,10.0,16.0
18480.0,14.0,3.2183526,10.0,16.0
18490.0,13.0,3.2248244,10.0,16.0
18500.0,14.0,3.1347358,10.0,16.0
18510.0,14.0,3.0736501,11.0,16.0
18520.0,14.0,3.037434,11.0,16.0
18530.0,14.0,2.949588,11.0,16.0
18540.0,14.0,1.8180947,12.0,15.0
18550.0,14.0,1.5611126,12.0,15.0
18560.0,14.0,1.613305,12.0,15.0
18570.0,14.0,1.6812284,12.0,15.0
18580.0,14.0,1.6877143,13.0,15.0
18590.0,14.0,1.6608796,13.0,15.0
18600.0,14.0,1.7183559,13.0,15.0
18610.0,14.0,1.7391857,12.0,15.0
18620.0,14.0,1.7912447,12.0,15.0
18630.0,14.0,1.8680179,12.0,15.0
18640.0,14.0,1.9058824,12.0,16.0
18650.0,13.0,1.9966891,12.0,15.25
18660.0,13.0,2.0459187,12.0,15.0
18670.0,13.0,2.1128235,12.0,15.0
18680.0,13.0,2.1480868,12.0,15.0
18690.0,13.0,2.1702304,12.0,15.0
18700.0,13.0,2.174531,12.0,15.0
18710.0,13.0,2.1645424,12.0,15.0
18720.0,13.0,2.1899414,12.0,15.0
18730.0,13.0,2.1959734,12.0,15.0
18740.0,13.0,2.1642165,12.0,15.0
18750.0,13.0,2.1397014,12.0,16.0
18760.0,13.0,2.1461737,12.0,16.0
18770.0,13.0,2.1117957,12.0,15.0
18780.0,13.0,2.0350442,11.0,15.0
18790.0,13.0,2.0034304,11.0,15.0
18800.0,13.0,1.9689006,11.0,15.0
18810.0,13.0,1.9528346,11.0,15.0
18820.0,13.0,1.933978,11.0,15.0
18830.0,13.0,1.964295,11.0,15.0
18840.0,13.0,1.9815724,11.0,15.0
18850.0,13.0,1.9258972,11.0,15.0
18860.0,13.0,1.8986058,11.0,15.0
18870.0,13.0,1.8335711,11.0,15.0
18880.0,13.0,1.7863603,11.0,15.0
18890.0,13.0,1.7555846,11.0,14.0
18900.0,13.0,1.715855,11.0,14.0
18910.0,12.0,1.6715655,11.0,14.0
18920.0,12.0,1.5738794,11.0,14.0
18930.0,12.0,1.5268025,11.0,14.0
18940.0,12.0,1.5484567,11.0,14.0
18950.0,12.0,1.6702002,11.0,14.0
18960.0,12.0,1.681089,11.0,14.0
18970.0,12.0,1.6154852,11.0,13.0
18980.0,12.0,1.6110228,11.0,13.0
18990.0,12.0,1.6023757,11.0,13.0
19000.0,12.0,1.6317923,11.0,13.0
19010.0,12.0,1.6356715,11.0,13.0
19020.0,12.0,1.6403073,11.0,13.0
19030.0,12.0,1.6399622,11.0,13.0
19040.0,12.0,1.6186746,11.0,13.0
19050.0,12.0,1.6842003,11.0,13.0
19060.0,12.0,1.6840314,11.0,13.0
19070.0,12.0,1.7445449,10.0,13.0
19080.0,12.0,1.7507381,10.0,13.0
19090.0,12.0,1.814253,10.0,13.0
19100.0,12.0,1.8381256,10.0,13.0
19110.0,12.0,1.8387066,10.0,13.0
19120.0,12.0,1.8809257,10.0,13.0
19130.0,12.0,1.8959845,10.0,13.0
19140.0,12.0,1.9036202,10.0,13.0
19150.0,12.0,1.9383633,10.0,14.0
19160.0,12.0,1.9063405,10.0,13.0
19170.0,12.0,1.9266685,10.0,13.0
19180.0,11.0,1.9125841,10.0,13.0
19190.0,11.0,1.9829541,10.0,13.0
19200.0,12.0,1.7924008,11.0,14.0
19210.0,12.0,1.8227302,11.0,14.0
19220.0,12.0,1.8134228,11.0,14.0
19230.0,12.0,1.8044285,11.0,14.0
19240.0,12.0,1.8477458,11.0,14.0
19250.0,12.0,1.8797868,11.0,14.0
19260.0,12.0,1.8734044,11.0,14.0
19270.0,12.0,1.8344804,11.0,14.0
19280.0,12.0,1.8122473,11.0,14.0
19290.0,12.0,1.7722481,10.0,14.0
19300.0,12.0,1.6933007,10.0,13.0
19310.0,11.0,1.6885325,10.0,13.0
19320.0,11.0,1.6720122,10.0,13.0
19330.0,11.0,1.6249267,10.0,13.0
19340.0,11.0,1.6077033,10.0,13.0
19350.0,11.0,1.6127032,10.0,13.0
19360.0,11.0,1.6020517,10.0,13.0
19370.0,13.0,0.8821028,12.0,13.0
19380.0,13.0,0.77408856,12.0,13.0
19390.0,13.0,0.7137303,12.0,13.0
19400.0,12.0,0.701634,12.0,13.0
19410.0,12.0,0.6982078,12.0,13.0
19420.0,12.0,0.66804856,12.0,13.0
19430.0,12.0,0.58830655,12.0,12.0
19440.0,12.0,0.50940424,12.0,12.0
19450.0,12.0,0.49478462,11.0,12.0
19460.0,12.0,0.49975252,11.0,12.0
19470.0,11.0,0.49677593,11.0,12.0
19480.0,11.0,0.47898665,11.0,12.0
19490.0,11.0,0.4234745,11.0,11.0
19500.0,11.0,0.36161202,11.0,11.0
19510.0,11.0,0.36590514,11.0,11.0
19520.0,11.0,0.42566743,11.0,11.0
19530.0,11.0,0.19196503,11.0,11.0
19540.0,12.0,1.6707866,10.0,14.0
19550.0,12.0,1.666028,10.0,14.0
19560.0,12.0,1.6529629,10.0,14.0
19570.0,12.0,1.6592413,10.0,14.0
19580.0,12.0,1.6320795,10.0,14.0
19590.0,12.0,1.6095384,10.0,13.0
19600.0,12.0,1.5691863,10.0,13.0
19610.0,11.0,1.5669911,10.0,13.0
19620.0,11.0,1.5541726,10.0,13.0
19630.0,11.0,1.565474,10.0,13.0
19640.0,11.0,1.6226672,10.0,13.0
19650.0,11.0,1.6558738,10.0,13.0
19660.0,11.0,1.617607,10.0,13.0
19670.0,11.0,1.517147,10.0,13.0
19680.0,10.0,1.5115576,10.0,13.0
19690.0,10.0,1.487371,10.0,12.0
19700.0,10.0,1.4079885,10.0,12.0
19710.0,11.0,1.3469533,10.0,12.0
19720.0,11.0,1.3353019,10.0,12.0
19730.0,11.0,1.3645946,9.0,12.0
19740.0,11.0,1.2816461,10.0,12.0
19750.0,11.0,1.1946797,10.0,11.0
19760.0,11.0,1.1121657,10.0,11.0
19770.0,11.0,1.077592,10.0,11.0
19780.0,11.0,1.1190068,10.0,12.0
19790.0,11.0,1.1901754,10.0,12.0
19800.0,11.0,1.1868665,10.0,12.0
19810.0,11.0,1.165197,10.0,12.0
19820.0,11.0,1.1704224,10.0,12.0
19830.0,11.0,1.2249486,10.0,12.0
19840.0,11.0,1.2998791,10.0,12.0
19850.0,11.0,1.3365421,10.0,12.0
19860.0,11.0,1.3166273,10.0,12.0
19870.0,11.0,1.3477571,10.0,12.0
19880.0,11.0,1.3958312,10.0,12.0
19890.0,11.0,1.4102274,10.0,13.0
19900.0,11.0,1.3549953,10.0,13.0
19910.0,11.0,1.3427428,10.0,13.0
19920.0,11.0,1.3334965,10.0,13.0
19930.0,11.0,1.3202729,10.0,13.0
19940.0,10.0,1.3153843,10.0,13.0
19950.0,10.0,0.74589443,10.0,11.0
19960.0,10.0,0.81087005,10.0,11.0
19970.0,10.0,0.8387782,10.0,11.5
19980.0,10.0,0.8577113,10.0,12.0
19990.0,10.0,0.905982,10.0,12.0
20000.0,11.0,0.9261869,10.0,12.0
20010.0,11.0,0.9814583,10.0,12.0
20020.0,11.0,1.0363585,10.0,12.0
20030.0,12.0,1.1635925,10.0,12.0
20040.0,12.0,1.2975166,10.0,13.0
20050.0,12.0,1.432533,10.0,13.0
20060.0,12.0,1.548699,10.0,13.0
20070.0,12.0,1.5674115,10.0,13.0
20080.0,12.0,1.5878145,10.0,13.0
20090.0,11.0,1.0001696,10.0,11.0
20100.0,11.0,1.1015816,10.0,12.0
20110.0,11.0,1.1401253,10.0,12.0
20120.0,11.0,1.1294639,11.0,12.0
20130.0,11.0,1.1907182,11.0,12.0
20140.0,12.0,1.3582447,11.0,13.0
20150.0,12.0,1.4636004,11.0,13.0
20160.0,12.0,1.4509673,11.0,13.0
20170.0,12.0,1.3843036,11.0,13.0
20180.0,12.0,1.3379959,11.0,13.0
20190.0,12.0,1.3829125,11.0,13.0
20200.0,12.0,1.4511209,11.0,13.0
20210.0,12.0,1.4569279,11.0,13.0
20220.0,13.0,1.4274173,11.0,13.0
20230.0,12.0,1.2915697,12.0,13.0
20240.0,12.0,1.4815414,11.0,13.0
20250.0,12.0,1.4400676,11.0,13.0
20260.0,12.0,1.447112,11.0,13.0
20270.0,12.0,1.389666,11.0,13.0
20280.0,12.0,1.3440429,11.0,13.0
20290.0,12.0,1.3407431,11.0,13.0
20300.0,12.0,1.3390739,11.0,13.0
20310.0,12.0,1.3233413,11.0,13.0
20320.0,12.0,1.7523261,10.0,13.0
20330.0,12.0,1.7178055,10.0,13.0
20340.0,12.0,1.6691579,10.0,13.0
20350.0,12.0,1.6732905,10.0,13.0
20360.0,12.0,1.6890993,10.0,13.0
20370.0,12.0,1.6898115,10.0,13.0
20380.0,12.0,1.5962365,10.0,13.0
20390.0,12.0,1.5481433,11.0,13.0
20400.0,12.0,1.518618,11.0,13.0
20410.0,12.0,1.5169955,11.0,13.0
20420.0,12.0,1.4366096,11.0,13.0
20430.0,12.0,1.3773954,11.0,13.0
20440.0,12.0,1.283179,11.0,13.0
20450.0,12.0,1.2664393,11.0,13.0
20460.0,12.0,1.2385622,11.0,13.0
20470.0,12.0,1.2179456,11.0,13.0
20480.0,12.0,1.2350436,11.0,13.0
20490.0,12.0,1.2204926,11.0,13.0
20500.0,12.0,1.1489173,11.0,13.0
20510.0,12.0,1.0738035,11.0,13.0
20520.0,12.0,1.0453213,11.0,13.0
20530.0,12.0,1.0406648,11.0,13.0
20540.0,12.0,0.98263156,11.0,13.0
20550.0,12.0,0.89686173,12.0,13.0
20560.0,12.0,0.9111521,12.0,13.0
20570.0,12.0,0.8860941,12.0,13.0
20580.0,13.0,0.9167926,12.0,13.0
20590.0,13.0,1.0270896,12.0,14.0
20600.0,13.0,1.0720196,12.0,14.0
20610.0,13.0,1.0875363,12.0,14.0
20620.0,13.0,1.0301878,12.0,14.0
20630.0,13.0,1.0301878,12.0,14.0
20640.0,13.0,1.0516908,12.0,14.0
20650.0,13.0,0.8158644,12.0,14.0
20660.0,13.0,0.8437505,12.0,14.0
20670.0,13.0,0.85546035,12.0,14.0
20680.0,13.0,0.8420127,12.0,14.0
20690.0,13.0,1.0403413,12.0,14.0
20700.0,13.0,1.108988,12.0,14.0
20710.0,14.0,1.0069823,13.0,14.0
20720.0,14.0,1.2754496,12.0,14.0
20730.0,14.0,1.4672813,12.0,15.0
20740.0,14.0,1.4688329,12.0,15.0
20750.0,14.0,1.4138154,12.0,15.0
20760.0,14.0,1.3860756,12.0,15.0
20770.0,14.0,1.3889014,12.0,15.0
20780.0,14.0,1.3871887,13.0,15.0
20790.0,14.0,1.3632435,13.0,15.0
20800.0,14.0,1.3746576,13.0,15.0
20810.0,14.0,1.4345773,12.0,15.0
20820.0,14.0,1.4370428,13.0,15.0
20830.0,14.0,1.3956301,13.0,15.0
20840.0,14.0,1.3572512,13.0,15.0
20850.0,14.0,1.3620938,13.0,15.0
20860.0,15.0,1.3510605,13.0,15.0
20870.0,15.0,1.3768879,13.0,15.0
20880.0,15.0,1.3988837,13.0,15.0
20890.0,15.0,1.4167504,13.0,16.0
20900.0,15.0,1.4021732,13.0,16.0
20910.0,15.0,1.3698052,14.0,16.0
20920.0,15.0,1.3104639,14.0,16.0
20930.0,15.0,1.3022163,14.0,16.0
20940.0,15.0,1.3203547,14.0,16.0
20950.0,15.0,1.3112319,14.0,16.0
20960.0,15.0,1.2710104,14.0,16.0
20970.0,15.0,1.2583708,14.0,16.0
20980.0,15.0,1.1975793,14.0,16.0
20990.0,15.0,1.1947803,14.0,16.0
21000.0,15.0,1.2429928,14.0,16.0
21010.0,15.0,1.3105537,14.0,16.0
21020.0,15.0,1.2537029,14.0,16.0
21030.0,15.0,1.2265204,14.0,16.0
21040.0,15.0,1.2366079,14.0,16.0
21050.0,15.0,1.2173734,14.0,16.0
21060.0,15.0,1.2322497,14.0,16.0
21070.0,15.0,1.3809608,13.0,16.0
21080.0,15.0,1.4060718,13.0,16.0
21090.0,15.0,1.4051851,13.0,16.0
21100.0,15.0,1.3816293,13.0,16.0
21110.0,15.0,1.3780922,13.0,16.0
21120.0,14.5,1.3786398,13.0,16.0
21130.0,15.0,1.3799992,13.0,16.0
21140.0,15.0,1.3742602,13.0,16.0
21150.0,15.0,1.3474271,13.0,15.0
21160.0,14.0,1.3609338,13.0,15.0
21170.0,14.0,1.3736207,13.0,15.0
21180.0,14.0,1.3416237,13.0,15.0
21190.0,14.0,1.2371504,13.0,15.0
21370.0,14.0,1.5439056,12.0,15.0
21380.0,14.0,1.5413278,11.0,15.0
21390.0,14.0,1.548774,11.0,14.0
21400.0,14.0,1.4973775,11.0,14.0
21410.0,13.0,1.4552346,11.0,14.0
21420.0,13.0,1.4829663,11.0,14.0
21430.0,13.0,1.5846239,11.0,14.0
21440.0,12.0,1.6286111,11.0,14.0
21450.0,12.0,1.6099172,10.0,14.0
21460.0,12.0,1.5581746,10.0,14.0
21470.0,12.0,1.5257523,10.0,13.0
21480.0,12.0,1.4847631,10.0,13.0
21490.0,12.0,1.4454962,10.0,13.0
21500.0,12.0,1.4465911,10.0,13.0
21510.0,12.0,1.53778,10.0,13.0
21520.0,12.0,2.1407268,9.0,14.0
21530.0,12.0,2.2025752,9.0,14.0
21540.0,12.0,2.1743813,9.0,14.0
21550.0,12.0,2.181498,9.0,14.0
21560.0,12.0,2.2052248,9.0,14.0
21570.0,12.0,2.2334862,9.0,14.0
21580.0,11.0,2.2209938,9.0,14.0
21590.0,11.0,2.1502428,9.0,13.0
21600.0,11.0,2.0537462,9.0,13.0
21610.0,11.0,1.9749037,9.0,13.0
21620.0,11.0,1.9313587,9.0,13.0
21630.0,10.0,1.9319408,9.0,13.0
21640.0,10.0,1.9208357,9.0,13.0
21650.0,10.0,1.9147828,9.0,12.0
21660.0,10.0,1.9442137,8.0,12.0
21670.0,10.0,1.9354982,8.0,12.0
21680.0,10.0,1.9033628,8.0,12.0
21690.0,10.0,1.8635765,8.0,12.0
21700.0,10.0,1.7731515,8.0,12.0
21710.0,10.0,1.6937727,8.0,12.0
21720.0,10.0,1.6735729,8.0,12.0
21730.0,9.0,1.5041462,8.0,11.0
21740.0,9.0,1.4406409,8.0,11.0
21750.0,9.0,1.4063332,8.0,11.0
21760.0,9.0,1.362115,8.0,11.0
21770.0,9.0,1.2957116,8.0,11.0
21780.0,9.0,1.2754145,8.0,11.0
21790.0,9.0,1.2745651,8.0,11.0
21800.0,9.0,1.2649179,8.0,11.0
21810.0,9.0,1.2384443,8.0,10.0
21820.0,8.0,1.1380432,8.0,10.0
21830.0,8.0,0.9684941,8.0,10.0
21840.0,8.0,0.86368567,8.0,10.0
21850.0,8.0,0.8597845,8.0,10.0
21860.0,8.0,0.85633147,8.0,10.0
21870.0,8.0,0.8312597,8.0,9.0
21880.0,8.0,0.7978124,8.0,9.0
21890.0,8.0,0.763437,8.0,9.0
21900.0,8.0,0.73086166,8.0,9.0
21910.0,8.0,0.68524504,8.0,9.0
21920.0,8.0,0.6315713,8.0,9.0
21930.0,8.0,0.6212351,8.0,9.0
21940.0,8.0,0.62054366,8.0,9.0
21950.0,8.0,0.5217121,8.0,9.0
21960.0,8.0,0.49494362,8.0,9.0
21970.0,8.0,0.49494362,8.0,9.0
21980.0,8.0,0.49508566,8.0,9.0
21990.0,8.0,0.49742538,8.0,9.0
22000.0,8.0,0.49887303,8.0,9.0
22010.0,8.0,0.49974802,8.0,9.0
22020.0,8.0,0.49999934,8.0,9.0
22030.0,9.0,0.49952716,8.0,9.0
22040.0,9.0,0.4957865,8.0,9.0
22050.0,9.0,0.49260196,8.0,9.0
22060.0,9.0,0.5507878,8.0,9.0
22070.0,9.0,0.6403338,8.0,9.0
22080.0,9.0,0.75189143,8.0,9.0
22090.0,9.0,0.8221472,8.0,10.0
22100.0,9.0,0.8356652,8.0,10.0
22110.0,9.0,0.8031349,8.0,10.0
22120.0,9.0,0.79199547,9.0,10.0
22130.0,9.0,0.84828216,9.0,10.0
22140.0,10.0,0.9385812,9.0,10.0
22150.0,10.0,0.97416776,9.0,10.0
22160.0,10.0,0.9414603,9.0,11.0
22170.0,10.0,0.9103473,9.0,11.0
22180.0,10.0,0.9987815,9.0,11.0
22190.0,10.0,1.0566905,9.0,11.0
22200.0,10.0,1.0823556,9.0,11.0
22210.0,10.5,1.6121707,9.0,12.0
22220.0,11.0,1.8932079,8.0,12.0
22230.0,11.0,1.9264122,8.0,12.0
22240.0,11.0,1.9706602,9.0,13.0
22250.0,11.0,1.9758312,9.0,13.0
22260.0,11.0,2.1085937,9.0,13.0
22270.0,12.0,2.1751516,9.0,13.0
22280.0,12.0,2.2268376,9.0,13.0
22290.0,12.0,2.1717184,9.0,13.0
22300.0,12.0,2.2791214,9.0,14.0
22310.0,12.5,2.2883837,9.0,14.0
22320.0,12.5,2.3614092,10.0,14.0
22330.0,12.0,2.4833822,9.0,14.0
22340.0,12.0,2.546359,9.0,14.0
22350.0,12.0,2.5410204,10.0,14.0
22360.0,12.0,2.5271976,10.0,14.0
22370.0,13.0,2.560238,10.0,14.0
22380.0,13.0,2.5298445,10.0,14.0
22390.0,13.0,2.4289477,10.0,15.0
22400.0,13.0,2.427754,10.0,15.0
22410.0,13.0,2.4115367,10.0,15.0
22420.0,13.0,2.4788554,10.0,15.0
22430.0,13.0,2.4795268,10.0,15.0
22440.0,13.0,2.4428763,10.0,15.0
22450.0,13.0,2.3876479,10.0,15.0
22460.0,13.0,2.440957,10.0,15.0
22470.0,13.0,2.439017,10.0,15.0
22480.0,13.0,2.4952204,10.0,15.0
22490.0,13.0,2.522252,10.0,15.0
22500.0,13.0,2.4887524,10.0,15.0
22510.0,13.0,2.367365,11.0,15.0
22520.0,13.0,2.3702714,10.0,15.0
22530.0,13.0,2.3841639,10.0,15.0
22540.0,13.0,2.2155821,10.0,15.0
22550.0,13.0,2.2096047,10.0,15.0
22560.0,13.0,2.1988044,10.0,15.0
22570.0,13.0,2.14488,11.0,15.0
22580.0,13.0,2.0776405,11.0,15.0
22590.0,13.0,2.1430593,10.0,15.0
22600.0,13.0,2.1026447,11.0,15.0
22610.0,13.0,2.1688359,10.0,14.0
22620.0,13.0,2.1422386,11.0,14.5
22630.0,13.0,2.1724,11.0,15.0
22640.0,13.0,2.1275144,11.0,15.0
22650.0,13.0,2.0997276,11.0,15.0
22660.0,13.0,2.0884736,11.0,15.0
22670.0,13.0,2.1800396,10.0,15.0
22680.0,12.5,2.187965,10.0,15.0
22690.0,12.0,2.1875162,10.0,15.0
22700.0,13.0,2.1862957,10.0,15.0
22710.0,13.0,2.1760426,10.0,14.0
22720.0,12.0,2.1533575,11.0,14.0
22730.0,12.0,2.15131,11.0,14.0
22740.0,12.0,2.129272,11.0,14.0
22750.0,13.0,2.160375,11.0,15.0
22760.0,13.0,2.203272,10.0,15.0
22770.0,13.0,2.2477527,10.0,15.0
22780.0,13.0,2.2513497,10.0,15.0
22790.0,13.0,2.2872465,10.0,15.0
22800.0,13.0,2.2069218,11.0,15.0
22810.0,13.0,2.2628245,10.75,15.0
22820.0,13.0,2.262998,10.75,15.0
22830.0,13.0,2.2354105,10.75,15.0
22840.0,13.0,2.193476,10.75,15.0
22850.0,13.0,2.2367685,10.0,15.0
22860.0,13.0,2.306112,10.0,15.0
22870.0,13.0,2.3283813,10.0,15.0
22880.0,13.0,2.3066757,10.0,15.0
22890.0,13.0,2.2442238,10.0,14.75
22900.0,13.0,2.2445056,10.0,14.0
22910.0,13.0,2.2602234,10.0,14.0
22920.0,13.0,2.259742,10.0,14.0
22930.0,13.0,2.256537,10.0,14.0
22940.0,13.0,2.2655022,10.0,14.0
22950.0,13.0,2.320415,10.0,14.0
22960.0,13.0,2.3149774,10.0,14.0
22970.0,13.0,2.2770393,10.0,14.0
22980.0,13.0,2.2316098,10.0,14.0
22990.0,13.0,2.169602,10.0,14.0
23000.0,12.0,2.121344,10.0,14.0
23010.0,12.0,2.0210443,10.0,14.0
23020.0,12.0,1.9464858,10.0,14.0
23030.0,12.0,1.893174,10.0,13.0
23040.0,12.0,1.8651216,10.0,13.0
23050.0,12.0,1.8060125,10.0,13.0
23060.0,12.0,1.7106318,10.0,13.0
23070.0,12.0,1.5722092,10.0,13.0
23080.0,12.0,1.3825405,10.0,13.0
23090.0,12.0,1.2555907,10.0,13.0
23100.0,12.0,1.2333347,10.0,13.0
23110.0,12.0,1.1986111,10.0,13.0
23120.0,11.0,1.1400836,10.0,13.0
23130.0,11.0,1.1078413,11.0,13.0
23140.0,12.0,0.850074,11.0,13.0
23150.0,12.0,0.78393394,11.0,13.0
23160.0,12.0,0.73543555,11.5,13.0
23170.0,12.0,0.7636876,11.0,13.0
23180.0,12.0,0.73694783,11.0,13.0
23190.0,12.0,0.70758504,11.5,12.5
23200.0,12.0,0.6750754,12.0,12.0
23210.0,12.0,0.7346036,11.0,12.0
23220.0,12.0,0.5390041,11.0,12.0
23230.0,12.0,0.4837273,11.0,12.0
23240.0,12.0,0.48004943,11.0,12.0
23250.0,12.0,0.4808169,11.0,12.0
23260.0,12.0,0.49167848,11.0,12.0
23270.0,12.0,0.49576074,11.0,12.0
23280.0,11.0,0.49576074,11.0,12.0
23290.0,11.0,0.4880286,11.0,12.0
23300.0,11.0,0.60126996,11.0,12.0
23310.0,11.0,0.48708612,11.0,12.0
23320.0,11.0,0.47483486,11.0,12.0
23330.0,11.0,0.44237936,11.0,12.0
23340.0,11.0,0.341182,11.0,11.0
23350.0,11.0,0.21924697,11.0,11.0
23360.0,11.0,0.0,11.0,11.0
23370.0,11.0,0.06867951,11.0,11.0
23380.0,11.0,0.27478853,11.0,11.0
23390.0,11.0,0.38185072,11.0,11.0
23400.0,11.0,0.39952454,11.0,11.0
23410.0,11.0,0.39952454,11.0,11.0
23420.0,11.0,0.43094096,11.0,11.0
23430.0,11.0,0.47032216,10.0,11.0
23440.0,11.0,0.47686994,10.0,11.0
23450.0,11.0,0.47686997,10.0,11.0
23460.0,11.0,0.49108508,10.0,11.0
23470.0,11.0,0.4977417,10.0,11.0
23480.0,11.0,0.45351815,10.0,11.0
23490.0,11.0,0.4762377,10.0,11.0
23500.0,11.0,0.48773575,10.0,11.0
23510.0,11.0,0.49882883,10.0,11.0
23520.0,10.0,0.48644477,10.0,11.0
23530.0,10.0,0.4176084,10.0,10.0
23540.0,10.0,0.30605718,10.0,10.0
23550.0,10.0,0.18474995,10.0,10.0
23560.0,10.0,0.039193045,10.0,10.0
23570.0,10.0,0.0,10.0,10.0
23580.0,10.0,0.0,10.0,10.0
23590.0,10.0,0.0,10.0,10.0
23600.0,10.0,0.17895779,10.0,10.0
23610.0,10.0,0.2828469,10.0,10.0
23620.0,10.0,0.34857613,10.0,10.0
23630.0,10.0,0.39767373,10.0,10.0
23640.0,10.0,0.42116863,10.0,10.0
23650.0,10.0,0.42471936,10.0,10.0
23660.0,10.0,0.43230632,10.0,10.0
23670.0,10.0,0.46637928,9.0,10.0
23680.0,10.0,0.48422205,9.0,10.0
23690.0,10.0,0.48757583,9.0,10.0
23700.0,10.0,0.48757583,9.0,10.0
23710.0,10.0,0.48757583,9.0,10.0
23720.0,10.0,0.49203846,9.0,10.0
23730.0,10.0,0.49948934,9.0,10.0
23740.0,9.0,0.49988887,9.0,10.0
23750.0,9.0,0.4986432,9.0,10.0
23760.0,9.0,0.49690396,9.0,10.0
23770.0,9.0,0.49748576,9.0,10.0
23780.0,9.0,0.49983868,9.0,10.0
23790.0,10.0,0.49999937,9.0,10.0
23800.0,9.0,0.49999937,9.0,10.0
23810.0,9.0,0.49997774,9.0,10.0
23820.0,9.0,0.49867085,9.0,10.0
23830.0,9.0,0.49690396,9.0,10.0
23840.0,9.0,0.49794278,9.0,10.0
23850.0,9.0,0.49993697,9.0,10.0
23860.0,10.0,0.49999937,9.0,10.0
23870.0,9.0,0.49999937,9.0,10.0
23880.0,9.0,0.4999504,9.0,10.0
23890.0,9.0,0.4993028,9.0,10.0
23900.0,9.0,0.499307,9.0,10.0
23910.0,9.0,0.49983558,9.0,10.0
23920.0,9.0,0.49999934,9.0,10.0
23930.0,10.0,0.49987042,9.0,10.0
23940.0,10.0,0.49934405,9.0,10.0
23950.0,10.0,0.49926454,9.0,10.0
23960.0,10.0,0.49934408,9.0,10.0
23970.0,10.0,0.49714205,9.0,10.0
23980.0,10.0,0.49248484,9.0,10.0
23990.0,10.0,0.48989797,9.0,10.0
24000.0,10.0,0.49330127,9.0,10.0
24010.0,10.0,0.48658186,9.0,10.0
24020.0,10.0,0.54427904,9.0,10.0
24030.0,10.0,0.6327598,9.0,10.0
24040.0,10.0,0.70355886,9.0,10.0
24050.0,10.0,0.7307608,9.0,10.0
24060.0,10.0,0.740627,9.0,10.0
24070.0,10.0,0.76912856,9.0,11.0
24080.0,10.0,0.7842382,9.0,11.0
24090.0,10.0,0.7773023,9.0,11.0
24100.0,10.0,0.7853863,10.0,11.0
24110.0,10.0,0.83346725,10.0,11.0
24120.0,10.0,0.906063,10.0,11.0
24130.0,10.0,0.98886126,10.0,11.0
24140.0,11.0,1.0521853,10.0,12.0
24150.0,11.0,1.0793858,10.0,12.0
24160.0,11.0,1.0658593,10.0,12.0
24170.0,11.0,1.0859525,10.0,12.0
24180.0,11.0,1.188372,10.0,12.0
24190.0,11.0,1.3126549,10.0,12.0
24200.0,11.0,1.0543499,10.0,12.0
24210.0,11.0,0.8636207,10.0,11.0
24220.0,11.0,0.9164945,10.0,12.0
24230.0,11.0,0.96636766,10.0,12.0
24240.0,11.0,0.9665215,10.0,12.0
24250.0,11.0,1.0198203,10.0,12.0
24260.0,11.0,1.1649039,10.0,12.0
24270.0,11.0,1.2799468,10.0,12.0
24280.0,11.0,1.3246142,10.0,13.0
24290.0,11.0,1.3370223,10.0,13.0
24300.0,11.0,1.3244739,10.0,13.0
24310.0,11.0,1.3876432,10.0,13.0
24320.0,12.0,1.5070113,10.0,13.0
24330.0,12.0,1.6478866,10.0,13.0
24340.0,12.0,1.7483121,10.0,13.0
24350.0,12.0,1.7481198,10.0,13.0
24360.0,12.0,1.822052,10.0,14.0
24370.0,12.0,1.8217828,10.0,14.0
24380.0,12.0,2.0710592,10.0,14.0
24390.0,12.0,2.1343195,10.0,14.0
24400.0,12.0,2.1340168,10.0,14.0
24410.0,12.0,2.1428976,10.0,14.0
24420.0,12.0,2.183123,10.0,14.0
24430.0,12.0,2.182019,10.0,14.0
24440.0,12.0,2.204406,10.0,15.0
24450.0,12.0,2.2019885,10.0,15.0
24460.0,12.0,2.2035027,10.0,15.0
24470.0,13.0,2.1593425,10.0,15.0
24480.0,13.0,2.2961633,10.0,15.0
24490.0,13.0,2.2993252,10.0,15.0
24500.0,12.0,2.1121376,10.0,14.0
24510.0,13.0,2.0812705,11.0,15.0
24520.0,13.0,2.1352963,11.0,15.0
24530.0,13.0,2.1959877,11.0,15.0
24540.0,13.0,2.1995492,11.0,15.0
24550.0,13.0,2.1710086,11.0,15.0
24560.0,13.0,2.184495,11.0,15.0
24570.0,13.0,2.1898081,11.0,15.0
24580.0,13.0,2.1782799,11.0,15.0
24590.0,13.0,2.186344,11.0,15.0
24600.0,13.0,2.2543051,11.0,15.0
24610.0,13.0,2.282122,11.0,15.0
24620.0,13.0,2.253995,11.0,15.0
24630.0,13.0,2.204399,11.0,15.0
24640.0,13.0,2.2120688,11.0,15.0
24650.0,13.0,2.219155,11.0,15.0
24660.0,13.0,2.2371278,11.0,15.0
24670.0,13.0,2.2889862,11.0,15.0
24680.0,13.0,2.3000596,11.0,15.0
24690.0,13.0,2.253476,11.0,15.0
24700.0,13.0,2.186658,11.0,15.0
24710.0,13.0,2.2560296,11.0,15.0
24720.0,13.0,2.2523248,11.0,15.0
24730.0,13.0,2.2330673,11.0,15.0
24740.0,13.0,2.1802163,11.0,15.0
24750.0,13.0,2.1521716,11.0,15.0
24760.0,13.0,2.0619981,11.0,15.0
24770.0,13.0,1.9781955,12.0,15.0
24780.0,13.0,1.9077345,11.0,15.0
24790.0,13.0,1.9453928,11.0,15.0
24800.0,13.0,1.9727103,11.0,15.0
24810.0,13.0,2.0029254,11.0,14.0
24820.0,13.0,2.052447,11.0,15.0
24830.0,13.0,2.076304,11.0,15.0
24840.0,13.0,2.0485685,11.0,15.0
24850.0,13.0,2.0412927,11.0,15.0
24860.0,13.0,2.0568743,11.0,15.0
24870.0,13.0,2.061704,11.0,14.0
24880.0,13.0,2.0688636,11.0,14.0
24890.0,13.0,2.1151733,11.0,15.0
24900.0,13.0,2.1483684,11.0,15.0
24910.0,13.0,2.1748228,11.0,15.0
24920.0,13.0,2.1820893,11.0,15.0
24930.0,13.0,2.1767106,11.0,15.0
24940.0,13.0,2.1700156,11.0,15.0
24950.0,13.0,2.1944175,11.0,15.0
24960.0,13.0,2.2525744,11.0,15.0
24970.0,13.0,2.3278217,11.0,15.0
24980.0,13.0,2.3797448,11.0,15.0
24990.0,13.0,2.3768916,11.0,15.0
25000.0,13.0,2.344223,11.0,15.0
25010.0,13.0,2.3280501,11.0,15.0
25020.0,13.0,2.3709853,11.0,15.0
25030.0,13.0,2.4011562,11.0,15.0
25040.0,13.0,2.3747945,11.0,15.0
25050.0,13.0,2.352765,11.0,15.0
25060.0,14.0,2.3464448,11.0,15.0
25070.0,13.0,2.280701,11.0,15.0
25080.0,13.0,2.35632,11.0,15.0
25090.0,13.0,2.3576746,11.0,15.0
25100.0,13.0,2.3068922,11.0,15.0
25110.0,14.0,2.2677093,11.0,15.0
25120.0,13.5,2.290297,11.0,15.0
25130.0,13.0,2.3000598,11.0,15.0
25140.0,14.0,2.3086286,11.0,15.0
25150.0,14.0,2.3570526,12.0,15.0
25160.0,13.5,2.3637092,12.0,16.0
25170.0,13.0,2.446495,12.0,16.0
25180.0,13.0,2.4679,12.0,16.0
25190.0,14.0,2.4245718,12.0,16.0
25200.0,13.5,2.3451748,12.0,16.0
25210.0,14.0,2.4383392,12.0,16.0
25220.0,14.0,2.5561469,12.0,16.0
25230.0,14.0,2.5291016,12.0,16.0
25240.0,14.0,2.4121118,12.0,16.0
25250.0,15.0,2.3605628,12.0,16.0
25260.0,14.0,2.3736117,12.0,16.0
25270.0,14.0,2.3891277,12.0,17.0
25280.0,14.0,2.3411715,12.0,16.0
25290.0,14.0,2.3565574,12.0,16.0
25300.0,14.5,2.2239976,12.0,16.0
25310.0,15.0,2.0044425,13.0,17.0
25320.0,15.0,1.9172366,13.0,17.0
25330.0,15.0,1.9119177,13.0,17.0
25340.0,15.0,1.8000605,13.0,16.0
25350.0,15.0,1.9761006,13.0,16.0
25360.0,15.0,2.060669,13.0,17.0
25370.0,15.0,2.0190673,13.0,17.0
25380.0,15.0,2.0366988,13.0,17.0
25390.0,16.0,2.0531483,13.0,17.0
25400.0,15.0,2.0208347,14.0,17.0
25410.0,15.5,2.0226307,13.0,17.0
25420.0,16.0,1.9472371,14.0,17.0
25430.0,15.0,1.965846,13.0,17.0
25440.0,15.0,1.9672217,13.0,17.0
25450.0,15.0,2.0379193,13.0,17.0
25460.0,16.0,1.9953198,14.0,17.0
25470.0,16.0,1.9307303,14.0,17.0
25480.0,16.0,1.8630958,14.0,18.0
25490.0,16.0,1.8928472,14.0,18.0
25500.0,16.0,1.8920677,14.0,18.0
25510.0,16.0,1.8914287,14.0,18.0
25520.0,16.0,1.8229426,14.0,18.0
25530.0,16.0,1.8068224,14.0,18.0
25540.0,16.0,1.8068831,14.0,18.0
25550.0,16.0,1.8776035,14.0,18.0
25560.0,16.0,1.8143296,15.0,18.0
25570.0,16.0,1.8129113,15.0,18.0
25580.0,16.0,1.7673385,15.0,18.0
25590.0,16.0,1.7462386,15.0,18.0
25600.0,16.0,1.7339034,14.25,18.0
25610.0,16.0,1.7325127,15.0,18.0
25620.0,16.0,1.7311194,14.25,18.0
25630.0,16.0,1.7325127,15.0,18.0
25640.0,16.0,1.7315799,14.25,18.0
25650.0,17.0,1.6371522,15.0,18.0
25660.0,17.0,1.6413783,15.0,18.0
25670.0,17.0,1.5815077,15.0,18.0
25680.0,17.0,1.4880881,15.0,18.0
25690.0,17.0,1.4889964,15.0,18.0
25700.0,17.0,1.4892248,15.0,18.0
25710.0,17.0,1.4889964,15.0,18.0
25720.0,17.0,1.4876499,15.0,18.0
25730.0,17.0,1.4870589,15.0,18.0
25740.0,16.0,1.4802384,15.0,18.0
25750.0,16.0,1.4650002,15.0,18.0
25760.0,16.0,1.4531474,15.0,18.0
25770.0,17.0,1.4595829,15.0,18.0
25780.0,17.0,1.4727877,15.0,18.0
25790.0,17.0,1.4892248,15.0,18.0
25800.0,17.0,1.4889963,15.0,18.0
25810.0,17.0,1.4892248,15.0,18.0
25820.0,17.0,1.4889964,15.0,18.0
25830.0,17.0,1.4785492,15.0,18.0
25840.0,17.0,1.3710653,15.0,18.0
25850.0,17.0,1.3416775,15.0,18.0
25860.0,17.0,1.2917606,15.0,17.0
25870.0,16.0,1.2314217,15.0,17.0
25880.0,16.0,1.1902254,15.0,17.0
25890.0,16.0,1.1801076,15.0,17.0
25900.0,17.0,1.2377957,15.0,17.0
25910.0,16.0,1.2651165,15.0,17.0
25920.0,17.0,1.2901468,15.0,17.0
25930.0,17.0,1.3381587,15.0,18.0
25940.0,17.0,1.3381587,15.0,18.0
25950.0,17.0,1.3381587,15.0,18.0
25960.0,16.5,1.2811116,15.0,17.0
25970.0,17.0,1.2376328,16.0,17.0
25980.0,17.0,1.2105826,16.0,17.0
25990.0,17.0,1.2561733,16.0,17.0
26000.0,17.0,1.2592058,16.0,17.0
26010.0,17.0,1.2576728,16.0,17.0
26020.0,17.0,1.2604039,16.0,17.0
26030.0,17.0,1.2952496,16.0,17.0
26040.0,17.0,1.3582385,16.0,18.0
26050.0,17.0,1.3745773,16.0,18.0
26060.0,17.0,1.4455013,16.0,18.0
26070.0,17.0,1.5761172,16.0,18.0
26080.0,17.0,1.5748469,16.0,18.0
26090.0,17.0,1.5760114,16.0,18.0
26100.0,17.0,1.574882,16.0,18.0
26110.0,17.0,1.5930618,15.0,18.0
26120.0,17.0,1.6096256,15.0,18.0
26130.0,17.0,1.5557764,15.0,18.0
26140.0,17.0,1.5237445,15.0,17.0
26150.0,17.0,1.529019,15.0,17.0
26160.0,17.0,1.5697547,15.0,18.0
26170.0,17.0,1.7019646,15.0,18.0
26180.0,17.0,1.6852509,15.0,18.0
26190.0,17.0,1.6411083,15.0,17.0
26200.0,17.0,1.5953155,15.0,17.0
26210.0,17.0,1.6307164,15.0,17.0
26220.0,17.0,1.5652958,15.0,17.0
26230.0,17.0,1.5287354,15.0,17.0
26240.0,17.0,1.5118892,15.0,17.0
26250.0,16.0,1.45008,15.0,17.0
26260.0,16.0,1.4405048,15.0,17.0
26270.0,16.0,1.2988048,15.0,17.0
26280.0,16.0,1.258528,15.0,17.0
26290.0,16.0,1.1373465,15.0,17.0
26300.0,16.0,1.1395935,15.0,17.0
26310.0,16.0,1.1614836,15.0,17.0
26320.0,16.0,1.1260258,15.0,17.0
26330.0,16.0,1.1097838,15.0,17.0
26340.0,16.0,1.0470952,15.0,17.0
26350.0,16.0,1.0335964,15.0,17.0
26360.0,16.0,0.98402494,15.0,17.0
26370.0,16.0,0.9847029,15.0,17.0
26380.0,16.0,1.0078729,15.0,17.0
26390.0,16.0,1.022431,15.0,17.0
26400.0,16.0,0.9929245,16.0,17.0
26410.0,16.0,0.9355466,15.0,17.0
26420.0,16.0,0.8995742,15.0,17.0
26430.0,16.0,0.89831775,15.0,17.0
26440.0,16.0,0.91682965,15.0,17.0
26450.0,16.0,0.9269214,15.0,17.0
26460.0,16.0,0.85690665,15.0,16.0
26470.0,16.0,0.89774513,15.0,16.0
26480.0,16.0,0.8652988,15.0,16.0
26490.0,16.0,0.86522657,15.0,16.0
26500.0,16.0,0.7803418,15.0,16.0
26510.0,16.0,0.78166115,15.0,16.0
26520.0,16.0,0.7803418,15.0,16.0
26530.0,16.0,0.78002,15.0,16.0
26540.0,16.0,0.78034174,15.0,16.0
26550.0,15.0,0.7673676,15.0,16.0
26560.0,16.0,0.82900316,15.0,16.0
26570.0,15.0,0.81866384,15.0,16.0
26580.0,15.0,0.8069088,15.0,16.0
26590.0,15.0,0.77164054,15.0,16.0
26600.0,15.0,0.77099276,15.0,16.0
26610.0,15.0,0.77164054,15.0,16.0
26620.0,15.0,0.77733666,15.0,16.0
26630.0,15.0,0.8325959,14.0,16.0
26640.0,15.0,0.80637884,14.0,16.0
26650.0,15.0,0.80567044,14.0,16.0
26660.0,15.0,0.77199537,14.0,16.0
26670.0,15.0,0.7190859,14.0,15.0
26780.0,14.0,0.7959913,14.0,15.0
26790.0,14.0,0.9101439,14.0,15.0
26800.0,14.0,0.9282366,13.0,15.0
26810.0,14.0,0.8537499,13.0,15.0
26820.0,14.0,0.836937,13.0,14.0
26830.0,14.0,0.83351135,13.0,14.0
26840.0,14.0,0.8071948,13.0,14.0
26850.0,14.0,0.71836776,13.0,14.0
26860.0,14.0,0.7152543,13.0,14.0
26870.0,14.0,0.7180219,13.0,14.0
26880.0,14.0,0.7684392,13.0,14.0
26890.0,14.0,0.8048119,13.0,14.0
26900.0,14.0,0.800376,13.0,14.0
26910.0,14.0,0.8006458,13.0,14.0
26920.0,14.0,0.79821426,13.0,14.0
26930.0,14.0,0.7888106,13.0,14.0
26940.0,14.0,0.7890521,13.0,14.0
26950.0,14.0,0.8539896,12.0,14.0
26960.0,13.0,0.83655953,12.0,14.0
26970.0,13.0,0.83351135,12.0,14.0
26980.0,13.0,0.8791307,12.0,14.0
26990.0,13.0,0.88443327,12.0,14.0
27000.0,13.0,0.81605375,12.0,14.0
27010.0,13.0,0.81605375,12.0,14.0
27020.0,13.0,0.81737596,12.0,14.0
27030.0,13.0,0.9285467,12.0,14.0
27040.0,13.0,0.9285467,12.0,14.0
27050.0,13.0,0.9568467,12.0,14.0
27060.0,13.0,0.9477051,12.0,14.0
27070.0,13.0,0.7895081,12.0,13.0
27080.0,13.0,0.7895081,12.0,13.0
27090.0,13.0,0.8349145,12.0,13.0
27100.0,13.0,0.8771948,12.0,13.0
27110.0,13.0,0.8055363,12.0,13.0
27120.0,13.0,0.80602294,12.0,13.0
27130.0,13.0,0.80602294,12.0,13.0
27140.0,13.0,0.71202606,12.0,13.0
27150.0,13.0,0.7123293,12.0,13.0
27160.0,13.0,0.78722525,12.0,13.0
27170.0,13.0,0.7888106,12.0,13.0
27180.0,13.0,0.7890521,12.0,13.0
27190.0,13.0,0.7890521,12.0,13.0
27200.0,13.0,0.7890521,12.0,13.0
27210.0,13.0,0.7895083,12.0,13.0
27220.0,13.0,0.78722525,12.0,13.0
27230.0,13.0,0.7888106,12.0,13.0
27240.0,13.0,0.7890521,12.0,13.0
27250.0,13.0,0.71202606,12.0,13.0
27260.0,13.0,0.71499777,12.0,13.0
27270.0,13.0,0.718468,12.0,13.0
27280.0,13.0,0.7155562,12.0,13.0
27290.0,13.0,0.7180219,12.0,13.0
27300.0,13.0,0.78090674,12.0,13.0
27310.0,13.0,0.78090674,12.0,13.0
27320.0,13.0,0.78090674,12.0,13.0
27330.0,13.0,0.7812307,12.0,13.0
27340.0,13.0,0.8367783,12.0,13.0
27350.0,13.0,0.9337094,12.0,13.0
27360.0,13.0,0.9340589,12.0,13.0
27370.0,13.0,1.04334,12.0,13.0
27380.0,13.0,1.0884265,12.0,14.0
27390.0,13.0,1.1224433,12.0,14.0
27400.0,13.0,1.1619754,12.0,14.0
27410.0,13.0,1.1628845,12.0,14.0
27420.0,13.0,1.1487172,12.0,14.0
27430.0,13.0,1.1357884,12.0,14.0
27440.0,14.0,1.1751534,12.0,14.0
27450.0,14.0,1.1831957,12.0,14.0
27460.0,14.0,1.1827072,12.0,14.0
27470.0,14.0,1.0984596,12.0,14.0
27480.0,14.0,1.0955824,12.0,14.0
27490.0,14.0,1.0863074,13.0,14.0
27500.0,14.0,1.1958733,13.0,14.0
27510.0,14.0,1.2894298,13.0,14.0
27520.0,14.0,1.4540833,12.0,15.0
27530.0,14.0,1.5011858,12.0,15.0
27540.0,14.0,1.4976627,12.0,15.0
27550.0,14.0,1.500206,12.0,15.0
27560.0,14.0,1.5188235,12.0,15.0
27570.0,14.0,1.4507794,12.0,15.0
27580.0,14.0,1.4638466,12.0,15.0
27590.0,14.5,1.4906625,13.0,15.0
27600.0,15.0,1.5983878,13.0,15.0
27610.0,15.0,1.6959604,13.0,16.0
27620.0,15.0,1.7502546,13.0,16.0
27630.0,15.0,1.7765237,13.0,16.0
27640.0,15.0,1.9038478,13.0,16.0
27650.0,15.0,1.9474897,13.0,16.0
27660.0,15.0,2.0167637,13.0,16.0
27670.0,16.0,2.149229,12.0,16.0
27680.0,16.0,2.2247245,13.0,16.0
27690.0,15.5,2.267061,13.0,16.0
27700.0,15.5,2.266415,13.0,16.0
27710.0,15.5,2.3513114,13.0,17.0
27720.0,16.0,2.3779848,13.0,17.0
27730.0,16.0,2.4215043,13.0,17.0
27740.0,16.0,2.4023917,13.0,17.0
27750.0,16.0,2.3862073,13.0,17.0
27760.0,16.0,2.4516098,13.0,17.0
27770.0,16.0,2.483779,13.0,17.0
27830.0,16.0,2.635828,13.0,17.0
27840.0,16.0,2.6316345,13.5,17.0
27850.0,16.0,2.522008,13.5,17.0
27860.0,16.0,2.6990721,13.0,17.0
27870.0,16.0,2.7649128,13.0,17.0
29380.0,13.0,0.6888302,13.0,14.0
29540.0,14.0,0.48431477,14.0,15.0
29550.0,14.0,0.4838004,14.0,15.0
29560.0,14.0,0.4838004,14.0,15.0
29570.0,14.0,0.49333793,14.0,15.0
29580.0,14.0,0.4991599,14.0,15.0
29590.0,14.0,0.4977492,14.0,15.0
29600.0,14.0,0.49620235,14.0,15.0
29610.0,14.0,0.499999,14.0,15.0
29620.0,14.0,0.499999,14.0,15.0
29630.0,15.0,0.49677926,14.0,15.0
29640.0,15.0,0.49410677,14.0,15.0
29650.0,15.0,0.47734237,14.0,15.0
29660.0,15.0,0.46310985,14.0,15.0
29670.0,15.0,0.46336147,14.0,15.0
29680.0,15.0,0.44207668,14.0,15.0
29690.0,15.0,0.37648636,15.0,15.0
29700.0,15.0,0.2611897,15.0,15.0
29710.0,15.0,0.0,15.0,15.0
29720.0,15.0,0.0,15.0,15.0
29730.0,15.0,0.0,15.0,15.0
29740.0,15.0,0.0,15.0,15.0
29750.0,15.0,0.0,15.0,15.0
29760.0,15.0,0.0,15.0,15.0
29770.0,15.0,0.0,15.0,15.0
29780.0,15.0,0.0,15.0,15.0
29790.0,15.0,0.0,15.0,15.0
29800.0,15.0,0.0,15.0,15.0
29810.0,15.0,0.0,15.0,15.0
29820.0,15.0,0.2825301,15.0,15.0
29830.0,15.0,0.3781888,15.0,15.0
29840.0,15.0,0.41862625,15.0,15.0
29850.0,15.0,0.42431968,15.0,15.0
29860.0,15.0,0.43541375,14.0,15.0
29870.0,15.0,0.45534644,14.0,15.0
29880.0,15.0,0.45618966,14.0,15.0
29890.0,15.0,0.45618966,14.0,15.0
29900.0,15.0,0.4555953,14.0,15.0
29910.0,15.0,0.47313726,14.0,15.0
29920.0,15.0,0.59442776,14.0,15.0
29930.0,15.0,0.60784745,14.0,15.0
29940.0,14.0,0.6250653,14.0,15.0
29950.0,14.0,0.58979,14.0,14.0
29960.0,14.0,0.48515525,14.0,14.0
29970.0,14.0,0.42431968,14.0,14.0
29980.0,14.0,0.42342392,14.0,14.0
29990.0,14.0,0.5842607,13.0,14.0
30000.0,14.0,0.5863501,13.0,14.0
30010.0,14.0,0.68431133,13.0,14.0
30020.0,14.0,0.69618577,13.0,14.0
30030.0,14.0,0.7256478,13.0,14.0
30040.0,14.0,0.77091724,13.0,14.0
30050.0,14.0,0.7709172,13.0,14.0
30060.0,14.0,0.76422316,13.0,14.0
30070.0,14.0,0.76149356,13.0,14.0
30080.0,13.0,0.7462604,13.0,14.0
30090.0,13.0,0.7847663,13.0,14.0
30100.0,13.0,0.76651025,13.0,14.0
30110.0,13.0,0.8454874,12.0,14.0
30120.0,13.0,0.9125753,12.0,14.0
30130.0,13.0,0.9173559,12.0,14.0
30140.0,13.0,0.93537515,12.0,14.0
30150.0,13.0,0.9241946,12.0,14.0
30160.0,13.0,0.87789595,12.0,13.0
30170.0,13.0,0.87845695,12.0,13.0
30180.0,13.0,0.8759582,12.0,13.0
30190.0,13.0,0.8743855,12.0,13.0
30200.0,13.0,0.84181905,12.0,13.0
30210.0,13.0,0.79114234,12.0,13.0
30220.0,13.0,0.8311475,12.0,14.0
30230.0,13.0,0.8320046,12.0,14.0
30240.0,13.0,0.83332694,12.0,14.0
30250.0,13.0,0.8275589,12.0,14.0
30260.0,13.0,0.8099905,12.0,14.0
30270.0,13.0,0.80850995,12.0,14.0
30280.0,13.0,0.80851,12.0,14.0
30290.0,13.0,0.80851,12.0,14.0
30300.0,13.0,0.80850995,12.0,14.0
30310.0,13.0,0.78476626,12.0,13.0
30320.0,13.0,0.7767789,12.0,13.0
30330.0,13.0,0.727607,12.0,13.0
30340.0,13.0,0.75228477,12.0,14.0
30350.0,13.0,0.68922055,13.0,14.0
30360.0,13.0,0.59559625,13.0,14.0
30370.0,13.0,0.46270868,13.0,14.0
30380.0,13.0,0.47098646,13.0,14.0
30390.0,13.0,0.47098646,13.0,14.0
30400.0,13.0,0.4714045,13.0,14.0
30410.0,13.0,0.4716123,13.0,14.0
30420.0,13.0,0.4716123,13.0,14.0
30430.0,13.0,0.4716123,13.0,14.0
30440.0,13.0,0.47098646,13.0,14.0
30450.0,13.0,0.47098646,13.0,14.0
30460.0,13.0,0.4714045,13.0,14.0
30470.0,13.0,0.4716123,13.0,14.0
30480.0,13.0,0.4716123,13.0,14.0
30490.0,13.0,0.46890476,13.0,14.0
30500.0,13.0,0.41600177,13.0,13.0
30510.0,13.0,0.41600177,13.0,13.0
30520.0,13.0,0.41600177,13.0,13.0
30530.0,13.0,0.41481826,13.0,13.0
30540.0,13.0,0.41573972,13.0,13.0
30550.0,13.0,0.41573972,13.0,13.0
30560.0,13.0,0.4160018,13.0,13.0
30570.0,13.0,0.51758343,13.0,13.0
30580.0,13.0,0.5438741,13.0,13.0
30590.0,13.0,0.52381814,13.0,13.0
30600.0,13.0,0.47140452,13.0,13.0
30610.0,13.0,0.45589885,13.0,13.0
30620.0,13.0,0.52437794,12.0,13.0
30630.0,13.0,0.5315996,12.0,13.0
30640.0,13.0,0.53251773,12.0,13.0
30650.0,13.0,0.5167582,12.0,13.0
30660.0,13.0,0.482232,12.0,13.0
30670.0,13.0,0.482232,12.0,13.0
30680.0,13.0,0.49465725,12.0,13.0
30690.0,13.0,0.4999059,12.0,13.0
30700.0,12.0,0.4826039,12.0,13.0
30710.0,12.0,0.4716123,12.0,13.0
30720.0,12.0,0.4584116,12.0,13.0
30730.0,12.0,0.44770822,12.0,13.0
30740.0,12.0,0.4450333,12.0,13.0
30750.0,12.0,0.41573972,12.0,12.0
30760.0,12.0,0.4160018,12.0,12.0
30770.0,12.0,0.41600177,12.0,12.0
30780.0,12.0,0.40805754,12.0,12.0
30790.0,12.0,0.40686625,12.0,12.0
30800.0,12.0,0.3655482,12.0,12.0
30810.0,12.0,0.3655482,12.0,12.0
30820.0,12.0,0.33678114,12.0,12.0
30830.0,12.0,0.30700535,12.0,12.0
30840.0,12.0,0.30723208,12.0,12.0
30850.0,12.0,0.30723205,12.0,12.0
30860.0,12.0,0.30700535,12.0,12.0
30870.0,12.0,0.30700535,12.0,12.0
30880.0,12.0,0.30700535,12.0,12.0
30890.0,12.0,0.30700535,12.0,12.0
30900.0,12.0,0.3043225,12.0,12.0
30910.0,12.0,0.30021185,12.0,12.0
30920.0,12.0,0.29999998,12.0,12.0
30930.0,12.0,0.30021188,12.0,12.0
30940.0,12.0,0.33139366,12.0,12.0
30950.0,12.0,0.35652518,12.0,12.0
30960.0,12.0,0.3089158,12.0,12.0
30970.0,12.0,0.30700535,12.0,12.0
30980.0,12.0,0.3655482,12.0,12.0
30990.0,12.0,0.42679724,12.0,12.0
31000.0,12.0,0.44292113,12.0,13.0
31010.0,12.0,0.47681156,12.0,13.0
31020.0,12.0,0.49480247,12.0,13.0
31030.0,13.0,0.49864826,12.0,13.0
31040.0,13.0,0.48763856,12.0,13.0
31050.0,13.0,0.4290408,13.0,13.0
31060.0,13.0,0.28686276,13.0,13.0
31070.0,13.0,0.0888028,13.0,13.0
31080.0,13.0,0.0,13.0,13.0
31090.0,13.0,0.21646157,13.0,13.0
31100.0,13.0,0.21646157,13.0,13.0
31110.0,13.0,0.2167886,13.0,13.0
31120.0,13.0,0.2167886,13.0,13.0
31130.0,13.0,0.3006369,13.0,13.0
31140.0,13.0,0.3006369,13.0,13.0
31150.0,13.0,0.3006369,13.0,13.0
31160.0,13.0,0.30689222,13.0,13.0
31170.0,13.0,0.39087,13.0,13.0
31180.0,13.0,0.4500371,13.0,14.0
31190.0,13.0,0.48611316,13.0,14.0
31200.0,13.0,0.4985544,13.0,14.0
31210.0,14.0,0.4983134,13.0,14.0
31220.0,14.0,0.4712251,13.0,14.0
31230.0,14.0,0.38235405,14.0,14.0
31240.0,14.0,0.1797687,14.0,14.0
31250.0,14.0,0.0,14.0,14.0
31260.0,14.0,0.0,14.0,14.0
31270.0,14.0,0.0,14.0,14.0
31280.0,14.0,0.0,14.0,14.0
31290.0,14.0,0.0,14.0,14.0
31300.0,14.0,0.0,14.0,14.0
31310.0,14.0,0.0,14.0,14.0
31320.0,14.0,0.0,14.0,14.0
31330.0,14.0,0.11951031,14.0,14.0
31340.0,14.0,0.20714499,14.0,14.0
31350.0,14.0,0.20714499,14.0,14.0
31360.0,14.0,0.20714499,14.0,14.0
31370.0,14.0,0.28388414,14.0,14.0
31380.0,14.0,0.2880414,14.0,14.0
31390.0,14.0,0.27228937,14.0,14.0
31400.0,14.0,0.21494304,14.0,14.0
31410.0,14.0,0.21494304,14.0,14.0
31420.0,14.0,0.21494304,14.0,14.0
31430.0,14.0,0.21494304,14.0,14.0
31440.0,14.0,0.2880414,14.0,14.0
31450.0,14.0,0.2880414,14.0,14.0
31460.0,14.0,0.2880414,14.0,14.0
31470.0,14.0,0.3184088,14.0,14.0
31480.0,14.0,0.34303463,14.0,14.0
31490.0,14.0,0.34303463,14.0,14.0
31500.0,14.0,0.3431743,14.0,14.0
31510.0,14.0,0.20917706,14.0,14.0
31520.0,14.0,0.28652054,14.0,14.0
31530.0,14.0,0.28652054,14.0,14.0
31540.0,14.0,0.28652054,14.0,14.0
31550.0,14.0,0.3442383,14.0,14.0
31560.0,14.0,0.33799186,14.0,14.0
31570.0,14.0,0.33644342,14.0,14.0
31580.0,14.0,0.28077716,14.0,14.0
31590.0,14.0,0.28077716,14.0,14.0
31600.0,14.0,0.28077716,14.0,14.0
31610.0,14.0,0.37908757,14.0,14.0
31620.0,14.0,0.3788761,14.0,14.0
31630.0,14.0,0.37908757,14.0,14.0
31640.0,14.0,0.48019746,14.0,15.0
31650.0,14.0,0.4995191,14.0,15.0
31660.0,14.0,0.4995191,14.0,15.0
31670.0,15.0,0.4695387,14.0,15.0
31680.0,15.0,0.460026,14.0,15.0
31690.0,15.0,0.460026,14.0,15.0
31700.0,15.0,0.49951914,14.0,15.0
31710.0,15.0,0.4916785,14.0,15.0
31720.0,15.0,0.49151623,14.0,15.0
31730.0,15.0,0.49178997,14.0,15.0
31740.0,15.0,0.46571797,14.0,15.0
31750.0,15.0,0.4651373,14.0,15.0
31760.0,15.0,0.48112187,14.0,15.0
31770.0,15.0,0.49151623,14.0,15.0
31780.0,15.0,0.49194908,14.0,15.0
31790.0,15.0,0.4813866,14.0,15.0
31800.0,15.0,0.7228174,15.0,16.0
31810.0,15.0,0.7228174,15.0,16.0
31820.0,15.0,0.8174439,15.0,16.0
31830.0,15.0,0.75411135,15.0,16.0
31840.0,15.0,0.57089686,15.0,16.0
31850.0,15.0,0.67509145,15.0,16.0
31860.0,15.0,0.73033446,15.0,16.0
31870.0,15.0,0.76890177,14.75,16.0
31880.0,15.0,0.8340987,14.0,16.0
31890.0,15.0,0.8529361,14.0,16.0
31900.0,15.0,0.9079424,14.0,16.0
31910.0,15.0,0.93368125,14.0,16.0
31920.0,15.0,0.9974036,14.0,16.0
31930.0,16.0,1.0623857,14.0,16.0
31940.0,16.0,1.1086743,14.0,16.0
31950.0,16.0,1.1491225,14.0,17.0
31960.0,16.0,1.1839182,14.0,17.0
31970.0,16.0,1.1839182,14.0,17.0
31980.0,16.0,1.1839182,14.0,17.0
31990.0,16.0,1.2419767,14.0,17.0
32000.0,16.0,1.3126278,14.0,17.0
32010.0,16.0,1.3135391,14.0,17.0
32020.0,16.0,1.3442354,14.0,17.0
32030.0,16.0,1.3833221,14.0,17.0
32040.0,16.0,1.4485797,14.0,17.0
32050.0,16.0,1.4739362,14.0,17.0
32060.0,16.0,1.5355861,14.0,17.0
32070.0,16.0,1.5355861,14.0,17.0
32080.0,16.0,1.5355861,14.0,17.0
32090.0,16.0,1.5355861,14.0,17.0
32100.0,16.0,1.5355861,14.0,17.0
32110.0,16.0,1.5055709,14.0,17.0
32120.0,16.0,1.6731899,14.0,17.0
32130.0,15.5,1.6623188,14.0,17.0
32140.0,15.5,1.6736352,14.0,17.0
32150.0,15.5,1.6749793,14.0,17.0
32160.0,15.5,1.7014873,14.0,17.0
32170.0,15.5,1.7603309,14.0,17.0
32180.0,15.0,1.7726668,14.0,17.0
32190.0,15.0,1.882798,13.0,17.0
32200.0,16.0,1.8572621,13.0,17.0
32210.0,16.0,1.8646961,13.0,17.0
32220.0,15.5,1.8765919,13.0,17.0
32230.0,15.0,1.43574,14.0,16.0
32240.0,15.0,1.4354249,14.0,16.0
32250.0,16.0,1.4224418,14.0,16.0
32260.0,16.0,1.3905118,14.0,16.0
32270.0,16.0,1.3809949,14.0,16.0
32280.0,15.0,1.3767575,13.0,16.0
32290.0,15.0,1.3887613,13.0,16.0
32300.0,15.0,1.3805245,13.0,16.0
32310.0,15.0,1.3899078,13.0,16.0
32320.0,15.0,1.4037653,13.0,16.0
32330.0,15.0,1.414494,13.0,16.0
32340.0,15.0,1.4634463,13.0,16.0
32350.0,15.0,1.4948449,13.0,16.0
32360.0,15.0,1.4725523,13.0,16.0
32370.0,15.0,1.4458265,13.0,16.0
32380.0,14.0,1.5446001,13.0,15.0
32390.0,14.0,1.6761087,13.0,15.0
32400.0,14.0,1.6865569,13.0,15.0
32410.0,14.0,1.6187134,13.0,15.0
32420.0,14.0,1.577283,12.0,15.0
32430.0,14.0,1.5632586,12.0,15.0
32440.0,14.0,1.5627285,12.0,15.0
32450.0,14.0,1.5609633,12.0,15.0
32460.0,14.0,1.5433167,12.0,15.0
32470.0,14.0,1.6074026,12.0,15.0
32480.0,14.0,1.6831565,12.0,15.0
32490.0,14.0,1.6903298,12.0,15.0
32500.0,14.0,1.6733148,12.0,15.0
32510.0,14.0,1.7185279,12.0,15.0
32520.0,14.0,1.7785451,12.0,15.0
32530.0,14.0,1.7621511,12.0,15.0
32540.0,14.0,1.7342528,11.0,14.0
32550.0,14.0,1.7196426,11.0,14.0
32560.0,14.0,1.6920174,11.0,14.0
32570.0,14.0,1.6686134,11.0,14.0
32580.0,14.0,1.7823137,11.0,14.0
32590.0,13.0,1.8755463,11.0,14.0
32600.0,13.0,1.8680469,11.0,14.0
32610.0,13.0,1.8149455,11.0,14.0
32620.0,13.0,1.7500058,11.0,14.0
32630.0,13.0,1.790868,11.0,14.0
32640.0,13.0,1.8533753,11.0,14.0
32650.0,13.0,1.8616791,10.5,14.0
32660.0,13.0,1.8657247,10.0,14.0
32670.0,13.0,1.9282364,10.0,14.0
32680.0,13.0,2.0382786,10.0,14.0
32680.0,13.0,2.0382786,10.0,14.0
32680.0,13.0,2.0794811,10.0,14.0
