distance,median,stdev,prc_25,prc_75
20.0,nan,nan,nan,nan
30.0,nan,nan,nan,nan
40.0,nan,nan,nan,nan
50.0,nan,nan,nan,nan
60.0,nan,nan,nan,nan
70.0,nan,nan,nan,nan
80.0,nan,nan,nan,nan
90.0,nan,nan,nan,nan
100.0,nan,nan,nan,nan
110.0,nan,nan,nan,nan
120.0,nan,nan,nan,nan
130.0,nan,nan,nan,nan
140.0,nan,nan,nan,nan
150.0,nan,nan,nan,nan
160.0,nan,nan,nan,nan
170.0,nan,nan,nan,nan
180.0,nan,nan,nan,nan
190.0,nan,nan,nan,nan
200.0,nan,nan,nan,nan
210.0,nan,nan,nan,nan
220.0,nan,nan,nan,nan
230.0,nan,nan,nan,nan
240.0,nan,nan,nan,nan
250.0,nan,nan,nan,nan
260.0,nan,nan,nan,nan
270.0,nan,nan,nan,nan
280.0,nan,nan,nan,nan
290.0,nan,nan,nan,nan
300.0,nan,nan,nan,nan
310.0,nan,nan,nan,nan
320.0,nan,nan,nan,nan
330.0,nan,nan,nan,nan
340.0,nan,nan,nan,nan
350.0,nan,nan,nan,nan
360.0,nan,nan,nan,nan
370.0,nan,nan,nan,nan
380.0,nan,nan,nan,nan
390.0,nan,nan,nan,nan
400.0,nan,nan,nan,nan
410.0,nan,nan,nan,nan
420.0,nan,nan,nan,nan
430.0,nan,nan,nan,nan
440.0,nan,nan,nan,nan
450.0,nan,nan,nan,nan
460.0,nan,nan,nan,nan
470.0,nan,nan,nan,nan
480.0,nan,nan,nan,nan
490.0,nan,nan,nan,nan
500.0,nan,nan,nan,nan
510.0,nan,nan,nan,nan
520.0,nan,nan,nan,nan
530.0,nan,nan,nan,nan
540.0,nan,nan,nan,nan
550.0,nan,nan,nan,nan
560.0,nan,nan,nan,nan
570.0,nan,nan,nan,nan
580.0,nan,nan,nan,nan
590.0,nan,nan,nan,nan
600.0,nan,nan,nan,nan
610.0,nan,nan,nan,nan
620.0,nan,nan,nan,nan
630.0,nan,nan,nan,nan
640.0,nan,nan,nan,nan
650.0,nan,nan,nan,nan
660.0,nan,nan,nan,nan
670.0,nan,nan,nan,nan
680.0,nan,nan,nan,nan
690.0,nan,nan,nan,nan
700.0,nan,nan,nan,nan
710.0,nan,nan,nan,nan
720.0,nan,nan,nan,nan
730.0,nan,nan,nan,nan
740.0,nan,nan,nan,nan
750.0,nan,nan,nan,nan
760.0,nan,nan,nan,nan
770.0,nan,nan,nan,nan
780.0,nan,nan,nan,nan
790.0,nan,nan,nan,nan
800.0,nan,nan,nan,nan
810.0,nan,nan,nan,nan
820.0,nan,nan,nan,nan
830.0,nan,nan,nan,nan
840.0,nan,nan,nan,nan
850.0,nan,nan,nan,nan
860.0,nan,nan,nan,nan
870.0,nan,nan,nan,nan
880.0,nan,nan,nan,nan
890.0,nan,nan,nan,nan
900.0,nan,nan,nan,nan
910.0,nan,nan,nan,nan
920.0,nan,nan,nan,nan
930.0,nan,nan,nan,nan
940.0,nan,nan,nan,nan
950.0,nan,nan,nan,nan
960.0,nan,nan,nan,nan
970.0,nan,nan,nan,nan
980.0,nan,nan,nan,nan
990.0,nan,nan,nan,nan
1000.0,nan,nan,nan,nan
1010.0,nan,nan,nan,nan
1020.0,nan,nan,nan,nan
1030.0,nan,nan,nan,nan
1040.0,nan,nan,nan,nan
1050.0,nan,nan,nan,nan
1060.0,nan,nan,nan,nan
1070.0,nan,nan,nan,nan
1080.0,nan,nan,nan,nan
1090.0,nan,nan,nan,nan
1100.0,nan,nan,nan,nan
1110.0,nan,nan,nan,nan
1120.0,nan,nan,nan,nan
1130.0,nan,nan,nan,nan
1140.0,nan,nan,nan,nan
1150.0,nan,nan,nan,nan
1160.0,nan,nan,nan,nan
1170.0,nan,nan,nan,nan
1180.0,nan,nan,nan,nan
1190.0,nan,nan,nan,nan
1200.0,nan,nan,nan,nan
1210.0,nan,nan,nan,nan
1220.0,nan,nan,nan,nan
1230.0,nan,nan,nan,nan
1240.0,nan,nan,nan,nan
1250.0,nan,nan,nan,nan
1260.0,nan,nan,nan,nan
1270.0,nan,nan,nan,nan
1280.0,nan,nan,nan,nan
1290.0,nan,nan,nan,nan
1300.0,nan,nan,nan,nan
1310.0,nan,nan,nan,nan
1320.0,nan,nan,nan,nan
1330.0,nan,nan,nan,nan
1340.0,nan,nan,nan,nan
1350.0,nan,nan,nan,nan
1360.0,nan,nan,nan,nan
1370.0,nan,nan,nan,nan
1380.0,nan,nan,nan,nan
1390.0,nan,nan,nan,nan
1400.0,nan,nan,nan,nan
1410.0,nan,nan,nan,nan
1420.0,nan,nan,nan,nan
1430.0,nan,nan,nan,nan
1440.0,nan,nan,nan,nan
1450.0,nan,nan,nan,nan
1460.0,nan,nan,nan,nan
1470.0,nan,nan,nan,nan
1480.0,nan,nan,nan,nan
1490.0,nan,nan,nan,nan
1500.0,nan,nan,nan,nan
1510.0,nan,nan,nan,nan
1520.0,nan,nan,nan,nan
1530.0,nan,nan,nan,nan
1540.0,nan,nan,nan,nan
1550.0,nan,nan,nan,nan
1560.0,nan,nan,nan,nan
1570.0,nan,nan,nan,nan
1580.0,nan,nan,nan,nan
1590.0,nan,nan,nan,nan
1600.0,nan,nan,nan,nan
1610.0,nan,nan,nan,nan
1620.0,nan,nan,nan,nan
1630.0,nan,nan,nan,nan
1640.0,nan,nan,nan,nan
1650.0,nan,nan,nan,nan
1660.0,nan,nan,nan,nan
1670.0,1.0,0.0,1.0,1.0
1680.0,1.0,0.0,1.0,1.0
1690.0,1.0,0.0,1.0,1.0
1700.0,1.0,0.0,1.0,1.0
1710.0,1.0,0.0,1.0,1.0
1720.0,1.0,0.0,1.0,1.0
1730.0,1.0,0.0,1.0,1.0
1740.0,1.0,0.0,1.0,1.0
1750.0,1.0,0.0,1.0,1.0
1760.0,1.0,0.0,1.0,1.0
1770.0,1.0,0.0,1.0,1.0
1780.0,1.0,0.0,1.0,1.0
1790.0,1.0,0.0,1.0,1.0
1800.0,1.0,0.0,1.0,1.0
1810.0,1.0,0.2996403,1.0,1.0
1820.0,1.0,0.46847522,1.0,2.0
1830.0,1.0,0.4714045,1.0,2.0
1840.0,1.0,0.46886435,1.0,2.0
1850.0,1.0,0.46081713,1.0,2.0
1860.0,1.0,0.47940257,1.0,2.0
1870.0,1.0,0.49487162,1.0,2.0
1880.0,1.0,0.4950135,1.0,2.0
1890.0,2.0,0.49993464,1.0,2.0
1900.0,2.0,0.4950135,1.0,2.0
1910.0,2.0,0.49487165,1.0,2.0
1920.0,2.0,0.49267825,1.0,2.0
1930.0,2.0,0.47940257,1.0,2.0
1940.0,2.0,0.49512202,1.0,2.0
1950.0,2.0,0.4991861,1.0,2.0
1960.0,2.0,0.49215296,1.0,2.0
1970.0,2.0,0.4919512,1.0,2.0
1980.0,2.0,0.49229264,1.0,2.0
1990.0,2.0,0.48448884,1.0,2.0
2000.0,2.0,0.4775043,1.0,2.0
2010.0,2.0,0.47811148,1.0,2.0
2020.0,2.0,0.47161567,1.0,2.0
2030.0,2.0,0.5308236,1.0,2.0
2040.0,2.0,0.680725,1.0,2.0
2050.0,2.0,0.6998309,1.0,2.0
2060.0,2.0,0.6839236,1.0,2.0
2070.0,2.0,0.70957774,1.0,2.0
2080.0,2.0,0.7333864,1.0,2.0
2090.0,2.0,0.7347642,1.0,2.0
2100.0,2.0,0.71088254,1.0,2.0
2110.0,2.0,0.7001904,1.0,2.0
2120.0,2.0,0.6747642,1.0,2.0
2130.0,2.0,0.6511006,1.0,2.0
2140.0,2.0,0.6478632,1.0,2.0
2150.0,2.0,0.5059911,1.0,2.0
2160.0,2.0,0.46693,1.0,2.0
2170.0,2.0,0.45582694,1.0,2.0
2180.0,2.0,0.46305266,1.0,2.0
2190.0,2.0,0.47121742,1.0,2.0
2200.0,2.0,0.4732193,1.0,2.0
2210.0,2.0,0.4614389,1.0,2.0
2220.0,2.0,0.47675687,1.0,2.0
2230.0,2.0,0.49148262,1.0,2.0
2240.0,2.0,0.49750805,1.0,2.0
2250.0,2.0,0.49791777,1.0,2.0
2260.0,2.0,0.4954972,1.0,2.0
2270.0,2.0,0.48148412,1.0,2.0
2280.0,2.0,0.46574518,1.0,2.0
2290.0,2.0,0.4691699,1.0,2.0
2300.0,2.0,0.4771038,1.0,2.0
2310.0,2.0,0.4661233,1.0,2.0
2320.0,2.0,0.46098417,1.0,2.0
2330.0,2.0,0.5630887,1.0,2.0
2340.0,2.0,0.64514655,1.0,2.0
2350.0,2.0,0.73303026,1.0,2.0
2360.0,2.0,0.77482533,1.0,3.0
2370.0,2.0,0.80772793,1.0,3.0
2380.0,2.0,0.7962235,1.0,3.0
2390.0,2.0,0.8037075,1.0,3.0
2400.0,2.0,0.80794317,1.0,3.0
2410.0,2.0,0.79848254,1.0,3.0
2420.0,2.0,0.7680706,2.0,3.0
2430.0,2.0,0.7763867,2.0,3.0
2440.0,2.0,0.8079461,1.0,3.0
2450.0,2.0,0.8224511,1.0,3.0
2460.0,2.0,0.8066915,2.0,3.0
2470.0,2.0,0.8519112,2.0,3.0
2480.0,2.0,0.948027,1.0,3.0
2490.0,2.0,1.0034119,1.0,3.0
2500.0,2.0,0.99630266,1.0,3.0
2510.0,2.0,0.98283297,1.0,3.0
2520.0,2.0,1.0245097,1.0,3.0
2530.0,2.0,1.057686,1.0,3.0
2540.0,2.0,1.0756876,1.0,3.0
2550.0,2.0,1.0719829,2.0,3.0
2560.0,2.0,1.0695196,1.0,3.0
2570.0,2.0,1.0552047,2.0,3.0
2580.0,2.0,1.05154,2.0,3.0
2590.0,2.0,1.0938824,2.0,4.0
2600.0,3.0,1.1162528,2.0,4.0
2610.0,3.0,1.0984051,2.0,3.0
2620.0,3.0,1.1112665,1.0,3.0
2630.0,2.0,1.1434296,1.0,4.0
2640.0,3.0,1.139446,1.0,4.0
2650.0,3.0,1.1082819,2.0,4.0
2660.0,3.0,1.1372561,2.0,4.0
2670.0,3.0,1.179499,1.0,4.0
2680.0,3.0,1.1786559,1.0,4.0
2690.0,2.0,1.1404947,2.0,4.0
2700.0,2.0,1.1144423,2.0,4.0
2710.0,2.0,1.1252705,2.0,4.0
2720.0,2.0,1.1500605,1.0,3.0
2730.0,2.0,1.163481,1.0,3.0
2740.0,2.0,1.1656377,1.0,3.0
2750.0,2.0,1.1933094,1.0,4.0
2760.0,2.0,1.1837898,1.0,4.0
2770.0,3.0,1.1543645,2.0,4.0
2780.0,3.0,1.1580995,2.0,4.0
2790.0,3.0,1.1592712,2.0,4.0
2800.0,3.0,1.1647441,2.0,4.0
2810.0,3.0,1.1791161,2.0,4.0
2820.0,3.0,1.182871,2.0,4.0
2830.0,3.0,1.164554,2.0,4.0
2840.0,3.0,1.1649865,1.0,4.0
2850.0,3.0,1.2225758,1.0,4.0
2860.0,3.0,1.245437,1.0,4.0
2870.0,3.0,1.2622999,1.0,4.0
2880.0,2.0,1.2083957,1.0,4.0
2890.0,2.0,1.2490677,1.0,4.0
2900.0,2.0,1.2315187,1.0,4.0
2910.0,2.0,1.2539978,2.0,4.0
2920.0,2.0,1.2761322,2.0,4.0
2930.0,2.0,1.2690383,2.0,4.0
2940.0,3.0,1.3096995,2.0,4.0
2950.0,3.0,1.3047128,2.0,4.0
2960.0,3.0,1.2806609,2.0,4.0
2970.0,3.0,1.2562808,2.0,4.0
2980.0,3.0,1.1576152,2.0,4.0
2990.0,3.0,1.1646945,2.0,4.0
3000.0,3.0,1.1452779,2.0,4.0
3010.0,3.0,1.155299,2.0,4.0
3020.0,3.0,1.1768054,2.0,4.0
3030.0,3.0,1.1790389,2.0,4.0
3040.0,3.0,1.1855482,3.0,4.0
3050.0,3.0,1.2226814,3.0,4.0
3060.0,3.0,1.2313286,3.0,4.0
3070.0,3.0,1.2541163,3.0,5.0
3080.0,3.0,1.2640741,3.0,5.0
3090.0,4.0,1.2640578,3.0,5.0
3100.0,4.0,1.2543787,3.0,5.0
3110.0,4.0,1.2554854,3.0,5.0
3120.0,4.0,1.2397931,3.0,5.0
3130.0,4.0,1.3166453,3.0,5.0
3140.0,4.0,1.3103087,3.0,5.0
3150.0,4.0,1.3430934,3.0,5.0
3160.0,4.0,1.3362709,3.0,5.0
3170.0,4.0,1.3294864,4.0,5.0
3180.0,4.0,1.2991382,4.0,5.0
3190.0,4.0,1.2564981,4.0,5.0
3200.0,5.0,1.2704861,4.0,5.0
3210.0,5.0,1.2248468,4.0,5.0
3220.0,5.0,1.2908962,4.0,5.0
3230.0,5.0,1.3000902,4.0,5.0
3240.0,5.0,1.3911167,4.0,5.0
3250.0,5.0,1.3751742,4.0,5.0
3260.0,5.0,1.4835354,3.0,5.0
3270.0,5.0,1.4915742,4.0,5.0
3280.0,5.0,1.4835787,4.0,5.0
3290.0,5.0,1.4312199,4.0,5.0
3300.0,5.0,1.4302438,4.0,5.0
3310.0,5.0,1.430181,4.0,5.0
3320.0,5.0,1.4752196,4.0,6.0
3330.0,5.0,1.3817976,4.0,5.0
3340.0,5.0,1.3262635,4.0,5.0
3350.0,5.0,1.303796,4.0,5.0
3360.0,5.0,1.2645944,4.0,6.0
3370.0,5.0,1.2168468,4.0,6.0
3380.0,5.0,1.14407,5.0,6.0
3390.0,5.0,1.1375302,5.0,6.0
3400.0,5.0,1.1427598,5.0,6.0
3410.0,5.0,1.1274002,5.0,6.0
3420.0,5.0,1.0843451,5.0,6.0
3430.0,5.0,1.0059698,5.0,6.0
3440.0,5.0,0.96212214,5.0,6.0
3450.0,5.0,0.95178777,5.0,6.0
3460.0,5.0,0.9548696,5.0,6.0
3470.0,6.0,0.8988414,5.0,6.0
3480.0,6.0,0.8966555,5.0,6.0
3490.0,6.0,0.8163332,5.0,6.0
3500.0,6.0,0.8875382,5.0,6.0
3510.0,6.0,0.8693814,5.0,6.0
3520.0,6.0,0.84779954,6.0,6.0
3530.0,6.0,0.7930188,6.0,6.0
3540.0,6.0,0.768749,6.0,7.0
3550.0,6.0,0.77641237,6.0,7.0
3560.0,6.0,0.70388633,6.0,7.0
3570.0,6.0,0.72061014,6.0,7.0
3580.0,6.0,0.6425192,6.0,7.0
3590.0,6.0,0.6452907,6.0,7.0
3600.0,6.0,0.6107626,6.0,7.0
3610.0,6.0,0.6217524,6.0,7.0
3620.0,6.0,0.6228194,6.0,7.0
3630.0,6.0,0.6752178,6.0,7.0
3640.0,6.0,0.67227304,6.0,7.0
3650.0,6.0,0.6683083,6.0,7.0
3660.0,6.0,0.67074883,6.0,7.0
3670.0,6.0,0.70097005,6.0,7.0
3680.0,7.0,0.6904484,6.0,7.0
3690.0,7.0,0.6890391,6.0,7.0
3700.0,7.0,0.735769,6.0,7.0
3710.0,7.0,0.7462111,6.0,7.0
3720.0,7.0,0.72622585,6.0,7.0
3730.0,7.0,0.72622585,6.0,7.0
3740.0,7.0,0.74677914,6.0,7.0
3750.0,7.0,0.7495005,6.0,8.0
3760.0,7.0,0.7689057,6.0,8.0
3770.0,7.0,0.7687593,6.0,8.0
3780.0,7.0,0.7827995,6.0,8.0
3790.0,7.0,0.76293117,6.0,8.0
3800.0,7.0,0.7719942,6.0,8.0
3810.0,7.0,0.7835553,6.0,8.0
3820.0,7.0,0.77110565,6.0,8.0
3830.0,7.0,0.7517174,7.0,8.0
3840.0,7.0,0.7534713,7.0,8.0
3850.0,7.0,0.7560846,7.0,8.0
3860.0,7.0,0.74729115,7.0,8.0
3870.0,7.0,0.6526868,7.0,8.0
3880.0,7.0,0.5803232,7.0,8.0
3890.0,7.0,0.49909917,7.0,8.0
3900.0,7.0,0.49909917,7.0,8.0
3910.0,8.0,0.49999896,7.0,8.0
3920.0,8.0,0.49999896,7.0,8.0
3930.0,8.0,0.49999896,7.0,8.0
3940.0,8.0,0.4996759,7.0,8.0
3950.0,8.0,0.49890986,7.0,8.0
3960.0,8.0,0.49890986,7.0,8.0
3970.0,8.0,0.49890983,7.0,8.0
3980.0,8.0,0.79346865,7.0,8.0
3990.0,8.0,0.7947019,7.0,8.0
4000.0,8.0,0.7928042,7.0,8.0
4010.0,8.0,0.8157819,7.0,8.0
4020.0,8.0,0.81431204,7.0,8.0
4030.0,8.0,0.80669636,7.0,8.0
4040.0,8.0,0.8025453,7.0,8.0
4050.0,8.0,0.8240291,7.0,8.0
4060.0,8.0,0.84161514,7.0,8.0
4070.0,8.0,0.8714138,7.0,8.0
4080.0,8.0,0.92940784,7.0,8.0
4090.0,8.0,0.96151906,7.0,8.0
4100.0,8.0,0.9826456,7.0,8.0
4110.0,8.0,1.0076066,7.0,8.0
4120.0,8.0,1.0732828,7.0,8.0
4130.0,8.0,1.1048149,7.0,9.0
4140.0,8.0,1.1212833,7.0,9.0
4150.0,8.0,1.1366951,7.0,9.0
4160.0,8.0,1.1652141,7.0,9.0
4170.0,8.0,1.1745696,7.0,9.0
4180.0,8.0,1.1724828,7.0,9.0
4190.0,8.0,1.1695431,7.0,9.0
4200.0,8.0,1.1656681,7.0,9.0
4210.0,8.0,1.1630611,7.0,9.0
4220.0,8.0,1.1595155,7.0,9.0
4230.0,8.0,1.1881481,7.0,9.0
4240.0,8.0,1.2391025,7.0,9.0
4250.0,8.0,1.2778599,7.0,9.0
4260.0,8.0,1.2751079,7.0,9.0
4270.0,8.0,1.3588216,7.0,9.0
4280.0,8.0,1.4752759,7.0,10.0
4290.0,8.0,1.4527715,7.0,10.0
4300.0,8.0,1.4753219,7.0,10.0
4310.0,8.0,1.4734653,7.0,10.0
4320.0,8.0,1.4704435,7.0,10.0
4330.0,8.0,1.4668249,7.0,10.0
4340.0,8.0,1.4664298,7.0,10.0
4350.0,8.0,1.4636636,7.0,10.0
4360.0,8.0,1.4583392,7.0,10.0
4370.0,9.0,1.4582167,7.0,10.0
4380.0,9.0,1.4949163,7.0,10.0
4390.0,9.0,1.5410305,7.0,10.0
4400.0,9.0,1.5979975,7.0,10.0
4410.0,9.0,1.6255432,7.0,10.0
4420.0,9.0,1.6360925,7.0,10.0
4430.0,9.0,1.6349236,7.0,10.0
4440.0,9.0,1.63013,7.0,10.0
4450.0,9.0,1.6424465,7.0,10.0
4460.0,9.0,1.6852727,7.0,10.0
4470.0,9.0,1.6806045,7.0,10.0
4480.0,9.0,1.675251,7.0,10.0
4490.0,9.0,1.6890444,7.0,10.0
4500.0,9.0,1.7569447,7.0,11.0
4510.0,9.0,1.7964622,7.0,11.0
4520.0,9.0,1.7901732,7.0,11.0
4530.0,9.0,1.7939898,7.0,11.0
4540.0,10.0,1.8295221,7.0,11.0
4550.0,10.0,1.8750399,7.0,11.0
4560.0,10.0,1.8699666,7.0,11.0
4570.0,10.0,1.864665,7.0,11.0
4580.0,10.0,1.8583896,7.0,11.0
4590.0,10.0,1.886334,7.0,11.0
4600.0,10.0,1.9023308,7.0,11.0
4610.0,10.0,1.9257817,7.0,11.0
4620.0,10.0,1.9521966,7.0,11.0
4630.0,10.0,1.9451867,7.0,11.0
4640.0,10.0,1.9362454,7.0,11.0
4650.0,10.0,1.9287219,7.0,11.0
4660.0,10.0,1.9416941,7.0,11.0
4670.0,10.0,1.9416937,7.0,11.0
4680.0,10.0,1.9356856,7.0,11.0
4690.0,10.0,1.931325,7.0,11.0
4700.0,10.0,1.9311175,7.0,11.0
4710.0,10.0,1.923109,7.0,11.0
4720.0,10.0,1.9166427,7.0,11.0
4730.0,10.0,1.9255022,7.0,11.0
4740.0,10.0,1.9042213,7.0,11.0
4750.0,10.0,1.8963101,7.0,11.0
4760.0,10.0,1.8953288,7.0,11.0
4770.0,10.0,1.8857334,7.0,11.0
4780.0,10.0,1.8610854,7.0,11.0
4790.0,10.0,1.8540496,7.0,11.0
4800.0,10.0,1.7421687,7.0,11.0
4810.0,10.0,1.0687972,8.0,10.0
4820.0,10.0,1.0687972,8.0,10.0
4830.0,10.0,1.071867,8.0,10.0
4840.0,10.0,1.071867,8.0,10.0
4850.0,10.0,1.071867,8.0,10.0
4860.0,10.0,0.942101,9.0,10.0
4870.0,10.0,0.942101,9.0,10.0
4880.0,10.0,0.942101,9.0,10.0
4890.0,10.0,0.81277084,9.0,11.0
4900.0,10.0,0.81277084,9.0,11.0
4910.0,10.0,0.81277084,9.0,11.0
4920.0,10.0,0.7786875,10.0,11.0
4930.0,10.0,0.7786875,10.0,11.0
4940.0,10.0,0.7786875,10.0,11.0
4950.0,11.0,0.68718404,10.0,11.0
4960.0,11.0,0.68718404,10.0,11.0
4970.0,11.0,0.68718404,10.0,11.0
4980.0,11.0,0.56213135,10.0,11.0
4990.0,11.0,0.56213135,10.0,11.0
5000.0,11.0,0.56213135,10.0,11.0
5010.0,11.0,0.37753004,11.0,11.0
5020.0,11.0,0.37753004,11.0,11.0
5030.0,11.0,0.37753004,11.0,11.0
5040.0,11.0,0.34919587,11.0,11.0
5050.0,11.0,0.34919587,11.0,11.0
5060.0,11.0,0.34919587,11.0,11.0
5070.0,11.0,0.5396686,11.0,11.0
5080.0,11.0,0.5396686,11.0,11.0
5090.0,11.0,0.5396686,11.0,11.0
5100.0,11.0,0.581691,11.0,11.0
5110.0,11.0,0.581691,11.0,11.0
5120.0,11.0,0.581691,11.0,11.0
5130.0,11.0,0.581691,11.0,11.0
5140.0,11.0,0.581691,11.0,11.0
5150.0,11.0,0.5823194,11.0,11.0
5160.0,11.0,0.5823194,11.0,11.0
5170.0,11.0,0.5823194,11.0,11.0
5180.0,11.0,0.5812257,11.0,11.0
5190.0,11.0,0.5812257,11.0,11.0
5200.0,11.0,0.5812257,11.0,11.0
5210.0,11.0,0.5812257,11.0,11.0
5220.0,11.0,0.5812257,11.0,11.0
5230.0,11.0,0.56130904,11.0,11.0
5240.0,11.0,0.56092685,11.0,11.0
5250.0,11.0,0.56308955,11.0,11.0
5260.0,11.0,0.5481232,11.0,11.0
5270.0,11.0,0.51534736,11.0,11.0
5280.0,11.0,0.4847422,11.0,11.0
5290.0,11.0,0.45576668,11.0,11.0
5300.0,11.0,0.43907177,11.0,11.0
5310.0,11.0,0.37903032,11.0,11.0
5320.0,11.0,0.444061,11.0,11.0
5330.0,11.0,0.4685027,11.0,11.0
5340.0,11.0,0.5540532,11.0,11.0
5350.0,11.0,0.562208,11.0,11.0
5360.0,11.0,0.5727469,11.0,11.0
5370.0,11.0,0.57296443,11.0,11.0
5380.0,11.0,0.5862158,10.5,11.0
5390.0,11.0,0.59265417,10.0,11.0
5400.0,11.0,0.6548811,10.0,11.0
5410.0,11.0,0.66916144,10.0,11.0
5420.0,11.0,0.6670412,10.0,11.0
5430.0,10.0,0.66485155,10.0,11.0
5440.0,10.0,0.65755916,10.0,11.0
5450.0,10.0,0.66866267,10.0,11.0
5460.0,10.0,0.6738796,10.0,11.0
5470.0,10.0,0.6415606,10.0,10.0
5480.0,10.0,0.56233984,10.0,10.0
5490.0,10.0,0.46235806,10.0,10.0
5500.0,10.0,0.40238246,10.0,10.0
5510.0,10.0,0.40311888,10.0,10.0
5520.0,10.0,0.40443048,10.0,10.0
5530.0,10.0,0.47314426,9.0,10.0
5540.0,10.0,0.4999872,9.0,10.0
5550.0,9.0,0.49334595,9.0,10.0
5560.0,9.0,0.48480323,9.0,10.0
5570.0,9.0,0.46663758,9.0,10.0
5580.0,9.0,0.42306256,9.0,9.0
5590.0,9.0,0.39408213,9.0,9.0
5600.0,9.0,0.36810797,9.0,9.0
5610.0,9.0,0.36810797,9.0,9.0
5620.0,9.0,0.3353843,9.0,9.0
5630.0,9.0,0.30568624,9.0,9.0
5640.0,9.0,0.35399887,9.0,9.0
5650.0,9.0,0.3225815,9.0,9.0
5660.0,9.0,0.24827427,9.0,9.0
5670.0,9.0,0.19333012,9.0,9.0
5680.0,9.0,0.20317577,9.0,9.0
5690.0,9.0,0.25583178,9.0,9.0
5700.0,9.0,0.3026719,9.0,9.0
5710.0,9.0,0.33373716,9.0,9.0
5720.0,9.0,0.3619582,9.0,9.0
5730.0,9.0,0.3857783,9.0,9.0
5740.0,9.0,0.3965502,9.0,9.0
5750.0,9.0,0.390943,9.0,9.0
5760.0,9.0,0.36537346,9.0,9.0
5770.0,9.0,0.3853541,9.0,9.0
5780.0,9.0,0.3964004,9.0,9.0
5790.0,9.0,0.39025623,9.0,9.0
5800.0,9.0,0.41129416,9.0,9.0
5810.0,9.0,0.4715826,9.0,9.0
5820.0,9.0,0.5343384,9.0,9.0
5830.0,9.0,0.5523683,9.0,9.0
5840.0,9.0,0.5592098,9.0,9.75
5850.0,9.0,0.5415239,9.0,10.0
5860.0,9.0,0.5119088,9.0,10.0
5870.0,9.0,0.47780243,9.0,10.0
5880.0,9.0,0.48531306,9.0,10.0
5890.0,9.0,0.49671647,9.0,10.0
5900.0,10.0,0.49942768,9.0,10.0
5910.0,10.0,0.4966604,9.0,10.0
5920.0,10.0,0.494613,9.0,10.0
5930.0,10.0,0.49418062,9.0,10.0
5940.0,10.0,0.4941806,9.0,10.0
5950.0,10.0,0.4983937,9.0,10.0
5960.0,10.0,0.49921533,9.0,10.0
5970.0,10.0,0.4990577,9.0,10.0
5980.0,10.0,0.49884695,9.0,10.0
5990.0,10.0,0.49588126,9.0,10.0
6000.0,10.0,0.48857746,9.0,10.0
6010.0,10.0,0.47308105,9.0,10.0
6020.0,10.0,0.4617859,9.0,10.0
6030.0,10.0,0.4673694,9.0,10.0
6040.0,10.0,0.47518677,9.0,10.0
6050.0,10.0,0.47585517,9.0,10.0
6060.0,10.0,0.46524996,9.0,10.0
6070.0,10.0,0.5041521,9.0,10.0
6080.0,10.0,0.5913732,9.0,10.0
6090.0,10.0,0.68382096,9.0,10.0
6100.0,10.0,0.7169864,9.0,10.0
6110.0,10.0,0.7332842,9.0,11.0
6120.0,10.0,0.7249829,10.0,11.0
6130.0,10.0,0.72803265,10.0,11.0
6140.0,10.0,0.7393179,10.0,11.0
6150.0,10.0,0.75343674,10.0,11.0
6160.0,10.0,0.76855206,10.0,11.0
6170.0,10.0,0.7699515,10.0,11.0
6180.0,10.0,0.7725625,10.0,11.0
6190.0,10.0,0.7532691,10.0,11.0
6200.0,10.0,0.70015043,10.0,11.0
6210.0,10.0,0.6374667,10.0,11.0
6220.0,10.0,0.580238,10.0,11.0
6230.0,10.0,0.53351617,10.0,11.0
6240.0,10.0,0.4892612,10.0,11.0
6250.0,10.0,0.48346612,10.0,11.0
6260.0,10.0,0.48543644,10.0,11.0
6270.0,10.0,0.48611316,10.0,11.0
6280.0,10.0,0.49231628,10.0,11.0
6290.0,10.0,0.49496245,10.0,11.0
6300.0,10.0,0.49452525,10.0,11.0
6310.0,10.0,0.49060112,10.0,11.0
6320.0,10.0,0.4921766,10.0,11.0
6330.0,10.0,0.4933044,10.0,11.0
6340.0,10.0,0.49393308,10.0,11.0
6350.0,10.0,0.49433032,10.0,11.0
6360.0,10.0,0.49496245,10.0,11.0
6370.0,10.0,0.4940474,10.0,11.0
6380.0,10.0,0.49029845,10.0,11.0
6390.0,10.0,0.49253944,10.0,11.0
6400.0,10.0,0.49341193,10.0,11.0
6410.0,10.0,0.49403402,10.0,11.0
6420.0,10.0,0.494593,10.0,11.0
6430.0,10.0,0.4950523,10.0,11.0
6440.0,10.0,0.49557,10.0,11.0
6450.0,10.0,0.49643478,10.0,11.0
6460.0,10.0,0.49801296,10.0,11.0
6470.0,10.0,0.49831906,10.0,11.0
6480.0,10.0,0.498558,10.0,11.0
6490.0,10.0,0.4987454,10.0,11.0
6500.0,10.0,0.49862948,10.0,11.0
6510.0,10.0,0.49686217,10.0,11.0
6520.0,10.0,0.49391356,10.0,11.0
6530.0,10.0,0.49003264,10.0,11.0
6540.0,10.0,0.48523423,10.0,11.0
6550.0,10.0,0.48433316,10.0,11.0
6560.0,10.0,0.4865642,10.0,11.0
6570.0,10.0,0.48966855,10.0,11.0
6580.0,10.0,0.49056658,10.0,11.0
6590.0,10.0,0.4954461,10.0,11.0
6600.0,10.0,0.49755943,10.0,11.0
6610.0,10.0,0.49790242,10.0,11.0
6620.0,10.0,0.49821532,10.0,11.0
6630.0,10.0,0.49906063,10.0,11.0
6640.0,10.0,0.49881214,10.0,11.0
6650.0,10.0,0.4968212,10.0,11.0
6660.0,10.0,0.49390206,10.0,11.0
6670.0,10.0,0.51435965,10.0,11.0
6680.0,10.0,0.5547675,10.0,11.0
6690.0,10.0,0.5602976,10.0,11.0
6700.0,10.0,0.5602976,10.0,11.0
6710.0,10.0,0.5602976,10.0,11.0
6720.0,10.0,0.5509272,10.0,11.0
6730.0,10.0,0.5084419,10.0,11.0
6740.0,10.0,0.48989797,10.0,11.0
6750.0,10.0,0.48989797,10.0,11.0
6760.0,10.0,0.48943648,10.0,11.0
6770.0,10.0,0.5255864,10.0,11.0
6780.0,10.0,0.54615736,10.0,11.0
6790.0,10.0,0.53395253,10.0,11.0
6800.0,10.0,0.49381977,10.0,11.0
6810.0,10.0,0.5182417,10.0,11.0
6820.0,10.0,0.5530923,10.0,11.0
6830.0,10.0,0.5513007,10.0,11.0
6840.0,10.0,0.54320645,10.0,11.0
6850.0,10.0,0.5387206,10.0,11.0
6860.0,10.0,0.51487863,10.0,11.0
6870.0,10.0,0.4754874,10.0,11.0
6880.0,10.0,0.51250917,10.0,11.0
6890.0,10.0,0.53739357,10.0,11.0
6900.0,10.0,0.53739357,10.0,11.0
6910.0,10.0,0.53739357,10.0,11.0
6920.0,10.0,0.55927664,10.0,11.0
6930.0,10.0,0.5897415,10.0,11.0
6940.0,10.0,0.6267578,10.0,11.0
6950.0,10.0,0.6793495,10.0,11.0
6960.0,10.0,0.70481074,10.0,11.0
6970.0,10.0,0.7102112,10.0,11.0
6980.0,10.0,0.6885006,10.0,11.0
6990.0,10.0,0.65023893,10.0,11.0
7000.0,10.0,0.62387055,10.0,11.0
7010.0,10.0,0.6207125,10.0,11.0
7020.0,10.0,0.6580481,10.0,11.0
7030.0,10.0,0.74570286,10.0,11.0
7040.0,10.0,0.8515409,9.0,11.0
7050.0,10.0,0.9280093,9.0,11.0
7060.0,10.0,0.9900445,9.0,11.0
7070.0,10.0,1.0488249,9.0,11.0
7080.0,10.0,1.0697187,9.0,11.0
7090.0,10.0,1.0713758,9.0,11.0
7100.0,10.0,1.0753757,9.0,11.0
7110.0,10.0,1.062063,9.0,11.0
7120.0,10.0,1.0273163,9.0,11.0
7130.0,10.0,1.0201677,9.0,11.0
7140.0,10.0,1.0484992,9.0,11.0
7150.0,10.0,1.1102976,9.0,11.0
7160.0,10.0,1.1398983,9.0,11.0
7170.0,10.0,1.1403266,9.0,11.0
7180.0,10.0,1.1146665,9.0,11.0
7190.0,10.0,1.1191506,9.0,11.0
7200.0,10.0,1.2383463,9.0,11.0
7210.0,10.0,1.3486234,9.0,12.0
7220.0,10.0,1.3642801,9.0,12.0
7230.0,10.0,1.3044597,9.0,11.0
7240.0,10.0,1.2622106,9.0,11.0
7250.0,10.0,1.2435122,9.0,11.0
7260.0,10.0,1.2546772,9.0,11.0
7270.0,10.0,1.3180302,9.0,11.0
7280.0,10.0,1.3063369,10.0,12.0
7290.0,10.0,1.2492388,10.0,12.0
7300.0,10.0,1.1947833,10.0,12.0
7310.0,10.0,1.1540234,10.0,12.0
7320.0,10.0,1.1136914,10.0,12.0
7330.0,10.0,1.1124659,10.0,12.0
7340.0,10.0,1.191803,10.0,11.0
7350.0,10.0,1.1851224,10.0,11.0
7360.0,10.0,1.1791964,10.0,11.5
7370.0,10.0,1.1505857,10.0,12.0
7380.0,10.0,1.1508024,10.0,12.0
7390.0,10.0,1.1294737,10.0,12.0
7400.0,10.0,1.0691514,10.0,11.0
7410.0,10.0,1.0307049,10.0,11.0
7420.0,10.0,1.0034273,10.0,11.0
7430.0,10.0,1.0040299,10.0,11.0
7440.0,10.0,1.0026768,10.0,11.0
7450.0,10.0,1.0274984,10.0,11.0
7460.0,10.0,0.96879774,10.0,11.0
7470.0,10.0,0.8920461,10.0,11.0
7480.0,10.0,0.8042409,10.0,11.0
7490.0,10.0,0.8042409,10.0,11.0
7500.0,10.0,0.8042409,10.0,11.0
7510.0,10.0,0.80593115,10.0,11.0
7520.0,10.0,0.7849888,10.0,11.0
7530.0,10.0,0.7486556,10.0,11.0
7540.0,10.0,0.7496066,10.0,11.0
7550.0,10.0,0.7481359,10.0,11.0
7560.0,10.0,0.7366953,10.0,11.0
7570.0,11.0,0.68211114,10.0,11.0
7580.0,11.0,0.6400665,10.0,11.0
7590.0,11.0,0.6278762,10.0,11.0
7600.0,11.0,0.61222816,10.0,11.0
7610.0,11.0,0.5929091,10.0,11.0
7620.0,11.0,0.5428869,11.0,11.0
7630.0,11.0,0.51949763,11.0,11.0
7640.0,11.0,0.5135954,11.0,11.0
7650.0,11.0,0.5097651,11.0,11.0
7660.0,11.0,0.44306535,11.0,11.0
7670.0,11.0,0.37957,11.0,11.0
7680.0,11.0,0.37449038,11.0,11.0
7690.0,11.0,0.40018195,11.0,11.0
7700.0,11.0,0.40018192,11.0,11.0
7710.0,11.0,0.3994522,11.0,11.0
7720.0,11.0,0.40501994,11.0,11.0
7730.0,11.0,0.40702027,11.0,11.0
7740.0,11.0,0.40592763,11.0,11.0
7750.0,11.0,0.40036404,11.0,11.0
7760.0,11.0,0.40018192,11.0,11.0
7770.0,11.0,0.40018192,11.0,11.0
7780.0,11.0,0.40018192,11.0,11.0
7790.0,11.0,0.39495644,11.0,11.0
7800.0,11.0,0.37192148,11.0,11.0
7810.0,11.0,0.3704211,11.0,11.0
7820.0,11.0,0.36696625,11.0,11.0
7830.0,11.0,0.36678606,11.0,11.0
7840.0,11.0,0.36678606,11.0,11.0
7850.0,11.0,0.3667861,11.0,11.0
7860.0,11.0,0.3559223,11.0,11.0
7870.0,11.0,0.330898,11.0,11.0
7880.0,11.0,0.3296393,11.0,11.0
7890.0,11.0,0.32963932,11.0,11.0
7900.0,11.0,0.39074576,11.0,11.0
7910.0,11.0,0.47000504,11.0,11.0
7920.0,11.0,0.5365547,11.0,11.0
7930.0,11.0,0.5505464,11.0,11.0
7940.0,11.0,0.5387902,11.0,11.0
7950.0,11.0,0.5297439,11.0,11.0
7960.0,11.0,0.4887884,11.0,11.0
7970.0,11.0,0.43692705,11.0,11.0
7980.0,11.0,0.33797148,11.0,11.0
7990.0,11.0,0.32513174,11.0,11.0
8000.0,11.0,0.30764943,11.0,11.0
8010.0,11.0,0.38472262,11.0,11.0
8020.0,11.0,0.40355837,11.0,11.0
8030.0,11.0,0.45330444,11.0,11.0
8040.0,11.0,0.46478358,11.0,11.0
8050.0,11.0,0.54212534,11.0,11.0
8060.0,11.0,0.57656425,11.0,11.0
8070.0,11.0,0.5900007,11.0,11.0
8080.0,11.0,0.6189967,11.0,11.0
8090.0,11.0,0.6673634,10.0,11.0
8100.0,11.0,0.7176932,10.0,11.0
8110.0,11.0,0.76707786,10.0,11.0
8120.0,11.0,0.77554256,10.0,11.5
8130.0,11.0,0.7672902,10.0,11.0
8140.0,11.0,0.7398161,10.0,12.0
8150.0,11.0,0.7291667,11.0,12.0
8160.0,11.0,0.7311295,11.0,12.0
8170.0,11.0,0.7180138,11.0,12.0
8180.0,11.0,0.68389416,11.0,12.0
8190.0,11.0,0.64451545,11.0,12.0
8200.0,11.0,0.6020776,11.0,12.0
8210.0,11.0,0.5617022,11.0,12.0
8220.0,11.0,0.50608397,11.0,12.0
8230.0,11.0,0.4840411,11.0,12.0
8240.0,11.0,0.4840411,11.0,12.0
8250.0,11.0,0.56178725,11.0,12.0
8260.0,11.0,0.6891207,11.0,12.0
8270.0,11.0,0.7860801,11.0,12.0
8280.0,11.0,0.8257124,11.0,12.0
8290.0,11.0,0.83565676,11.0,12.0
8300.0,11.0,0.83494645,11.0,12.0
8310.0,11.5,0.82858324,11.0,12.0
8320.0,12.0,0.82138145,11.0,12.0
8330.0,12.0,0.83672434,11.0,13.0
8340.0,12.0,0.8789229,11.0,13.0
8350.0,12.0,0.94762194,11.0,13.0
8360.0,12.0,0.99290127,11.0,13.0
8370.0,12.0,1.0306653,11.0,13.0
8380.0,12.0,0.9973403,11.0,13.0
8390.0,12.0,0.99540216,11.0,13.0
8400.0,12.0,1.040952,11.0,13.0
8410.0,12.0,1.0792501,11.0,13.0
8420.0,12.0,1.112628,11.0,13.0
8430.0,12.0,1.144662,11.0,13.0
8440.0,12.0,1.1865003,11.0,13.0
8450.0,12.0,1.1803991,11.0,13.0
8460.0,12.0,1.2330302,11.0,13.0
8470.0,12.0,1.2959231,11.0,13.0
8480.0,12.0,1.3079579,11.0,13.0
8490.0,12.0,1.2644902,11.0,13.0
8500.0,12.0,1.2161279,11.0,13.0
8510.0,12.0,1.240489,11.0,13.0
8520.0,12.0,1.3057781,11.0,13.0
8530.0,12.0,1.3918394,10.25,13.0
8540.0,12.0,1.4566587,11.0,13.0
8550.0,12.0,1.4667794,10.25,13.0
8560.0,12.0,1.5295038,10.0,13.0
8570.0,12.0,1.5491068,10.0,13.0
8580.0,12.0,1.5364522,10.0,13.0
8590.0,12.0,1.4943491,10.0,13.0
8600.0,12.0,1.5433661,10.0,13.0
8610.0,12.0,1.6062311,10.0,13.0
8620.0,12.0,1.6420403,10.0,13.0
8630.0,11.5,1.6410595,10.0,13.0
8640.0,11.5,1.6620106,10.0,13.0
8650.0,12.0,1.6038842,10.0,13.0
8660.0,12.0,1.58216,10.0,13.0
8670.0,11.0,1.5921818,10.0,13.0
8680.0,11.5,1.6956043,10.0,13.0
8690.0,11.5,1.7359458,10.0,13.0
8700.0,11.5,1.7503494,10.0,13.0
8710.0,12.0,1.7282338,10.0,13.0
8720.0,12.0,1.7004673,10.0,13.0
8730.0,11.0,1.730565,10.0,13.0
8740.0,11.0,1.7910482,10.0,13.0
8750.0,11.5,1.8382552,10.0,13.0
8760.0,11.5,1.8312957,10.0,13.0
8770.0,11.0,1.8370765,9.25,13.0
8780.0,11.0,1.8347416,9.25,13.0
8790.0,11.0,1.8257247,10.0,13.0
8800.0,11.0,1.8516521,9.0,13.0
8810.0,11.0,1.8594536,9.0,13.0
8820.0,11.0,1.8548768,9.0,13.0
8830.0,11.0,1.838379,10.0,13.0
8840.0,11.0,1.8656731,10.0,13.0
8850.0,11.0,1.8638928,10.0,13.0
8860.0,11.0,1.8152881,10.0,13.0
8870.0,11.0,1.8407855,10.0,13.0
8880.0,11.0,1.8621765,9.0,13.0
8890.0,11.0,1.8590653,9.5,13.0
8900.0,11.0,1.8296362,10.0,13.0
8910.0,11.0,1.8458999,10.0,13.0
8920.0,11.0,1.8677758,9.0,13.0
8930.0,11.0,1.8816177,9.0,13.0
8940.0,11.0,1.9100549,9.0,13.0
8950.0,11.0,1.9058331,9.0,13.0
8960.0,11.0,1.897157,9.0,13.0
8970.0,11.0,1.8813208,9.0,13.0
8980.0,11.0,1.9470799,9.0,13.0
8990.0,11.0,2.013277,9.0,13.0
9000.0,11.0,2.066569,9.0,13.0
9010.0,11.0,2.1030483,9.0,13.0
9020.0,11.0,2.1349025,9.0,13.0
9030.0,11.0,2.172733,9.0,13.25
9040.0,11.0,2.2153776,9.0,13.75
9050.0,11.0,2.237404,9.0,14.0
9060.0,11.0,2.2187934,9.0,13.0
9070.0,11.0,2.1402013,9.0,13.0
9080.0,11.0,2.145347,9.0,13.0
9090.0,11.0,2.2194276,9.0,13.0
9100.0,11.0,2.2293787,9.0,13.5
9110.0,11.0,2.2141175,9.0,13.75
9120.0,11.0,2.213302,9.0,14.0
9130.0,11.0,2.22011,9.0,13.0
9140.0,10.0,2.2337356,9.0,13.0
9150.0,10.0,2.2926686,9.0,13.0
9160.0,11.0,2.3167067,9.0,14.0
9170.0,11.0,2.2632828,9.0,14.0
9180.0,11.0,2.2521408,9.0,14.0
9190.0,11.0,2.2837155,9.0,14.0
9200.0,11.0,2.3586814,9.0,14.0
9210.0,11.0,2.3886626,9.0,14.0
9220.0,11.0,2.4093673,9.0,14.0
9230.0,11.0,2.3868747,9.0,14.0
9240.0,11.0,2.3241377,10.0,14.0
9250.0,11.0,1.962042,10.0,14.0
9260.0,10.0,1.8998748,10.0,13.0
9270.0,10.0,1.9224524,10.0,13.0
9280.0,10.5,1.9303699,10.0,13.0
9290.0,10.5,1.8930565,10.0,13.0
9300.0,10.0,1.8845562,10.0,13.0
9310.0,10.0,2.0355904,10.0,13.0
9320.0,11.0,2.1449568,10.0,14.0
9330.0,11.0,2.082224,10.0,14.0
9340.0,11.0,2.0138416,10.0,14.0
9350.0,11.0,1.9550272,10.0,13.0
9360.0,11.0,1.9029695,10.0,13.0
9370.0,11.0,1.902601,10.0,13.0
9380.0,11.0,1.912699,11.0,13.0
9390.0,11.0,1.875534,11.0,13.5
9400.0,11.0,1.8047358,11.0,13.0
9410.0,11.0,1.7252815,11.0,13.0
9420.0,11.0,1.643185,11.0,13.0
9430.0,11.0,1.6067042,11.0,13.0
9440.0,12.0,1.6674894,11.0,13.0
9450.0,12.0,1.7291343,11.0,13.0
9460.0,12.0,1.6589471,11.0,14.0
9470.0,12.0,1.5755448,11.0,14.0
9480.0,12.0,1.6069483,11.0,13.0
9490.0,12.0,1.6567558,11.0,13.0
9500.0,12.0,1.6568711,11.0,14.0
9510.0,12.0,1.6239915,11.0,14.0
9520.0,12.0,1.5708734,11.0,13.0
9530.0,12.0,1.5020411,11.0,13.0
9540.0,12.0,1.4586649,11.0,13.0
9550.0,12.0,1.4668399,11.0,13.0
9560.0,12.0,1.4707955,12.0,14.0
9570.0,12.0,1.4579989,12.0,14.0
9580.0,12.0,1.4388332,12.0,14.0
9590.0,12.0,1.4082371,12.0,14.0
9600.0,12.0,1.3790288,12.0,14.0
9610.0,12.0,1.3138967,12.0,13.0
9620.0,12.0,1.2294922,12.0,13.0
9630.0,12.0,1.1657932,12.0,13.0
9640.0,13.0,1.11012,12.0,14.0
9650.0,13.0,1.082873,12.0,14.0
9660.0,13.0,1.1050292,12.0,13.0
9670.0,12.0,1.0403422,12.0,13.0
9680.0,12.0,1.0147501,12.0,14.0
9690.0,13.0,0.9631116,12.0,14.0
9700.0,13.0,0.9483127,12.0,14.0
9710.0,13.0,1.0021882,12.0,14.0
9720.0,13.0,1.0347722,12.0,14.0
9730.0,13.0,0.9955941,12.0,14.0
9740.0,13.0,0.9513929,12.0,14.0
9750.0,13.0,0.9374775,12.0,14.0
9760.0,13.0,0.9201958,12.0,14.0
9770.0,13.0,0.92202246,12.0,14.0
9780.0,13.0,0.95396703,12.0,14.0
9790.0,13.0,0.98290455,12.0,14.0
9800.0,13.0,1.0037963,12.0,14.0
9810.0,13.0,1.0306413,12.0,14.0
9820.0,13.0,1.0426779,12.0,14.0
9830.0,13.0,1.0429592,12.0,14.0
9840.0,13.0,1.0481967,12.0,14.0
9850.0,13.0,1.0600338,12.0,14.0
9860.0,13.0,1.05246,12.0,14.0
9870.0,13.0,1.0193633,12.0,14.0
9880.0,13.0,1.0447216,12.0,14.0
9890.0,13.0,1.1038728,12.0,14.0
9900.0,13.0,1.101027,12.0,14.0
9910.0,13.0,1.0724827,12.0,14.0
9920.0,13.0,1.0983218,12.0,14.0
9930.0,13.0,1.1147786,12.0,14.0
9940.0,13.0,1.0923129,12.0,14.0
9950.0,13.0,1.0057611,12.0,14.0
9960.0,13.0,1.017997,12.0,14.0
9970.0,13.0,1.0059742,12.0,14.0
9980.0,13.0,0.9889082,12.0,14.0
9990.0,13.0,0.9816335,12.0,14.0
10000.0,13.0,0.9936129,12.0,14.0
10010.0,13.0,1.0259281,12.0,14.0
10020.0,13.0,1.0114361,13.0,14.0
10030.0,13.0,1.0026015,13.0,14.0
10040.0,13.0,0.9838232,13.0,14.0
10050.0,13.0,1.0272626,12.0,14.0
10060.0,13.0,1.073215,12.0,14.0
10070.0,13.0,1.118189,12.0,14.0
10080.0,13.0,1.1096618,12.0,14.0
10090.0,13.0,1.088294,12.0,14.0
10100.0,13.0,1.0727645,12.0,14.0
10110.0,13.0,1.066673,12.0,14.0
10120.0,13.0,1.1082209,12.0,14.0
10130.0,13.0,1.1741027,12.0,14.0
10140.0,12.0,1.2290509,12.0,14.0
10150.0,13.0,1.2140367,12.0,14.0
10160.0,13.0,1.2350426,12.0,14.0
10170.0,13.0,1.2303725,12.0,14.0
10180.0,13.0,1.210776,12.0,14.0
10190.0,13.0,1.1831263,12.0,14.0
10200.0,13.0,1.1594491,12.0,14.0
10210.0,13.0,1.2061027,12.0,14.0
10220.0,13.0,1.3075126,12.0,14.0
10230.0,13.0,1.3988484,12.0,14.0
10240.0,13.0,1.3690718,11.0,14.0
10250.0,13.0,1.2920073,12.0,14.0
10260.0,13.0,1.2624887,12.0,14.0
10270.0,13.0,1.2597368,12.0,14.0
10280.0,13.0,1.2426716,12.0,14.0
10290.0,13.0,1.2066228,12.0,14.0
10300.0,13.0,1.1327856,12.0,14.0
10310.0,13.0,1.0609742,12.0,13.0
10320.0,13.0,1.0284673,12.0,13.0
10330.0,13.0,1.0439876,12.0,13.0
10340.0,12.0,1.0409447,12.0,13.0
10350.0,12.0,1.003925,12.0,13.0
10360.0,12.0,0.9412245,12.0,13.0
10370.0,12.0,0.87014776,12.0,13.0
10380.0,12.0,0.7706648,12.0,13.0
10390.0,12.0,0.7441146,12.0,13.0
10400.0,12.0,0.7283261,12.0,13.0
10410.0,12.0,0.70267206,12.0,13.0
10420.0,13.0,1.0423224,12.0,14.0
10430.0,13.0,1.0438583,12.0,14.0
10440.0,13.0,1.0726764,12.0,14.0
10450.0,12.0,1.0862322,12.0,14.0
10460.0,12.0,1.0888389,12.0,14.0
10470.0,12.0,1.0673012,12.0,14.0
10480.0,12.0,1.0775867,12.0,14.0
10490.0,12.0,1.0875713,12.0,14.0
10500.0,12.0,1.0794066,12.0,14.0
10510.0,12.0,1.0541393,12.0,13.0
10520.0,13.0,0.99608207,12.0,13.0
10530.0,13.0,0.9506824,12.0,13.0
10540.0,13.0,0.926641,12.0,13.0
10550.0,13.0,0.9468185,12.0,13.0
10560.0,13.0,0.8748332,12.0,13.0
10570.0,13.0,0.86272055,12.0,13.0
10580.0,13.0,0.8723185,12.0,13.0
10590.0,13.0,0.87302196,12.0,13.0
10600.0,13.0,0.8694514,12.0,13.0
10610.0,13.0,0.8523642,12.0,13.0
10620.0,13.0,0.87920356,12.0,13.0
10630.0,13.0,0.8312232,12.0,13.0
10640.0,13.0,0.9125358,12.0,14.0
10650.0,13.0,0.98876846,12.0,14.0
10660.0,13.0,1.0587158,12.0,14.0
10670.0,13.0,1.1039598,12.0,14.0
10680.0,13.0,1.1252357,12.0,14.0
10690.0,13.0,1.1400543,12.0,14.0
10700.0,13.0,1.2015241,12.0,14.0
10710.0,13.0,1.2818922,12.0,14.0
10720.0,13.0,1.3263941,12.0,14.0
10730.0,13.0,1.3245667,12.0,14.0
10740.0,13.0,1.3287867,12.0,14.0
10750.0,13.0,1.4051843,12.0,14.0
10760.0,13.0,1.5050404,12.0,14.0
10770.0,13.0,1.5332974,12.0,15.0
10780.0,13.0,1.5180603,12.0,15.0
10790.0,13.0,1.5037274,12.0,15.0
10800.0,13.0,1.5087365,12.0,15.0
10810.0,13.0,1.5377862,12.0,15.0
10820.0,13.0,1.5404505,12.0,14.0
10830.0,13.0,1.8875147,12.0,15.0
10840.0,13.0,1.939433,12.0,15.0
10850.0,13.0,1.9249606,12.0,15.0
10860.0,13.0,1.9573995,12.0,15.0
10870.0,13.0,1.9582363,12.0,15.0
10880.0,13.0,1.9437193,12.0,15.0
10890.0,13.0,1.9419739,12.0,15.0
10900.0,13.0,1.8989706,12.0,15.0
10910.0,13.0,1.9004229,12.0,15.0
10920.0,14.0,1.8717551,12.0,15.0
10930.0,14.0,1.7912358,12.0,15.0
10940.0,14.0,1.785536,12.0,15.0
10950.0,14.0,1.7616396,13.0,15.0
10960.0,14.0,1.7633114,13.0,15.0
10970.0,14.0,1.7174278,13.0,15.0
10980.0,14.0,1.7169883,13.0,15.0
10990.0,14.0,1.6970766,13.0,15.0
11000.0,14.0,1.6984843,13.0,15.0
11010.0,14.0,1.6678706,13.0,15.0
11020.0,14.0,1.6033324,13.0,15.0
11030.0,14.0,1.6088743,13.0,15.0
11040.0,14.0,1.5997694,13.0,15.0
11050.0,14.0,1.6033567,13.0,15.0
11060.0,15.0,1.6059477,13.0,15.0
11070.0,15.0,1.5772715,13.0,15.0
11080.0,15.0,1.533519,13.0,15.0
11090.0,15.0,1.498664,13.0,15.0
11100.0,15.0,1.4571928,13.0,15.0
11110.0,15.0,1.4259742,13.0,15.0
11120.0,15.0,1.3446242,13.0,15.0
11130.0,15.0,1.3483049,13.0,15.0
11140.0,15.0,1.2819138,14.0,15.0
11150.0,15.0,1.2653619,14.0,15.0
11160.0,15.0,1.3249617,13.0,15.0
11170.0,15.0,1.319532,13.0,15.0
11180.0,15.0,1.3255808,13.0,16.0
11190.0,15.0,1.3536147,13.0,16.0
11200.0,15.0,1.34684,14.0,16.0
11210.0,15.0,1.3069172,14.0,16.0
11220.0,15.0,1.350019,14.0,16.0
11230.0,15.0,1.3704168,14.0,16.0
11240.0,15.0,1.3710345,14.0,16.0
11250.0,15.0,1.4192421,14.0,16.0
11260.0,15.0,1.4424157,13.0,16.0
11270.0,15.0,1.4804212,13.0,16.0
11280.0,15.0,1.4925143,13.0,16.0
11290.0,15.0,1.4901191,13.0,16.0
11300.0,15.0,1.5283242,13.0,16.0
11310.0,15.0,1.5218803,13.0,16.0
11320.0,15.0,1.6021019,13.0,16.0
11330.0,15.0,1.5920959,13.0,16.0
11340.0,15.0,1.6660548,13.0,16.0
11350.0,15.0,1.7147489,13.0,16.0
11360.0,15.0,1.7335773,13.0,16.0
11370.0,15.0,1.7513858,13.0,16.0
11380.0,15.0,1.7611828,13.0,16.0
11390.0,15.0,1.7908274,13.0,16.0
11400.0,15.0,1.8090744,13.0,16.0
11410.0,15.0,1.8079674,13.0,16.0
11420.0,15.0,1.840865,13.0,16.0
11430.0,15.0,1.8402134,13.0,16.0
11440.0,15.0,1.83972,13.0,16.0
11450.0,15.0,1.8403636,13.0,16.0
11460.0,15.0,1.8775618,13.0,16.0
11470.0,15.0,1.957249,13.0,16.0
11480.0,15.0,1.9562398,13.0,16.0
11490.0,15.0,1.970178,13.0,16.0
11500.0,15.0,2.012407,13.0,16.0
11510.0,15.0,2.0380716,13.0,16.0
11520.0,15.0,2.0400352,13.0,16.0
11530.0,15.0,2.0400734,13.0,16.0
11540.0,15.0,2.0518477,12.0,16.0
11550.0,15.0,2.0707574,12.0,16.0
11560.0,15.0,2.0693066,12.0,16.0
11570.0,15.0,2.0674293,12.0,16.0
11580.0,15.0,2.0650072,12.0,16.0
11590.0,15.0,2.0655596,12.0,16.0
11600.0,15.0,2.0669453,12.0,16.0
11610.0,15.0,2.0554063,12.0,16.0
11620.0,15.0,2.0363686,12.0,16.0
11630.0,15.0,2.052921,12.0,16.0
11640.0,15.0,2.052365,12.0,16.0
11650.0,15.0,2.0334172,12.0,16.0
11660.0,15.0,2.0320187,12.0,16.0
11670.0,15.0,2.0059946,13.0,16.0
11680.0,15.0,2.0069923,13.0,16.0
11690.0,15.0,2.0080593,13.0,16.0
11700.0,15.0,1.9919398,13.0,16.0
11710.0,15.0,1.9887655,13.0,16.0
11720.0,15.0,2.0055563,13.0,16.0
11730.0,15.0,1.974351,13.0,16.0
11740.0,15.0,1.9092888,13.0,16.0
11750.0,15.0,1.8424418,13.0,16.0
11760.0,15.0,1.8339291,13.0,16.0
11770.0,14.0,1.7153485,12.0,16.0
11780.0,14.0,1.664845,12.0,16.0
11790.0,14.0,1.6329038,12.0,16.0
11800.0,14.0,1.6242554,12.0,16.0
11810.0,14.0,1.6371024,13.0,16.0
11820.0,15.0,1.6240598,13.0,16.0
11830.0,15.0,1.586405,13.0,16.0
11840.0,15.0,1.5914661,13.0,16.0
11850.0,15.0,1.5955561,13.0,16.0
11860.0,15.0,1.6380169,13.0,16.0
11870.0,15.0,1.6438637,13.0,16.0
11880.0,15.0,1.650663,13.0,16.0
11890.0,15.0,1.6126198,13.0,16.0
11900.0,15.0,1.5985615,13.0,16.0
11910.0,15.0,1.6042743,13.0,16.0
11920.0,15.0,1.6065612,13.0,16.0
11930.0,15.0,1.592914,13.0,16.0
11940.0,15.0,1.5670035,13.0,16.0
11950.0,15.0,1.5588919,13.0,16.0
11960.0,15.0,1.5256791,13.0,16.0
11970.0,15.0,1.5319083,13.0,16.0
11980.0,15.0,1.4888219,13.0,16.0
11990.0,15.0,1.4533819,13.0,16.0
12000.0,15.0,1.4164746,13.0,16.0
12010.0,15.0,1.4301203,13.0,16.0
12020.0,15.0,1.4286554,13.0,16.0
12030.0,15.0,1.4015648,13.0,16.0
12040.0,15.0,1.3835374,13.0,16.0
12050.0,15.0,1.3870397,13.0,16.0
12060.0,15.0,1.3482112,14.0,16.0
12070.0,15.0,1.3053852,14.0,16.0
12080.0,15.0,1.3157128,14.0,16.0
12090.0,15.0,1.3328226,14.0,16.0
12100.0,15.0,1.2712371,14.0,16.0
12110.0,15.0,1.2674952,14.0,16.0
12120.0,15.0,1.2853982,14.0,16.0
12130.0,15.0,1.3296481,14.0,16.0
12140.0,15.0,1.3863304,14.0,16.0
12150.0,15.0,1.3766861,14.0,16.0
12160.0,15.0,1.3447791,14.0,16.0
12170.0,15.0,1.2932901,14.0,16.0
12180.0,15.0,1.3149525,14.0,16.0
12190.0,15.0,1.3070517,14.0,16.0
12200.0,15.0,1.2940608,14.0,16.0
12210.0,15.0,1.2390314,14.0,16.0
12220.0,15.0,1.2041912,14.0,16.0
12230.0,15.0,1.1648793,14.0,16.0
12240.0,15.0,1.1491927,14.0,16.0
12250.0,15.0,1.1352711,14.0,16.0
12260.0,15.0,1.1156949,14.0,16.0
12270.0,15.0,1.0694609,14.0,16.0
12280.0,15.0,1.0220327,14.0,16.0
12290.0,15.0,0.98782617,14.0,16.0
12300.0,16.0,0.9343211,15.0,16.0
12310.0,16.0,0.8481427,15.0,16.0
12320.0,16.0,0.7776658,15.0,16.0
12330.0,16.0,0.7220083,15.0,16.0
12340.0,16.0,0.62604433,15.0,16.0
12350.0,16.0,0.5250676,15.0,16.0
12360.0,16.0,0.49843416,15.0,16.0
12370.0,16.0,0.4979709,15.0,16.0
12380.0,16.0,0.49554908,15.0,16.0
12390.0,16.0,0.4954906,15.0,16.0
12400.0,16.0,0.4954906,15.0,16.0
12410.0,16.0,0.60655093,15.0,16.0
12420.0,15.0,0.6023714,15.0,16.0
12430.0,15.0,0.6061869,15.0,16.0
12440.0,16.0,0.59657687,15.0,16.0
12450.0,16.0,0.5836806,15.0,16.0
12460.0,16.0,0.6069069,15.0,16.0
12470.0,16.0,0.61363894,15.0,16.0
12480.0,16.0,0.6035513,15.0,16.0
12490.0,16.0,0.5924314,15.0,16.0
12500.0,16.0,0.57955277,15.0,16.0
12510.0,16.0,0.567253,15.0,16.0
12520.0,16.0,0.55844194,15.0,16.0
12530.0,16.0,0.55063504,15.0,16.0
12540.0,16.0,0.52615154,15.0,16.0
12550.0,16.0,0.4900511,15.0,16.0
12560.0,16.0,0.4549018,16.0,16.0
12570.0,16.0,0.42863655,16.0,16.0
12580.0,16.0,0.3996986,16.0,16.0
12590.0,16.0,0.37489328,16.0,16.0
12600.0,16.0,0.3932393,16.0,16.0
12610.0,16.0,0.41492048,16.0,16.0
12620.0,16.0,0.42161992,16.0,16.0
12630.0,16.0,0.42524227,16.0,16.0
12640.0,16.0,0.46275705,15.0,16.0
12650.0,16.0,0.4692079,15.0,16.0
12660.0,16.0,0.46578,15.0,16.0
12670.0,16.0,0.46526444,15.0,16.0
12680.0,16.0,0.47411323,15.0,16.0
12690.0,16.0,0.48297414,15.0,16.0
12700.0,16.0,0.4895683,15.0,16.0
12710.0,16.0,0.495757,15.0,16.0
12720.0,16.0,0.4978795,15.0,16.0
12730.0,16.0,0.49827132,15.0,16.0
12740.0,16.0,0.49847665,15.0,16.0
12750.0,16.0,0.4988059,15.0,16.0
12760.0,16.0,0.49999368,15.0,16.0
12770.0,15.0,0.49857187,15.0,16.0
12780.0,15.0,0.48931628,15.0,16.0
12790.0,15.0,0.48797438,15.0,16.0
12800.0,15.0,0.4836574,15.0,16.0
12810.0,15.0,0.48231742,15.0,16.0
12820.0,15.0,0.46688512,15.0,16.0
12830.0,15.0,0.44066396,15.0,16.0
12840.0,15.0,0.41386434,15.0,15.0
12850.0,15.0,0.40295056,15.0,15.0
12860.0,15.0,0.40309137,15.0,15.0
12870.0,15.0,0.3856167,15.0,15.0
12880.0,15.0,0.35395223,15.0,15.0
12890.0,15.0,0.3,15.0,15.0
12900.0,15.0,0.21451294,15.0,15.0
12910.0,15.0,0.12901378,15.0,15.0
12920.0,15.0,0.2472318,15.0,15.0
12930.0,15.0,0.33773094,15.0,15.0
12940.0,15.0,0.41488174,15.0,15.0
12950.0,15.0,0.4588468,15.0,16.0
12960.0,15.0,0.48299664,15.0,16.0
12970.0,15.0,0.495375,15.0,16.0
12980.0,15.0,0.49848023,15.0,16.0
12990.0,15.0,0.4999997,15.0,16.0
13000.0,16.0,0.4982903,15.0,16.0
13010.0,16.0,0.494359,15.0,16.0
13020.0,16.0,0.4968251,15.0,16.0
13030.0,16.0,0.49482837,15.0,16.0
13040.0,16.0,0.48623225,15.0,16.0
13050.0,16.0,0.45979154,15.0,16.0
13060.0,16.0,0.43530852,15.0,16.0
13070.0,16.0,0.40915176,16.0,16.0
13080.0,16.0,0.36817732,16.0,16.0
13090.0,16.0,0.33325666,16.0,16.0
13100.0,16.0,0.30459088,16.0,16.0
13110.0,16.0,0.27557316,16.0,16.0
13120.0,16.0,0.25611436,16.0,16.0
13130.0,16.0,0.25560194,16.0,16.0
13140.0,16.0,0.25521964,16.0,16.0
13150.0,16.0,0.25471252,16.0,16.0
13160.0,16.0,0.25433415,16.0,16.0
13170.0,16.0,0.25383225,16.0,16.0
13180.0,16.0,0.20424922,16.0,16.0
13190.0,16.0,0.15146719,16.0,16.0
13200.0,16.0,0.25662982,16.0,16.0
13210.0,16.0,0.34721246,16.0,16.0
13220.0,16.0,0.48312905,16.0,16.0
13230.0,16.0,0.5554288,16.0,16.0
13240.0,16.0,0.63949573,16.0,16.0
13250.0,16.0,0.6482086,16.0,17.0
13260.0,16.0,0.6738664,16.0,17.0
13270.0,16.0,0.685214,16.0,17.0
13280.0,16.0,0.7236181,16.0,17.0
13290.0,16.0,0.7475799,15.0,17.0
13300.0,16.0,0.76859134,15.0,17.0
13310.0,16.0,0.7957231,15.0,17.0
13320.0,16.0,0.8271061,15.0,17.0
13330.0,16.0,0.83695215,15.0,17.0
13340.0,16.0,0.8470441,15.0,17.0
13350.0,16.0,0.83272415,15.0,17.0
13360.0,16.0,0.8324614,15.0,17.0
13370.0,16.0,0.83295166,15.0,17.0
13380.0,16.0,0.8383985,15.0,17.0
13390.0,16.0,0.8555878,15.0,17.0
13400.0,16.0,0.86204094,15.0,17.0
13410.0,16.0,0.8760421,15.0,17.0
13420.0,16.0,0.8535194,15.0,17.0
13430.0,16.0,0.8397354,15.0,17.0
13440.0,16.0,0.83317244,15.0,17.0
13450.0,16.0,0.8640304,15.0,17.0
13460.0,16.0,0.87504214,15.0,17.0
13470.0,16.0,0.8753929,15.0,17.0
13480.0,16.0,0.86292034,15.0,17.0
13490.0,16.0,0.8730663,15.0,17.0
13500.0,16.0,0.86259365,15.0,17.0
13510.0,16.0,0.8585803,15.0,17.0
13520.0,16.0,0.871371,15.0,17.0
13530.0,16.0,0.89525574,15.0,17.0
13540.0,16.0,0.926599,15.0,17.0
13550.0,16.0,0.905749,15.0,17.0
13560.0,16.0,0.90643525,15.0,17.0
13570.0,16.0,0.9077408,15.0,17.0
13580.0,16.0,0.9014446,15.0,17.0
13590.0,16.0,0.908381,15.0,17.0
13600.0,16.0,0.9265744,15.0,17.0
13610.0,16.0,0.93093914,15.0,17.0
13620.0,16.0,0.9256087,15.0,17.0
13630.0,16.0,0.9288898,15.0,17.0
13640.0,16.0,0.95767736,15.0,17.0
13650.0,16.0,1.0062324,15.0,17.0
13660.0,16.0,1.0567292,15.0,17.0
13670.0,16.0,1.0796909,15.0,17.0
13680.0,16.0,1.108371,15.0,17.0
13690.0,16.0,1.1573395,15.0,17.0
13700.0,16.0,1.1888673,15.0,17.0
13710.0,16.0,1.1790972,15.0,17.0
13720.0,16.0,1.1692567,15.0,17.0
13730.0,16.0,1.1780105,15.0,17.0
13740.0,16.0,1.1908015,15.0,17.0
13750.0,16.0,1.1897302,15.0,18.0
13760.0,16.0,1.181325,15.0,18.0
13770.0,16.0,1.167891,15.0,18.0
13780.0,16.0,1.1569474,15.0,18.0
13790.0,16.0,1.1666635,15.0,18.0
13800.0,16.0,1.1802869,15.0,18.0
13810.0,16.0,1.1609786,15.0,18.0
13820.0,16.0,1.1032555,16.0,18.0
13830.0,16.0,1.0768434,16.0,18.0
13840.0,16.0,1.0892851,16.0,18.0
13850.0,16.0,1.0920717,16.0,18.0
13860.0,16.0,1.0717603,16.0,18.0
13870.0,16.0,1.0523566,16.0,18.0
13880.0,17.0,1.0295199,16.0,18.0
13890.0,17.0,0.9973527,16.0,18.0
13900.0,17.0,0.97580385,16.0,18.0
13910.0,17.0,0.9474751,16.0,18.0
13920.0,17.0,0.9725742,16.0,18.0
13930.0,17.0,1.0130615,16.0,18.0
13940.0,17.0,1.0514342,16.0,18.0
13950.0,17.0,1.0847156,16.0,18.0
13960.0,17.0,1.0551877,16.0,18.0
13970.0,17.0,1.0644388,16.0,18.0
13980.0,17.0,1.069949,16.0,18.0
13990.0,17.0,1.1172417,16.0,18.0
14000.0,17.0,1.1289096,16.0,18.0
14010.0,17.0,1.1181278,16.0,18.0
14020.0,17.0,1.1148636,16.0,18.0
14030.0,17.0,1.1560656,16.0,18.0
14040.0,17.0,1.1309623,16.0,18.0
14050.0,17.0,1.0545169,16.0,18.0
14060.0,17.0,1.0224174,16.0,18.0
14070.0,17.0,1.0513161,16.0,18.0
14080.0,17.0,1.0872507,16.0,18.0
14090.0,17.0,1.0576916,16.0,18.0
14100.0,17.0,1.0697007,16.0,18.0
14110.0,17.0,1.1315825,16.0,18.0
14120.0,17.0,1.139034,16.0,18.0
14130.0,17.0,1.0936844,16.0,18.0
14140.0,17.0,1.0513126,16.0,18.0
14150.0,17.0,0.9972586,17.0,18.0
14160.0,17.0,0.92846894,17.0,18.0
14170.0,17.0,0.94295996,17.0,18.0
14180.0,17.0,0.96590066,17.0,18.0
14190.0,17.0,0.94508564,17.0,18.0
14200.0,17.0,0.9137737,17.0,18.0
14210.0,17.0,0.93713033,17.0,18.0
14220.0,17.0,0.97772986,17.0,18.0
14230.0,17.0,1.0254977,17.0,18.0
14240.0,17.0,1.0583675,17.0,18.0
14250.0,17.0,1.0456975,17.0,18.0
14260.0,17.0,0.9866244,17.0,18.0
14270.0,17.0,0.94047433,17.0,18.0
14280.0,17.0,0.885592,17.0,18.0
14290.0,17.0,0.82269746,17.0,18.0
14300.0,17.0,0.7825067,17.0,18.0
14310.0,18.0,0.74140364,17.0,18.0
14320.0,18.0,0.72761583,17.0,18.0
14330.0,18.0,0.7575471,17.0,18.0
14340.0,18.0,0.77434415,17.0,18.0
14350.0,18.0,0.7378976,17.0,18.0
14360.0,17.0,0.7335616,17.0,18.0
14370.0,17.0,0.7163228,17.0,18.0
14380.0,17.0,0.70500875,17.0,18.0
14390.0,17.0,0.67555416,17.0,18.0
14400.0,18.0,0.83199614,17.0,18.0
14410.0,18.0,0.8226021,17.0,18.0
14420.0,18.0,0.8083105,17.0,18.0
14430.0,18.0,0.7915666,17.0,18.0
14440.0,18.0,0.77861756,18.0,18.0
14450.0,18.0,0.7604204,17.0,18.0
14460.0,18.0,0.7445666,17.0,18.0
14470.0,18.0,0.72370696,17.0,18.0
14480.0,18.0,0.7079045,18.0,18.0
14490.0,18.0,0.68481904,18.0,18.0
14500.0,18.0,0.66554034,18.0,18.0
14510.0,18.0,0.80755585,18.0,18.0
14520.0,18.0,0.7897051,18.0,18.0
14530.0,18.0,0.81696784,18.0,18.0
14540.0,18.0,0.7933195,18.0,18.0
14550.0,18.0,0.7749219,18.0,18.0
14560.0,18.0,0.7596648,18.0,18.0
14570.0,18.0,0.7508838,18.0,18.0
14580.0,18.0,0.7287365,18.0,18.0
14590.0,18.0,0.7358249,18.0,18.0
14600.0,18.0,0.7686972,18.0,18.0
14610.0,18.0,0.77040094,18.0,18.0
14620.0,18.0,0.76234835,18.0,18.0
14630.0,18.0,0.73320585,17.0,18.0
14640.0,18.0,0.767332,17.0,18.0
14650.0,18.0,0.78951234,17.0,18.0
14660.0,18.0,0.7879478,17.0,18.0
14670.0,18.0,0.7887888,17.0,18.0
14680.0,18.0,0.81245637,17.0,18.0
14690.0,18.0,0.8134693,17.0,18.0
14700.0,18.0,0.8204828,17.0,18.0
14710.0,18.0,0.8209323,17.0,18.0
14720.0,18.0,0.8193606,17.0,18.0
14730.0,18.0,0.80361813,17.0,18.0
14740.0,17.0,0.81110024,17.0,18.0
14750.0,17.0,0.8104229,17.0,18.0
14760.0,17.0,0.78039014,17.0,18.0
14770.0,17.0,0.7460362,17.0,18.0
14780.0,17.0,0.7562714,17.0,18.0
14790.0,17.0,0.7597619,17.0,18.0
14800.0,17.0,0.76347625,17.0,18.0
14810.0,17.0,0.7649032,17.0,18.0
14820.0,17.0,0.76347625,17.0,18.0
14830.0,17.0,0.76347625,17.0,18.0
14840.0,17.0,0.7640513,17.0,18.0
14850.0,17.0,0.84064317,17.0,18.0
14860.0,17.0,0.7964652,17.0,18.0
14870.0,17.0,0.79700434,17.0,18.0
14880.0,17.0,0.7967348,17.0,18.0
14890.0,17.0,0.8042784,17.0,18.0
14900.0,17.0,0.8042784,17.0,18.0
14910.0,17.0,0.83490175,17.0,18.0
14920.0,17.0,0.8360537,17.0,18.0
14930.0,17.0,0.8349018,17.0,18.0
14940.0,17.0,0.8360537,17.0,18.0
14950.0,17.0,0.8360537,17.0,18.0
14960.0,17.0,0.8422373,17.0,18.0
14970.0,17.0,0.8433488,17.0,18.0
14980.0,17.0,0.8422373,17.0,18.0
14990.0,17.0,0.88229907,17.0,19.0
15000.0,17.0,0.90084594,17.0,19.0
15010.0,17.0,0.8926076,17.0,19.0
15020.0,17.0,0.8948617,17.0,19.0
15030.0,17.0,0.89439803,17.0,19.0
15040.0,18.0,0.8798616,17.0,19.0
15050.0,18.0,0.90866494,17.0,19.0
15060.0,18.0,0.90870196,17.0,19.0
15070.0,18.0,0.8707006,17.0,19.0
15080.0,18.0,1.0083668,17.0,19.0
15090.0,18.0,1.0173008,17.0,19.0
15100.0,18.0,0.9803311,17.0,19.0
15110.0,18.0,0.9327179,17.0,19.0
15120.0,18.0,1.107366,17.0,19.0
15130.0,18.0,1.1085532,17.0,19.0
15140.0,18.0,1.1180784,17.0,19.0
15150.0,18.0,1.2665528,17.0,19.0
15160.0,18.0,1.2413611,17.0,19.0
15170.0,19.0,1.3053935,17.0,19.0
15180.0,19.0,1.4595467,17.0,20.0
15190.0,19.0,1.4387012,17.0,20.0
15200.0,19.0,1.4988308,17.0,20.0
15210.0,19.0,1.398711,18.0,20.0
15220.0,19.0,1.4144157,18.0,20.0
15230.0,19.0,1.414762,18.0,20.0
15240.0,19.0,1.5226408,18.0,20.0
15250.0,19.0,1.5273888,18.0,20.0
15260.0,19.0,1.5533733,18.0,20.0
15270.0,19.0,1.5524795,18.0,20.0
15280.0,19.0,1.5499686,18.0,20.0
15290.0,19.0,1.5712411,17.0,20.0
15300.0,19.0,1.5159771,18.0,20.0
15310.0,19.0,1.5390357,18.0,20.0
15320.0,19.0,1.5345563,18.0,20.0
15330.0,19.0,1.5360628,18.0,20.0
15340.0,19.0,1.5219737,18.0,20.0
15350.0,19.0,1.5202245,18.0,20.0
15360.0,19.0,1.5247661,18.0,20.0
15370.0,19.0,1.5749329,18.0,20.0
15380.0,19.0,1.5755947,17.0,20.0
15390.0,19.0,1.4885691,17.75,20.0
15400.0,19.0,1.5757079,18.0,20.0
15410.0,19.0,1.5774081,18.0,20.0
15420.0,19.0,1.5791247,18.0,20.0
15430.0,19.0,1.5460824,17.0,20.0
15440.0,19.0,1.5253832,17.0,20.0
15450.0,19.0,1.5237852,17.0,20.0
15460.0,19.0,1.5496297,17.0,20.0
15470.0,18.0,1.6033638,17.0,20.0
15480.0,18.5,1.5987319,17.0,20.0
15490.0,19.0,1.5821713,17.0,20.0
15500.0,18.0,1.4976543,17.0,20.0
15510.0,18.0,1.4431295,17.0,19.0
15520.0,18.0,1.3964149,17.0,19.0
15530.0,18.0,1.458043,17.0,19.0
15540.0,18.0,1.3844764,17.0,19.0
15550.0,18.0,1.3610123,17.0,19.0
15560.0,18.0,1.3085841,17.0,19.0
15570.0,19.0,1.3616301,17.0,19.0
15580.0,18.0,1.2726225,17.0,19.0
15590.0,18.0,1.2086107,17.0,19.0
15600.0,18.0,1.0402771,17.0,19.0
15610.0,18.0,1.0676982,17.0,19.0
15620.0,18.0,1.0326139,17.0,19.0
15630.0,18.0,1.10264,17.0,19.0
15640.0,18.0,1.1264349,17.0,19.0
15650.0,18.0,1.1162357,17.0,19.0
15660.0,18.0,1.0894697,17.0,19.0
15670.0,18.0,1.1089245,17.0,18.0
15680.0,18.0,1.1339397,17.0,18.0
15690.0,18.0,1.0926269,17.0,18.0
15700.0,18.0,1.0876145,17.0,18.0
15710.0,18.0,1.0683936,17.0,18.0
15720.0,18.0,0.980174,17.0,18.0
15730.0,17.0,0.9075935,17.0,18.0
15740.0,17.0,0.9344913,16.0,18.0
15750.0,17.0,0.92446035,16.0,18.0
15760.0,17.0,0.8286516,16.0,18.0
15770.0,17.0,0.74688953,17.0,18.0
15780.0,17.0,0.74080974,17.0,18.0
15790.0,17.0,0.73652333,17.0,18.0
15800.0,17.0,0.8295436,16.0,18.0
15810.0,17.0,0.857258,16.0,18.0
15820.0,17.0,0.8589455,16.0,18.0
15830.0,17.0,0.8711304,16.0,18.0
15840.0,17.0,0.8875106,16.0,17.0
15850.0,17.0,0.87534934,16.0,17.0
15860.0,17.0,0.91729826,16.0,17.0
15870.0,17.0,0.8937883,16.0,17.0
15880.0,17.0,0.82925636,16.0,17.0
15890.0,17.0,0.63350374,16.0,17.0
15900.0,17.0,0.6498933,16.0,17.0
15910.0,17.0,0.70029867,16.0,17.0
15920.0,17.0,0.6884947,16.0,17.0
15930.0,17.0,0.57212347,16.0,17.0
15940.0,17.0,0.576016,16.0,17.0
15950.0,17.0,0.6125554,16.0,17.0
15960.0,17.0,0.667531,16.0,17.0
15970.0,17.0,0.671876,16.0,17.0
15980.0,17.0,0.6656603,16.0,17.0
15990.0,17.0,0.63153875,16.0,17.0
16000.0,17.0,0.63838154,16.0,17.0
16010.0,17.0,0.6434244,16.0,17.0
16020.0,17.0,0.6811625,16.0,17.0
16030.0,17.0,0.7117976,16.0,17.0
16040.0,17.0,0.71641976,16.0,17.0
16050.0,16.0,0.6894995,16.0,17.0
16060.0,16.0,0.6949544,16.0,17.0
16070.0,16.0,0.7331959,16.0,17.0
16080.0,16.0,0.7258882,16.0,17.0
16090.0,16.0,0.68060493,16.0,17.0
16100.0,16.0,0.6615575,16.0,17.0
16110.0,16.0,0.67960095,16.0,17.0
16120.0,16.0,0.68328965,16.0,17.0
16130.0,16.0,0.6744851,16.0,17.0
16140.0,16.0,0.67743886,16.0,17.0
16150.0,16.0,0.6828067,16.0,17.0
16160.0,16.0,0.6094261,16.0,17.0
16170.0,16.0,0.6172593,16.0,17.0
16180.0,16.0,0.5602437,16.0,17.0
16190.0,16.0,0.5573248,16.0,17.0
16200.0,16.0,0.48979086,16.0,16.0
16210.0,16.0,0.37309974,16.0,16.0
16220.0,16.0,0.31623828,16.0,16.0
16230.0,16.0,0.27944663,16.0,16.0
16240.0,16.0,0.22398254,16.0,16.0
16250.0,16.0,0.22670272,16.0,16.0
16260.0,16.0,0.23753132,16.0,16.0
16270.0,16.0,0.2132001,16.0,16.0
16280.0,16.0,0.16963641,16.0,16.0
16290.0,16.0,0.18473166,16.0,16.0
16300.0,16.0,0.2457372,16.0,16.0
16310.0,16.0,0.35729206,16.0,16.0
16320.0,16.0,0.4437928,16.0,16.0
16330.0,16.0,0.49220428,16.0,16.0
16340.0,16.0,0.48906484,16.0,16.0
16350.0,16.0,0.49533775,16.0,16.0
16360.0,16.0,0.507298,16.0,16.0
16370.0,16.0,0.5171468,16.0,17.0
16380.0,16.0,0.51476485,16.0,17.0
16390.0,16.0,0.52607733,16.0,17.0
16400.0,16.0,0.5363153,16.0,17.0
16410.0,16.0,0.5556689,16.0,17.0
16420.0,16.0,0.5635745,16.0,17.0
16430.0,16.0,0.56823343,16.0,17.0
16440.0,16.0,0.53436166,16.0,17.0
16450.0,16.0,0.5193893,16.0,17.0
16460.0,16.0,0.5168416,16.0,17.0
16470.0,16.0,0.5233073,16.0,17.0
16480.0,16.0,0.53969043,16.0,17.0
16490.0,16.0,0.57946885,16.0,17.0
16500.0,16.0,0.57925314,16.0,17.0
16510.0,16.0,0.5721688,16.0,17.0
16520.0,16.0,0.5985103,16.0,17.0
16530.0,16.0,0.63183564,16.0,17.0
16540.0,16.0,0.66189015,16.0,17.0
16550.0,16.0,0.6320044,16.0,16.0
16560.0,16.0,0.52687764,16.0,16.0
16570.0,16.0,0.5433877,16.0,16.0
16580.0,16.0,0.55687875,16.0,16.0
16590.0,16.0,0.5819906,16.0,16.0
16600.0,16.0,0.64591485,16.0,16.0
16610.0,16.0,0.6906399,15.0,16.0
16620.0,16.0,0.6768484,15.0,16.0
16630.0,16.0,0.6650957,15.0,16.0
16640.0,16.0,0.68879634,15.0,16.0
16650.0,16.0,0.7140078,15.0,16.0
16660.0,16.0,0.7205427,15.0,16.0
16670.0,16.0,0.7005019,15.0,16.0
16680.0,16.0,0.67482764,15.0,16.0
16690.0,16.0,0.6621937,16.0,16.0
16700.0,16.0,0.66915697,16.0,16.0
16710.0,16.0,0.69309086,16.0,16.0
16720.0,16.0,0.68469936,16.0,17.0
16730.0,16.0,0.65282005,16.0,17.0
16740.0,16.0,0.60231155,16.0,16.0
16750.0,16.0,0.5704353,16.0,17.0
16760.0,16.0,0.6429809,16.0,17.0
16770.0,16.0,0.74497616,16.0,17.0
16780.0,16.0,0.78135806,16.0,16.0
16790.0,16.0,0.75658727,16.0,17.0
16800.0,16.0,0.75047976,16.0,17.0
16810.0,16.0,0.8118494,16.0,17.0
16820.0,16.0,0.86048484,16.0,17.0
16830.0,16.0,0.8486316,16.0,17.0
16840.0,16.0,0.8308284,16.0,17.0
16850.0,17.0,0.8509097,16.0,17.0
16860.0,17.0,0.8940777,16.0,17.0
16870.0,17.0,0.9246952,16.0,17.0
16880.0,17.0,0.92443734,16.0,17.0
16890.0,17.0,0.89335096,17.0,17.0
16900.0,17.0,0.5176284,17.0,17.0
16910.0,17.0,0.47965845,17.0,17.0
16920.0,17.0,0.49178952,17.0,17.0
16930.0,17.0,0.52163315,17.0,17.0
16940.0,17.0,0.48156357,17.0,17.0
16950.0,17.0,0.58727866,17.0,17.0
16960.0,17.0,0.7089591,17.0,18.0
16970.0,17.0,0.77688366,17.0,18.0
16980.0,18.0,0.7498798,17.0,18.0
16990.0,18.0,0.70984524,17.0,18.0
17000.0,18.0,0.6777094,17.0,18.0
17010.0,18.0,0.675354,17.0,18.0
17020.0,18.0,0.70601815,17.0,18.0
17030.0,18.0,0.7060732,17.0,18.0
17040.0,18.0,0.6709717,17.0,18.0
17050.0,18.0,0.67211956,17.0,18.0
17060.0,18.0,0.66989225,17.0,18.0
17070.0,18.0,0.6495153,17.0,18.0
17080.0,18.0,0.60187703,17.0,18.0
17090.0,18.0,0.6030038,17.0,18.0
17100.0,18.0,0.60135984,18.0,18.0
17110.0,18.0,0.5945952,18.0,18.0
17120.0,18.0,0.5984717,18.0,18.0
17130.0,18.0,0.602213,17.0,18.0
17140.0,18.0,0.59898216,18.0,18.0
17150.0,18.0,0.42449126,18.0,18.0
17160.0,18.0,0.4308148,18.0,18.0
17170.0,18.0,0.43140522,18.0,18.0
17180.0,18.0,0.43140522,18.0,18.0
17190.0,18.0,0.43140522,18.0,18.0
17200.0,18.0,0.4315508,18.0,18.0
17210.0,18.0,0.4315508,18.0,18.0
17220.0,18.0,0.4315508,18.0,18.0
17230.0,18.0,0.44545516,17.0,18.0
17240.0,18.0,0.4509368,17.0,18.0
17250.0,18.0,0.4509368,17.0,18.0
17260.0,18.0,0.46451586,17.0,18.0
17270.0,18.0,0.46451586,17.0,18.0
17280.0,18.0,0.46451586,17.0,18.0
17290.0,18.0,0.4846349,17.0,18.0
17300.0,18.0,0.50520396,17.0,18.0
17310.0,18.0,0.50497925,17.0,18.0
17320.0,17.0,0.51265585,17.0,18.0
17330.0,17.0,0.5653282,17.0,18.0
17340.0,17.0,0.56269354,17.0,18.0
17350.0,17.0,0.5295952,17.0,18.0
17360.0,17.0,0.610105,17.0,18.0
17370.0,17.0,0.59677804,17.0,18.0
17380.0,17.0,0.5762777,17.0,18.0
17390.0,17.0,0.66631454,17.0,18.0
17400.0,17.0,0.64453393,17.0,17.0
17410.0,17.0,0.64453393,17.0,17.0
17420.0,17.0,0.6895499,16.0,17.0
17430.0,17.0,0.66415364,16.0,17.0
17440.0,17.0,0.7462111,16.0,17.0
17450.0,16.0,0.785951,16.0,17.0
17460.0,16.0,0.78490704,16.0,17.0
17470.0,16.0,0.7099927,16.0,17.0
17480.0,16.0,0.69265944,16.0,17.0
17490.0,16.0,0.68954074,16.0,17.0
17500.0,16.0,0.6878516,16.0,17.0
17510.0,16.0,0.6845983,16.0,17.0
17520.0,16.0,0.68139863,16.0,17.0
17530.0,16.0,0.67814696,16.0,17.0
17540.0,16.0,0.6723777,16.0,17.0
17550.0,16.0,0.66877955,16.0,17.0
17560.0,16.0,0.66696423,16.0,17.0
17570.0,16.0,0.66330045,16.0,17.0
17580.0,16.0,0.659592,16.0,17.0
17590.0,16.0,0.6594174,16.0,17.0
17600.0,16.0,0.65891266,16.0,17.0
17610.0,16.0,0.6553079,16.0,17.0
17620.0,16.0,0.6559498,16.0,17.0
17630.0,16.0,0.66132617,16.0,17.0
17640.0,16.0,0.6633307,16.0,17.0
17650.0,16.0,0.6778278,16.0,17.0
17660.0,17.0,0.6907531,16.0,17.0
17670.0,17.0,0.6828397,16.0,17.0
17680.0,17.0,0.6753887,16.0,17.0
17690.0,17.0,0.66841537,16.0,17.0
17700.0,17.0,0.64556885,16.0,17.0
17710.0,17.0,0.5922205,16.0,17.0
17720.0,17.0,0.6246695,16.0,17.0
17730.0,17.0,0.60848844,17.0,17.0
17740.0,17.0,0.58185637,17.0,17.0
17750.0,17.0,0.5823159,17.0,17.0
17760.0,17.0,0.58175814,17.0,17.0
17770.0,17.0,0.5648804,17.0,17.0
17780.0,17.0,0.55762315,17.0,17.0
17790.0,17.0,0.5571917,17.0,17.0
17800.0,17.0,0.55594945,17.0,17.0
17810.0,17.0,0.5034149,17.0,17.0
17820.0,17.0,0.47911477,16.0,17.0
17830.0,17.0,0.48806167,16.0,17.0
17840.0,17.0,0.49254844,16.0,17.0
17850.0,17.0,0.4928935,16.0,17.0
17860.0,17.0,0.49594322,16.0,17.0
17870.0,17.0,0.5126832,16.0,17.0
17880.0,17.0,0.5794646,16.0,17.0
17890.0,17.0,0.6342208,16.0,17.0
17900.0,17.0,0.64367616,16.0,17.0
17910.0,17.0,0.6993681,16.0,17.0
17920.0,17.0,0.7978916,16.0,17.0
17930.0,17.0,0.8473488,16.0,17.0
17940.0,17.0,0.86605275,16.0,17.0
17950.0,17.0,0.9266882,16.0,17.0
17960.0,17.0,0.98723567,16.0,17.0
17970.0,16.0,1.0212536,16.0,17.0
17980.0,16.0,1.0685126,16.0,17.0
17990.0,16.0,1.1402241,16.0,17.0
18000.0,17.0,1.1981719,16.0,17.0
18010.0,17.0,1.2456126,16.0,17.0
18020.0,17.0,1.2994088,15.0,17.0
18030.0,17.0,1.3524438,15.0,17.0
18040.0,17.0,1.3844036,15.0,17.0
18050.0,17.0,1.3979986,15.0,17.0
18060.0,17.0,1.424421,15.0,17.0
18070.0,17.0,1.4608208,15.0,17.0
18080.0,17.0,1.4978889,15.0,17.0
18090.0,17.0,1.5042524,15.0,17.0
18100.0,17.0,1.5218843,14.0,17.0
18110.0,17.0,1.546076,14.0,17.0
18120.0,17.0,1.5807958,14.0,17.0
18130.0,17.0,1.5858043,14.0,17.0
18140.0,17.0,1.5887729,14.0,18.0
18150.0,17.0,1.5961261,14.0,18.0
18160.0,17.0,1.630678,14.0,18.0
18170.0,17.0,1.6556326,14.0,18.0
18180.0,17.0,1.6744884,14.0,18.0
18190.0,17.0,1.6563139,14.0,18.0
18200.0,17.0,1.6145664,14.0,18.0
18210.0,17.0,1.5811123,14.0,17.0
18220.0,17.0,1.5849413,14.0,17.0
18230.0,17.0,1.5493834,14.0,17.0
18240.0,17.0,1.495084,14.0,17.0
18250.0,17.0,1.4267222,14.0,17.0
18260.0,17.0,1.3797556,14.0,17.0
18270.0,17.0,1.3348783,14.0,17.0
18280.0,17.0,1.3226,14.0,17.0
18290.0,16.0,1.3531145,14.0,17.0
18300.0,16.0,1.3878675,14.0,17.0
18310.0,16.0,1.3811399,14.0,17.0
18320.0,15.0,1.1324397,14.0,16.0
18330.0,15.0,1.0246427,14.0,16.0
18340.0,15.0,0.9376179,14.0,16.0
18350.0,15.0,0.8571643,14.0,16.0
18360.0,15.0,0.83185655,14.0,16.0
18370.0,15.0,0.816896,14.0,16.0
18380.0,15.0,0.76949316,14.0,16.0
18390.0,15.0,0.86245394,14.0,16.0
18400.0,15.0,0.90457493,14.0,15.0
18410.0,15.0,0.8872517,14.0,15.0
18420.0,15.0,0.82949233,14.0,15.0
18430.0,15.0,0.7761283,14.0,15.0
18440.0,15.0,0.7757997,14.0,15.0
18450.0,14.0,0.73362374,14.0,15.0
18460.0,14.0,0.7336074,14.0,15.0
18470.0,14.0,0.73286813,14.0,15.0
18480.0,14.0,0.7232369,14.0,15.0
18490.0,14.0,0.7263392,14.0,15.0
18500.0,14.0,0.76746297,14.0,15.0
18510.0,14.0,0.7510323,14.0,15.0
18520.0,14.0,0.7507919,14.0,15.0
18530.0,14.0,0.7647018,14.0,15.0
18540.0,14.0,0.7818973,14.0,15.0
18550.0,14.0,0.7879938,14.0,15.0
18560.0,14.0,0.78502524,14.0,15.0
18570.0,14.0,0.782018,14.0,15.0
18580.0,14.0,0.7266336,14.0,15.0
18590.0,14.0,0.7172777,14.0,15.0
18600.0,14.0,0.7071175,14.0,15.0
18610.0,14.0,0.7202704,14.0,15.0
18620.0,14.0,0.7218794,14.0,15.0
18630.0,14.0,0.68950474,14.0,15.0
18640.0,14.0,0.7485803,14.0,15.0
18650.0,14.0,0.7063947,14.0,15.0
18660.0,14.0,0.66504663,14.0,15.0
18670.0,14.0,0.7569459,14.0,15.0
18680.0,14.0,0.76833045,14.0,15.0
18690.0,14.0,0.7877534,14.0,15.0
18700.0,14.0,0.80423224,14.0,15.0
18710.0,14.0,0.80427295,14.0,15.0
18720.0,14.0,0.804406,14.0,15.0
18730.0,14.0,0.8063112,14.0,15.0
18740.0,14.0,0.8082026,14.0,15.0
18750.0,14.0,0.81008065,14.0,15.0
18760.0,14.0,0.81075555,14.0,15.0
18770.0,14.0,0.69527614,14.0,15.0
18780.0,15.0,0.6089453,14.0,15.0
18790.0,14.0,0.97731864,13.0,15.0
18800.0,14.0,1.1677666,13.0,15.0
18810.0,14.0,1.1718639,13.0,15.0
18820.0,14.0,1.1685663,13.0,15.0
18830.0,14.0,1.1625779,13.0,15.0
18840.0,14.0,1.1615434,13.0,15.0
18850.0,14.0,1.1285547,13.0,15.0
18860.0,14.0,1.0448996,14.0,15.0
18870.0,14.0,0.9847522,14.0,15.0
18880.0,14.0,0.9971927,14.0,15.0
18890.0,14.0,1.0504398,14.0,15.0
18900.0,14.0,1.0827255,14.0,15.0
18910.0,14.0,1.123585,14.0,15.0
18920.0,14.0,1.147316,14.0,16.0
18930.0,14.0,1.115588,14.0,16.0
18940.0,14.0,1.0539885,14.0,15.0
18950.0,15.0,0.98661155,14.0,15.0
18960.0,15.0,0.98152333,14.0,15.0
18970.0,15.0,0.98599076,14.0,15.0
18980.0,15.0,0.94610643,14.0,15.0
18990.0,15.0,0.90334266,14.0,15.0
19000.0,15.0,0.9454233,14.0,15.75
19010.0,15.0,0.96207416,14.0,15.0
19020.0,15.0,0.9463272,14.0,16.0
19030.0,15.0,0.91634446,14.0,16.0
19040.0,14.0,0.9634309,14.0,15.0
19050.0,14.0,1.0908144,13.0,15.0
19060.0,14.0,1.0925264,13.0,15.0
19070.0,14.0,1.0702081,13.0,15.0
19080.0,14.0,1.0702081,13.0,15.0
19090.0,14.0,1.0702081,13.0,15.0
19100.0,14.0,0.96020615,14.0,15.0
19110.0,14.0,0.96020615,14.0,15.0
19120.0,14.0,0.95914334,14.0,15.0
19130.0,14.0,0.9265898,14.0,15.0
19140.0,14.0,0.9265898,14.0,15.0
19150.0,14.0,0.9265898,14.0,15.0
19160.0,14.0,0.7952831,14.0,15.0
19170.0,14.0,0.7952831,14.0,15.0
19180.0,14.0,0.7952831,14.0,15.0
19190.0,15.0,0.80769885,14.0,15.0
19200.0,15.0,0.80769885,14.0,15.0
19210.0,15.0,0.80769885,14.0,15.0
19220.0,15.0,0.8313613,15.0,15.0
19230.0,15.0,0.8313613,15.0,15.0
19240.0,15.0,0.8313613,15.0,15.0
19250.0,15.0,0.8997293,15.0,16.0
19260.0,15.0,1.100222,15.0,16.0
19270.0,15.0,1.0905931,15.0,16.0
19280.0,15.0,1.1443303,15.0,16.0
19290.0,15.0,1.1817014,15.0,16.0
19300.0,15.0,1.1833959,15.0,16.0
19310.0,15.0,1.2033845,15.0,16.0
19320.0,15.0,1.2283086,15.0,16.0
19330.0,16.0,1.3390753,15.0,16.0
19340.0,16.0,1.3245932,15.0,16.0
19350.0,16.0,1.2985665,15.0,16.0
19360.0,16.0,1.2924861,15.0,17.0
19370.0,16.0,1.2967372,15.0,17.0
19380.0,16.0,1.331276,15.0,17.0
19390.0,16.0,1.3224862,15.0,17.0
19400.0,16.0,1.3664504,16.0,17.0
19410.0,16.0,1.3022455,16.0,17.0
19420.0,16.0,1.234164,16.0,17.0
19430.0,16.0,1.2391988,16.0,17.0
19440.0,16.0,1.2143376,16.0,17.0
19450.0,16.0,1.2047358,16.0,17.0
19460.0,16.0,1.2171773,16.0,17.0
19470.0,16.0,1.2716691,16.0,17.0
19480.0,16.0,1.2650834,16.0,17.0
19490.0,16.0,1.333369,16.0,17.0
19500.0,16.0,1.3967336,16.0,17.0
19510.0,16.0,1.4227989,16.0,17.0
19520.0,16.0,1.429091,16.0,17.0
19530.0,16.0,1.3740816,16.0,17.0
19540.0,16.0,1.3498383,16.0,17.0
19550.0,16.0,1.4333893,16.0,17.0
19560.0,16.0,1.489899,16.0,17.0
19570.0,16.0,1.5169966,16.0,17.0
19580.0,16.0,1.5197108,16.0,17.0
19590.0,16.0,1.535506,16.0,17.0
19600.0,16.0,1.5813508,16.0,17.0
19610.0,16.0,1.6198027,16.0,18.0
19620.0,16.0,1.7430245,16.0,18.0
19630.0,16.0,1.7179093,16.0,18.0
19640.0,16.0,1.7024758,16.0,18.0
19650.0,16.0,1.7000917,16.0,18.0
19660.0,16.0,1.7656358,16.0,17.0
19670.0,16.0,1.7691475,16.0,17.0
19680.0,16.0,1.8247305,16.0,17.0
19690.0,16.0,1.7925808,15.0,17.0
19700.0,16.0,1.8116193,15.0,18.0
19710.0,16.0,1.890665,15.0,18.0
19720.0,16.0,1.8700541,16.0,18.0
19730.0,16.0,1.8396567,16.0,18.0
19740.0,16.0,1.9132797,16.0,18.0
19750.0,16.0,2.0324373,15.0,18.0
19760.0,16.0,2.0460167,15.0,18.0
19770.0,16.0,2.0026748,15.0,18.0
19780.0,16.0,2.0235026,15.0,18.0
19790.0,16.0,2.0219429,15.0,18.0
19800.0,16.0,2.0654764,15.0,18.0
19810.0,16.0,2.116418,15.0,18.0
19820.0,16.0,2.1509392,15.0,19.0
19830.0,16.0,2.052495,15.0,19.0
19840.0,16.0,2.1003945,15.0,19.0
19850.0,16.0,2.1249938,15.0,19.0
19860.0,16.0,1.9941883,15.0,17.0
19870.0,16.0,1.9852,15.0,17.0
19880.0,16.0,1.9705445,15.0,17.0
19890.0,16.0,1.9760597,15.0,17.0
19900.0,16.0,1.999677,15.0,17.0
19910.0,16.0,1.9894286,15.0,17.0
19920.0,16.0,1.9894285,15.0,17.0
19930.0,16.0,2.04111,15.0,17.0
19940.0,16.0,2.1258452,15.0,17.0
19950.0,16.0,2.1299481,15.0,17.0
19960.0,16.0,2.108657,15.0,17.0
19970.0,16.0,2.1602829,15.0,17.0
19980.0,16.0,2.1422887,15.0,17.0
19990.0,16.0,2.1323566,15.0,17.0
20000.0,16.0,2.0867198,15.0,17.0
20010.0,16.0,2.071985,15.0,17.0
20020.0,16.0,2.0318532,16.0,17.0
20030.0,16.0,2.0324574,16.0,17.0
20040.0,16.0,2.0326731,16.0,17.0
20050.0,16.0,2.007674,16.0,17.0
20060.0,16.0,2.0078154,16.0,17.0
20070.0,16.0,2.0090353,16.0,18.0
20080.0,16.0,1.9208214,16.0,18.0
20090.0,16.0,2.007144,16.0,18.0
20100.0,16.0,1.9914755,16.0,18.0
20110.0,16.0,2.0107026,16.0,18.0
20120.0,16.0,2.073282,16.0,18.0
20130.0,16.0,2.007144,16.0,18.0
20140.0,16.0,2.0083444,16.0,18.0
20150.0,16.0,1.9981269,16.0,18.0
20160.0,16.0,1.9957631,16.0,18.0
20170.0,16.0,1.9965061,16.0,18.0
20180.0,16.0,1.9915587,16.0,18.0
20190.0,16.0,1.9587796,16.0,18.0
20200.0,16.0,1.9594663,16.0,18.0
20210.0,17.0,1.9330312,16.0,18.0
20220.0,17.0,1.9273024,16.0,18.0
20230.0,17.0,1.9546618,16.0,18.0
20240.0,17.0,1.8161384,16.0,18.0
20250.0,17.0,1.8167155,16.0,18.0
20260.0,17.0,1.7756488,16.0,18.0
20270.0,17.0,1.757851,16.0,18.0
20280.0,17.0,1.7520871,16.0,18.0
20290.0,17.0,1.7803053,16.0,18.0
20300.0,17.0,1.6364596,17.0,18.0
20310.0,17.0,1.5460112,17.0,18.0
20320.0,17.0,1.5459377,17.0,18.0
20330.0,17.0,1.4741275,17.0,18.0
20340.0,17.0,1.4740019,17.0,18.0
20350.0,17.0,1.4061508,17.0,18.0
20360.0,17.0,1.4203843,17.0,18.0
20370.0,17.0,1.2698767,17.0,18.0
20380.0,17.0,1.2329959,17.0,18.0
20390.0,17.0,1.2324367,17.0,18.0
20400.0,17.0,1.1534175,17.0,18.0
20410.0,18.0,1.1296844,17.0,18.0
20420.0,18.0,1.1250712,17.0,18.0
20430.0,18.0,1.0898236,17.0,18.0
20440.0,18.0,1.0552753,17.0,18.0
20450.0,18.0,0.899167,18.0,18.0
20460.0,18.0,0.78183913,18.0,18.0
20470.0,18.0,0.73504585,18.0,18.0
20480.0,18.0,0.69080937,18.0,18.0
20490.0,18.0,0.69741106,18.0,18.0
20500.0,18.0,0.71168035,18.0,18.0
20510.0,18.0,0.7282438,18.0,19.0
20520.0,18.0,0.74657184,18.0,19.0
20530.0,18.0,0.7687192,18.0,19.0
20540.0,18.0,0.7714144,18.0,19.0
20550.0,18.0,0.77353466,18.0,19.0
20560.0,18.0,0.77361274,18.0,19.0
20570.0,19.0,0.76174605,18.0,19.0
20580.0,19.0,0.73027533,18.0,19.0
20590.0,19.0,0.7482997,18.0,19.0
20600.0,19.0,0.6971625,18.0,19.0
20610.0,19.0,0.68809634,18.0,19.0
20620.0,19.0,0.68770826,18.0,19.0
20630.0,19.0,0.68809634,18.0,19.0
20640.0,19.0,0.69192463,18.0,19.0
20650.0,19.0,0.73348546,18.0,19.0
20660.0,19.0,0.74670583,18.0,19.0
20670.0,19.0,0.7489024,18.0,19.0
20680.0,19.0,0.74670583,18.0,19.0
20690.0,19.0,0.8792845,18.0,19.0
20700.0,19.0,0.92480344,18.0,19.0
20710.0,19.0,0.93355036,18.0,19.0
20720.0,19.0,0.8318458,18.0,19.0
20730.0,19.0,0.7555875,18.0,19.0
20740.0,19.0,0.7351473,18.0,19.0
20750.0,19.0,0.7351473,18.0,19.0
20760.0,19.0,0.72714365,18.0,19.0
20770.0,19.0,0.7218386,18.0,19.0
20780.0,19.0,0.7355205,18.0,19.0
20790.0,19.0,0.75634015,18.0,19.0
20800.0,19.0,0.76288563,18.0,19.0
20810.0,19.0,0.76803225,18.0,19.0
20820.0,19.0,0.7467323,18.0,19.0
20830.0,19.0,0.76288897,18.0,19.0
20840.0,19.0,0.76331824,18.0,19.0
20850.0,18.0,0.89607555,18.0,19.0
20860.0,18.0,1.0029447,18.0,19.0
20870.0,18.0,0.94925547,18.0,19.0
20880.0,18.0,0.86908275,18.0,19.0
20890.0,18.0,0.9843749,18.0,19.0
20900.0,18.0,1.0495223,18.0,19.0
20910.0,18.0,1.0505435,18.0,19.0
20920.0,18.0,1.0563906,18.0,19.0
20930.0,18.0,1.1133606,18.0,19.0
20940.0,18.0,1.0953655,18.0,19.0
20950.0,18.0,1.0067263,18.0,19.0
20960.0,18.0,1.0222745,18.0,19.0
20970.0,18.0,1.0401132,18.0,19.0
20980.0,18.0,1.007985,18.0,19.0
20990.0,18.0,0.9455175,18.0,19.0
21000.0,18.0,1.0248197,18.0,19.0
21010.0,18.0,1.0898927,18.0,19.0
21020.0,18.0,1.0951409,18.0,19.0
21030.0,18.0,1.0833673,18.0,19.0
21040.0,18.0,1.0402634,18.0,19.0
21050.0,18.0,0.98269385,18.0,19.0
21060.0,18.0,0.9049529,18.0,19.0
21070.0,18.0,0.9034377,18.0,19.0
21080.0,18.0,0.8678644,18.0,19.0
21090.0,18.0,0.8369328,18.0,19.0
21100.0,18.0,0.8064992,18.0,19.0
21110.0,18.0,0.79484206,18.0,19.0
21120.0,18.0,0.7421791,18.0,19.0
21130.0,18.0,0.6343865,18.0,19.0
21140.0,18.0,0.51600116,18.0,19.0
21150.0,18.0,0.484937,18.0,19.0
21160.0,18.0,0.4904899,18.0,19.0
21170.0,18.0,0.49569014,18.0,19.0
21180.0,19.0,0.4999981,18.0,19.0
21190.0,19.0,0.49481285,18.0,19.0
21200.0,19.0,0.47524565,18.0,19.0
21210.0,19.0,0.4492549,18.0,19.0
21220.0,19.0,0.43321553,18.5,19.0
21230.0,19.0,0.43642816,18.0,19.0
21240.0,19.0,0.45748788,18.0,19.0
21250.0,19.0,0.467839,18.0,19.0
21260.0,19.0,0.5505112,19.0,19.0
21270.0,19.0,0.6116069,19.0,19.0
21280.0,19.0,0.5835755,19.0,19.0
21290.0,19.0,0.56009245,19.0,19.0
21300.0,19.0,0.55304825,19.0,19.0
21310.0,19.0,0.55304825,19.0,19.0
21320.0,19.0,0.53184193,19.0,19.0
21330.0,19.0,0.502789,19.0,19.0
21340.0,19.0,0.47152233,19.0,19.0
21350.0,19.0,0.4410594,19.0,19.0
21360.0,19.0,0.42451933,19.0,19.0
21370.0,19.0,0.42929637,19.0,19.0
21380.0,19.0,0.44158843,19.0,19.5
21390.0,19.0,0.4926999,19.0,19.75
21400.0,19.0,0.54052263,19.0,19.5
21410.0,19.0,0.61608523,19.0,20.0
21420.0,19.0,0.6912391,19.0,20.0
21430.0,19.0,0.7146798,19.0,20.0
21440.0,19.0,0.7233377,19.0,20.0
21450.0,19.0,0.7831242,19.0,20.0
21460.0,19.0,0.8365417,19.0,20.0
21470.0,19.0,0.843544,19.0,20.0
21480.0,19.0,0.82619613,19.0,20.0
21490.0,19.0,0.8584591,19.0,20.0
21500.0,19.0,0.8953336,19.0,20.0
21510.0,19.0,0.926059,19.0,20.0
21520.0,19.0,0.93683004,19.0,20.0
21530.0,19.0,0.9510971,19.0,20.0
21540.0,19.0,0.9624509,19.0,20.0
21550.0,19.0,0.9999624,19.0,20.0
21560.0,19.0,1.0144628,19.0,20.0
21570.0,20.0,1.0309434,19.0,20.0
21580.0,20.0,1.0261652,19.0,20.0
21590.0,20.0,1.0176765,19.0,21.0
21600.0,20.0,1.0332247,19.0,21.0
21610.0,20.0,1.0749989,19.0,21.0
21620.0,20.0,1.1696516,19.0,21.0
21630.0,20.0,1.236385,19.0,21.0
21640.0,20.0,1.221542,19.0,21.0
21650.0,20.0,1.1493742,19.0,21.0
21660.0,20.0,1.1848259,19.0,21.0
21670.0,20.0,1.2638708,19.0,21.0
21680.0,20.0,1.2769575,19.0,21.0
21690.0,20.0,1.317684,18.0,21.0
21700.0,20.0,1.307076,18.0,21.0
21710.0,20.0,1.2758415,19.0,21.0
21720.0,20.0,1.2799846,19.0,21.0
21730.0,20.0,1.280611,19.0,21.0
21740.0,20.0,1.3110015,19.0,21.0
21750.0,20.0,1.3232023,19.0,21.0
21760.0,20.0,1.2256106,19.0,20.0
21770.0,20.0,1.0974497,19.0,20.0
21780.0,20.0,1.0857141,19.0,20.0
21790.0,20.0,1.0985956,19.0,20.0
21800.0,20.0,1.0985571,19.0,20.0
21810.0,20.0,1.1621112,19.0,20.0
21820.0,20.0,1.178485,19.0,20.0
21830.0,20.0,1.0851977,19.0,20.0
21840.0,20.0,0.99053395,19.0,20.0
21850.0,20.0,1.0172086,19.0,20.0
21860.0,20.0,1.0719974,19.0,20.0
21870.0,20.0,1.1829839,19.0,20.0
21880.0,20.0,1.3300557,19.0,20.0
21890.0,20.0,1.3802942,19.0,20.0
21900.0,20.0,1.2709296,19.0,20.0
21910.0,20.0,1.2227708,19.0,20.0
21920.0,20.0,1.3649821,19.0,20.0
21930.0,20.0,1.4603035,19.0,20.0
21940.0,20.0,1.3688961,19.0,20.0
21950.0,20.0,1.2445184,19.0,21.0
21960.0,20.0,1.3442318,19.0,20.0
21970.0,20.0,1.4359488,19.0,20.0
21980.0,20.0,1.4402107,19.0,20.0
21990.0,20.0,1.4605703,19.0,21.0
22000.0,20.0,1.502903,19.0,21.0
22010.0,20.0,1.4673238,19.0,21.0
22020.0,20.0,1.3851156,19.0,21.0
22030.0,20.0,1.378172,19.0,21.0
22040.0,20.0,1.3753339,19.0,21.0
22050.0,20.0,1.4278024,19.0,21.0
22060.0,20.0,1.497628,19.0,21.0
22070.0,20.0,1.4913526,19.0,21.0
22080.0,20.0,1.3787726,19.0,21.0
22090.0,20.0,1.3443466,19.0,21.0
22100.0,20.0,1.406922,19.0,21.0
22110.0,20.0,1.4243166,19.0,21.0
22120.0,20.0,1.5268203,19.0,21.0
22130.0,20.0,1.6521384,19.0,21.0
22140.0,21.0,1.6169994,20.0,21.0
22150.0,21.0,1.5195477,20.0,21.0
22160.0,21.0,1.573908,19.0,22.0
22170.0,21.0,1.6156946,19.0,22.0
22180.0,21.0,1.6441667,19.0,22.0
22190.0,21.0,1.660602,19.0,22.0
22200.0,21.0,1.6381506,19.0,22.0
22210.0,21.0,1.5215234,20.0,22.0
22220.0,21.0,1.4243585,20.0,22.0
22230.0,22.0,1.4752111,20.0,22.0
22240.0,22.0,1.811693,20.0,22.0
22250.0,22.0,1.9079183,20.0,22.0
22260.0,22.0,1.8787986,20.0,23.0
22270.0,22.0,1.7563536,20.0,23.0
22280.0,22.0,1.753144,20.0,23.0
22290.0,22.0,1.7671388,20.0,23.0
22300.0,22.0,1.7527155,20.0,23.0
22310.0,22.0,1.7386354,20.0,23.0
22320.0,22.0,1.7368195,20.0,23.0
22330.0,22.0,1.6943363,20.0,23.0
22340.0,23.0,1.6160362,21.0,23.0
22350.0,23.0,1.669896,21.0,23.0
22360.0,23.0,1.7124645,21.0,23.0
22370.0,23.0,1.6570147,21.0,23.0
22380.0,23.0,1.4704255,22.0,23.0
22390.0,23.0,1.4224012,22.0,23.0
22400.0,23.0,1.4307971,22.0,23.0
22410.0,23.0,1.4690694,22.0,24.0
22420.0,23.0,1.682641,22.0,24.0
22430.0,23.0,1.8140776,22.0,24.0
22440.0,23.0,1.7930363,22.0,24.0
22450.0,23.0,1.7480804,22.0,23.0
22460.0,23.0,1.7937543,21.0,23.0
22470.0,23.0,1.8107724,21.0,23.0
22480.0,23.0,1.7612014,21.0,23.0
22490.0,23.0,1.6934953,21.0,23.0
22500.0,23.0,1.6515582,21.0,23.0
22510.0,23.0,1.6072237,21.0,23.0
22520.0,23.0,1.591352,21.0,23.0
22530.0,23.0,1.5489854,21.0,23.0
22540.0,22.0,1.4836022,21.0,23.0
22550.0,22.0,1.4087822,21.0,23.0
22560.0,22.0,1.3781083,21.0,23.0
22570.0,22.0,1.320882,21.0,23.0
22580.0,22.0,1.284949,21.0,23.0
22590.0,22.0,1.2655002,21.0,23.0
22600.0,22.0,1.2516913,21.0,23.0
22610.0,22.0,1.6398537,20.0,23.0
22620.0,22.0,1.5130496,21.0,23.0
22630.0,22.0,1.5006601,21.0,23.0
22640.0,22.0,1.507983,21.0,23.0
22650.0,22.0,1.5224344,21.0,23.0
22660.0,22.0,1.5186442,21.0,23.0
22670.0,22.0,1.5142907,21.0,23.0
22680.0,22.0,1.5052509,21.0,23.0
22690.0,22.0,1.4888428,21.0,23.0
22700.0,22.0,1.4939214,21.0,23.0
22710.0,22.0,1.4218557,21.0,23.0
22720.0,22.0,1.3412497,21.0,23.0
22730.0,22.0,1.2310063,21.0,23.0
22740.0,22.0,1.0666407,21.0,23.0
22750.0,22.0,1.081107,21.0,23.0
22760.0,22.0,1.0908883,21.0,23.0
22770.0,22.0,1.0694785,21.0,23.0
22780.0,22.0,0.9981436,21.0,22.0
22790.0,22.0,0.8108949,21.0,22.0
22800.0,22.0,0.7443316,21.0,22.0
22810.0,22.0,0.7297462,21.0,22.0
22820.0,22.0,0.99726194,21.0,22.0
22830.0,21.0,0.85825115,21.0,22.0
22840.0,21.0,1.0455766,21.0,22.0
22850.0,21.0,0.87951607,21.0,22.0
22860.0,21.0,0.8782934,21.0,22.0
22870.0,21.0,0.8922236,20.0,22.0
22880.0,21.0,0.85595834,20.0,22.0
22890.0,21.0,0.80061567,20.0,22.0
22900.0,21.0,0.79866,20.0,22.0
22910.0,21.0,0.8562084,20.0,22.0
22920.0,21.0,0.93426853,20.0,21.0
22930.0,21.0,0.9971573,20.0,21.0
22940.0,21.0,1.0183927,20.0,21.0
22950.0,21.0,1.0071496,20.0,21.0
22960.0,20.0,1.0030854,20.0,21.0
22970.0,21.0,1.3380557,20.0,23.0
22980.0,21.0,1.3382008,20.0,23.0
22990.0,21.0,1.3369566,20.0,23.0
23000.0,21.0,1.3087474,20.0,23.0
23010.0,21.0,1.3068397,20.0,23.0
23020.0,21.0,1.239692,20.0,22.0
23030.0,21.0,1.1028669,20.0,22.0
23040.0,21.0,0.94474983,20.0,22.0
23050.0,21.0,0.8180462,20.0,22.0
23060.0,21.0,0.78756577,21.0,22.0
23070.0,21.0,0.7482842,21.0,22.0
23080.0,21.0,0.75993186,20.0,22.0
23090.0,21.0,0.66678095,20.0,21.0
23100.0,21.0,0.57180905,20.0,21.0
23110.0,21.0,0.47951818,20.0,21.0
23120.0,21.0,0.49262065,20.0,21.0
23130.0,20.0,0.49961883,20.0,21.0
23140.0,20.0,0.48096824,20.0,21.0
23150.0,20.0,0.45059282,20.0,21.0
23160.0,20.0,0.41838726,20.0,20.0
23170.0,20.0,0.4190406,20.0,20.0
23180.0,20.0,0.57811946,20.0,20.0
23190.0,20.0,0.7013637,19.0,20.0
23200.0,20.0,0.76611847,19.0,20.0
23210.0,20.0,0.86597604,19.0,20.0
23220.0,19.0,0.80471534,19.0,20.0
23230.0,19.0,0.85474086,19.0,20.0
23240.0,19.0,0.9885042,19.0,20.0
23250.0,19.0,1.0413836,19.0,20.0
23260.0,19.0,1.0410029,19.0,20.0
23270.0,19.0,1.025132,19.0,20.0
23280.0,19.0,1.0372926,19.0,20.0
23290.0,19.0,1.1700969,18.0,20.0
23300.0,19.0,1.3131138,18.0,21.0
23310.0,19.0,1.3598622,18.0,21.0
23320.0,19.0,1.3516417,18.0,21.0
23330.0,19.0,1.2913524,18.0,21.0
23340.0,19.0,1.3241446,18.0,21.0
23350.0,19.0,1.3749384,18.0,21.0
23360.0,19.0,1.3753283,18.0,21.0
23370.0,19.0,1.3716779,18.0,21.0
23380.0,19.0,1.404224,18.0,21.0
23390.0,19.0,1.3642701,18.0,20.25
23400.0,19.0,1.363727,18.0,20.0
23410.0,19.0,1.3628155,18.0,20.0
23420.0,19.0,1.3624674,18.0,20.0
23430.0,19.0,1.3521582,18.0,20.0
23440.0,19.0,1.3598145,18.0,20.0
23450.0,19.0,1.355274,18.0,20.0
23460.0,19.0,1.3285272,18.0,20.0
23470.0,19.0,1.296381,18.0,21.0
23480.0,19.0,1.2899523,18.0,21.0
23490.0,19.0,1.2766092,18.0,21.0
23500.0,19.0,1.2390001,19.0,21.0
23510.0,19.0,1.2099487,19.0,21.0
23520.0,19.0,1.2481276,19.0,20.0
23530.0,19.0,1.2771077,19.0,20.0
23540.0,19.0,1.2483946,19.0,20.25
23550.0,19.0,1.1332409,19.0,21.0
23560.0,19.0,1.0936882,19.0,21.0
23570.0,19.0,1.0902171,19.0,21.0
23580.0,19.0,1.083904,19.0,21.0
23590.0,19.0,1.0815108,19.0,21.0
23600.0,19.0,1.08097,19.0,21.0
23610.0,19.0,1.0507131,19.0,21.0
23620.0,20.0,0.9612063,19.0,21.0
23630.0,20.0,0.9890995,19.0,20.0
23640.0,20.0,0.97032773,19.0,20.0
23650.0,20.0,0.9057555,19.0,20.0
23660.0,20.0,0.76364166,19.0,20.0
23670.0,20.0,0.67426777,19.0,20.0
23680.0,20.0,0.60179764,19.0,20.0
23690.0,20.0,0.6113078,19.0,20.0
23700.0,20.0,0.67117435,20.0,20.0
23710.0,20.0,0.70878345,20.0,21.0
23720.0,20.0,0.6693831,20.0,21.0
23730.0,20.0,0.62829196,20.0,20.0
23740.0,20.0,0.57653046,20.0,20.0
23750.0,20.0,0.51303,20.0,20.0
23760.0,20.0,0.44465956,20.0,20.0
23770.0,20.0,0.38188303,20.0,20.0
23780.0,20.0,0.32592267,20.0,20.0
23790.0,20.0,0.32793084,20.0,20.0
23800.0,20.0,0.33186996,20.0,20.0
23810.0,20.0,0.27935493,20.0,20.0
23820.0,20.0,0.47593006,19.0,20.0
23830.0,20.0,0.41243356,20.0,20.0
23840.0,20.0,0.26616186,20.0,20.0
23850.0,20.0,0.42747685,20.0,20.0
23860.0,20.0,0.47058824,20.0,20.0
23870.0,20.0,0.4693477,20.0,20.0
23880.0,20.0,0.469726,20.0,20.0
23890.0,20.0,0.7039996,20.0,21.0
23900.0,20.0,0.7009514,20.0,21.0
23910.0,20.0,0.70379126,20.0,21.0
23920.0,20.0,0.7042735,20.0,21.0
23930.0,20.0,0.70358074,20.0,21.0
23940.0,20.0,0.70406014,20.0,21.0
23950.0,20.0,0.70336807,20.0,21.0
23960.0,20.0,0.7038445,20.0,21.0
23970.0,20.0,0.7031532,20.0,21.0
23980.0,20.0,0.7036268,20.0,21.0
23990.0,20.0,0.7000864,20.0,21.0
24000.0,20.0,0.70340693,20.0,21.0
24010.0,20.0,0.88374144,19.0,21.0
24020.0,20.0,0.8474642,19.0,21.0
24030.0,20.0,0.81059915,20.0,21.0
24040.0,20.0,0.90327185,20.0,21.0
24050.0,20.0,0.9817205,20.0,21.0
24060.0,20.0,1.0188601,20.0,21.0
24070.0,20.0,1.0331389,20.0,21.0
24080.0,20.0,1.023066,20.0,21.0
24090.0,20.0,1.0089599,20.0,22.0
24100.0,20.0,0.9999875,20.0,22.0
24110.0,20.0,0.987433,20.0,22.0
24120.0,20.0,0.99032116,20.0,22.0
24130.0,20.0,1.0589235,20.0,22.0
24140.0,20.0,1.1044585,20.0,22.0
24150.0,21.0,1.146462,20.0,22.0
24160.0,21.0,1.1839219,20.0,22.0
24170.0,21.0,1.1919726,20.0,22.0
24180.0,20.0,1.367182,20.0,23.0
24190.0,20.0,1.3736222,20.0,23.0
24200.0,20.0,1.3659809,20.0,23.0
24210.0,21.0,1.3679799,20.0,22.5
24220.0,21.0,1.3922539,20.0,22.0
24230.0,21.0,1.380078,20.0,23.0
24240.0,21.0,1.3647054,20.0,23.0
24250.0,21.0,1.3573618,20.0,23.0
24260.0,21.0,1.3142658,20.0,23.0
24270.0,21.0,1.2508564,20.0,23.0
24280.0,21.0,1.19991,20.0,23.0
24290.0,21.0,1.1706072,20.0,22.0
24300.0,21.0,1.1573901,20.0,22.0
24310.0,21.0,1.1753329,20.0,22.0
24320.0,21.0,1.2108396,20.0,22.0
24330.0,21.0,1.2564042,20.0,22.0
24340.0,21.0,1.248374,20.0,22.0
24350.0,21.0,1.2105377,20.0,22.0
24360.0,21.0,1.2108843,20.0,22.0
24370.0,21.0,1.254515,20.0,22.0
24380.0,21.0,1.2846193,20.0,22.0
24390.0,21.0,1.2917973,20.0,22.0
24400.0,21.0,1.2390436,20.0,22.0
24410.0,21.0,1.15277,20.0,22.0
24420.0,21.0,1.1058213,20.0,22.0
24430.0,21.0,1.0812738,20.0,21.0
24440.0,21.0,1.0699891,20.0,21.0
24450.0,21.0,1.0629188,20.0,21.0
24460.0,21.0,1.0834206,20.0,21.0
24470.0,20.0,1.3900068,19.0,22.0
24480.0,20.0,1.4279912,19.0,21.0
24490.0,20.0,1.4978905,19.0,21.0
24500.0,20.0,1.5677849,19.0,21.0
24510.0,20.0,1.5667853,19.0,21.0
24520.0,20.0,1.5350572,19.0,22.0
24530.0,20.0,1.4614291,19.0,22.0
24540.0,20.0,1.4387213,19.0,22.0
24550.0,20.0,1.4170264,19.0,22.0
24560.0,20.0,1.4547575,19.0,22.0
24570.0,20.0,1.4671061,19.0,22.0
24580.0,20.0,1.4601588,19.0,22.0
24590.0,20.0,1.4716655,19.0,22.0
24600.0,20.0,1.64849,19.0,22.0
24610.0,20.0,1.6642789,19.0,22.0
24620.0,20.0,1.6756727,20.0,22.0
24630.0,20.0,1.6935595,20.0,22.0
24640.0,20.0,1.6931674,20.0,22.0
24650.0,21.0,1.6558908,20.0,22.0
24660.0,21.0,1.598429,20.0,22.0
24670.0,21.0,1.5442277,20.0,22.0
24680.0,21.0,1.5259095,20.0,22.0
24690.0,21.0,1.4956937,20.0,22.0
24700.0,21.0,1.4421786,20.0,23.0
24710.0,21.0,1.386879,21.0,23.0
24720.0,21.0,1.3500525,21.0,22.0
24730.0,21.0,1.3552326,21.0,23.0
24740.0,21.0,1.3627775,21.0,23.0
24750.0,21.0,1.2641331,21.0,23.0
24760.0,22.0,1.1272916,21.0,23.0
24770.0,22.0,1.0690607,21.0,23.0
24780.0,22.0,1.0284992,21.0,23.0
24790.0,22.0,0.97493076,21.0,23.0
24800.0,22.0,0.94906086,21.0,23.0
24810.0,22.0,0.9369733,22.0,23.0
24820.0,22.0,0.9004147,22.0,23.0
24830.0,22.0,0.8834525,22.0,23.0
24840.0,23.0,0.8557359,22.0,23.0
24850.0,23.0,0.7958921,22.0,23.0
24860.0,23.0,0.7377547,22.0,23.0
24870.0,23.0,0.7105951,22.0,23.0
24880.0,23.0,0.72808766,22.0,23.0
24890.0,23.0,0.7544347,22.0,23.0
24900.0,23.0,0.7477712,22.0,23.0
24910.0,23.0,0.7181567,22.0,23.0
24920.0,23.0,0.8656199,22.0,23.0
24930.0,23.0,0.8728688,22.0,23.0
24940.0,23.0,0.87176543,22.0,23.0
24950.0,22.0,0.90095,22.0,23.0
24960.0,22.0,0.96022445,22.0,23.0
24970.0,23.0,0.9717715,22.0,23.0
24980.0,22.0,0.9812319,22.0,23.0
24990.0,22.0,0.98559165,22.0,23.0
25000.0,22.0,0.9797894,22.0,23.0
25010.0,22.0,1.0123951,22.0,23.0
25020.0,22.0,1.0181475,22.0,23.0
25030.0,22.0,0.9879757,22.0,23.0
25040.0,22.0,0.9921648,22.0,23.0
25050.0,22.0,0.98630166,22.0,23.0
25060.0,22.0,0.97218275,22.0,23.0
25070.0,22.0,0.913838,22.0,23.0
25080.0,22.0,0.8659706,22.0,23.0
25090.0,22.0,0.8159504,22.0,23.0
25100.0,22.0,1.1099895,22.0,23.0
25110.0,22.0,1.1241654,22.0,23.0
25120.0,22.0,1.079206,22.0,23.0
25130.0,22.0,1.137586,22.0,23.0
25140.0,22.0,1.1850294,22.0,23.0
25150.0,22.0,1.1853186,22.0,23.0
25160.0,22.0,1.046408,22.0,23.0
25170.0,22.0,1.0535048,22.0,23.0
25180.0,22.0,1.0531992,22.0,23.0
25190.0,22.0,0.96386355,22.0,23.0
25200.0,22.0,1.0126162,22.0,23.0
25210.0,22.0,1.0357671,22.0,23.0
25220.0,22.0,0.9230896,22.0,23.0
25230.0,22.0,0.8009514,22.0,23.0
25240.0,22.0,0.14605922,22.0,22.0
25250.0,22.0,0.18534094,22.0,22.0
25260.0,22.0,0.28122485,22.0,22.0
25270.0,22.0,0.33945552,22.0,22.0
25280.0,22.0,0.45710456,22.0,22.0
25290.0,22.0,0.585555,22.0,22.0
25300.0,22.0,0.6898296,22.0,23.0
25310.0,22.0,0.76519173,21.0,23.0
25320.0,22.0,0.8001994,21.0,23.0
25330.0,22.0,0.81042504,21.0,23.0
25340.0,22.0,0.8253211,21.0,23.0
25350.0,22.0,0.88017064,21.0,23.0
25360.0,22.0,0.9373489,21.0,23.0
25370.0,22.0,1.0342251,21.0,23.0
25380.0,22.0,1.1339642,21.0,23.0
25390.0,22.0,1.2100934,21.0,23.0
25400.0,22.0,1.2460318,21.0,23.0
25410.0,22.0,1.2571658,21.0,24.0
25420.0,22.0,1.2776068,21.0,24.0
25430.0,22.0,1.2801763,21.0,24.0
25440.0,22.0,1.2860935,21.0,24.0
25450.0,22.0,1.3439162,21.0,24.0
25460.0,22.0,1.3564894,21.0,24.0
25470.0,22.0,1.3565363,21.0,24.0
25480.0,22.0,1.4068893,21.0,24.0
25490.0,22.0,1.4508389,21.0,24.0
25500.0,22.0,1.4493443,21.0,24.0
25510.0,22.0,1.4627869,21.0,24.0
25520.0,22.0,1.4875747,21.0,24.0
25530.0,21.0,1.5221792,21.0,24.0
25540.0,21.0,1.5542606,20.0,24.0
25550.0,21.0,1.5700955,20.0,23.0
25560.0,21.0,1.5819058,20.0,23.0
25570.0,21.0,1.5729833,20.0,23.0
25580.0,21.0,1.5354545,20.0,23.0
25590.0,21.0,1.4818233,20.0,23.0
25600.0,21.0,1.4666945,20.0,23.0
25610.0,21.0,1.3979728,20.0,23.0
25620.0,21.0,0.78487813,20.0,22.0
25630.0,21.0,0.79223996,20.0,22.0
25640.0,21.0,0.7998252,20.0,22.0
25650.0,21.0,0.8225516,20.0,22.0
25660.0,21.0,0.8645893,20.0,22.0
25670.0,21.0,0.8862908,20.0,22.0
25680.0,20.0,0.8989854,20.0,22.0
25690.0,20.0,0.91281086,20.0,22.0
25700.0,20.0,0.91927624,20.0,22.0
25710.0,20.0,0.9758446,20.0,22.0
25720.0,20.0,1.0820532,20.0,22.0
25730.0,20.0,1.2525804,20.0,22.0
25740.0,20.0,1.414324,19.0,22.0
25750.0,20.0,1.5257535,19.0,22.0
25760.0,20.0,1.6188399,19.0,22.0
25770.0,21.0,1.4292616,20.0,23.0
25780.0,21.0,1.6152083,20.0,23.0
25790.0,21.0,1.6797174,20.0,23.0
25800.0,21.0,1.683592,20.0,23.0
25810.0,21.0,1.7397318,20.0,23.0
25820.0,21.0,1.8580565,20.0,23.0
25830.0,21.0,1.9833192,19.0,23.0
25840.0,21.0,2.018267,19.0,23.0
25850.0,21.0,2.037538,19.0,23.0
25860.0,21.0,2.0496678,19.0,23.0
25870.0,21.0,2.0856607,19.0,23.0
25880.0,21.0,2.1020722,19.0,23.0
25890.0,21.0,2.124779,19.0,23.0
25900.0,21.0,2.1549563,19.0,23.0
25910.0,21.0,2.1779466,19.0,23.0
25920.0,21.0,2.220011,19.0,23.0
25930.0,21.0,2.2710485,19.0,23.0
25940.0,20.0,2.3147995,19.0,23.0
25950.0,21.0,1.9870642,19.0,23.0
25960.0,21.0,1.5955263,19.0,23.0
25970.0,21.0,1.5902876,19.0,23.0
25980.0,21.0,1.5825657,19.0,22.0
25990.0,21.0,1.6214571,19.0,22.0
26000.0,21.0,1.6049663,19.0,22.0
26010.0,21.0,1.5170654,19.0,22.0
26020.0,21.0,1.4442046,19.0,22.0
26030.0,20.0,1.3171792,19.0,22.0
26040.0,20.0,1.2850665,19.0,22.0
26050.0,20.0,1.2850273,19.0,22.0
26060.0,20.0,1.3784032,19.0,22.0
26070.0,20.0,1.4441372,19.0,22.0
26080.0,20.0,1.5057825,19.0,21.0
26090.0,20.0,1.5325333,18.0,21.0
26100.0,20.0,1.5137509,18.0,21.0
26110.0,20.0,1.4461342,18.0,21.0
26120.0,20.0,1.3918538,18.0,21.0
26130.0,20.0,1.2597511,18.0,21.0
26140.0,20.0,1.231849,18.0,21.0
26150.0,20.0,1.2485547,18.0,21.0
26160.0,19.0,1.2483053,18.0,21.0
26170.0,19.0,1.2356429,18.0,21.0
26180.0,19.0,1.2976485,18.0,20.0
26190.0,19.0,1.2085308,18.0,20.0
26200.0,19.0,1.0317338,18.0,20.0
26210.0,19.0,1.0209858,18.0,20.0
26220.0,19.0,1.0528024,18.0,20.0
26230.0,19.0,1.0933955,18.0,20.0
26240.0,19.0,1.1343937,18.0,20.0
26250.0,19.0,1.1328126,18.0,20.0
26260.0,19.0,1.1462674,18.0,20.0
26270.0,19.0,1.1462674,18.0,20.0
26280.0,19.0,1.1373694,18.0,20.0
26290.0,18.0,1.1058846,18.0,20.0
26300.0,18.0,1.0666478,18.0,20.0
26310.0,18.0,1.0836887,18.0,20.0
26320.0,18.0,1.1048553,18.0,20.0
26330.0,18.0,1.146829,18.0,20.0
26340.0,18.0,1.1806315,18.0,20.0
26350.0,18.0,1.224869,17.0,20.0
26360.0,18.0,1.2349662,17.0,20.0
26370.0,18.0,1.2353182,17.0,20.0
26380.0,18.0,1.2422185,17.0,20.0
26390.0,18.0,1.1501809,18.0,20.0
26400.0,18.0,1.1964303,17.0,20.0
26410.0,18.0,1.218916,17.0,20.0
26420.0,18.0,1.2154523,17.0,20.0
26430.0,18.0,1.2035477,17.0,20.0
26440.0,18.0,1.1995035,17.0,20.0
26450.0,18.0,1.1890727,17.0,20.0
26460.0,18.0,1.193527,17.0,20.0
26470.0,18.0,1.1858536,17.0,20.0
26480.0,18.0,1.1662018,17.0,19.75
26490.0,18.0,1.1772891,17.0,20.0
26500.0,18.0,1.190403,17.0,20.0
26510.0,18.0,1.1430615,17.0,19.0
26520.0,18.0,1.0856236,17.0,19.0
26530.0,18.0,1.0979623,17.0,19.0
26540.0,18.0,1.1392385,17.0,20.0
26550.0,18.0,1.1398426,17.0,20.0
26560.0,18.0,1.0857339,18.0,20.0
26570.0,18.0,1.0422726,18.0,20.0
26580.0,18.0,0.9688777,18.0,20.0
26590.0,18.0,0.88841563,18.0,20.0
26600.0,18.0,0.8899021,18.0,20.0
26610.0,18.0,0.9092121,18.0,20.0
26620.0,18.5,0.897133,18.0,20.0
26630.0,19.0,0.884965,18.0,20.0
26640.0,19.0,0.8618931,18.0,20.0
26650.0,19.0,0.8234665,18.0,20.0
26660.0,19.0,0.9368178,18.0,20.0
26670.0,19.0,0.98916733,18.0,20.0
26680.0,19.0,1.0405049,18.0,20.0
26690.0,19.0,1.0824485,18.0,20.0
26700.0,19.0,1.1237307,18.0,20.0
26710.0,19.0,1.1527733,18.0,20.0
26720.0,19.0,1.1549294,18.0,20.0
26730.0,19.0,1.078435,18.0,20.0
26740.0,19.0,0.93780506,19.0,20.0
26750.0,19.0,0.7984153,19.0,20.0
26760.0,19.0,0.7469671,19.0,20.0
26770.0,19.0,0.70741534,19.0,20.0
26780.0,20.0,0.66416115,19.0,20.0
26790.0,20.0,0.65973455,19.5,20.0
26800.0,20.0,0.66192895,19.0,20.0
26810.0,20.0,0.6732721,19.0,20.0
26820.0,20.0,0.65978706,20.0,20.0
26830.0,20.0,0.6383849,20.0,20.0
26840.0,20.0,0.6892056,20.0,21.0
26850.0,20.0,0.7411631,19.25,21.0
26860.0,20.0,0.74716043,19.25,21.0
26870.0,20.0,0.75252944,19.0,21.0
26880.0,20.0,0.7576465,19.0,21.0
26890.0,20.0,0.71293503,19.0,20.0
26900.0,20.0,0.63028085,19.0,20.0
26910.0,20.0,0.62119687,19.0,20.0
26920.0,20.0,0.8003789,19.0,21.0
26930.0,20.0,0.70807874,19.0,20.0
26940.0,20.0,0.70807874,19.0,20.0
26950.0,20.0,0.70629364,19.0,20.0
26960.0,20.0,0.94174296,19.0,20.0
26970.0,20.0,0.94174296,19.0,20.0
26980.0,20.0,0.94174296,19.0,20.0
26990.0,19.0,1.0398129,18.0,20.0
27000.0,19.0,1.0398129,18.0,20.0
27010.0,19.0,1.0398129,18.0,20.0
27020.0,19.0,1.1054213,18.0,20.0
27030.0,19.0,1.1054213,18.0,20.0
27040.0,19.0,1.1054213,18.0,20.0
27050.0,19.0,1.1544191,18.0,20.0
27060.0,18.0,1.370508,17.0,20.0
27070.0,18.0,1.3468167,17.0,20.0
27080.0,18.0,1.3671843,17.0,20.0
27090.0,18.0,1.3744498,17.0,20.0
27100.0,18.0,1.375008,17.0,20.0
27110.0,18.0,1.297887,17.0,20.0
27120.0,18.0,1.2477078,17.0,20.0
27130.0,18.0,1.261834,17.0,20.0
27140.0,18.0,1.2765121,17.0,20.0
27150.0,18.0,1.2787417,17.0,20.0
27160.0,18.0,1.2659574,17.0,20.0
27170.0,18.0,1.2650918,17.0,20.0
27180.0,18.0,1.2322873,17.0,20.0
27190.0,18.0,1.180799,17.0,20.0
27200.0,19.0,1.0595928,18.0,20.0
27210.0,19.0,1.016641,18.0,20.0
27220.0,19.0,1.0327648,18.0,20.0
27230.0,19.0,1.0767318,18.0,20.0
27240.0,19.0,1.1176189,18.0,20.0
27250.0,19.0,1.1671493,18.0,20.0
27260.0,19.0,1.2147892,17.0,20.0
27270.0,19.0,1.2306038,17.0,20.0
27280.0,19.0,1.2129288,17.0,20.0
27290.0,19.0,1.1922693,18.0,20.0
27300.0,19.0,1.2068559,18.0,20.0
27310.0,19.0,1.234635,17.0,20.0
27320.0,19.0,1.2232555,17.0,20.0
27330.0,19.0,1.1884006,17.0,20.0
27340.0,19.0,1.1820763,18.0,20.0
27350.0,19.0,1.1853817,18.0,20.0
27360.0,19.0,1.187329,18.0,20.0
27370.0,19.0,1.1921431,18.0,20.0
27380.0,19.0,1.1813734,18.0,20.0
27390.0,19.0,1.1721196,18.0,20.0
27400.0,19.0,1.1680084,18.0,20.0
27410.0,19.0,1.1932851,18.0,20.0
27420.0,19.0,1.308568,18.0,20.0
27430.0,19.0,1.35289,18.0,20.0
27440.0,19.0,1.3359038,18.0,20.0
27450.0,19.0,1.29084,18.0,20.0
27460.0,19.0,1.2918686,18.0,20.0
27470.0,19.0,1.3364162,18.0,20.0
27480.0,19.0,1.272387,18.0,20.0
27490.0,19.0,1.272387,18.0,20.0
27500.0,19.0,1.3147106,18.0,20.0
27510.0,19.0,1.2149662,18.0,20.0
27520.0,19.0,1.2137836,18.0,20.0
27530.0,19.0,1.2236986,18.0,20.0
27540.0,19.0,1.214278,18.0,20.0
27550.0,19.0,1.216776,18.0,20.0
27560.0,19.0,1.1240914,18.0,20.0
27570.0,19.0,1.1096618,18.0,20.0
27580.0,19.0,1.1091216,18.0,20.0
27590.0,19.0,1.0839294,18.0,20.0
27600.0,19.0,1.0965825,18.0,20.0
27610.0,19.0,1.0777627,18.0,20.0
27620.0,19.0,1.0560673,18.0,20.0
27630.0,19.0,1.0049471,18.0,20.0
27640.0,19.0,0.96650034,18.0,20.0
27650.0,19.0,0.92548543,18.0,20.0
27660.0,19.0,0.88382065,18.0,20.0
27670.0,19.0,0.8605454,18.0,20.0
27680.0,19.0,0.85104275,18.0,20.0
27690.0,19.0,0.83143646,18.0,20.0
27700.0,19.0,0.8136048,18.0,20.0
27710.0,19.0,0.82589996,18.0,20.0
27720.0,19.0,0.85158545,18.0,20.0
27730.0,19.0,0.8623754,18.0,20.0
27740.0,19.0,0.85134405,18.0,20.0
27750.0,19.0,0.83995074,18.0,20.0
27760.0,19.0,0.84951335,18.0,20.0
27770.0,19.0,0.85267127,18.0,20.0
27780.0,19.0,0.84318054,18.0,20.0
27790.0,19.0,0.82439375,18.0,20.0
27800.0,19.0,0.8344299,18.0,20.0
27810.0,19.0,0.93181336,18.0,20.0
27820.0,19.0,0.9836674,18.0,20.0
27830.0,19.0,1.0438609,18.0,20.0
27840.0,19.0,1.0896777,18.0,20.0
27850.0,19.0,1.1125954,18.0,20.0
27860.0,19.0,1.133904,18.0,20.0
27870.0,19.0,1.1232662,18.0,20.0
27880.0,19.0,1.125906,18.0,20.0
27890.0,19.0,1.1192093,18.0,20.0
27900.0,19.0,1.1099869,18.0,20.0
27910.0,19.0,1.0876751,18.0,20.0
27920.0,19.0,1.0795956,18.0,19.0
27930.0,19.0,1.0655625,17.0,19.0
27940.0,18.0,1.0655644,17.0,19.0
27950.0,18.0,1.0435284,17.0,19.0
27960.0,18.0,1.0056103,17.0,19.0
27970.0,18.0,0.96036357,17.0,19.0
27980.0,18.0,0.940121,17.0,19.0
27990.0,18.0,0.9129863,17.0,19.0
28000.0,18.0,0.91685855,17.0,19.0
28010.0,18.0,1.0708874,17.0,19.0
28020.0,18.5,1.2294003,17.0,20.0
28030.0,18.0,1.2255217,17.0,20.0
28040.0,18.0,1.2257004,17.0,20.0
28050.0,18.0,1.2275106,17.0,20.0
28060.0,18.0,1.1536101,17.0,19.0
28070.0,18.0,1.035319,17.0,19.0
28080.0,18.0,0.92767006,17.0,19.0
28090.0,18.0,0.87980366,17.0,19.0
28100.0,18.0,0.88073695,17.0,19.0
28110.0,18.0,0.87980366,17.0,19.0
28120.0,18.0,0.87825835,17.0,19.0
28130.0,18.0,0.8629999,17.0,19.0
28140.0,18.0,0.85905784,17.0,19.0
28150.0,18.0,0.85437137,17.0,19.0
28160.0,18.0,0.8532703,17.0,19.0
28170.0,18.0,0.85241187,17.0,19.0
28180.0,18.0,0.8532703,17.0,19.0
28190.0,18.0,0.8334022,17.0,19.0
28200.0,18.0,0.8110742,17.0,19.0
28210.0,18.0,0.77875245,17.0,19.0
28220.0,18.0,0.7501662,17.0,18.0
28230.0,18.0,0.6371011,17.0,18.0
28240.0,18.0,0.55714285,17.0,18.0
28250.0,18.0,0.559014,17.0,18.0
28260.0,18.0,0.56729144,17.0,18.0
28270.0,18.0,0.5487105,17.0,18.0
28280.0,18.0,0.52118826,17.0,18.0
28290.0,18.0,0.52750593,17.0,18.0
28300.0,18.0,0.59387535,17.0,18.0
28310.0,18.0,0.6187793,18.0,18.0
28320.0,18.0,0.5961548,18.0,18.0
28330.0,18.0,0.6044584,18.0,18.0
28340.0,18.0,0.595615,18.0,18.0
28350.0,18.0,0.5506242,18.0,19.0
28360.0,18.0,0.47198573,18.0,19.0
28370.0,18.0,0.44016007,18.0,19.0
28380.0,18.0,0.44081342,18.0,19.0
28390.0,18.0,0.4667307,18.0,19.0
28400.0,18.0,0.4824238,18.0,19.0
28410.0,18.0,0.4824238,18.0,19.0
28420.0,18.0,0.4822577,18.0,19.0
28430.0,18.0,0.49359733,18.0,19.0
28440.0,18.0,0.49934322,18.0,19.0
28450.0,18.0,0.49963862,18.0,19.0
28460.0,19.0,0.49949515,18.0,19.0
28470.0,19.0,0.5018752,18.0,19.0
28480.0,19.0,0.5640148,18.0,19.0
28490.0,18.0,0.90788305,18.0,20.0
28500.0,18.0,0.90953505,18.0,20.0
28510.0,18.0,0.8986168,18.0,20.0
28520.0,18.0,0.88070124,18.0,20.0
28530.0,19.0,0.93889743,18.0,20.0
28540.0,19.0,1.0186371,18.0,20.0
28550.0,19.0,1.1335663,18.0,20.0
28560.0,19.0,1.2281646,18.0,20.0
28570.0,19.0,1.2437183,18.0,20.0
28580.0,19.0,1.2338424,18.0,20.0
28590.0,19.0,1.2339891,18.0,20.0
28600.0,19.0,1.2435017,18.0,21.0
28610.0,19.0,1.2338164,18.0,21.0
28620.0,19.0,1.1713794,18.0,21.0
28630.0,19.0,1.0781326,19.0,21.0
28640.0,19.0,0.9853088,19.0,21.0
28650.0,19.0,0.91243064,19.0,21.0
28660.0,20.0,0.9158894,19.0,21.0
28670.0,20.0,0.916344,19.0,21.0
