distance,median,stdev,prc_25,prc_75
20.0,nan,nan,nan,nan
30.0,nan,nan,nan,nan
40.0,nan,nan,nan,nan
50.0,nan,nan,nan,nan
60.0,nan,nan,nan,nan
70.0,nan,nan,nan,nan
80.0,nan,nan,nan,nan
90.0,nan,nan,nan,nan
100.0,nan,nan,nan,nan
110.0,nan,nan,nan,nan
120.0,nan,nan,nan,nan
130.0,nan,nan,nan,nan
140.0,nan,nan,nan,nan
150.0,nan,nan,nan,nan
160.0,nan,nan,nan,nan
170.0,nan,nan,nan,nan
180.0,nan,nan,nan,nan
190.0,nan,nan,nan,nan
200.0,nan,nan,nan,nan
210.0,nan,nan,nan,nan
220.0,nan,nan,nan,nan
230.0,nan,nan,nan,nan
240.0,nan,nan,nan,nan
250.0,nan,nan,nan,nan
260.0,nan,nan,nan,nan
270.0,nan,nan,nan,nan
280.0,nan,nan,nan,nan
290.0,nan,nan,nan,nan
300.0,nan,nan,nan,nan
310.0,nan,nan,nan,nan
320.0,nan,nan,nan,nan
330.0,nan,nan,nan,nan
340.0,nan,nan,nan,nan
350.0,nan,nan,nan,nan
360.0,nan,nan,nan,nan
370.0,nan,nan,nan,nan
380.0,nan,nan,nan,nan
390.0,nan,nan,nan,nan
400.0,nan,nan,nan,nan
410.0,nan,nan,nan,nan
420.0,nan,nan,nan,nan
430.0,nan,nan,nan,nan
440.0,nan,nan,nan,nan
450.0,nan,nan,nan,nan
460.0,nan,nan,nan,nan
470.0,nan,nan,nan,nan
480.0,nan,nan,nan,nan
490.0,nan,nan,nan,nan
500.0,nan,nan,nan,nan
510.0,nan,nan,nan,nan
520.0,nan,nan,nan,nan
530.0,nan,nan,nan,nan
540.0,nan,nan,nan,nan
550.0,nan,nan,nan,nan
560.0,nan,nan,nan,nan
570.0,nan,nan,nan,nan
580.0,nan,nan,nan,nan
590.0,nan,nan,nan,nan
600.0,nan,nan,nan,nan
610.0,nan,nan,nan,nan
620.0,nan,nan,nan,nan
630.0,nan,nan,nan,nan
640.0,nan,nan,nan,nan
650.0,nan,nan,nan,nan
660.0,nan,nan,nan,nan
670.0,nan,nan,nan,nan
680.0,nan,nan,nan,nan
690.0,nan,nan,nan,nan
700.0,nan,nan,nan,nan
710.0,nan,nan,nan,nan
720.0,nan,nan,nan,nan
730.0,nan,nan,nan,nan
740.0,nan,nan,nan,nan
750.0,nan,nan,nan,nan
760.0,nan,nan,nan,nan
770.0,nan,nan,nan,nan
780.0,nan,nan,nan,nan
790.0,nan,nan,nan,nan
800.0,nan,nan,nan,nan
810.0,nan,nan,nan,nan
820.0,nan,nan,nan,nan
830.0,nan,nan,nan,nan
840.0,nan,nan,nan,nan
850.0,nan,nan,nan,nan
860.0,nan,nan,nan,nan
870.0,nan,nan,nan,nan
880.0,nan,nan,nan,nan
890.0,nan,nan,nan,nan
900.0,nan,nan,nan,nan
910.0,nan,nan,nan,nan
920.0,nan,nan,nan,nan
930.0,nan,nan,nan,nan
940.0,nan,nan,nan,nan
950.0,nan,nan,nan,nan
960.0,nan,nan,nan,nan
970.0,nan,nan,nan,nan
980.0,nan,nan,nan,nan
990.0,nan,nan,nan,nan
1000.0,nan,nan,nan,nan
1010.0,nan,nan,nan,nan
1020.0,nan,nan,nan,nan
1030.0,nan,nan,nan,nan
1040.0,nan,nan,nan,nan
1050.0,nan,nan,nan,nan
1060.0,nan,nan,nan,nan
1070.0,nan,nan,nan,nan
1080.0,nan,nan,nan,nan
1090.0,nan,nan,nan,nan
1100.0,nan,nan,nan,nan
1110.0,nan,nan,nan,nan
1120.0,nan,nan,nan,nan
1130.0,nan,nan,nan,nan
1140.0,nan,nan,nan,nan
1150.0,nan,nan,nan,nan
1160.0,nan,nan,nan,nan
1170.0,nan,nan,nan,nan
1180.0,nan,nan,nan,nan
1190.0,nan,nan,nan,nan
1200.0,nan,nan,nan,nan
1210.0,nan,nan,nan,nan
1220.0,nan,nan,nan,nan
1230.0,nan,nan,nan,nan
1240.0,nan,nan,nan,nan
1250.0,nan,nan,nan,nan
1260.0,nan,nan,nan,nan
1270.0,nan,nan,nan,nan
1280.0,nan,nan,nan,nan
1290.0,nan,nan,nan,nan
1300.0,nan,nan,nan,nan
1310.0,nan,nan,nan,nan
1320.0,nan,nan,nan,nan
1330.0,nan,nan,nan,nan
1340.0,nan,nan,nan,nan
1350.0,nan,nan,nan,nan
1360.0,nan,nan,nan,nan
1370.0,nan,nan,nan,nan
1380.0,nan,nan,nan,nan
1390.0,nan,nan,nan,nan
1400.0,nan,nan,nan,nan
1410.0,nan,nan,nan,nan
1420.0,nan,nan,nan,nan
1430.0,nan,nan,nan,nan
1440.0,nan,nan,nan,nan
1450.0,nan,nan,nan,nan
1460.0,nan,nan,nan,nan
1470.0,nan,nan,nan,nan
1480.0,nan,nan,nan,nan
1490.0,nan,nan,nan,nan
1500.0,nan,nan,nan,nan
1510.0,nan,nan,nan,nan
1520.0,nan,nan,nan,nan
1530.0,nan,nan,nan,nan
1540.0,nan,nan,nan,nan
1550.0,nan,nan,nan,nan
1560.0,nan,nan,nan,nan
1570.0,nan,nan,nan,nan
1580.0,nan,nan,nan,nan
1590.0,nan,nan,nan,nan
1600.0,nan,nan,nan,nan
1610.0,nan,nan,nan,nan
1620.0,nan,nan,nan,nan
1630.0,nan,nan,nan,nan
1640.0,nan,nan,nan,nan
1650.0,nan,nan,nan,nan
1660.0,nan,nan,nan,nan
1670.0,nan,nan,nan,nan
1680.0,nan,nan,nan,nan
1690.0,nan,nan,nan,nan
1700.0,nan,nan,nan,nan
1710.0,nan,nan,nan,nan
1720.0,nan,nan,nan,nan
1730.0,nan,nan,nan,nan
1740.0,nan,nan,nan,nan
1750.0,nan,nan,nan,nan
1760.0,nan,nan,nan,nan
1770.0,nan,nan,nan,nan
1780.0,nan,nan,nan,nan
1790.0,nan,nan,nan,nan
1800.0,nan,nan,nan,nan
1810.0,nan,nan,nan,nan
1820.0,nan,nan,nan,nan
1830.0,nan,nan,nan,nan
1840.0,nan,nan,nan,nan
1850.0,nan,nan,nan,nan
1860.0,nan,nan,nan,nan
1870.0,nan,nan,nan,nan
1880.0,nan,nan,nan,nan
1890.0,nan,nan,nan,nan
1900.0,nan,nan,nan,nan
1910.0,nan,nan,nan,nan
1920.0,nan,nan,nan,nan
1930.0,nan,nan,nan,nan
1940.0,nan,nan,nan,nan
1950.0,nan,nan,nan,nan
1960.0,nan,nan,nan,nan
1970.0,nan,nan,nan,nan
1980.0,nan,nan,nan,nan
1990.0,nan,nan,nan,nan
2000.0,nan,nan,nan,nan
2010.0,nan,nan,nan,nan
2020.0,nan,nan,nan,nan
2030.0,nan,nan,nan,nan
2040.0,nan,nan,nan,nan
2050.0,nan,nan,nan,nan
2060.0,nan,nan,nan,nan
2070.0,nan,nan,nan,nan
2080.0,nan,nan,nan,nan
2090.0,nan,nan,nan,nan
2100.0,nan,nan,nan,nan
2110.0,nan,nan,nan,nan
2120.0,nan,nan,nan,nan
2130.0,nan,nan,nan,nan
2140.0,nan,nan,nan,nan
2150.0,nan,nan,nan,nan
2160.0,1.0,0.0,1.0,1.0
2170.0,1.0,0.0,1.0,1.0
2180.0,1.0,0.0,1.0,1.0
2190.0,1.0,0.0,1.0,1.0
2200.0,1.0,0.0,1.0,1.0
2210.0,1.0,0.0,1.0,1.0
2220.0,1.0,0.0,1.0,1.0
2230.0,1.0,0.0,1.0,1.0
2240.0,1.0,0.0,1.0,1.0
2250.0,1.0,0.0,1.0,1.0
2260.0,1.0,0.0,1.0,1.0
2270.0,1.0,0.0,1.0,1.0
2280.0,1.0,0.0,1.0,1.0
2290.0,1.0,0.0,1.0,1.0
2300.0,1.0,0.0,1.0,1.0
2310.0,1.0,0.0,1.0,1.0
2320.0,1.0,0.0,1.0,1.0
2330.0,1.0,0.0,1.0,1.0
2340.0,1.0,0.0,1.0,1.0
2350.0,1.0,0.0,1.0,1.0
2360.0,1.0,0.0,1.0,1.0
2370.0,1.0,0.0,1.0,1.0
2380.0,1.0,0.0,1.0,1.0
2390.0,1.0,0.0,1.0,1.0
2400.0,1.0,0.0,1.0,1.0
2410.0,nan,nan,nan,nan
2420.0,nan,nan,nan,nan
2430.0,nan,nan,nan,nan
2440.0,nan,nan,nan,nan
2450.0,nan,nan,nan,nan
2460.0,nan,nan,nan,nan
2470.0,nan,nan,nan,nan
2480.0,nan,nan,nan,nan
2490.0,nan,nan,nan,nan
2500.0,nan,nan,nan,nan
2510.0,nan,nan,nan,nan
2520.0,nan,nan,nan,nan
2530.0,nan,nan,nan,nan
2540.0,nan,nan,nan,nan
2550.0,nan,nan,nan,nan
2560.0,nan,nan,nan,nan
2570.0,nan,nan,nan,nan
2580.0,nan,nan,nan,nan
2590.0,nan,nan,nan,nan
2600.0,nan,nan,nan,nan
2610.0,nan,nan,nan,nan
2620.0,nan,nan,nan,nan
2630.0,nan,nan,nan,nan
2640.0,nan,nan,nan,nan
2650.0,nan,nan,nan,nan
2660.0,nan,nan,nan,nan
2670.0,nan,nan,nan,nan
2680.0,nan,nan,nan,nan
2690.0,nan,nan,nan,nan
2700.0,nan,nan,nan,nan
2710.0,nan,nan,nan,nan
2720.0,nan,nan,nan,nan
2730.0,nan,nan,nan,nan
2740.0,nan,nan,nan,nan
2750.0,nan,nan,nan,nan
2760.0,nan,nan,nan,nan
2770.0,nan,nan,nan,nan
2780.0,nan,nan,nan,nan
2790.0,nan,nan,nan,nan
2800.0,nan,nan,nan,nan
2810.0,nan,nan,nan,nan
2820.0,nan,nan,nan,nan
2830.0,nan,nan,nan,nan
2840.0,nan,nan,nan,nan
2850.0,nan,nan,nan,nan
2860.0,nan,nan,nan,nan
2870.0,nan,nan,nan,nan
2880.0,nan,nan,nan,nan
2890.0,nan,nan,nan,nan
2900.0,nan,nan,nan,nan
2910.0,nan,nan,nan,nan
2920.0,1.0,0.0,1.0,1.0
2930.0,1.0,0.0,1.0,1.0
2940.0,1.0,0.0,1.0,1.0
2950.0,1.0,0.0,1.0,1.0
2960.0,1.0,0.0,1.0,1.0
2970.0,1.0,0.0,1.0,1.0
2980.0,1.0,0.0,1.0,1.0
2990.0,1.0,0.0,1.0,1.0
3000.0,1.0,0.0,1.0,1.0
3010.0,1.0,0.0,1.0,1.0
3020.0,1.0,0.0,1.0,1.0
3030.0,1.0,0.0,1.0,1.0
3040.0,1.0,0.0,1.0,1.0
3050.0,1.0,0.13948853,1.0,1.0
3060.0,1.0,0.24862064,1.0,1.0
3070.0,1.0,0.31082466,1.0,1.0
3080.0,1.0,0.3533432,1.0,1.0
3090.0,1.0,0.3709945,1.0,1.0
3100.0,1.0,0.4385016,1.0,2.0
3110.0,1.0,0.4769274,1.0,2.0
3120.0,1.0,0.4913145,1.0,2.0
3130.0,1.0,0.52338743,1.0,2.0
3140.0,2.0,0.5259695,1.0,2.0
3150.0,2.0,0.534976,1.0,2.0
3160.0,2.0,0.5214121,2.0,2.0
3170.0,2.0,0.5056577,2.0,2.0
3180.0,2.0,0.5323347,2.0,2.0
3190.0,2.0,0.55707914,2.0,2.0
3200.0,2.0,0.59424084,2.0,2.0
3210.0,2.0,0.6294527,2.0,2.0
3220.0,2.0,0.6726355,2.0,3.0
3230.0,2.0,0.72202396,2.0,3.0
3240.0,3.0,0.71087146,2.0,3.0
3250.0,3.0,0.708847,2.0,3.0
3260.0,3.0,0.73773354,2.0,3.0
3270.0,3.0,0.73846036,2.0,3.0
3280.0,3.0,0.7784136,2.0,3.0
3290.0,3.0,0.84938145,2.0,3.0
3300.0,3.0,0.9431719,2.5,3.0
3310.0,3.0,1.0303298,3.0,4.0
3320.0,3.0,0.687959,2.0,3.0
3330.0,2.0,0.86184204,1.0,3.0
3340.0,2.0,0.84479195,1.0,3.0
3350.0,2.0,0.83192354,1.0,3.0
3360.0,2.0,0.81451756,1.0,3.0
3370.0,2.0,0.77286816,2.0,3.0
3380.0,2.0,0.7094077,2.0,3.0
3390.0,2.0,0.7347656,2.0,3.0
3400.0,2.0,0.8207706,2.0,3.0
3410.0,2.0,0.89907867,2.0,3.0
3420.0,2.0,0.94954604,2.0,3.0
3430.0,2.0,0.984137,2.0,3.0
3440.0,2.0,1.0043614,2.0,3.0
3450.0,2.0,1.0244908,2.0,3.0
3460.0,3.0,1.048292,2.0,3.0
3470.0,3.0,1.0688338,2.0,4.0
3480.0,3.0,1.0714808,2.0,4.0
3490.0,3.0,1.0694067,2.0,4.0
3500.0,3.0,1.0470606,2.0,4.0
3510.0,3.0,1.011857,2.0,4.0
3520.0,3.0,0.988129,2.0,4.0
3530.0,3.0,0.9599953,3.0,4.0
3540.0,3.0,0.9354678,3.0,4.0
3550.0,3.0,0.93487966,3.0,4.0
3560.0,3.0,0.95504415,3.0,4.0
3570.0,3.0,0.9597026,3.0,4.0
3580.0,4.0,0.95321774,3.0,4.0
3590.0,4.0,0.93298656,3.0,5.0
3600.0,4.0,0.87840766,3.0,5.0
3610.0,4.0,0.83083683,3.0,5.0
3620.0,4.0,0.79104424,3.0,5.0
3630.0,4.0,0.7866632,3.0,5.0
3640.0,4.0,0.8188523,4.0,5.0
3650.0,4.0,0.8436563,4.0,5.0
3660.0,4.0,1.0126529,4.0,5.0
3670.0,4.5,1.6378505,3.0,6.0
3680.0,5.0,1.6706597,3.0,6.0
3690.0,5.0,1.6816378,3.0,6.0
3700.0,5.0,1.6837646,3.0,6.0
3710.0,5.0,1.6926513,3.0,6.0
3720.0,5.0,1.7168573,3.0,6.0
3730.0,5.0,1.7491533,3.0,6.0
3740.0,5.0,1.7431564,3.0,6.0
3750.0,5.0,1.7369184,3.0,6.0
3760.0,5.0,1.7648789,3.0,6.0
3770.0,5.0,1.7506597,3.0,6.0
3780.0,5.0,1.7440885,3.0,6.0
3790.0,5.0,1.7013627,3.0,6.0
3800.0,5.0,1.701579,3.0,6.0
3810.0,5.0,1.6991855,3.0,6.0
3820.0,5.0,1.6994461,3.0,6.0
3830.0,5.0,1.7131938,3.0,6.0
3840.0,5.0,1.6820004,3.0,6.0
3850.0,5.0,1.6599163,3.0,6.0
3860.0,5.0,1.5834899,3.0,6.0
3870.0,5.0,1.5688326,3.0,6.0
3880.0,5.0,1.4637414,3.0,6.0
3890.0,4.0,1.4519292,3.0,6.0
3900.0,5.0,1.4412814,3.0,6.0
3910.0,5.0,1.4722973,3.0,6.0
3920.0,5.0,1.4587473,3.0,6.0
3930.0,5.0,1.4456942,3.0,6.0
3940.0,4.0,1.434562,3.0,6.0
3950.0,5.0,1.4227904,3.0,6.0
3960.0,4.0,1.4080273,3.0,6.0
3970.0,4.0,1.4005717,3.0,6.0
3980.0,4.0,1.6474992,2.0,5.5
3990.0,4.0,1.7073679,2.0,5.0
4000.0,4.0,1.6654948,3.0,6.0
4010.0,4.0,1.6729184,2.0,6.0
4020.0,4.0,1.7356789,2.0,6.0
4030.0,4.0,1.773066,2.0,5.5
4040.0,4.0,1.7758251,2.0,5.0
4050.0,4.0,1.7664776,2.0,5.0
4060.0,4.0,1.7483447,2.0,5.0
4070.0,4.0,1.7313132,2.0,5.0
4080.0,4.0,1.7537915,2.0,5.0
4090.0,4.0,1.8051658,2.0,5.0
4100.0,4.0,1.8456777,2.0,5.0
4110.0,4.0,1.8653119,2.0,5.0
4120.0,4.0,1.8708996,2.0,5.0
4130.0,4.0,1.8889924,2.0,5.0
4140.0,4.0,1.903612,2.0,5.0
4150.0,3.0,1.9073205,2.0,5.0
4160.0,4.0,1.9199051,2.0,5.0
4170.0,4.0,1.9113433,2.0,5.0
4180.0,4.0,1.9103001,2.0,6.0
4190.0,4.0,1.9234949,2.0,6.0
4200.0,4.0,1.933193,2.0,6.0
4210.0,4.0,1.967971,2.0,6.0
4220.0,4.0,2.0325925,2.0,6.0
4230.0,4.0,2.0560012,2.0,6.0
4240.0,4.0,2.074724,2.0,6.0
4250.0,4.0,2.1456523,2.0,6.0
4260.0,4.0,2.1842349,2.0,6.0
4270.0,4.0,2.1365287,2.0,6.0
4280.0,4.0,2.1319041,2.0,6.0
4290.0,4.0,2.1836185,2.0,6.0
4300.0,4.0,2.250439,2.0,6.0
4310.0,4.0,2.2652102,2.0,6.0
4320.0,4.0,2.240971,2.0,6.0
4330.0,4.0,2.2069137,2.0,6.0
4340.0,4.0,2.188115,2.0,6.0
4350.0,4.0,2.1975496,2.0,6.0
4360.0,5.0,2.23409,2.0,6.0
4370.0,5.0,2.3108578,2.0,6.0
4380.0,5.0,2.4001822,2.0,7.0
4390.0,5.0,2.480143,2.0,7.0
4400.0,5.0,2.4986644,2.0,7.0
4410.0,5.0,2.4773812,2.0,7.0
4420.0,5.0,2.4734073,2.0,7.0
4430.0,5.0,2.5169046,2.0,7.0
4440.0,5.0,2.572885,2.0,7.0
4450.0,4.0,2.5619345,2.0,7.0
4460.0,5.0,2.548146,2.0,7.0
4470.0,5.0,2.6140451,2.0,7.0
4480.0,5.0,2.7341683,2.0,7.0
4490.0,5.0,2.7745912,3.0,8.0
4500.0,5.0,2.7766201,2.0,8.0
4510.0,5.0,2.774728,2.0,8.0
4520.0,6.0,2.7676096,3.0,8.0
4530.0,5.0,2.7862256,3.0,8.0
4540.0,5.0,2.8544629,2.0,8.0
4550.0,5.0,2.9235053,2.0,8.0
4560.0,5.0,2.922127,2.0,8.0
4570.0,5.0,2.9008024,2.0,8.0
4580.0,5.0,2.8934476,2.0,8.0
4590.0,5.0,2.9236174,2.0,8.0
4600.0,6.0,2.9513097,2.0,8.0
4610.0,6.0,2.9515245,2.0,8.0
4620.0,5.0,2.9537215,2.0,8.0
4630.0,5.0,2.9317493,2.0,8.0
4640.0,5.0,2.944573,2.0,8.0
4650.0,5.0,2.9380424,2.0,8.0
4660.0,5.0,2.9178553,2.0,8.0
4670.0,5.0,2.907743,3.0,8.0
4680.0,5.0,2.9466317,2.0,8.0
4690.0,5.0,2.938465,2.0,8.0
4700.0,5.0,2.8803728,2.0,8.0
4710.0,5.0,2.875249,2.0,8.0
4720.0,5.0,2.8858457,2.0,8.0
4730.0,5.0,2.8758945,2.0,8.0
4740.0,5.0,2.8257053,2.0,8.0
4750.0,5.0,2.796923,3.0,8.0
4760.0,5.0,2.7962816,2.0,8.0
4770.0,5.0,2.8113346,2.0,8.0
4780.0,5.0,2.793232,2.0,8.0
4790.0,5.0,2.7634137,2.0,7.0
4800.0,5.0,2.7461822,2.0,7.0
4810.0,5.0,2.7182062,2.0,7.0
4820.0,4.5,2.665267,2.0,7.0
4830.0,5.0,2.6272612,2.0,8.0
4840.0,5.0,2.5974483,2.0,8.0
4850.0,5.0,2.5312746,2.0,7.0
4860.0,5.0,2.6226707,2.0,7.0
4870.0,6.0,2.7292325,3.0,8.0
4880.0,6.0,2.6953297,3.0,8.0
4890.0,6.0,2.6502097,3.0,8.0
4900.0,6.0,2.5957763,3.0,8.0
4910.0,6.0,2.5770848,3.0,8.0
4920.0,6.0,2.5251462,3.0,8.0
4930.0,6.0,2.4557607,3.0,8.0
4940.0,5.0,2.3337488,3.0,7.5
4950.0,5.0,2.3304083,3.0,7.0
4960.0,5.0,2.3734064,3.0,7.0
4970.0,5.0,2.3695338,3.0,7.0
4980.0,5.0,2.34715,3.0,7.0
4990.0,5.0,2.3492749,3.0,7.0
5000.0,5.0,2.335361,3.0,7.0
5010.0,5.0,2.3899746,2.0,7.0
5020.0,5.0,2.3705196,2.0,7.0
5030.0,5.0,2.3755965,2.0,7.0
5040.0,5.0,2.339159,2.0,7.0
5050.0,5.0,2.32424,2.0,7.0
5060.0,5.0,2.2908309,2.0,7.0
5070.0,4.0,2.2711992,2.0,7.0
5080.0,4.0,2.249655,2.0,7.0
5090.0,5.0,2.2369914,2.0,7.0
5100.0,5.0,2.2298167,2.0,7.0
5110.0,5.0,2.2428532,2.0,7.0
5120.0,4.0,2.2190847,3.0,7.0
5130.0,5.0,2.1929228,3.0,7.0
5140.0,5.0,2.1825495,3.0,7.0
5150.0,5.0,2.24334,2.0,7.0
5160.0,5.0,2.2771828,2.0,7.0
5170.0,5.0,2.3327198,2.0,7.0
5180.0,5.0,2.288658,3.0,7.0
5190.0,5.0,2.264573,3.0,7.0
5200.0,5.0,2.2491148,3.0,7.0
5210.0,5.0,2.300868,3.0,7.0
5220.0,5.0,2.3539517,3.0,7.0
5230.0,5.0,2.3914967,3.0,7.0
5240.0,5.0,2.4036992,3.0,7.0
5250.0,5.0,2.380746,3.0,7.0
5260.0,5.0,2.4001663,3.0,7.0
5270.0,5.0,2.400189,3.0,7.0
5280.0,5.0,2.3943574,3.0,7.0
5290.0,5.0,2.4228992,3.0,7.0
5300.0,5.0,2.52444,3.0,7.0
5310.0,5.0,2.519703,3.0,7.0
5320.0,6.0,2.4831567,3.0,7.0
5330.0,6.0,2.4290144,3.0,8.0
5340.0,6.0,2.4352264,3.0,8.0
5350.0,6.0,2.4125981,3.0,8.0
5360.0,6.0,2.4449925,3.0,8.0
5370.0,6.0,2.4897175,3.0,8.0
5380.0,6.0,2.4983268,3.0,8.0
5390.0,6.0,2.5233557,3.0,8.0
5400.0,6.0,2.4835114,3.0,8.0
5410.0,6.0,2.5249546,3.0,8.0
5420.0,6.0,2.6543784,3.0,8.0
5430.0,6.0,2.7361636,3.0,8.0
5440.0,6.0,2.7044737,3.0,8.0
5450.0,6.0,2.6087592,3.0,8.0
5460.0,6.0,2.582469,3.0,8.0
5470.0,6.0,2.599205,4.0,8.0
5480.0,6.0,2.536583,4.0,8.0
5490.0,6.0,2.643055,4.0,8.0
5500.0,6.0,2.6804636,4.0,8.0
5510.0,6.0,2.6796408,4.0,8.0
5520.0,6.0,2.6662214,4.0,8.0
5530.0,6.0,2.6684027,4.0,8.0
5540.0,6.0,2.6683192,4.0,8.0
5550.0,6.0,2.6847413,3.0,8.0
5560.0,6.0,2.6780474,3.0,8.0
5570.0,6.0,2.7199621,3.0,8.0
5580.0,6.0,2.7330966,3.0,8.0
5590.0,6.0,2.7495573,3.0,8.0
5600.0,6.0,2.7899892,3.0,8.0
5610.0,6.0,2.8847172,3.0,8.0
5620.0,6.0,2.8798256,3.0,8.0
5630.0,6.0,2.8647568,3.0,8.0
5640.0,6.0,2.785115,3.0,8.0
5650.0,6.0,2.7405915,3.0,8.0
5660.0,6.0,2.9230921,3.0,8.0
5670.0,6.0,2.896199,3.0,8.0
5680.0,6.0,2.875732,3.0,8.0
5690.0,6.0,2.720546,3.0,8.0
5700.0,6.0,2.7174532,3.0,8.0
5710.0,6.0,2.719602,3.0,8.0
5720.0,6.0,2.7618098,3.0,8.0
5730.0,6.0,2.7755532,3.0,8.0
5740.0,6.0,2.753854,3.0,8.0
5750.0,6.0,2.7623386,3.0,8.0
5760.0,6.0,2.7465322,3.0,8.0
5770.0,6.0,2.7328722,3.0,8.0
5780.0,6.0,2.7313569,3.0,8.0
5790.0,6.0,2.7398498,3.0,8.0
5800.0,6.0,2.7296038,3.0,8.0
5810.0,6.0,2.695807,3.0,8.0
5820.0,6.0,2.6456444,3.0,8.0
5830.0,6.0,2.6099043,4.0,8.0
5840.0,6.0,2.603046,4.0,8.0
5850.0,6.0,2.5814102,4.0,8.0
5860.0,6.0,2.5388255,4.0,8.0
5870.0,6.0,2.5396843,4.0,8.0
5880.0,6.0,2.4861345,4.0,8.0
5890.0,7.0,2.4162717,4.0,8.0
5900.0,7.0,2.40743,4.0,8.0
5910.0,7.0,2.395562,4.0,8.0
5920.0,7.0,2.3862002,4.0,8.0
5930.0,7.0,2.3461854,4.0,8.0
5940.0,7.0,2.2949998,4.0,8.0
5950.0,7.0,2.265179,4.0,8.0
5960.0,7.0,2.2789638,4.0,8.0
5970.0,7.0,2.2220151,4.0,8.0
5980.0,7.0,2.1959589,4.0,8.0
5990.0,7.0,2.1743681,4.0,8.0
6000.0,7.0,2.1447935,4.0,8.0
6010.0,7.0,2.1009881,4.0,8.0
6020.0,7.0,2.0475817,5.0,8.0
6030.0,7.0,2.0464973,5.0,9.0
6040.0,7.0,2.0315619,5.0,9.0
6050.0,7.0,1.9898036,5.0,9.0
6060.0,7.0,1.9386375,5.0,9.0
6070.0,7.0,1.9249552,5.0,9.0
6080.0,7.0,1.8932978,5.0,9.0
6090.0,7.0,1.8831027,5.0,9.0
6100.0,7.0,1.7877519,5.0,9.0
6110.0,7.0,1.7942349,5.0,9.0
6120.0,7.0,1.791713,5.0,9.0
6130.0,7.0,1.8002708,5.0,9.0
6140.0,7.0,1.7765131,6.0,9.0
6150.0,7.0,1.802366,6.0,9.0
6160.0,7.0,1.7606534,6.0,9.0
6170.0,7.0,1.6915647,6.0,9.0
6180.0,7.0,1.6669656,6.0,9.0
6190.0,7.0,1.6683537,6.0,9.0
6200.0,7.0,1.6731739,6.0,9.0
6210.0,7.0,1.6687554,6.0,9.0
6220.0,7.0,1.6649854,6.0,9.0
6230.0,8.0,1.668747,6.0,9.0
6240.0,8.0,1.5904561,6.0,9.0
6250.0,8.0,1.5299612,6.0,9.0
6260.0,8.0,1.4933063,6.0,9.0
6270.0,8.0,1.4993318,6.0,9.0
6280.0,8.0,1.500665,6.0,9.0
6290.0,8.0,1.4978064,6.0,9.0
6300.0,8.0,1.4706192,6.0,9.0
6310.0,8.0,1.460875,7.0,9.0
6320.0,8.0,1.469385,7.0,9.0
6330.0,8.0,1.4114953,7.0,9.0
6340.0,8.0,1.4219086,7.0,9.0
6350.0,8.0,1.4929123,7.0,9.0
6360.0,8.0,1.5823334,7.0,9.0
6370.0,8.0,1.5473816,7.0,9.0
6380.0,8.0,1.5427428,7.0,9.0
6390.0,8.0,1.4907906,7.0,9.0
6400.0,8.0,1.5270467,7.0,9.0
6410.0,8.0,1.5591792,7.0,9.0
6420.0,8.0,1.563413,7.0,9.0
6430.0,8.0,1.5174614,7.0,9.0
6440.0,8.0,1.4821035,8.0,10.0
6450.0,8.0,1.4630018,8.0,10.0
6460.0,8.0,1.4661655,8.0,10.0
6470.0,9.0,1.5022846,8.0,10.0
6480.0,9.0,1.4796183,8.0,10.0
6490.0,9.0,1.4868804,8.0,10.0
6500.0,8.0,1.3780224,8.0,10.0
6510.0,8.0,1.258289,8.0,10.0
6520.0,8.0,1.2559001,8.0,10.0
6530.0,8.0,1.2566913,8.0,10.0
6540.0,8.0,1.2550908,8.0,10.0
6550.0,9.0,1.278871,8.0,10.0
6560.0,9.0,1.1624256,8.0,10.0
6570.0,9.0,1.3088477,8.0,10.0
6580.0,9.0,1.3694228,8.0,10.0
6590.0,9.0,1.2996941,8.0,10.0
6600.0,9.0,1.3359954,8.0,10.0
6610.0,9.0,1.3345398,8.0,10.0
6620.0,9.0,1.315508,8.0,10.0
6630.0,9.0,1.3633748,8.0,10.0
6640.0,9.0,1.4009386,8.0,10.0
6650.0,9.0,1.3792304,8.0,10.0
6660.0,9.0,1.3717053,8.0,10.0
6670.0,9.0,1.3709753,8.0,10.0
6680.0,9.0,1.3160472,8.0,10.0
6690.0,9.0,1.3160472,8.0,10.0
6700.0,9.0,1.3438416,8.0,11.0
6710.0,9.0,1.432153,8.0,11.0
6720.0,9.0,1.4609586,8.0,11.0
6730.0,9.0,1.6305935,8.0,11.0
6740.0,9.0,1.6301411,8.0,11.0
6750.0,9.0,1.6300606,8.0,11.0
6760.0,9.0,1.6831154,8.0,11.0
6770.0,9.0,1.7401383,8.0,11.0
6780.0,9.0,1.7399552,8.0,11.0
6790.0,9.0,1.8078626,8.0,11.0
6800.0,9.0,1.7930655,8.0,11.0
6810.0,9.0,1.8052176,8.0,11.0
6820.0,9.0,1.8036526,8.0,11.0
6830.0,10.0,1.8522912,8.0,11.0
6840.0,9.0,1.8863326,8.0,11.0
6850.0,9.0,1.8853046,8.0,11.0
6860.0,9.0,1.9024634,8.0,11.0
6870.0,9.0,1.9008843,8.0,11.0
6880.0,9.0,1.8987767,8.0,11.0
6890.0,9.0,1.9712633,8.0,11.0
6900.0,9.0,1.9812629,8.0,11.0
6910.0,9.0,2.0271425,8.0,11.0
6920.0,10.0,2.0237389,8.0,11.0
6930.0,10.0,2.052148,8.0,11.0
6940.0,10.0,2.0496678,8.0,11.0
6950.0,10.0,2.0777612,8.0,11.0
6960.0,10.0,2.149018,8.0,11.0
6970.0,9.0,2.196333,8.0,11.0
6980.0,9.0,2.1905544,8.0,11.0
6990.0,10.0,2.2058952,8.0,12.0
7000.0,10.0,2.1665425,8.0,12.0
7010.0,10.0,2.1164477,8.0,12.0
7020.0,10.0,2.231747,8.0,12.0
7030.0,10.0,2.1998947,8.0,11.0
7040.0,10.0,2.2010775,8.0,11.0
7050.0,10.0,2.2645285,8.0,11.0
7060.0,9.0,2.2286563,8.0,11.0
7070.0,9.0,2.1861513,8.0,11.0
7080.0,9.0,2.1861074,8.0,11.0
7090.0,9.0,2.1639519,8.0,11.0
7100.0,9.0,2.1620307,8.0,11.0
7110.0,9.0,2.1589854,8.0,11.0
7120.0,9.0,2.1589708,8.0,11.0
7130.0,9.0,2.1547942,8.0,11.0
7140.0,9.0,2.1600993,8.0,11.0
7150.0,9.0,2.1513734,8.0,11.0
7160.0,9.0,2.0714803,8.0,11.0
7170.0,9.0,2.0475526,8.0,11.0
7180.0,9.0,2.0147738,8.0,11.0
7190.0,9.0,1.8749292,8.0,11.0
7200.0,9.0,1.9208013,8.0,10.0
7210.0,9.0,1.9281671,7.0,10.0
7220.0,9.0,1.9013681,7.0,10.0
7230.0,9.0,1.9697692,7.0,10.0
7240.0,9.0,1.9984834,7.0,10.0
7250.0,9.0,1.9960182,7.0,10.0
7260.0,9.0,1.9928902,7.5,10.0
7270.0,9.0,1.9925373,7.5,10.0
7280.0,9.0,1.9885143,8.0,10.0
7290.0,9.0,1.9312404,8.0,10.0
7300.0,9.0,1.892793,8.0,10.0
7310.0,9.0,1.8667082,8.0,10.0
7320.0,9.0,1.8604232,8.0,10.0
7330.0,9.0,1.8935045,8.0,10.0
7340.0,9.0,1.8914777,8.0,10.0
7350.0,9.0,1.8623655,8.0,10.0
7360.0,9.0,1.859405,8.0,10.0
7370.0,9.0,1.8576529,8.0,10.0
7380.0,9.0,1.863423,8.0,10.0
7390.0,10.0,1.9211558,8.0,10.0
7400.0,10.0,1.8982558,8.0,10.0
7410.0,10.0,1.8951373,8.0,10.0
7420.0,10.0,1.8928692,8.0,10.0
7430.0,10.0,1.8913531,8.0,10.0
7440.0,10.0,1.8917202,8.0,10.0
7450.0,10.0,1.8877805,8.0,10.0
7460.0,10.0,1.8783606,8.0,10.0
7470.0,10.0,1.8757904,8.0,10.0
7480.0,10.0,1.8742828,8.0,10.0
7490.0,10.0,1.905833,7.0,10.0
7500.0,10.0,1.8454033,7.0,10.0
7510.0,10.0,1.8447636,7.0,10.0
7520.0,10.0,1.843839,7.0,10.0
7530.0,10.0,1.8406376,7.0,10.0
7540.0,10.0,1.8702712,7.0,10.0
7550.0,10.0,1.9219881,7.0,10.0
7560.0,10.0,1.9993166,7.0,10.0
7570.0,10.0,2.0500145,7.0,11.0
7580.0,10.0,2.0367982,7.0,11.0
7590.0,10.0,2.0123906,7.0,10.0
7600.0,10.0,2.0999293,7.0,11.0
7610.0,10.0,2.1005676,7.0,11.0
7620.0,10.0,2.0998263,7.0,11.0
7630.0,10.0,2.096643,7.0,11.0
7640.0,10.0,2.0961082,7.0,11.0
7650.0,10.0,2.117741,7.0,11.0
7660.0,10.0,2.1758087,7.0,11.0
7670.0,10.0,2.1728332,7.0,11.0
7680.0,10.0,2.16957,7.0,11.0
7690.0,10.0,2.1697106,7.0,11.0
7700.0,10.0,2.173353,7.0,11.0
7710.0,10.0,2.1760387,7.0,11.0
7720.0,10.0,2.1754224,7.0,11.0
7730.0,10.0,2.1975806,7.0,11.0
7740.0,10.0,2.1985986,7.0,11.0
7750.0,10.0,2.1964047,7.0,11.0
7760.0,10.0,2.1932368,7.0,11.0
7770.0,10.0,2.1926425,7.0,11.0
7780.0,10.0,2.1090765,7.0,11.0
7790.0,10.0,1.2205867,9.0,10.0
7800.0,10.0,1.1670779,9.0,10.0
7810.0,10.0,1.1131775,9.0,10.0
7820.0,10.0,1.0591979,9.0,10.0
7830.0,10.0,1.0269958,9.0,10.0
7840.0,10.0,1.025003,9.0,10.0
7850.0,10.0,1.009436,9.0,10.0
7860.0,10.0,1.0021845,9.0,10.0
7870.0,10.0,1.0252784,9.0,11.0
7880.0,10.0,1.0427394,9.0,11.0
7890.0,10.0,1.043758,9.0,11.0
7900.0,10.0,1.050607,9.0,11.0
7910.0,10.0,1.0578072,9.0,11.0
7920.0,10.0,1.0386726,9.0,11.0
7930.0,10.0,1.0177917,9.0,11.0
7940.0,10.0,0.9952442,9.0,11.0
7950.0,10.0,0.97517943,9.0,11.0
7960.0,10.0,0.99255896,9.0,11.0
7970.0,10.0,1.0290015,9.0,11.0
7980.0,10.0,1.0314528,9.0,11.0
7990.0,10.0,1.0066019,9.0,11.0
8000.0,10.0,1.0245701,9.0,11.0
8010.0,10.0,0.96349156,9.0,10.0
8020.0,10.0,0.9846686,9.0,10.0
8030.0,10.0,0.98962164,9.0,10.0
8040.0,10.0,1.0177902,9.0,11.0
8050.0,10.0,0.99673015,9.0,11.0
8060.0,10.0,1.0203888,9.0,11.0
8070.0,10.0,1.0233259,9.0,11.0
8080.0,10.0,0.98455864,9.0,11.0
8090.0,10.0,0.96797466,9.0,11.0
8100.0,10.0,0.9763686,9.0,11.0
8110.0,10.0,0.97927266,9.0,11.0
8120.0,10.0,0.93863684,9.0,11.0
8130.0,10.0,0.8923923,9.0,11.0
8140.0,10.0,0.8709031,9.0,10.0
8150.0,10.0,0.8134611,9.0,10.0
8160.0,10.0,0.7982279,9.0,11.0
8170.0,10.0,0.7817187,9.0,11.0
8180.0,10.0,0.7952397,9.0,11.0
8190.0,10.0,0.8045645,9.0,11.0
8200.0,10.0,0.8165237,9.0,11.0
8210.0,10.0,0.8001386,9.0,11.0
8220.0,10.0,0.801975,9.0,11.0
8230.0,10.0,0.8949727,9.0,11.0
8240.0,10.0,0.7490283,9.0,10.0
8250.0,10.0,0.7638313,9.0,10.0
8260.0,10.0,0.7792792,9.0,10.0
8270.0,10.0,0.7786617,9.0,10.0
8280.0,10.0,0.7630832,9.0,10.0
8290.0,10.0,0.73182136,9.0,10.0
8300.0,9.0,0.70027924,9.0,10.0
8310.0,9.0,0.7198499,9.0,10.0
8320.0,9.0,0.7423676,9.0,10.0
8330.0,9.0,0.78871983,9.0,10.0
8340.0,9.0,0.84390026,9.0,10.0
8350.0,9.0,0.8817484,9.0,10.0
8360.0,9.0,0.8974721,9.0,10.0
8370.0,9.0,0.9138906,9.0,10.0
8380.0,9.0,0.9305628,9.0,10.0
8390.0,9.0,0.9319379,9.0,10.0
8400.0,9.0,0.9119819,9.0,10.0
8410.0,9.0,0.8983548,9.0,10.0
8420.0,9.0,0.9350389,8.0,10.0
8430.0,9.0,0.96803933,8.0,10.0
8440.0,9.0,1.0019054,8.0,10.0
8450.0,9.0,1.0550227,9.0,10.0
8460.0,9.0,1.0773022,9.0,10.0
8470.0,9.0,1.0697869,8.0,10.0
8480.0,9.0,1.0734297,8.0,10.0
8490.0,9.0,1.0827148,9.0,10.0
8500.0,9.0,1.1069739,9.0,10.0
8510.0,9.0,1.1577666,9.0,10.0
8520.0,9.0,1.1932453,8.0,10.0
8530.0,9.0,1.1834304,8.0,10.0
8540.0,9.0,1.290165,8.0,10.0
8550.0,9.0,1.2951545,8.0,10.0
8560.0,9.0,1.2672063,8.0,10.0
8570.0,9.0,1.2617458,8.0,10.0
8580.0,9.0,1.2622547,8.0,10.0
8590.0,9.0,1.2627078,8.0,10.0
8600.0,9.0,1.2487006,8.0,10.0
8610.0,9.0,1.2375944,7.0,10.0
8620.0,9.0,1.2232027,7.0,10.0
8630.0,9.0,1.2050838,7.0,10.0
8640.0,9.0,1.2083529,7.0,10.0
8650.0,9.0,1.2030698,8.0,10.0
8660.0,9.0,1.2166249,8.0,10.0
8670.0,9.0,1.2393062,7.0,10.0
8680.0,9.0,1.2501425,8.0,10.0
8690.0,9.0,1.210488,8.0,10.0
8700.0,9.0,0.94732463,8.0,10.0
8710.0,9.0,0.87679815,8.0,10.0
8720.0,9.0,0.91663736,8.0,10.0
8730.0,9.0,0.91692454,8.0,10.0
8740.0,9.0,0.9021552,8.0,10.0
8750.0,9.0,0.8132872,8.0,10.0
8760.0,9.0,0.8135134,8.0,10.0
8770.0,9.0,0.7930794,8.0,10.0
8780.0,9.0,0.81328726,8.0,10.0
8790.0,9.0,0.81328726,8.0,10.0
8800.0,9.0,0.7930794,8.0,10.0
8810.0,9.0,0.8013932,8.0,10.0
8820.0,9.0,0.80098593,8.0,10.0
8830.0,9.0,0.80218697,8.0,10.0
8840.0,9.0,0.8380262,9.0,10.0
8850.0,9.0,0.8380262,9.0,10.0
8860.0,9.0,0.83650863,9.0,10.0
8870.0,9.0,0.88094455,9.0,10.0
8880.0,9.0,0.8814074,9.0,10.0
8890.0,9.0,0.88067377,9.0,10.0
8900.0,9.0,0.78297347,9.0,10.0
8910.0,9.0,0.7988891,9.0,10.0
8920.0,9.0,0.7988891,9.0,10.0
8930.0,9.0,0.91741616,8.0,10.0
8940.0,9.0,0.8912457,9.0,10.0
8950.0,9.0,0.8905903,9.0,10.0
8960.0,9.0,0.88094455,9.0,10.0
8970.0,9.0,0.8814074,9.0,10.0
8980.0,9.0,0.88067377,9.0,10.0
8990.0,9.0,0.94250304,9.0,10.0
9000.0,9.0,0.9655203,9.0,10.0
9010.0,9.0,0.96684986,9.0,10.0
9020.0,9.0,1.040838,8.0,10.0
9030.0,9.0,1.0204921,9.0,10.0
9040.0,9.0,1.0186552,9.0,10.0
9050.0,9.0,1.0163655,8.0,10.0
9060.0,9.0,0.9859652,9.0,10.0
9070.0,9.0,0.9859652,9.0,10.0
9080.0,9.0,0.8999284,9.0,10.0
9090.0,9.0,0.92061716,9.0,10.0
9100.0,9.0,0.92042893,9.0,10.0
9110.0,9.0,0.95654374,9.0,10.0
9120.0,9.0,0.9516725,9.0,10.0
9130.0,9.0,0.9516725,9.0,10.0
9140.0,9.0,0.93218946,9.0,10.0
9150.0,9.0,0.93789685,8.0,10.0
9160.0,9.0,0.9384992,8.0,10.0
9170.0,9.0,0.9726253,8.0,10.0
9180.0,9.0,0.96989095,8.0,10.0
9190.0,9.0,0.9692879,8.0,10.0
9200.0,9.0,1.0258454,8.0,10.0
9210.0,9.0,0.99527687,8.0,10.0
9220.0,9.0,0.9950899,8.0,10.0
9230.0,9.0,1.0348946,8.0,10.0
9240.0,9.0,1.0166534,8.0,9.0
9250.0,9.0,1.0166534,8.0,9.0
9260.0,9.0,1.0169234,8.0,9.0
9270.0,9.0,0.9963103,8.0,9.0
9280.0,9.0,0.9963103,8.0,9.0
9290.0,9.0,0.9963103,8.0,9.0
9300.0,8.0,0.901299,8.0,9.0
9310.0,8.0,0.9009324,8.0,9.0
9320.0,8.0,0.9025311,8.0,9.0
9330.0,8.0,0.78382653,8.0,9.0
9340.0,8.0,0.78382653,8.0,9.0
9350.0,8.0,0.7832921,8.0,9.0
9360.0,8.0,0.75517553,8.0,9.0
9370.0,8.0,0.75420886,8.0,9.0
9380.0,8.0,0.75420886,8.0,9.0
9390.0,8.0,0.74267364,8.0,9.0
9400.0,8.0,0.74301654,8.0,9.0
9410.0,8.0,0.74301654,8.0,9.0
9420.0,8.0,0.7759149,8.0,9.0
9430.0,8.0,0.7755669,8.0,9.0
9440.0,8.0,0.77594304,8.0,9.0
9450.0,8.0,0.8378394,8.0,9.0
9460.0,8.0,0.822919,8.0,9.0
9470.0,8.0,0.8225108,8.0,9.0
9480.0,8.0,0.87753284,8.0,9.0
9490.0,8.0,0.8779709,8.0,9.0
9500.0,8.0,0.8779709,8.0,9.0
9510.0,8.0,0.8780519,8.0,9.0
9520.0,8.0,0.8774304,8.0,9.0
9530.0,8.0,0.87734985,8.0,9.0
9540.0,8.0,0.87514806,8.0,9.0
9550.0,8.0,0.8755846,8.0,9.0
9560.0,8.0,0.87514806,8.0,9.0
9570.0,8.0,0.87514806,8.0,9.0
9580.0,8.0,0.8755846,8.0,9.0
9590.0,8.0,0.87514806,8.0,9.0
9600.0,8.0,0.87547714,8.0,9.0
9610.0,8.0,0.88989663,8.0,9.0
9620.0,8.0,0.88989663,8.0,9.0
9630.0,8.0,0.8885618,8.0,9.0
9640.0,8.0,0.90260875,8.0,9.0
9650.0,8.0,0.901731,8.0,9.0
9660.0,8.0,0.95494294,8.0,9.0
9670.0,9.0,1.0004804,8.0,9.0
9680.0,9.0,1.0,8.0,9.0
9690.0,9.0,0.9986689,8.0,9.0
9700.0,9.0,1.02144,8.0,9.0
9710.0,9.0,1.02144,8.0,9.0
9720.0,9.0,1.02144,8.0,9.0
9730.0,9.0,1.0209721,8.0,9.0
9740.0,9.0,1.0269723,8.0,9.0
9750.0,9.0,1.0269723,8.0,9.0
9760.0,9.0,1.0269723,8.0,9.0
9770.0,9.0,1.0261662,8.0,9.0
9780.0,9.0,1.0261662,8.0,9.0
9790.0,9.0,1.0258654,8.0,9.0
9800.0,9.0,1.0258654,8.0,9.0
9810.0,9.0,1.0261662,8.0,9.0
9820.0,9.0,1.0258654,8.0,9.0
9830.0,9.0,1.0261662,8.0,9.0
9840.0,9.0,1.0261662,8.0,9.0
9850.0,9.0,1.1209728,8.0,9.0
9860.0,9.0,1.1734977,8.0,9.0
9870.0,9.0,1.1743547,8.0,9.0
9880.0,9.0,1.1993827,8.0,9.0
9890.0,9.0,1.3238722,8.0,10.0
9900.0,9.0,1.3244442,8.0,10.0
9910.0,9.0,1.2876273,8.0,10.0
9920.0,9.0,1.3327253,8.0,10.0
9930.0,9.0,1.3320626,8.0,10.0
9940.0,9.0,1.2839149,8.0,10.0
9950.0,9.0,1.2832766,8.0,10.0
9960.0,9.0,1.2832766,8.0,10.0
9970.0,9.0,1.2839149,8.0,10.0
9980.0,9.0,1.2670546,8.0,10.0
9990.0,9.0,1.2675526,8.0,10.0
10000.0,9.0,1.2221816,8.0,10.0
10010.0,9.0,1.207745,8.0,10.0
10020.0,9.0,1.207145,8.0,10.0
10030.0,9.0,1.2072479,8.0,10.0
10040.0,9.0,1.1729105,8.0,10.0
10050.0,9.0,1.1723481,8.0,10.0
10060.0,9.0,1.1729237,8.0,10.0
10070.0,9.0,1.1338431,8.0,10.0
10080.0,9.0,1.135024,8.0,10.0
10090.0,9.0,1.1344774,8.0,10.0
10100.0,9.0,1.1344774,8.0,10.0
10110.0,9.0,1.135024,8.0,10.0
10120.0,9.0,1.135024,8.0,10.0
10130.0,9.0,1.1134064,8.0,10.0
10140.0,9.0,1.1134064,8.0,10.0
10150.0,9.0,1.1113797,8.0,10.0
10160.0,9.0,1.1033332,8.0,10.0
10170.0,9.0,1.114474,8.0,10.0
10180.0,9.0,1.0807363,8.0,10.0
10190.0,9.0,0.9890278,8.0,9.0
10200.0,9.0,0.9963707,8.0,9.0
10210.0,9.0,0.9971367,8.0,9.0
10220.0,9.0,0.9969107,8.0,9.0
10230.0,9.0,0.995429,8.0,9.0
10240.0,9.0,0.995429,8.0,9.0
10250.0,9.0,1.018599,8.0,10.0
10260.0,9.0,1.0331028,8.0,10.0
10270.0,9.0,1.0328292,8.0,10.0
10280.0,9.0,0.98673147,8.0,10.0
10290.0,9.0,0.99488723,8.0,10.0
10300.0,9.0,0.9946638,8.0,10.0
10310.0,9.0,1.0178816,8.0,10.0
10320.0,9.0,1.0015743,8.0,10.0
10330.0,9.0,1.0023652,8.0,10.0
10340.0,9.0,0.91301167,8.0,10.0
10350.0,9.0,0.91301167,8.0,10.0
10360.0,9.0,0.91257656,8.0,10.0
10370.0,9.0,0.87724054,8.0,10.0
10380.0,9.0,0.88969,8.0,10.0
10390.0,9.0,0.8893571,8.0,10.0
10400.0,9.0,0.8893836,8.0,10.0
10410.0,9.0,0.8647405,8.0,10.0
10420.0,9.0,0.8647405,8.0,10.0
10430.0,9.0,0.8199585,8.0,10.0
10440.0,9.0,0.844,8.0,10.0
10450.0,9.0,0.8439501,8.0,10.0
10460.0,9.0,0.8439501,8.0,10.0
10470.0,9.0,0.8924439,8.0,10.0
10480.0,9.0,0.8924439,8.0,10.0
10490.0,9.0,0.877673,8.0,10.0
10500.0,9.0,0.96431327,8.0,10.0
10510.0,9.0,0.96431327,8.0,10.0
10520.0,9.0,0.96380746,8.0,10.0
10530.0,9.0,1.064969,8.0,10.0
10540.0,9.0,1.0640128,8.0,10.0
10550.0,9.0,1.0646886,8.0,10.0
10560.0,9.0,1.0553361,8.0,10.0
10570.0,9.0,1.0565792,8.0,10.0
10580.0,9.0,1.0578922,8.0,10.0
10590.0,9.0,1.0565792,8.0,10.0
10600.0,9.0,1.0565792,8.0,10.0
10610.0,9.0,1.0565792,8.0,10.0
10620.0,9.0,1.1821004,8.0,10.0
10630.0,9.0,1.1825284,8.0,10.0
10640.0,9.0,1.1832007,8.0,10.0
10650.0,9.0,1.2064228,8.0,10.0
10660.0,9.0,1.2070214,8.0,10.0
10670.0,9.0,1.2082632,8.0,10.0
10680.0,9.0,1.241802,8.0,10.0
10690.0,9.0,1.2654712,9.0,10.0
10700.0,9.0,1.2654712,9.0,10.0
10710.0,9.0,1.3352798,9.0,10.0
10720.0,9.0,1.3780093,9.0,10.0
10730.0,9.0,1.3819914,9.0,10.0
10740.0,9.0,1.380912,9.0,10.0
10750.0,9.0,1.4439862,9.0,10.0
10760.0,9.0,1.4472487,9.0,10.0
10770.0,9.0,1.4741213,9.0,10.0
10780.0,9.0,1.4769415,9.0,10.0
10790.0,9.0,1.4741213,9.0,10.0
10800.0,9.0,1.4821063,9.0,10.0
10810.0,9.0,1.4774406,9.0,10.0
10820.0,9.0,1.4746244,9.0,10.0
10830.0,9.0,1.5041844,9.0,11.0
10840.0,10.0,1.5648504,9.0,11.0
10850.0,10.0,1.5658741,9.0,11.0
10860.0,10.0,1.566641,9.0,11.0
10870.0,10.0,1.5711093,9.0,11.0
10880.0,10.0,1.568429,9.0,11.0
10890.0,10.0,1.5753487,9.0,11.0
10900.0,10.0,1.5753487,9.0,11.0
10910.0,10.0,1.5727252,9.0,11.0
10920.0,10.0,1.574714,9.0,11.0
10930.0,10.0,1.5731443,9.0,11.0
10940.0,10.0,1.5757616,9.0,11.0
10950.0,10.0,1.5782979,9.0,11.0
10960.0,10.0,1.5185566,9.0,11.0
10970.0,10.0,1.5185566,9.0,11.0
10980.0,10.0,1.5274943,9.0,11.0
10990.0,10.0,1.5489028,9.0,11.0
11000.0,10.0,1.5450176,9.0,11.0
11010.0,10.0,1.5502309,9.0,11.0
11020.0,10.0,1.5284253,9.0,11.0
11030.0,10.0,1.5323132,9.0,11.0
11040.0,10.0,1.5323132,9.0,11.0
11050.0,10.0,1.5290807,9.0,11.0
11060.0,10.0,1.4234157,9.0,11.0
11070.0,10.0,1.4271479,9.0,11.0
11080.0,10.0,1.4097602,9.0,10.0
11090.0,10.0,1.3503329,9.0,10.0
11100.0,10.0,1.3486326,9.0,10.0
11110.0,10.0,1.3494844,9.0,10.0
11120.0,10.0,1.3511478,9.0,10.0
11130.0,10.0,1.3511478,9.0,10.0
11140.0,10.0,1.3494844,9.0,10.0
11150.0,10.0,1.3519157,9.0,10.0
11160.0,10.0,1.3517385,9.0,10.0
11170.0,10.0,1.3526919,9.0,10.0
11180.0,10.0,1.2820672,9.0,10.0
11190.0,10.0,1.2802094,9.0,10.0
11200.0,10.0,1.2973459,9.0,11.0
11210.0,10.0,1.2495755,9.0,11.0
11220.0,10.0,1.2495755,9.0,11.0
11230.0,10.0,1.2261702,9.0,10.0
11240.0,10.0,1.2283958,9.0,10.0
11250.0,10.0,1.2254682,9.0,10.0
11260.0,10.0,1.2283958,9.0,10.0
11270.0,10.0,1.1588439,9.0,11.0
11280.0,10.0,1.1561296,9.0,11.0
11290.0,10.0,1.1588439,9.0,11.0
11300.0,10.0,1.0158213,10.0,11.0
11310.0,10.0,1.0162581,10.0,11.0
11320.0,10.0,1.0255096,10.0,11.0
11330.0,10.0,0.9629461,10.0,11.0
11340.0,10.0,0.96353656,10.0,11.0
11350.0,10.0,0.965034,10.0,11.0
11360.0,10.0,0.86232454,10.0,11.0
11370.0,10.0,0.8602429,10.0,11.0
11380.0,10.0,0.8629892,10.0,11.0
11390.0,10.0,0.8076769,10.0,11.0
11400.0,10.0,0.6717307,10.0,11.0
11410.0,10.0,0.67084605,10.0,11.0
11420.0,10.0,0.6168062,10.0,11.0
11430.0,10.0,0.5888591,10.0,11.0
11440.0,10.0,0.5888591,10.0,11.0
11450.0,10.0,0.5976619,10.0,11.0
11460.0,10.0,0.5498486,10.0,11.0
11470.0,10.0,0.5498486,10.0,11.0
11480.0,10.0,0.66717803,10.0,11.0
11490.0,11.0,0.61128694,10.0,11.0
11500.0,11.0,0.61114824,10.0,11.0
11510.0,10.0,0.559191,10.0,11.0
11520.0,11.0,0.5536383,10.0,11.0
11530.0,11.0,0.5553777,10.0,11.0
11540.0,11.0,0.49761355,10.0,11.0
11550.0,11.0,0.49761355,10.0,11.0
11560.0,11.0,0.49781477,10.0,11.0
11570.0,11.0,0.49976847,10.0,11.0
11580.0,11.0,0.49973541,10.0,11.0
11590.0,11.0,0.49973541,10.0,11.0
11600.0,11.0,0.49973541,10.0,11.0
11610.0,11.0,0.69028854,10.0,11.0
11620.0,11.0,0.69028854,10.0,11.0
11630.0,11.0,0.68140256,10.0,11.0
11640.0,11.0,0.74928653,10.0,11.0
11650.0,11.0,0.74928653,10.0,11.0
11660.0,11.0,0.7610775,10.0,11.0
11670.0,11.0,0.5553777,10.0,11.0
11680.0,11.0,0.5553777,10.0,11.0
11690.0,11.0,0.5536383,10.0,11.0
11700.0,11.0,0.4997354,10.0,11.0
11710.0,11.0,0.4997354,10.0,11.0
11720.0,11.0,0.4997354,10.0,11.0
11730.0,10.0,0.49761355,10.0,11.0
11740.0,10.0,0.49771532,10.0,11.0
11750.0,10.0,0.49771532,10.0,11.0
11760.0,10.0,0.49890685,10.0,11.0
11770.0,10.0,0.49886826,10.0,11.0
11780.0,10.0,0.49886826,10.0,11.0
11790.0,10.0,0.49560344,10.0,11.0
11800.0,10.0,0.4954574,10.0,11.0
11810.0,10.0,0.49721596,10.0,11.0
11820.0,10.0,0.49721596,10.0,11.0
11830.0,10.0,0.49721596,10.0,11.0
11840.0,10.0,0.49721596,10.0,11.0
11850.0,10.0,0.492492,10.0,11.0
11860.0,10.0,0.49257314,10.0,11.0
11870.0,10.0,0.57220066,10.0,11.0
11880.0,10.0,0.6573542,10.0,11.0
11890.0,10.0,0.6899767,10.0,11.0
11900.0,10.0,0.6887712,10.0,11.0
11910.0,10.0,0.68153745,10.0,11.0
11920.0,10.0,0.66363186,10.0,11.0
11930.0,10.0,0.6870216,10.0,11.0
11940.0,10.0,0.6617386,10.0,11.0
11950.0,10.0,0.6566951,10.0,11.0
11960.0,10.0,0.6435643,10.0,10.0
11970.0,10.0,0.6435643,10.0,10.0
11980.0,10.0,0.61726785,10.0,10.0
11990.0,10.0,0.5966893,10.0,10.0
12000.0,10.0,0.59776515,10.0,10.0
12010.0,10.0,0.62975055,9.0,10.0
12020.0,10.0,0.62814057,9.0,10.0
12030.0,10.0,0.5409676,9.0,10.0
12040.0,9.0,0.49914464,9.0,10.0
12050.0,9.0,0.49821144,9.0,10.0
12060.0,9.0,0.47905025,9.0,10.0
12070.0,9.0,0.47505158,9.0,10.0
12080.0,9.0,0.46343645,9.0,10.0
12090.0,9.0,0.46302974,9.0,10.0
12100.0,9.0,0.44665292,9.0,10.0
12110.0,9.0,0.43257838,9.0,9.0
12120.0,9.0,0.44499424,9.0,9.0
12130.0,9.0,0.5185861,9.0,9.0
12140.0,9.0,0.5825894,9.0,9.0
12150.0,9.0,0.5843291,9.0,9.0
12160.0,9.0,0.5842228,9.0,9.0
12170.0,9.0,0.6143879,9.0,9.0
12180.0,9.0,0.62985957,8.0,9.0
12190.0,9.0,0.5658729,8.0,9.0
12200.0,9.0,0.47210118,8.0,9.0
12210.0,9.0,0.46417302,8.0,9.0
12220.0,9.0,0.48405764,8.0,9.0
12230.0,9.0,0.48057884,8.0,9.0
12240.0,9.0,0.9561449,9.0,10.0
12250.0,9.0,0.93939877,9.0,10.0
12260.0,9.0,0.95355296,8.0,10.0
12270.0,9.0,0.94540274,8.0,10.0
12280.0,9.0,0.9464824,8.0,10.0
12290.0,9.0,0.9053696,8.0,10.0
12300.0,9.0,0.8862149,8.0,9.0
12310.0,9.0,0.92744195,8.0,9.0
12320.0,9.0,1.0094525,8.0,9.0
12330.0,8.0,1.0473777,8.0,9.0
12340.0,8.0,1.0147074,8.0,9.0
12350.0,8.0,1.0103616,8.0,9.0
12360.0,8.0,1.0311619,8.0,9.0
12370.0,8.0,1.0255922,8.0,9.0
12380.0,8.0,1.0236381,8.0,9.0
12390.0,8.0,1.0282346,8.0,9.0
12400.0,8.0,1.0527356,7.0,9.0
12410.0,8.0,1.0728654,7.0,9.0
12420.0,8.0,1.0978224,7.0,9.0
12430.0,8.0,1.1053675,7.0,9.0
12440.0,8.0,1.1261452,7.0,9.0
12450.0,8.0,1.1695468,7.0,9.0
12460.0,7.0,1.1849748,7.0,9.0
12470.0,7.0,1.0991772,7.0,9.0
12480.0,7.0,0.9695971,7.0,9.0
12490.0,7.0,0.8704005,7.0,8.0
12500.0,7.0,0.8531188,7.0,8.0
12510.0,7.0,0.8497948,7.0,8.0
12520.0,7.0,0.82655764,7.0,8.0
12530.0,7.0,0.85367334,7.0,8.0
12540.0,7.0,0.8606519,7.0,9.0
12550.0,7.0,0.86034906,7.0,8.0
12560.0,7.0,0.87020165,7.0,9.0
12570.0,7.0,0.87304807,7.0,9.0
12580.0,7.0,0.8736255,7.0,9.0
12590.0,7.0,0.9087015,7.0,9.0
12600.0,7.0,0.9227301,7.0,9.0
12610.0,7.0,0.92657703,7.0,9.0
12620.0,7.0,0.9359647,7.0,9.0
12630.0,7.0,0.95645803,7.0,9.0
12640.0,7.0,0.9744776,7.0,9.0
12650.0,7.0,0.9400908,7.0,9.0
12660.0,7.0,0.90330315,7.0,9.0
12670.0,7.0,0.90101314,7.0,9.0
12680.0,7.0,0.90513355,7.0,9.0
12690.0,7.0,0.90447646,7.0,9.0
12700.0,7.0,0.9003809,7.0,9.0
12710.0,7.0,0.9295477,7.0,9.0
12720.0,7.0,0.9262838,7.0,9.0
12730.0,7.0,0.88412124,7.0,9.0
12740.0,7.0,0.8738803,7.0,9.0
12750.0,8.0,0.8630437,7.0,9.0
12760.0,8.0,0.861622,7.0,9.0
12770.0,7.0,0.84976226,7.0,9.0
12780.0,7.0,0.854929,7.0,9.0
12790.0,7.0,0.850533,7.0,9.0
12800.0,8.0,0.83074605,7.0,9.0
12810.0,8.0,0.80580485,7.0,9.0
12820.0,8.0,0.7863664,7.0,9.0
12830.0,8.0,0.77511543,7.0,9.0
12840.0,8.0,0.739166,7.0,9.0
12850.0,8.0,0.69535506,8.0,9.0
12860.0,8.0,0.6703915,8.0,9.0
12870.0,8.0,0.64172053,8.0,9.0
12880.0,8.0,0.59827656,8.0,8.0
12890.0,8.0,0.47167078,7.0,8.0
12900.0,8.0,0.47840947,7.0,8.0
12910.0,8.0,0.47396386,7.0,8.0
12920.0,8.0,0.4618203,7.0,8.0
12930.0,8.0,0.4472913,7.0,8.0
12940.0,8.0,0.45289856,7.0,8.0
12950.0,8.0,0.5415165,8.0,8.0
12960.0,8.0,0.6100571,8.0,8.0
12970.0,8.0,0.66177285,8.0,8.0
12980.0,8.0,0.7124002,8.0,9.0
12990.0,8.0,0.7229742,8.0,9.0
13000.0,8.0,0.71925896,8.0,9.0
13010.0,8.0,0.7186544,8.0,9.0
13020.0,8.0,0.71927905,8.0,9.0
13030.0,8.0,0.73601425,8.0,9.0
13040.0,8.0,0.78209174,7.0,9.0
13050.0,8.0,0.813506,7.0,9.0
13060.0,8.0,0.8171466,7.0,9.0
13070.0,8.0,0.80929327,7.0,9.0
13080.0,8.0,0.8694588,8.0,9.0
13090.0,8.0,0.9248264,8.0,9.0
13100.0,8.0,0.97066575,8.0,9.0
13110.0,8.0,1.0409833,8.0,9.0
13120.0,8.0,1.0734751,8.0,9.0
13130.0,8.0,1.079865,8.0,9.0
13140.0,8.0,1.0922264,8.0,9.0
13150.0,8.0,1.1063112,8.0,10.0
13160.0,8.0,1.1195203,8.0,10.0
13170.0,9.0,1.1500888,8.0,10.0
13180.0,8.0,1.1635803,7.0,9.0
13190.0,8.0,1.1751794,7.0,10.0
13200.0,8.0,1.1919127,7.0,10.0
13210.0,8.0,1.2108142,7.0,10.0
13220.0,8.0,1.2545925,7.0,10.0
13230.0,8.0,1.3336532,7.0,10.0
13240.0,8.0,1.3740157,7.0,10.0
13250.0,8.0,1.3601173,7.0,10.0
13260.0,8.0,1.3437556,7.0,10.0
13270.0,8.0,1.3631375,8.0,10.0
13280.0,8.0,1.3518817,8.0,10.0
13290.0,8.0,1.3557686,8.0,10.0
13300.0,8.0,1.3595908,8.0,10.0
13310.0,8.0,1.391991,8.0,10.0
13320.0,8.0,1.3838482,8.0,10.0
13330.0,9.0,1.3488629,8.0,10.0
13340.0,9.0,1.332875,8.0,10.0
13350.0,9.0,1.3270082,8.0,10.0
13360.0,9.0,1.3515025,8.0,10.0
13370.0,9.0,1.3731034,8.0,11.0
13380.0,9.0,1.4221112,8.0,11.0
13390.0,9.0,1.4342791,8.0,11.0
13400.0,9.0,1.4097872,8.0,11.0
13410.0,9.0,1.3528012,8.0,11.0
13420.0,9.0,1.3525941,8.0,11.0
13430.0,9.0,1.4238412,8.0,11.0
13440.0,9.0,1.423129,8.0,11.0
13450.0,9.0,1.4262259,8.0,11.0
13460.0,9.0,1.4187568,8.0,11.0
13470.0,10.0,1.4467726,8.0,11.0
13480.0,10.0,1.4298252,8.0,11.0
13490.0,10.0,1.425431,8.0,11.0
13500.0,10.0,1.455691,8.0,11.0
13510.0,10.0,1.5030205,8.0,11.0
13520.0,10.0,1.4779714,9.0,11.0
13530.0,10.0,1.4528667,9.0,11.0
13540.0,10.0,1.4508338,9.0,11.0
13550.0,10.0,1.4716944,9.0,12.0
13560.0,10.0,1.4612584,9.0,12.0
13570.0,10.0,1.4580725,9.0,12.0
13580.0,10.0,1.4880806,9.0,12.0
13590.0,10.0,1.4667825,9.0,12.0
13600.0,10.0,1.4589037,9.0,12.0
13610.0,10.0,1.4604195,9.0,12.0
13620.0,11.0,1.4636527,9.0,12.0
13630.0,11.0,1.4182581,9.0,12.0
13640.0,11.0,1.3796753,9.0,12.0
13650.0,11.0,1.4039358,9.0,12.0
13660.0,11.0,1.4412482,9.0,12.0
13670.0,11.0,1.4539185,9.0,12.0
13680.0,11.0,1.4289001,9.0,12.0
13690.0,11.0,1.4439279,10.0,12.0
13700.0,11.0,1.4668874,9.0,12.0
13710.0,11.0,1.4914302,9.0,12.0
13720.0,11.0,1.4587816,9.0,12.0
13730.0,11.0,1.4537232,10.0,12.0
13740.0,11.0,1.4690132,10.0,12.0
13750.0,11.0,1.5266877,9.0,12.0
13760.0,11.0,1.451281,9.0,12.0
13770.0,11.0,1.4366021,9.0,12.0
13780.0,11.0,1.4454052,9.0,12.0
13790.0,10.0,1.4719766,9.0,12.0
13800.0,11.0,1.4786737,9.0,12.0
13810.0,11.0,1.4380456,9.0,12.0
13820.0,11.0,1.352415,9.0,12.0
13830.0,10.0,1.262903,9.0,12.0
13840.0,10.0,1.2248751,9.0,12.0
13850.0,10.0,1.2269317,9.0,12.0
13860.0,10.0,1.2493834,9.0,12.0
13870.0,10.0,1.2509053,9.0,12.0
13880.0,10.0,1.2540534,9.0,12.0
13890.0,10.0,1.2475512,9.0,11.0
13900.0,10.0,1.2255892,9.0,11.0
13910.0,10.0,1.1717561,9.0,11.0
13920.0,10.0,1.1046284,10.0,11.0
13930.0,10.0,1.0322093,10.0,11.0
13940.0,10.0,0.97270834,10.0,11.0
13950.0,10.0,0.932081,10.0,11.0
13960.0,10.0,0.9184946,9.0,11.0
13970.0,10.0,0.9440994,9.0,11.0
13980.0,10.0,0.9951678,9.0,11.0
13990.0,10.0,1.0753957,9.0,11.0
14000.0,10.0,1.0889666,9.0,11.0
14010.0,10.0,1.0797107,9.0,11.0
14020.0,9.0,1.0453163,9.0,10.0
14030.0,9.0,1.0119877,9.0,10.0
14040.0,9.0,0.9551008,9.0,10.0
14050.0,9.0,0.9084778,9.0,10.0
14060.0,9.0,0.8689991,9.0,10.0
14070.0,9.0,0.85532826,9.0,10.0
14080.0,9.0,0.8491545,9.0,10.0
14090.0,9.0,0.86055744,9.0,10.0
14100.0,9.0,0.84733945,8.0,10.0
14110.0,9.0,0.86754507,8.0,10.0
14120.0,9.0,0.87514174,8.0,10.0
14130.0,9.0,0.86090505,8.0,10.0
14140.0,9.0,0.8739627,8.0,10.0
14150.0,9.0,0.85331565,8.0,9.0
14160.0,9.0,0.88128227,8.0,9.0
14170.0,8.0,0.9407705,8.0,9.0
14180.0,8.0,0.9890913,8.0,9.0
14190.0,8.0,1.0123203,8.0,9.0
14200.0,8.0,1.0085263,8.0,9.0
14210.0,8.0,0.9725652,8.0,9.0
14220.0,8.0,0.960501,8.0,9.0
14230.0,8.0,0.99301815,8.0,9.0
14240.0,8.0,1.0429729,7.0,9.0
14250.0,8.0,1.0550998,7.0,9.0
14260.0,8.0,1.0541506,7.0,9.0
14270.0,8.0,1.0537428,7.0,9.0
14280.0,8.0,1.0471466,7.0,9.0
14290.0,8.0,1.0647254,7.0,9.0
14300.0,8.0,1.0705228,7.0,9.0
14310.0,8.0,1.0773022,7.0,9.0
14320.0,8.0,1.0773022,7.0,9.0
14330.0,8.0,1.1132662,7.0,9.0
14340.0,8.0,1.1132661,7.0,9.0
14350.0,8.0,1.1132661,7.0,9.0
14360.0,8.0,1.1350884,7.0,9.0
14370.0,8.0,1.151956,7.0,9.0
14380.0,8.0,1.151956,7.0,9.0
14390.0,8.0,1.1275796,7.0,9.0
14400.0,8.0,1.1275796,7.0,9.0
14410.0,8.0,1.1196848,7.0,9.0
14420.0,8.0,1.1334081,7.0,10.0
14430.0,8.0,1.1334081,7.0,10.0
14440.0,8.0,1.130806,7.0,10.0
14450.0,8.0,1.1049156,8.0,10.0
14460.0,8.0,1.1049156,8.0,10.0
14470.0,8.0,1.1085678,8.0,10.0
14480.0,8.0,1.1458713,7.0,10.0
14490.0,9.0,1.1609005,7.0,10.0
14500.0,9.0,1.16159,7.0,10.0
14510.0,9.0,1.1373477,8.0,10.0
14520.0,9.0,1.1041173,8.0,10.0
14530.0,9.0,1.1041173,8.0,10.0
14540.0,9.0,1.1041173,8.0,10.0
14550.0,9.0,1.0868051,8.0,10.0
14560.0,8.0,1.074108,8.0,10.0
14570.0,8.0,1.0922027,8.0,10.0
14580.0,8.0,1.102388,8.0,10.0
14590.0,9.0,1.0491619,8.0,10.0
14600.0,9.0,1.0205263,8.0,9.0
14610.0,9.0,1.0114678,8.0,9.0
14620.0,9.0,1.0105519,8.0,9.0
14630.0,8.0,0.95005816,8.0,9.0
14640.0,8.0,0.8797016,8.0,9.0
14650.0,8.0,0.7828007,8.0,9.0
14660.0,8.0,0.7382109,8.0,9.0
14670.0,8.0,0.6964507,8.0,9.0
14680.0,8.0,0.6494051,8.0,9.0
14690.0,8.0,0.59150434,8.0,9.0
14700.0,8.0,0.59822017,8.0,9.0
14710.0,8.0,0.6838427,8.0,9.0
14720.0,8.0,0.75647074,7.0,8.0
14730.0,8.0,0.73590153,7.0,8.0
14740.0,8.0,0.7290806,7.0,8.0
14750.0,8.0,0.7223705,7.0,8.0
14760.0,8.0,0.70826477,7.0,8.0
14770.0,8.0,0.71364284,7.0,8.0
14780.0,8.0,0.70554596,7.0,8.0
14790.0,8.0,0.6902174,7.0,8.0
14800.0,8.0,0.692399,7.0,8.0
14810.0,8.0,0.7050658,7.0,8.0
14820.0,8.0,0.71732205,7.0,8.0
14830.0,8.0,0.72885793,7.0,8.0
14840.0,7.0,0.7363312,7.0,8.0
14850.0,7.0,0.7449,7.0,8.0
14860.0,7.0,0.7530775,7.0,8.0
14870.0,7.0,0.74189365,7.0,8.0
14880.0,7.0,0.73150533,7.0,8.0
14890.0,7.0,0.74324167,7.0,8.0
14900.0,7.0,0.75390464,7.0,8.0
14910.0,7.0,0.7641989,7.0,8.0
14920.0,7.0,0.7758849,7.0,8.0
14930.0,7.0,0.7717906,7.0,8.0
14940.0,7.0,0.75644165,7.0,8.0
14950.0,7.0,0.7578047,7.0,8.0
14960.0,7.0,0.76442534,7.0,8.0
14970.0,7.0,0.76727504,7.0,8.0
14980.0,7.0,0.770551,7.0,8.0
14990.0,7.0,0.7678428,7.0,8.0
15000.0,7.0,0.7539065,7.0,8.0
15010.0,7.0,0.75697255,7.0,8.0
15020.0,7.0,0.7806858,7.0,8.0
15030.0,7.0,0.79304725,7.0,8.0
15040.0,7.0,0.78206307,7.0,8.0
15050.0,7.0,0.7699617,7.0,8.0
15060.0,7.0,0.7670098,7.0,8.0
15070.0,7.0,0.7726666,7.0,8.0
15080.0,7.0,0.82421297,7.0,8.0
15090.0,7.0,0.86645365,7.0,8.0
15100.0,7.0,0.9159406,7.0,8.0
15110.0,8.0,0.96950036,7.0,8.0
15120.0,8.0,0.98952323,7.0,8.0
15130.0,8.0,1.0192494,7.0,9.0
15140.0,8.0,1.0462607,7.0,9.0
15150.0,8.0,1.0495949,7.0,9.0
15160.0,8.0,1.044427,7.0,9.0
15170.0,8.0,0.8229697,7.0,9.0
15180.0,8.0,0.83989054,7.0,9.0
15190.0,8.0,0.84059405,7.0,9.0
15200.0,8.0,0.8557558,7.0,9.0
15210.0,8.0,0.8677391,7.0,9.0
15220.0,8.0,0.9744229,7.0,9.0
15230.0,8.0,0.9615968,7.0,9.0
15240.0,8.0,1.0535173,7.0,9.0
15250.0,8.0,1.0680516,7.0,9.0
15260.0,8.0,1.099624,7.0,9.0
15270.0,8.0,1.1489049,7.0,9.0
15280.0,8.0,1.2171766,7.0,9.0
15290.0,8.0,1.299442,7.0,9.0
15300.0,8.0,1.3008939,7.0,9.0
15310.0,8.0,1.2629818,7.0,9.0
15320.0,8.0,1.2504686,7.0,9.0
15330.0,8.0,1.2512457,7.0,9.0
15340.0,8.0,1.2532573,7.0,9.0
15350.0,8.0,1.2559456,7.0,9.0
15360.0,8.0,1.2573282,7.0,9.0
15370.0,8.0,1.2587062,7.0,9.0
15380.0,8.0,1.2994003,7.0,9.0
15390.0,8.0,1.3004304,7.0,9.0
15400.0,8.0,1.302445,7.0,9.0
15410.0,8.0,1.3360496,6.0,9.0
15420.0,8.0,1.3218877,6.0,9.0
15430.0,8.0,1.3283854,6.0,9.0
15440.0,8.0,1.3344067,6.0,9.0
15450.0,8.0,1.3075157,6.0,9.0
15460.0,8.0,1.3979968,6.0,9.0
15470.0,8.0,1.322525,6.0,9.0
15480.0,8.0,1.3205415,6.0,9.0
15490.0,8.0,1.298798,6.0,8.0
15500.0,8.0,1.2957002,6.0,8.0
15510.0,8.0,1.3551363,7.0,9.0
15520.0,8.0,1.380897,7.0,9.0
15530.0,8.0,1.3088623,7.0,9.0
15540.0,8.0,1.3022137,7.0,9.0
15550.0,8.0,1.2824627,7.0,9.0
15560.0,8.0,1.2588832,7.0,9.0
15570.0,8.0,1.2705646,7.0,9.0
15580.0,8.0,1.2827066,7.0,9.0
15590.0,8.0,1.2232796,7.0,9.0
15600.0,8.0,1.1851637,7.0,9.0
15610.0,8.0,1.1551386,7.0,9.0
15620.0,8.0,1.0921122,7.0,8.0
15630.0,8.0,1.0456557,7.0,8.0
15640.0,8.0,1.003039,7.0,8.0
15650.0,8.0,0.9165311,7.0,8.0
15660.0,8.0,0.79284984,7.0,8.0
15670.0,8.0,0.74981534,7.0,8.0
15680.0,8.0,0.77391464,7.0,8.0
15690.0,8.0,0.7802752,7.0,8.0
15700.0,8.0,0.7519569,7.0,8.0
15710.0,8.0,0.7199,7.0,8.0
15720.0,8.0,0.70842874,7.0,8.0
15730.0,8.0,0.6875177,7.0,8.0
15740.0,8.0,0.7062009,7.0,8.0
15750.0,8.0,0.73772484,7.0,8.0
15760.0,8.0,0.72425866,7.0,8.0
15770.0,8.0,0.6677483,7.0,8.0
15780.0,8.0,0.6325932,7.0,8.0
15790.0,8.0,0.6509414,7.0,8.0
15800.0,8.0,0.67915064,7.0,8.0
15810.0,8.0,0.67340964,7.0,8.0
15820.0,7.0,0.6617896,7.0,8.0
15830.0,7.0,0.66096693,7.0,8.0
15840.0,7.0,0.6664141,7.0,8.0
15850.0,7.0,0.67985606,7.0,8.0
15860.0,7.0,0.691734,7.0,8.0
15870.0,7.0,0.67254454,7.0,8.0
15880.0,7.0,0.65078616,7.0,8.0
15890.0,7.0,0.6370898,7.0,8.0
15900.0,7.0,0.62135315,7.0,8.0
15910.0,7.0,0.606177,7.0,8.0
15920.0,7.0,0.599139,7.0,7.0
15930.0,7.0,0.5729749,7.0,7.0
15940.0,7.0,0.5217011,7.0,7.0
15950.0,7.0,0.50099,7.0,7.0
15960.0,7.0,0.4799881,7.0,7.0
15970.0,7.0,0.43283078,7.0,7.0
15980.0,7.0,0.36599973,7.0,7.0
15990.0,7.0,0.36671355,7.0,7.0
16000.0,7.0,0.37567556,7.0,7.0
16010.0,7.0,0.39211392,7.0,7.0
16020.0,7.0,0.38099363,7.0,7.0
16030.0,7.0,0.39465302,7.0,7.0
16040.0,7.0,0.4081679,7.0,7.0
16050.0,7.0,0.4183873,7.0,7.0
16060.0,7.0,0.43487477,6.0,7.0
16070.0,7.0,0.46621293,6.0,7.0
16080.0,7.0,0.48738366,6.0,7.0
16090.0,7.0,0.49733534,6.0,7.0
16100.0,6.0,0.49995768,6.0,7.0
16110.0,6.0,0.48086485,6.0,7.0
16120.0,6.0,0.40089813,6.0,6.0
16130.0,6.0,0.28342298,6.0,6.0
16140.0,6.0,0.21173951,6.0,6.0
16150.0,6.0,0.17608516,6.0,6.0
16160.0,6.0,0.1293346,6.0,6.0
16170.0,6.0,0.044698928,6.0,6.0
16180.0,6.0,0.0,6.0,6.0
16190.0,6.0,0.0,6.0,6.0
16200.0,6.0,0.0,6.0,6.0
16210.0,6.0,0.0,6.0,6.0
16220.0,6.0,0.0,6.0,6.0
16230.0,6.0,0.0,6.0,6.0
16240.0,6.0,0.0,6.0,6.0
16250.0,6.0,0.0,6.0,6.0
16260.0,6.0,0.0,6.0,6.0
16270.0,6.0,0.0,6.0,6.0
16280.0,6.0,0.0,6.0,6.0
16290.0,6.0,0.0,6.0,6.0
16300.0,6.0,0.0,6.0,6.0
16310.0,6.0,0.0,6.0,6.0
16320.0,6.0,0.0,6.0,6.0
16330.0,6.0,0.0,6.0,6.0
16340.0,6.0,0.0,6.0,6.0
16350.0,6.0,0.0,6.0,6.0
16360.0,6.0,0.0,6.0,6.0
16370.0,6.0,0.0,6.0,6.0
16380.0,6.0,0.0,6.0,6.0
16390.0,6.0,0.0,6.0,6.0
16400.0,6.0,0.0,6.0,6.0
16410.0,6.0,0.0,6.0,6.0
16420.0,6.0,0.0,6.0,6.0
16430.0,6.0,0.0,6.0,6.0
16440.0,6.0,0.0,6.0,6.0
16450.0,6.0,0.0,6.0,6.0
16460.0,6.0,0.0,6.0,6.0
16470.0,6.0,0.0,6.0,6.0
16480.0,6.0,0.0,6.0,6.0
16490.0,6.0,0.0,6.0,6.0
16500.0,6.0,0.0,6.0,6.0
16510.0,6.0,0.0,6.0,6.0
16520.0,6.0,0.0,6.0,6.0
16530.0,6.0,0.0,6.0,6.0
16540.0,6.0,0.0,6.0,6.0
16550.0,6.0,0.0,6.0,6.0
16560.0,6.0,0.0,6.0,6.0
16570.0,6.0,0.0,6.0,6.0
16580.0,6.0,0.08036346,6.0,6.0
16590.0,6.0,0.19930439,6.0,6.0
16600.0,6.0,0.37251982,6.0,6.0
16610.0,6.0,0.74691635,6.0,7.0
16620.0,6.0,0.7609047,6.0,7.0
16630.0,6.0,0.7660123,6.0,7.0
16640.0,6.0,0.76956874,6.0,7.0
16650.0,6.0,0.77433777,6.0,7.0
16660.0,6.0,0.7789422,6.0,7.0
16670.0,6.0,0.78343797,6.0,7.0
16680.0,6.0,0.7878268,6.0,7.0
16690.0,6.0,0.8310181,6.0,7.0
16700.0,6.0,0.86593246,6.0,7.0
16710.0,6.0,0.89380014,6.0,7.0
16720.0,6.0,0.9250504,6.0,7.0
16730.0,6.0,0.94030094,6.0,8.0
16740.0,6.0,0.9522103,6.0,8.0
16750.0,6.0,0.9614603,6.0,8.0
16760.0,6.0,0.9707405,6.0,8.0
16770.0,6.0,1.0380204,6.0,8.0
16780.0,6.0,1.0688479,6.0,8.0
16790.0,6.0,1.1186334,6.0,8.0
16800.0,6.0,1.1322958,6.0,8.0
16810.0,6.0,1.143227,6.0,8.0
16820.0,6.0,1.1530427,6.0,8.0
16830.0,6.0,0.0,6.0,6.0
16840.0,6.0,0.0,6.0,6.0
16850.0,6.0,0.0,6.0,6.0
16860.0,6.0,0.0,6.0,6.0
16870.0,6.0,0.0,6.0,6.0
16880.0,6.0,0.23493451,6.0,6.0
16890.0,6.0,0.40943572,6.0,6.0
16900.0,6.0,0.48017082,6.0,7.0
16910.0,6.0,0.4998791,6.0,7.0
16920.0,6.0,0.49997503,6.0,7.0
16930.0,7.0,0.4920895,6.0,7.0
16940.0,7.0,0.4920895,6.0,7.0
16950.0,7.0,0.48343685,6.0,7.0
16960.0,7.0,0.47676447,6.0,7.0
16970.0,7.0,0.47370878,6.0,7.0
16980.0,7.0,0.45249674,6.0,7.0
16990.0,7.0,0.45249674,6.0,7.0
17000.0,7.0,0.43656498,6.0,7.0
17010.0,7.0,0.43753403,6.0,7.0
17020.0,7.0,0.43656498,6.0,7.0
17030.0,7.0,0.50871336,7.0,7.0
17040.0,7.0,0.59787667,7.0,7.0
17050.0,7.0,0.69515175,7.0,8.0
17060.0,7.0,0.718314,7.0,8.0
17070.0,7.0,0.7177589,7.0,8.0
17080.0,7.0,0.730872,7.0,8.0
17090.0,7.0,0.7520723,7.0,8.0
17100.0,8.0,0.75371015,7.0,8.0
17110.0,8.0,0.64846474,7.0,8.0
17120.0,8.0,0.5458549,7.0,8.0
17130.0,8.0,0.66541344,7.0,8.0
17140.0,8.0,0.7039721,7.0,8.0
17150.0,8.0,0.73552084,7.0,8.0
17160.0,8.0,0.74026036,7.0,8.0
17170.0,8.0,0.7752066,7.0,8.0
17180.0,8.0,0.7522028,7.0,8.0
17190.0,8.0,0.7374545,7.0,8.0
17200.0,8.0,0.69070524,8.0,8.0
17210.0,8.0,0.7128125,8.0,9.0
17220.0,8.0,0.7233491,8.0,9.0
17230.0,8.0,0.75118434,8.0,9.0
17240.0,8.0,0.78598726,8.0,9.0
17250.0,9.0,0.80742747,8.0,9.0
17260.0,9.0,0.8098475,8.0,9.0
17270.0,9.0,0.8116051,8.0,9.0
17280.0,9.0,0.6908891,9.0,9.0
17290.0,9.0,1.1009072,7.0,9.0
17300.0,9.0,1.0933563,7.0,9.0
17310.0,8.0,1.075403,7.0,9.0
17320.0,9.0,1.0693703,7.0,9.0
17330.0,9.0,1.0780433,7.0,9.0
17340.0,9.0,1.1063789,7.0,9.0
17350.0,9.0,1.102095,7.0,9.0
17360.0,9.0,1.0859809,7.0,9.0
17370.0,8.0,1.0631405,7.0,9.0
17380.0,8.0,1.0498651,7.0,9.0
17390.0,8.0,1.041315,7.0,9.0
17400.0,8.0,1.0480092,7.0,9.0
17410.0,8.0,1.0525839,8.0,9.0
17420.0,8.0,1.0634605,7.0,9.0
17430.0,8.0,1.0684142,7.0,9.0
17440.0,8.0,1.0519302,7.0,9.0
17450.0,8.0,1.0400211,7.0,9.0
17460.0,8.0,1.056769,7.0,9.0
17470.0,9.0,1.3220272,8.0,10.0
17480.0,9.0,1.3732808,8.0,11.0
17490.0,9.0,1.4870343,8.0,11.0
17500.0,9.0,1.5987495,8.0,11.0
17510.0,9.0,1.686548,8.0,11.0
17520.0,9.0,1.7849703,8.0,11.0
17530.0,9.0,1.8458071,8.0,11.0
17540.0,9.0,1.899162,8.0,11.0
17550.0,9.0,1.9520037,8.0,12.0
17560.0,9.0,2.03458,8.0,12.0
17570.0,9.0,2.1591551,8.0,12.0
17580.0,9.0,2.2346792,8.0,12.0
17590.0,9.0,2.2692976,8.0,12.0
17600.0,9.0,2.2824364,8.0,12.0
17610.0,9.0,2.3275945,7.0,12.0
17620.0,9.0,2.4392614,7.0,12.0
17630.0,9.0,2.4813123,7.0,12.0
17640.0,9.0,2.5213418,7.0,12.0
17650.0,9.0,2.5570667,7.0,12.0
17660.0,9.0,2.6107745,7.0,12.0
17670.0,9.0,2.6301901,7.0,12.0
17680.0,8.5,2.6393514,7.0,12.0
17690.0,8.0,2.6797984,7.0,12.0
17700.0,8.0,2.696252,7.0,12.0
17710.0,8.0,2.719432,7.0,12.0
17720.0,8.0,2.739416,7.0,12.0
17730.0,8.0,2.7422612,7.0,12.0
17740.0,8.0,2.7387412,7.0,12.0
17750.0,8.0,2.734136,6.0,12.0
17760.0,7.0,2.7428071,6.0,12.0
17770.0,7.0,2.6902936,6.0,12.0
17780.0,7.0,2.6103446,6.0,12.0
17790.0,7.0,2.55979,6.0,11.25
17800.0,7.0,2.5235512,6.0,11.0
17810.0,9.0,1.5125057,7.0,10.0
17820.0,9.0,1.3317469,7.0,9.0
17830.0,9.0,1.375606,7.0,10.0
17840.0,9.0,1.3881813,7.0,10.0
17850.0,9.0,1.3686287,7.0,10.0
17860.0,9.0,1.3802582,7.0,10.0
17870.0,9.0,1.420847,7.0,10.0
17880.0,10.0,1.4644281,8.0,10.0
17890.0,10.0,1.4804941,8.0,10.0
17900.0,10.0,1.5153913,8.0,11.0
17910.0,10.0,1.5570247,7.0,11.0
17920.0,10.0,1.605036,7.0,11.0
17930.0,10.0,1.673014,7.0,11.0
17940.0,10.0,1.7518294,8.0,11.0
17950.0,10.0,1.8265985,8.0,11.0
17960.0,9.0,0.78379565,8.0,10.0
17970.0,9.0,0.5878851,8.0,9.0
17980.0,9.0,0.62413514,9.0,9.0
17990.0,9.0,0.66220164,9.0,10.0
18000.0,9.0,0.72346663,9.0,10.0
18010.0,9.0,0.79339665,9.0,10.0
18020.0,9.0,0.8450986,9.0,10.0
18030.0,9.0,0.92146623,9.0,10.0
18040.0,9.0,0.9283505,9.0,10.0
18050.0,9.0,0.95752114,9.0,11.0
18060.0,10.0,1.0263047,9.0,11.0
18070.0,10.0,1.1204102,9.0,11.0
18080.0,10.0,1.162079,9.0,11.0
18090.0,10.0,1.1657996,9.0,11.0
18100.0,10.0,1.1892451,9.0,11.0
18110.0,10.0,1.2574701,9.0,12.0
18120.0,10.0,1.3353001,9.0,12.0
18130.0,10.0,1.424239,9.0,12.0
18140.0,10.0,1.3850633,9.0,12.0
18150.0,11.0,1.3882618,10.0,12.0
18160.0,11.0,1.3946167,10.0,12.0
18170.0,11.0,1.4762707,10.0,12.0
18180.0,11.0,1.44712,10.0,12.0
18190.0,11.0,1.435954,10.0,12.0
18200.0,11.0,1.4393301,10.0,12.0
18210.0,11.0,1.465316,10.0,13.0
18220.0,11.0,1.4390558,10.0,13.0
18230.0,11.0,1.4456362,10.0,13.0
18240.0,10.0,1.84272,9.0,12.0
18250.0,11.0,1.8900844,9.0,12.0
18260.0,11.0,1.8831284,9.0,12.0
18270.0,10.0,1.8379313,9.0,12.0
18280.0,10.0,1.806402,9.0,12.0
18290.0,10.0,1.7828887,9.0,12.0
18300.0,10.0,1.768057,9.0,12.0
18310.0,10.0,1.723239,9.0,12.0
18320.0,10.0,1.6735977,9.0,12.0
18330.0,11.0,1.646507,9.0,12.0
18340.0,10.0,1.5849768,9.0,12.0
18350.0,10.0,1.5347464,9.0,12.0
18360.0,10.0,1.4446731,9.0,12.0
18370.0,10.0,1.4998298,9.0,12.0
18380.0,10.0,1.5254861,9.0,11.0
18390.0,10.0,1.4761517,9.0,11.0
18400.0,10.0,1.3472712,9.0,11.0
18410.0,10.0,1.2553952,9.0,11.0
18420.0,10.0,1.2849559,9.0,11.0
18430.0,10.0,1.2392107,9.0,11.0
18440.0,10.0,1.1576873,9.0,11.0
18450.0,10.0,1.1318952,9.0,11.0
18460.0,10.0,1.2033182,9.0,11.0
18470.0,10.0,1.2247539,9.0,11.0
18480.0,10.0,1.1360128,9.0,11.0
18490.0,10.0,1.1359776,9.0,11.0
18500.0,10.0,1.2853961,9.0,11.0
18510.0,10.0,1.2665975,9.0,11.0
18520.0,10.0,1.1665657,9.0,11.0
18530.0,10.0,1.0640383,9.0,11.0
18540.0,10.0,0.97546077,9.0,11.0
18550.0,10.0,0.8955129,9.0,11.0
18560.0,10.0,0.860832,9.0,11.0
18570.0,10.0,0.83774424,9.0,11.0
18580.0,10.0,0.83086574,9.0,11.0
18590.0,10.0,0.81582695,9.0,11.0
18600.0,10.0,0.84266025,9.0,11.0
18610.0,10.0,0.8046988,9.0,11.0
18620.0,10.0,0.77135795,9.0,11.0
18630.0,10.0,0.76217115,10.0,11.0
18640.0,10.0,0.8349467,10.0,11.0
18650.0,10.0,0.903823,10.0,11.0
18660.0,10.0,0.8778303,9.0,11.0
18670.0,10.0,0.92392135,9.0,11.0
18680.0,10.0,0.9333414,9.0,11.0
18690.0,10.0,0.93050563,9.0,11.0
18700.0,10.0,0.9249259,9.0,11.0
18710.0,10.0,0.96937734,9.0,11.0
18720.0,10.0,0.9889636,9.0,11.0
18730.0,10.0,0.9906178,9.0,11.0
18740.0,10.0,0.99323416,9.0,11.0
18750.0,10.0,1.0455407,9.0,11.0
18760.0,10.0,1.0589578,9.0,11.0
18770.0,10.0,1.057458,9.0,11.0
18780.0,10.0,1.0249624,9.0,11.0
18790.0,10.0,1.0171195,9.0,11.0
18800.0,10.0,1.0130655,9.0,11.0
18810.0,10.0,0.9906178,9.0,11.0
18820.0,10.0,0.98293203,9.0,11.0
18830.0,10.0,0.98283106,9.0,11.0
18840.0,10.0,0.99055207,9.0,11.0
18850.0,10.0,1.0264424,9.0,11.0
18860.0,10.0,0.9984252,10.0,11.0
18870.0,10.0,0.9927457,10.0,11.0
18880.0,11.0,0.99736774,10.0,11.0
18890.0,11.0,0.9943352,10.0,11.0
18900.0,11.0,0.9681227,10.0,11.0
18910.0,11.0,0.9650158,10.0,11.0
18920.0,11.0,0.9847326,10.0,11.0
18930.0,11.0,0.9692099,10.0,11.0
18940.0,10.0,0.9978457,9.0,11.0
18950.0,10.0,0.67174697,10.0,11.0
18960.0,10.0,0.67283803,10.0,11.0
18970.0,10.0,0.64413583,10.0,11.0
18980.0,10.0,0.65705705,10.0,11.0
18990.0,10.0,0.65679145,10.0,11.0
19000.0,10.0,0.65453494,10.0,11.0
19010.0,11.0,0.6436023,10.0,11.0
19020.0,11.0,0.6437391,10.0,11.0
19030.0,11.0,0.6422764,10.0,11.0
19040.0,11.0,0.6408089,10.0,11.0
19050.0,11.0,0.64247566,10.0,11.0
19060.0,11.0,0.6408619,10.0,11.0
19070.0,11.0,0.6392425,10.0,11.0
19080.0,11.0,0.60781676,10.0,11.0
19090.0,11.0,0.59817237,10.0,11.0
19100.0,11.0,0.6099559,10.0,11.0
19110.0,11.0,0.6098051,10.0,11.0
19120.0,11.0,0.6056932,10.0,11.0
19130.0,11.0,0.60695964,10.0,11.0
19140.0,11.0,0.60273623,10.0,11.0
19150.0,11.0,0.66116875,10.0,11.0
19160.0,11.0,0.7112566,10.0,11.0
19170.0,11.0,0.7489463,10.0,11.0
19180.0,11.0,0.74739707,10.0,11.0
19190.0,11.0,0.8482512,10.0,11.0
19200.0,11.0,0.90416765,10.0,11.0
19210.0,11.0,0.9165594,10.0,11.0
19220.0,11.0,1.0512542,10.0,12.0
19230.0,11.0,1.0760612,10.0,12.0
19240.0,11.0,1.1256229,10.0,12.0
19250.0,11.0,1.140195,10.0,12.0
19260.0,11.0,1.1581833,10.0,12.0
19270.0,11.0,1.1339446,10.0,12.0
19280.0,11.0,1.1343392,10.0,12.0
19290.0,11.0,1.1288571,10.0,12.0
19300.0,11.0,1.2070433,10.0,12.0
19310.0,11.0,1.4112905,10.0,12.0
19320.0,11.0,1.4855798,10.0,12.0
19330.0,11.0,1.4710268,10.0,12.0
19340.0,11.0,1.480458,10.0,12.0
19350.0,11.0,1.504932,9.0,12.0
19360.0,11.0,1.5057645,9.0,12.0
19370.0,11.0,1.5288329,9.0,12.0
19380.0,11.0,1.5474575,9.0,12.0
19390.0,11.0,1.5496863,9.0,12.0
19400.0,11.0,1.5476427,9.0,12.0
19410.0,11.0,1.5149719,9.0,12.0
19420.0,11.0,1.5023155,9.0,12.0
19430.0,11.0,1.436607,9.0,12.0
19440.0,11.0,1.9595914,8.0,12.0
19450.0,11.0,1.9782021,8.0,12.0
19460.0,11.0,2.0103905,8.0,12.0
19470.0,11.0,2.0515182,8.0,12.0
19480.0,11.0,2.075673,8.0,12.0
19490.0,11.0,2.0434048,8.0,12.0
19500.0,11.0,2.005415,9.0,12.0
19510.0,11.0,1.9687337,9.0,12.0
19520.0,11.0,1.9784414,8.75,12.0
19530.0,11.0,1.9948585,8.0,12.0
19540.0,11.0,1.9971993,8.0,12.0
19550.0,11.0,1.999966,8.0,12.0
19560.0,11.0,2.0463376,8.0,12.0
19570.0,11.0,2.0736983,8.0,12.0
19580.0,11.0,2.0570467,8.0,12.0
19590.0,11.0,2.0797238,8.0,12.0
19600.0,11.0,2.1064286,8.0,12.0
19610.0,11.0,2.0945475,8.0,11.0
19620.0,11.0,2.0683048,8.0,11.0
19630.0,11.0,2.0160646,8.0,11.0
19640.0,11.0,1.9530886,8.0,11.0
19650.0,10.0,1.8961006,8.0,11.0
19660.0,10.0,1.8597287,8.0,11.0
19670.0,10.0,1.8231903,8.0,11.0
19680.0,10.0,1.8254904,8.0,11.0
19690.0,10.0,1.8860989,8.0,11.0
19700.0,10.0,1.9030159,8.0,11.0
19710.0,10.0,1.8463777,8.0,12.0
19720.0,10.0,1.2499349,9.0,12.0
19730.0,10.0,1.2551776,9.0,12.0
19740.0,11.0,1.2615552,9.0,12.0
19750.0,11.0,1.2658452,10.0,12.0
19760.0,11.0,1.2810149,10.0,12.0
19770.0,11.0,1.2833809,10.0,12.0
19780.0,11.0,1.1962906,10.0,12.0
19790.0,11.0,1.070064,10.0,12.0
19800.0,11.0,0.9853649,10.0,12.0
19810.0,11.0,0.93766814,10.0,12.0
19820.0,11.0,0.9019978,10.0,12.0
19830.0,11.0,0.864939,10.0,12.0
19840.0,11.0,0.8525351,10.0,12.0
19850.0,11.0,0.8417841,10.0,12.0
19860.0,11.0,0.83490777,10.0,12.0
19870.0,11.0,0.8254174,10.0,12.0
19880.0,11.0,0.79914707,10.0,12.0
19890.0,11.0,0.77443594,10.0,12.0
19900.0,11.0,0.7485373,10.0,12.0
19910.0,11.0,0.74042964,10.0,12.0
19920.0,11.0,0.7400655,10.0,12.0
19930.0,11.0,0.7382893,10.0,11.0
19940.0,11.0,0.74348164,10.0,11.0
19950.0,11.0,0.72638214,10.0,11.0
19960.0,11.0,0.6970518,10.0,11.0
19970.0,11.0,0.65124804,10.0,11.0
19980.0,11.0,0.59751457,10.0,11.0
19990.0,10.0,0.5513176,10.0,11.0
20000.0,10.0,0.51318854,10.0,11.0
20010.0,10.0,0.4983162,10.0,11.0
20020.0,10.0,0.4974937,10.0,11.0
20030.0,10.0,0.49743807,10.0,11.0
20040.0,10.0,0.4958871,10.0,11.0
20050.0,10.0,0.49541363,10.0,11.0
20060.0,10.0,0.49371952,10.0,11.0
20070.0,10.0,0.4899795,10.0,11.0
20080.0,10.0,0.48412293,10.0,11.0
20090.0,10.0,0.2832949,10.0,10.0
20100.0,10.0,0.298795,10.0,10.0
20110.0,10.0,0.3406523,10.0,10.0
20120.0,10.0,0.34384736,10.0,10.0
20130.0,10.0,0.37578222,10.0,10.0
20140.0,10.0,0.3791095,10.0,10.0
20150.0,10.0,0.41234192,10.0,10.0
20160.0,10.0,0.49847364,9.0,10.0
20170.0,10.0,0.59084684,9.0,10.0
20180.0,10.0,0.6059224,9.0,10.0
20190.0,10.0,0.66137004,9.0,10.0
20200.0,10.0,0.67889714,9.0,10.0
20210.0,10.0,0.7112356,9.0,10.0
20220.0,10.0,0.72420055,9.0,10.0
20230.0,10.0,0.743146,9.0,10.0
20240.0,10.0,0.76520324,9.0,10.0
20250.0,9.0,1.2407674,8.0,10.0
20260.0,9.0,1.328426,8.0,10.0
20270.0,9.0,1.3351905,8.0,10.0
20280.0,9.0,1.3183323,8.0,10.0
20290.0,10.0,1.284198,8.0,10.0
20300.0,10.0,1.2385194,8.0,10.0
20310.0,10.0,1.1687106,8.0,10.0
20320.0,10.0,1.0476406,8.0,10.0
20330.0,9.0,0.9473965,8.0,10.0
20340.0,9.0,0.8887243,8.0,10.0
20350.0,10.0,0.8916284,8.0,10.0
20360.0,10.0,0.8834699,8.0,10.0
20370.0,10.0,0.87333995,8.0,10.0
20380.0,9.0,0.8635269,8.0,10.0
20390.0,9.0,0.8544163,8.0,10.0
20400.0,9.0,0.8412081,8.0,10.0
20410.0,9.0,0.8248819,8.0,10.0
20420.0,9.0,0.81142354,9.0,10.0
20430.0,9.0,0.8017487,9.0,10.0
20440.0,9.0,0.7983959,9.0,10.0
20450.0,10.0,1.0431631,8.0,10.0
20460.0,10.0,1.328779,8.0,10.0
20470.0,10.0,1.3739176,8.0,10.0
20480.0,10.0,1.3710659,8.0,10.0
20490.0,10.0,1.3887329,8.0,10.0
20500.0,10.0,1.4027728,8.0,10.0
20510.0,10.0,1.4796658,8.0,10.0
20520.0,10.0,1.4876384,8.0,10.0
20530.0,10.0,1.5251294,8.0,11.0
20540.0,10.0,1.5326146,8.0,11.0
20550.0,10.0,1.5494332,8.0,11.0
20560.0,10.0,1.5506983,8.0,11.0
20570.0,10.0,1.5501068,8.0,11.0
20580.0,10.0,1.5097611,8.0,11.0
20590.0,10.0,1.5083266,8.0,11.0
20600.0,10.0,1.4976013,8.0,11.0
20610.0,10.0,1.5260524,8.0,11.0
20620.0,10.0,1.5237985,8.0,11.0
20630.0,10.0,1.469509,8.0,11.0
20640.0,10.0,1.5163357,9.0,11.0
20650.0,10.0,1.5182675,9.0,11.0
20660.0,10.0,1.5689272,9.0,11.0
20670.0,10.0,1.5510936,9.0,11.0
20680.0,10.0,1.5534078,9.0,11.0
20690.0,10.0,1.5453012,9.0,11.0
20700.0,10.0,1.5315138,9.0,11.0
20710.0,10.0,1.5176853,9.0,11.0
20720.0,10.0,1.4691837,9.0,11.0
20730.0,11.0,1.4709204,9.0,12.0
20740.0,11.0,1.4265989,9.0,12.0
20750.0,11.0,1.6688328,9.0,11.0
20760.0,10.0,0.8464461,9.0,11.0
20770.0,10.0,0.83879817,9.0,11.0
20780.0,10.0,0.8213761,9.0,11.0
20790.0,10.0,0.8058685,9.0,11.0
20800.0,10.0,0.8184767,9.0,11.0
20810.0,10.0,0.8847395,9.0,11.0
20820.0,10.0,0.97029483,9.0,11.0
20830.0,10.0,1.0492735,9.0,11.0
20840.0,10.0,1.0948142,9.0,11.0
20850.0,10.0,1.1427681,9.0,11.0
20860.0,10.0,1.1706681,9.0,11.0
20870.0,10.0,1.2026533,9.0,11.0
20880.0,10.0,1.2209471,9.0,11.0
20890.0,10.0,1.2414793,8.0,11.0
20900.0,10.0,1.2623334,8.0,11.0
20910.0,10.0,1.2915504,8.0,11.0
20920.0,10.0,1.3086824,8.0,11.0
20930.0,10.0,1.3164049,8.0,11.0
20940.0,10.0,1.345359,8.0,11.0
20950.0,10.0,1.4424763,8.0,11.0
20960.0,10.0,1.5412514,8.0,11.0
20970.0,10.0,1.6168381,8.0,11.0
20980.0,10.0,1.6953753,8.0,11.0
20990.0,10.0,1.7347275,8.0,11.0
21000.0,10.0,1.7515064,8.0,11.0
21010.0,10.0,1.7660472,8.0,11.0
21020.0,10.0,1.7933788,8.0,11.0
21030.0,10.0,1.8104627,8.0,11.0
21040.0,10.0,1.8296175,8.0,11.0
21050.0,10.0,1.8452706,8.0,11.0
21060.0,10.0,1.855824,8.0,11.0
21070.0,10.0,1.8827211,8.0,11.0
21080.0,10.0,1.9058969,8.0,12.0
21090.0,10.0,1.9298456,8.0,12.0
21100.0,10.0,1.9247793,8.0,12.0
21110.0,10.0,1.9146341,8.0,12.0
21120.0,10.0,1.9202873,8.0,12.0
21130.0,10.0,1.937363,8.0,12.0
21140.0,10.0,1.9387031,8.0,12.0
21150.0,10.0,1.910219,8.0,12.0
21160.0,10.0,1.8836632,8.0,11.0
21170.0,10.0,1.862513,8.0,11.0
21180.0,10.0,1.8459024,8.0,11.0
21190.0,10.0,1.825851,8.0,11.0
21200.0,10.0,1.8150437,8.0,11.0
21210.0,10.0,1.7930115,8.0,11.0
21220.0,10.0,1.7551576,8.0,11.0
21230.0,10.0,1.7112117,8.0,11.0
21240.0,10.0,1.6555978,8.0,11.0
21250.0,10.0,1.5807668,8.0,11.0
21260.0,10.0,1.5058805,8.0,11.0
21270.0,10.0,1.4634382,8.0,11.0
21280.0,10.0,1.4543586,8.0,11.0
21290.0,10.0,1.4445673,8.0,11.0
21300.0,10.0,1.4226313,8.0,11.0
21310.0,10.0,1.4006395,8.0,11.0
21320.0,10.0,1.3870168,8.0,11.0
21330.0,10.0,1.37688,8.0,11.0
21340.0,10.0,1.3587037,8.0,11.0
21350.0,10.0,1.3342923,8.0,11.0
21360.0,10.0,1.3015099,9.0,11.0
21370.0,10.0,1.2409674,9.0,11.0
21380.0,10.0,1.1897284,9.0,11.0
21390.0,9.0,1.1643023,9.0,11.0
21400.0,9.0,1.1377693,9.0,11.0
21410.0,9.0,1.1144779,9.0,11.0
21420.0,9.0,1.0889034,9.0,11.0
21430.0,9.0,1.061502,9.0,10.0
21440.0,10.0,1.2049472,9.0,11.0
21450.0,10.0,1.113207,9.0,11.0
21460.0,10.0,1.1678839,9.0,11.0
21470.0,10.0,1.1790525,9.0,11.0
21480.0,10.0,1.1908439,9.0,11.0
21490.0,10.0,1.1926212,9.0,11.0
21500.0,10.0,1.2033772,9.0,11.0
21510.0,10.0,1.2404938,9.0,12.0
21520.0,10.0,1.2399627,9.0,12.0
21530.0,10.0,1.2458416,9.0,12.0
21540.0,10.0,1.246546,9.0,12.0
21550.0,10.0,1.2481476,9.0,12.0
21560.0,10.0,1.2505486,9.0,12.0
21570.0,10.0,1.2522383,9.0,12.0
21580.0,10.0,1.2526801,9.0,12.0
21590.0,10.0,1.2400814,9.0,12.0
21600.0,10.0,1.2299579,9.0,12.0
21610.0,10.0,0.42702854,10.0,10.0
21620.0,10.0,0.4494618,9.0,10.0
21630.0,10.0,0.45104286,9.0,10.0
21640.0,10.0,0.455362,9.0,10.0
21650.0,10.0,0.5061785,9.0,10.0
21660.0,10.0,0.57207596,9.0,10.0
21670.0,10.0,0.6457442,10.0,10.0
21680.0,10.0,0.71769017,10.0,11.0
21690.0,10.0,0.7515239,10.0,11.0
21700.0,10.0,0.77099067,10.0,11.0
21710.0,10.0,0.8025902,10.0,11.0
21720.0,10.0,0.80792296,10.0,11.0
21730.0,11.0,0.8002483,10.0,11.0
21740.0,11.0,0.79416597,10.0,11.0
21750.0,11.0,0.83909565,10.0,11.0
21760.0,11.0,0.8749949,10.0,11.0
21770.0,11.0,0.92427903,10.0,11.0
21780.0,11.0,0.9419286,10.0,11.0
21790.0,11.0,0.99581075,10.0,11.0
21800.0,11.0,1.0208002,10.0,11.0
21810.0,11.0,1.0917042,10.0,11.0
21820.0,11.0,1.1152194,10.0,11.0
21830.0,11.0,1.1250887,10.0,11.0
21840.0,11.0,0.96374995,9.0,11.0
21850.0,11.0,0.88429135,10.0,11.0
21860.0,11.0,0.8913905,10.0,11.0
21870.0,11.0,0.8902679,10.0,11.0
21880.0,11.0,0.9718522,9.0,11.0
21890.0,11.0,0.97152984,10.0,11.0
21900.0,11.0,0.96856356,10.0,11.0
21910.0,11.0,1.0325396,10.0,11.0
21920.0,11.0,1.1089131,10.0,11.0
21930.0,11.0,1.1122485,10.0,11.0
21940.0,11.0,1.1122367,10.0,11.0
21950.0,11.0,1.1292468,10.0,11.0
21960.0,11.0,1.150385,10.0,11.0
21970.0,11.0,1.0887843,10.0,12.0
21980.0,11.0,1.0942277,10.0,12.0
21990.0,11.0,1.0689721,10.0,12.0
22000.0,11.0,1.0836651,10.0,12.0
22010.0,11.0,1.0698448,10.0,12.0
22020.0,11.0,1.0671178,10.0,12.0
22030.0,11.0,1.0660431,10.0,12.0
22040.0,11.0,1.0387441,10.0,12.0
22050.0,11.0,1.0370148,10.0,12.0
22060.0,11.0,1.0360633,10.0,12.0
22070.0,11.0,0.99530286,10.0,12.0
22080.0,11.0,0.97487456,10.0,12.0
22090.0,11.0,0.9388578,10.0,12.0
22100.0,11.0,0.89602506,10.0,12.0
22110.0,11.0,0.8629043,10.0,11.25
22120.0,11.0,0.84378254,10.0,11.0
22130.0,11.0,0.8171647,10.0,11.0
22140.0,11.0,0.76601,10.0,11.0
22150.0,11.0,0.7204165,10.0,11.0
22160.0,11.0,0.68501,10.0,11.0
22170.0,11.0,0.670673,10.0,11.0
22180.0,11.0,0.59251016,11.0,11.0
22190.0,11.0,0.51264685,10.0,11.0
22200.0,11.0,0.42993277,11.0,11.0
22210.0,11.0,0.42209756,11.0,11.0
22220.0,11.0,0.40463245,11.0,11.0
22230.0,11.0,0.40050077,11.0,11.0
22240.0,11.0,0.39196762,11.0,11.0
22250.0,11.0,0.37737665,11.0,11.0
22260.0,11.0,0.35942006,11.0,11.0
22270.0,11.0,0.35723493,11.0,11.0
22280.0,11.0,0.38262093,11.0,11.0
22290.0,11.0,0.40864268,11.0,11.0
22300.0,11.0,0.41323262,11.0,11.0
22310.0,11.0,0.4069763,11.0,11.0
22320.0,11.0,0.4339644,10.0,11.0
22330.0,11.0,0.4632064,10.0,11.0
22340.0,11.0,0.472833,10.0,11.0
22350.0,11.0,0.47033077,10.0,11.0
22360.0,11.0,0.47283775,10.0,11.0
22370.0,11.0,0.47745818,10.0,11.0
22380.0,11.0,0.47889656,10.0,11.0
22390.0,11.0,0.47994846,10.0,11.0
22400.0,11.0,0.47804332,10.0,11.0
22410.0,11.0,0.46912053,10.0,11.0
22420.0,11.0,0.46756008,10.0,11.0
22430.0,11.0,0.45182988,10.0,11.0
22440.0,11.0,0.45137453,10.0,11.0
22450.0,11.0,0.45053643,10.0,11.0
22460.0,11.0,0.44954163,10.0,11.0
22470.0,11.0,0.4238568,11.0,11.0
22480.0,11.0,0.34209356,11.0,11.0
22490.0,11.0,0.24462274,11.0,11.0
22500.0,11.0,0.23297247,11.0,11.0
22510.0,11.0,0.31639156,11.0,11.0
22520.0,11.0,0.3873522,11.0,11.0
22530.0,11.0,0.4494111,11.0,11.0
22540.0,11.0,0.48296314,11.0,11.0
22550.0,11.0,0.48684645,11.0,12.0
22560.0,11.0,0.5274178,11.0,12.0
22570.0,11.0,0.605408,11.0,12.0
22580.0,11.0,0.5842125,11.0,12.0
22590.0,11.0,0.5979789,10.0,11.0
22600.0,11.0,0.575613,10.0,11.0
22610.0,11.0,0.5857592,10.0,11.0
22620.0,11.0,0.6353747,10.0,11.0
22630.0,11.0,0.66385764,10.0,11.0
22640.0,11.0,0.67204833,10.0,11.0
22650.0,11.0,0.6764308,10.0,11.0
22660.0,11.0,0.68116915,10.0,11.0
22670.0,11.0,0.68644005,10.0,11.0
22680.0,11.0,0.6999286,10.0,11.0
22690.0,11.0,0.70911574,10.0,11.0
22700.0,11.0,0.718353,10.0,11.0
22710.0,11.0,0.7471921,10.0,11.0
