distance,median,stdev,prc_25,prc_75
20.0,nan,nan,nan,nan
30.0,nan,nan,nan,nan
40.0,nan,nan,nan,nan
50.0,nan,nan,nan,nan
60.0,nan,nan,nan,nan
70.0,nan,nan,nan,nan
80.0,nan,nan,nan,nan
90.0,nan,nan,nan,nan
100.0,nan,nan,nan,nan
110.0,nan,nan,nan,nan
120.0,nan,nan,nan,nan
130.0,nan,nan,nan,nan
140.0,nan,nan,nan,nan
150.0,nan,nan,nan,nan
160.0,nan,nan,nan,nan
170.0,nan,nan,nan,nan
180.0,nan,nan,nan,nan
190.0,nan,nan,nan,nan
200.0,nan,nan,nan,nan
210.0,nan,nan,nan,nan
220.0,nan,nan,nan,nan
230.0,nan,nan,nan,nan
240.0,nan,nan,nan,nan
250.0,nan,nan,nan,nan
260.0,nan,nan,nan,nan
270.0,nan,nan,nan,nan
280.0,nan,nan,nan,nan
290.0,nan,nan,nan,nan
300.0,nan,nan,nan,nan
310.0,nan,nan,nan,nan
320.0,nan,nan,nan,nan
330.0,nan,nan,nan,nan
340.0,nan,nan,nan,nan
350.0,nan,nan,nan,nan
360.0,nan,nan,nan,nan
370.0,nan,nan,nan,nan
380.0,nan,nan,nan,nan
390.0,nan,nan,nan,nan
400.0,nan,nan,nan,nan
410.0,nan,nan,nan,nan
420.0,nan,nan,nan,nan
430.0,nan,nan,nan,nan
440.0,nan,nan,nan,nan
450.0,nan,nan,nan,nan
460.0,nan,nan,nan,nan
470.0,nan,nan,nan,nan
480.0,nan,nan,nan,nan
490.0,nan,nan,nan,nan
500.0,nan,nan,nan,nan
510.0,nan,nan,nan,nan
520.0,nan,nan,nan,nan
530.0,nan,nan,nan,nan
540.0,nan,nan,nan,nan
550.0,nan,nan,nan,nan
560.0,nan,nan,nan,nan
570.0,nan,nan,nan,nan
580.0,nan,nan,nan,nan
590.0,nan,nan,nan,nan
600.0,nan,nan,nan,nan
610.0,nan,nan,nan,nan
620.0,nan,nan,nan,nan
630.0,nan,nan,nan,nan
640.0,nan,nan,nan,nan
650.0,nan,nan,nan,nan
660.0,nan,nan,nan,nan
670.0,nan,nan,nan,nan
680.0,nan,nan,nan,nan
690.0,nan,nan,nan,nan
700.0,nan,nan,nan,nan
710.0,nan,nan,nan,nan
720.0,nan,nan,nan,nan
730.0,nan,nan,nan,nan
740.0,nan,nan,nan,nan
750.0,nan,nan,nan,nan
760.0,nan,nan,nan,nan
770.0,nan,nan,nan,nan
780.0,nan,nan,nan,nan
790.0,nan,nan,nan,nan
800.0,nan,nan,nan,nan
810.0,nan,nan,nan,nan
820.0,nan,nan,nan,nan
830.0,nan,nan,nan,nan
840.0,nan,nan,nan,nan
850.0,nan,nan,nan,nan
860.0,nan,nan,nan,nan
870.0,nan,nan,nan,nan
880.0,nan,nan,nan,nan
890.0,nan,nan,nan,nan
900.0,nan,nan,nan,nan
910.0,nan,nan,nan,nan
920.0,nan,nan,nan,nan
930.0,nan,nan,nan,nan
940.0,nan,nan,nan,nan
950.0,nan,nan,nan,nan
960.0,nan,nan,nan,nan
970.0,nan,nan,nan,nan
980.0,nan,nan,nan,nan
990.0,nan,nan,nan,nan
1000.0,nan,nan,nan,nan
1010.0,nan,nan,nan,nan
1020.0,nan,nan,nan,nan
1030.0,nan,nan,nan,nan
1040.0,nan,nan,nan,nan
1050.0,nan,nan,nan,nan
1060.0,nan,nan,nan,nan
1070.0,nan,nan,nan,nan
1080.0,nan,nan,nan,nan
1090.0,nan,nan,nan,nan
1100.0,nan,nan,nan,nan
1110.0,nan,nan,nan,nan
1120.0,nan,nan,nan,nan
1130.0,nan,nan,nan,nan
1140.0,nan,nan,nan,nan
1150.0,nan,nan,nan,nan
1160.0,nan,nan,nan,nan
1170.0,nan,nan,nan,nan
1180.0,nan,nan,nan,nan
1190.0,nan,nan,nan,nan
1200.0,nan,nan,nan,nan
1210.0,nan,nan,nan,nan
1220.0,nan,nan,nan,nan
1230.0,nan,nan,nan,nan
1240.0,nan,nan,nan,nan
1250.0,nan,nan,nan,nan
1260.0,nan,nan,nan,nan
1270.0,nan,nan,nan,nan
1280.0,nan,nan,nan,nan
1290.0,nan,nan,nan,nan
1300.0,nan,nan,nan,nan
1310.0,nan,nan,nan,nan
1320.0,nan,nan,nan,nan
1330.0,nan,nan,nan,nan
1340.0,nan,nan,nan,nan
1350.0,nan,nan,nan,nan
1360.0,nan,nan,nan,nan
1370.0,nan,nan,nan,nan
1380.0,nan,nan,nan,nan
1390.0,nan,nan,nan,nan
1400.0,nan,nan,nan,nan
1410.0,nan,nan,nan,nan
1420.0,nan,nan,nan,nan
1430.0,nan,nan,nan,nan
1440.0,nan,nan,nan,nan
1450.0,nan,nan,nan,nan
1460.0,nan,nan,nan,nan
1470.0,nan,nan,nan,nan
1480.0,nan,nan,nan,nan
1490.0,nan,nan,nan,nan
1500.0,nan,nan,nan,nan
1510.0,nan,nan,nan,nan
1520.0,nan,nan,nan,nan
1530.0,nan,nan,nan,nan
1540.0,nan,nan,nan,nan
1550.0,nan,nan,nan,nan
1560.0,nan,nan,nan,nan
1570.0,nan,nan,nan,nan
1580.0,nan,nan,nan,nan
1590.0,nan,nan,nan,nan
1600.0,nan,nan,nan,nan
1610.0,nan,nan,nan,nan
1620.0,nan,nan,nan,nan
1630.0,nan,nan,nan,nan
1640.0,nan,nan,nan,nan
1650.0,nan,nan,nan,nan
1660.0,nan,nan,nan,nan
1670.0,nan,nan,nan,nan
1680.0,nan,nan,nan,nan
1690.0,nan,nan,nan,nan
1700.0,nan,nan,nan,nan
1710.0,nan,nan,nan,nan
1720.0,nan,nan,nan,nan
1730.0,nan,nan,nan,nan
1740.0,nan,nan,nan,nan
1750.0,nan,nan,nan,nan
1760.0,nan,nan,nan,nan
1770.0,nan,nan,nan,nan
1780.0,nan,nan,nan,nan
1790.0,nan,nan,nan,nan
1800.0,nan,nan,nan,nan
1810.0,nan,nan,nan,nan
1820.0,nan,nan,nan,nan
1830.0,nan,nan,nan,nan
1840.0,nan,nan,nan,nan
1850.0,nan,nan,nan,nan
1860.0,nan,nan,nan,nan
1870.0,nan,nan,nan,nan
1880.0,nan,nan,nan,nan
1890.0,nan,nan,nan,nan
1900.0,nan,nan,nan,nan
1910.0,nan,nan,nan,nan
1920.0,nan,nan,nan,nan
1930.0,nan,nan,nan,nan
1940.0,nan,nan,nan,nan
1950.0,1.0,0.0,1.0,1.0
1960.0,1.0,0.0,1.0,1.0
1970.0,1.0,0.0,1.0,1.0
1980.0,1.0,0.0,1.0,1.0
1990.0,1.0,0.0,1.0,1.0
2000.0,1.0,0.0,1.0,1.0
2010.0,1.0,0.0,1.0,1.0
2020.0,nan,nan,nan,nan
2030.0,nan,nan,nan,nan
2040.0,1.0,0.0,1.0,1.0
2050.0,1.0,0.0,1.0,1.0
2060.0,1.0,0.0,1.0,1.0
2070.0,1.0,0.0,1.0,1.0
2080.0,1.0,0.0,1.0,1.0
2090.0,1.0,0.0,1.0,1.0
2100.0,1.0,0.0,1.0,1.0
2110.0,1.0,0.0,1.0,1.0
2120.0,1.0,0.0,1.0,1.0
2130.0,1.0,0.0,1.0,1.0
2140.0,1.0,0.0,1.0,1.0
2150.0,1.0,0.0,1.0,1.0
2160.0,1.0,0.0,1.0,1.0
2170.0,1.0,0.0,1.0,1.0
2180.0,1.0,0.0,1.0,1.0
2190.0,1.0,0.0,1.0,1.0
2200.0,1.0,0.0,1.0,1.0
2210.0,1.0,0.0,1.0,1.0
2220.0,1.0,0.0,1.0,1.0
2230.0,1.0,0.0,1.0,1.0
2240.0,1.0,0.0,1.0,1.0
2250.0,1.0,0.0,1.0,1.0
2260.0,1.0,0.0,1.0,1.0
2270.0,1.0,0.0,1.0,1.0
2280.0,1.0,0.0,1.0,1.0
2290.0,1.0,0.37233573,1.0,1.0
2300.0,1.0,0.43091,1.0,1.0
2310.0,1.0,0.4473502,1.0,2.0
2320.0,1.0,0.44694766,1.0,2.0
2330.0,1.0,0.44669667,1.0,2.0
2340.0,1.0,0.4687075,1.0,2.0
2350.0,1.0,0.48451698,1.0,2.0
2360.0,1.0,0.48048657,1.0,2.0
2370.0,1.0,0.47700256,1.0,2.0
2380.0,1.0,0.4853501,1.0,2.0
2390.0,1.0,0.49252498,1.0,2.0
2400.0,1.0,0.48981452,1.0,2.0
2410.0,1.0,0.0,1.0,1.0
2420.0,1.0,0.3921545,1.0,1.0
2430.0,1.0,0.42564628,1.0,1.0
2440.0,1.0,0.4714045,1.0,2.0
2450.0,1.0,0.4714045,1.0,2.0
2460.0,1.0,0.4714045,1.0,2.0
2470.0,1.0,0.47140452,1.0,2.0
2480.0,1.0,0.4856749,1.0,2.0
2490.0,1.0,0.48529473,1.0,2.0
2500.0,1.0,0.489964,1.0,2.0
2510.0,1.0,0.49123833,1.0,2.0
2520.0,1.0,0.49934435,1.0,2.0
2530.0,1.0,0.49934435,1.0,2.0
2540.0,1.0,0.49934435,1.0,2.0
2550.0,1.0,0.49934435,1.0,2.0
2560.0,1.0,0.49930227,1.0,2.0
2570.0,2.0,0.4999412,1.0,2.0
2580.0,2.0,0.4993894,1.0,2.0
2590.0,2.0,0.499254,1.0,2.0
2600.0,2.0,0.499254,1.0,2.0
2610.0,2.0,0.499254,1.0,2.0
2620.0,2.0,0.49999937,1.0,2.0
2630.0,2.0,0.49999937,1.0,2.0
2640.0,1.0,0.49999937,1.0,2.0
2650.0,1.0,0.49938995,1.0,2.0
2660.0,2.0,0.49946386,1.0,2.0
2670.0,2.0,0.49946386,1.0,2.0
2680.0,2.0,0.4999995,1.0,2.0
2690.0,2.0,0.4999995,1.0,2.0
2700.0,2.0,0.4999995,1.0,2.0
2710.0,2.0,0.4999995,1.0,2.0
2720.0,1.0,0.49784315,1.0,2.0
2730.0,1.0,0.49790508,1.0,2.0
2740.0,1.0,0.49784315,1.0,2.0
2750.0,1.0,0.4979782,1.0,2.0
2760.0,1.0,0.49797818,1.0,2.0
2770.0,1.0,0.49578464,1.0,2.0
2780.0,1.0,0.49797672,1.0,2.0
2790.0,2.0,0.49647456,1.0,2.0
2800.0,2.0,0.49894053,1.0,2.0
2810.0,2.0,0.499856,1.0,2.0
2820.0,2.0,0.4999436,1.0,2.0
2830.0,2.0,0.49995103,1.0,2.0
2840.0,2.0,0.49995103,1.0,2.0
2850.0,2.0,0.499964,1.0,2.0
2860.0,2.0,0.499964,1.0,2.0
2870.0,2.0,0.499964,1.0,2.0
2880.0,2.0,0.49989632,1.0,2.0
2890.0,2.0,0.49999893,1.0,2.0
2900.0,1.0,0.49982643,1.0,2.0
2910.0,1.0,0.49992728,1.0,2.0
2920.0,1.0,0.49998578,1.0,2.0
2930.0,2.0,0.4999925,1.0,2.0
2940.0,2.0,0.49992168,1.0,2.0
2950.0,2.0,0.49973625,1.0,2.0
2960.0,2.0,0.49948558,1.0,2.0
2970.0,2.0,0.4991421,1.0,2.0
2980.0,2.0,0.4991542,1.0,2.0
2990.0,2.0,0.49879116,1.0,2.0
3000.0,2.0,0.4981979,1.0,2.0
3010.0,2.0,0.49753007,1.0,2.0
3020.0,2.0,0.49673405,1.0,2.0
3030.0,2.0,0.49699602,1.0,2.0
3040.0,2.0,0.4990274,1.0,2.0
3050.0,2.0,0.49989018,1.0,2.0
3060.0,2.0,0.49995467,1.0,2.0
3070.0,2.0,0.49991325,1.0,2.0
3080.0,1.0,0.49992228,1.0,2.0
3090.0,1.0,0.49937937,1.0,2.0
3100.0,1.0,0.49039447,1.0,2.0
3110.0,1.0,0.49760342,1.0,2.0
3120.0,2.0,0.49999264,1.0,2.0
3130.0,2.0,0.49528006,1.0,2.0
3140.0,2.0,0.48222563,1.0,2.0
3150.0,2.0,0.45751593,1.0,2.0
3160.0,2.0,0.43283144,2.0,2.0
3170.0,2.0,0.45293427,1.0,2.0
3180.0,2.0,0.46775347,1.0,2.0
3190.0,2.0,0.46682075,1.0,2.0
3200.0,2.0,0.4540843,1.0,2.0
3210.0,2.0,0.44436136,1.0,2.0
3220.0,2.0,0.45901117,1.0,2.0
3230.0,2.0,0.45889235,1.0,2.0
3240.0,2.0,0.45528987,1.0,2.0
3250.0,2.0,0.44231334,1.0,2.0
3260.0,2.0,0.4417336,1.0,2.0
3270.0,2.0,0.4411551,1.0,2.0
3280.0,2.0,0.44606203,1.0,2.0
3290.0,2.0,0.43944854,1.0,2.0
3300.0,2.0,0.42552835,2.0,2.0
3310.0,2.0,0.4255737,2.0,2.0
3320.0,2.0,0.4294999,2.0,2.0
3330.0,2.0,0.49919373,1.0,2.0
3340.0,2.0,0.49766207,1.0,2.0
3350.0,2.0,0.49619034,1.0,2.0
3360.0,2.0,0.49567044,1.0,2.0
3370.0,2.0,0.4955872,1.0,2.0
3380.0,2.0,0.49284744,1.0,2.0
3390.0,2.0,0.49259484,1.0,2.0
3400.0,2.0,0.4947325,1.0,2.0
3410.0,2.0,0.49643114,1.0,2.0
3420.0,2.0,0.49443984,1.0,2.0
3430.0,2.0,0.49361125,1.0,2.0
3440.0,2.0,0.49693382,1.0,2.0
3450.0,2.0,0.49907354,1.0,2.0
3460.0,2.0,0.4993039,1.0,2.0
3470.0,2.0,0.49827215,1.0,2.0
3480.0,2.0,0.4969564,1.0,2.0
3490.0,2.0,0.49706957,1.0,2.0
3500.0,2.0,0.4980218,1.0,2.0
3510.0,2.0,0.49706364,1.0,2.0
3520.0,2.0,0.49588707,1.0,2.0
3530.0,2.0,0.4966246,1.0,2.0
3540.0,2.0,0.49650678,1.0,2.0
3550.0,2.0,0.49419025,1.0,2.0
3560.0,2.0,0.49410126,1.0,2.0
3570.0,2.0,0.49499473,1.0,2.0
3580.0,2.0,0.49562484,1.0,2.0
3590.0,2.0,0.4928935,1.0,2.0
3600.0,2.0,0.48969275,1.0,2.0
3610.0,2.0,0.48572588,1.0,2.0
3620.0,2.0,0.48143017,1.0,2.0
3630.0,2.0,0.4794121,1.0,2.0
3640.0,2.0,0.48114866,1.0,2.0
3650.0,2.0,0.51720405,1.0,2.0
3660.0,2.0,0.6365658,1.0,2.0
3670.0,2.0,0.617367,1.0,2.0
3680.0,2.0,0.5436758,1.0,2.0
3690.0,2.0,0.48876444,1.0,2.0
3700.0,2.0,0.45645446,1.0,2.0
3710.0,2.0,0.4554948,1.0,2.0
3720.0,2.0,0.45540556,1.0,2.0
3730.0,2.0,0.46409264,1.0,2.0
3740.0,2.0,0.4770373,1.0,2.0
3750.0,2.0,0.4769021,1.0,2.0
3760.0,2.0,0.47620615,1.0,2.0
3770.0,2.0,0.47607288,1.0,2.0
3780.0,2.0,0.47537175,1.0,2.0
3790.0,2.0,0.47524056,1.0,2.0
3800.0,2.0,0.47453445,1.0,2.0
3810.0,2.0,0.47440544,1.0,2.0
3820.0,2.0,0.4677066,1.0,2.0
3830.0,2.0,0.46049562,1.0,2.0
3840.0,2.0,0.46009228,1.0,2.0
3850.0,2.0,0.4595548,1.0,2.0
3860.0,2.0,0.45915192,1.0,2.0
3870.0,2.0,0.4658237,1.0,2.0
3880.0,2.0,0.4646413,1.0,2.0
3890.0,2.0,0.4534325,1.0,2.0
3900.0,2.0,0.43767676,1.0,2.0
3910.0,2.0,0.44913614,1.0,2.0
3920.0,2.0,0.45706847,1.0,2.0
3930.0,2.0,0.48548034,1.0,2.0
3940.0,2.0,0.49097034,1.0,2.0
3950.0,2.0,0.49957877,1.0,2.0
3960.0,1.0,0.49988952,1.0,2.0
3970.0,1.0,0.49810037,1.0,2.0
3980.0,1.0,0.48548034,1.0,2.0
3990.0,1.0,0.48754725,1.0,2.0
4000.0,1.0,0.494299,1.0,2.0
4010.0,1.0,0.49799278,1.0,2.0
4020.0,1.0,0.49834815,1.0,2.0
4030.0,1.0,0.49561986,1.0,2.0
4040.0,1.0,0.49175036,1.0,2.0
4050.0,1.0,0.4917503,1.0,2.0
4060.0,1.0,0.49151757,1.0,2.0
4070.0,1.0,0.49151757,1.0,2.0
4080.0,1.0,0.49165553,1.0,2.0
4090.0,1.0,0.4960387,1.0,2.0
4100.0,1.0,0.4987611,1.0,2.0
4110.0,1.0,0.49994323,1.0,2.0
4120.0,2.0,0.49999845,1.0,2.0
4130.0,1.0,0.49999958,1.0,2.0
4140.0,1.0,0.49986407,1.0,2.0
4150.0,1.0,0.49953172,1.0,2.0
4160.0,1.0,0.49953172,1.0,2.0
4170.0,1.0,0.49955848,1.0,2.0
4180.0,1.0,0.49950656,1.0,2.0
4190.0,1.0,0.49953172,1.0,2.0
4200.0,2.0,0.49999425,1.0,2.0
4210.0,2.0,0.49953172,1.0,2.0
4220.0,2.0,0.49950653,1.0,2.0
4230.0,2.0,0.49955848,1.0,2.0
4240.0,2.0,0.49953172,1.0,2.0
4250.0,2.0,0.49914262,1.0,2.0
4260.0,2.0,0.49796072,1.0,2.0
4270.0,2.0,0.49631813,1.0,2.0
4280.0,2.0,0.4976491,1.0,2.0
4290.0,2.0,0.49963573,1.0,2.0
4300.0,2.0,0.4983813,1.0,2.0
4310.0,2.0,0.4979504,1.0,2.0
4320.0,2.0,0.49884814,1.0,2.0
4330.0,2.0,0.49998072,1.0,2.0
4340.0,1.5,0.5,1.0,2.0
4350.0,1.5,0.5,1.0,2.0
4360.0,1.5,0.5,1.0,2.0
4370.0,2.0,0.49999845,1.0,2.0
4380.0,1.0,0.49999958,1.0,2.0
4390.0,2.0,0.49985048,1.0,2.0
4400.0,2.0,0.49943876,1.0,2.0
4410.0,2.0,0.49872956,1.0,2.0
4420.0,2.0,0.49695447,1.0,2.0
4430.0,2.0,0.49614465,1.0,2.0
4440.0,2.0,0.49516237,1.0,2.0
4450.0,2.0,0.4966759,1.0,2.0
4460.0,2.0,0.49594676,1.0,2.0
4470.0,2.0,0.49752143,1.0,2.0
4480.0,2.0,0.49744478,1.0,2.0
4490.0,2.0,0.49752143,1.0,2.0
4500.0,2.0,0.49602252,1.0,2.0
4510.0,2.0,0.49549723,1.0,2.0
4520.0,2.0,0.49752143,1.0,2.0
4530.0,2.0,0.4994484,1.0,2.0
4540.0,1.5,0.5,1.0,2.0
4550.0,1.0,0.49978247,1.0,2.0
4560.0,1.0,0.49820313,1.0,2.0
4570.0,1.0,0.4963504,1.0,2.0
4580.0,1.0,0.49628305,1.0,2.0
4590.0,1.0,0.49783474,1.0,2.0
4600.0,1.0,0.49820313,1.0,2.0
4610.0,1.0,0.49746162,1.0,2.0
4620.0,1.0,0.49413165,1.0,2.0
4630.0,1.0,0.4834901,1.0,2.0
4640.0,1.0,0.47031647,1.0,2.0
4650.0,1.0,0.47397465,1.0,2.0
4660.0,1.0,0.48521543,1.0,2.0
4670.0,1.0,0.49415898,1.0,2.0
4680.0,1.0,0.49818963,1.0,2.0
4690.0,1.0,0.499944,1.0,2.0
4700.0,2.0,0.49920863,1.0,2.0
4710.0,2.0,0.49744475,1.0,2.0
4720.0,2.0,0.49695578,1.0,2.0
4730.0,2.0,0.4915473,1.0,2.0
4740.0,2.0,0.47939864,1.0,2.0
4750.0,2.0,0.4730382,1.0,2.0
4760.0,2.0,0.47424546,1.0,2.0
4770.0,2.0,0.45479372,1.0,2.0
4780.0,2.0,0.43220335,2.0,2.0
4790.0,2.0,0.42345545,2.0,2.0
4800.0,2.0,0.41928044,2.0,2.0
4810.0,2.0,0.39294577,2.0,2.0
4820.0,2.0,0.38051137,2.0,2.0
4830.0,2.0,0.4008298,2.0,2.0
4840.0,2.0,0.401255,2.0,2.0
4850.0,2.0,0.40355706,2.0,2.0
4860.0,2.0,0.4350964,1.0,2.0
4870.0,1.0,0.4999499,1.0,2.0
4880.0,1.0,0.49986678,1.0,2.0
4890.0,1.0,0.49985278,1.0,2.0
4900.0,1.0,0.499821,1.0,2.0
4910.0,2.0,0.4994183,1.0,2.0
4920.0,2.0,0.4971048,1.0,2.0
4930.0,2.0,0.4836528,1.0,2.0
4940.0,2.0,0.4842914,1.0,2.0
4950.0,2.0,0.4849119,1.0,2.0
4960.0,2.0,0.48165175,1.0,2.0
4970.0,2.0,0.48196316,1.0,2.0
4980.0,2.0,0.48138314,1.0,2.0
4990.0,2.0,0.4790306,1.0,2.0
5000.0,2.0,0.48005524,1.0,2.0
5010.0,2.0,0.4801514,1.0,2.0
5020.0,2.0,0.47908214,1.0,2.0
5030.0,2.0,0.46942967,1.0,2.0
5040.0,2.0,0.47028884,1.0,2.0
5050.0,2.0,0.47071242,1.0,2.0
5060.0,2.0,0.4778846,1.0,2.0
5070.0,2.0,0.48005214,1.0,2.0
5080.0,2.0,0.4803495,1.0,2.0
5090.0,2.0,0.47567374,1.0,2.0
5100.0,2.0,0.47034883,1.0,2.0
5110.0,2.0,0.47533643,1.0,2.0
5120.0,2.0,0.47215214,1.0,2.0
5130.0,2.0,0.45704305,1.0,2.0
5140.0,2.0,0.4483111,1.0,2.0
5150.0,2.0,0.4390839,1.0,2.0
5160.0,2.0,0.4453135,1.0,2.0
5170.0,2.0,0.45311984,1.0,2.0
5180.0,2.0,0.45412228,1.0,2.0
5190.0,2.0,0.4524363,1.0,2.0
5200.0,2.0,0.41811234,2.0,2.0
5210.0,2.0,0.4001508,2.0,2.0
5220.0,2.0,0.40194264,2.0,2.0
5230.0,2.0,0.40370163,2.0,2.0
5240.0,2.0,0.39308903,2.0,2.0
5250.0,2.0,0.32155982,2.0,2.0
5260.0,2.0,0.31288975,2.0,2.0
5270.0,2.0,0.31288975,2.0,2.0
5280.0,2.0,0.3116392,2.0,2.0
5290.0,2.0,0.2712932,2.0,2.0
5300.0,2.0,0.30618784,2.0,2.0
5310.0,2.0,0.36604622,2.0,2.0
5320.0,2.0,0.4149205,2.0,2.0
5330.0,2.0,0.45256603,2.0,2.0
5340.0,2.0,0.48556668,2.0,2.0
5350.0,2.0,0.48874432,2.0,2.0
5360.0,2.0,0.4912993,2.0,2.0
5370.0,2.0,0.5194762,2.0,2.0
5380.0,2.0,0.5197426,2.0,2.0
5390.0,2.0,0.49855408,2.0,2.0
5400.0,2.0,0.51082444,2.0,2.0
5410.0,2.0,0.53136224,2.0,2.0
5420.0,2.0,0.5296992,2.0,2.0
5430.0,2.0,0.47762445,2.0,2.0
5440.0,2.0,0.43994135,2.0,2.0
5450.0,2.0,0.43720347,2.0,2.0
5460.0,2.0,0.43307462,2.0,2.0
5470.0,2.0,0.41155314,2.0,2.0
5480.0,2.0,0.35246417,2.0,2.0
5490.0,2.0,0.32626796,2.0,2.0
5500.0,2.0,0.3249615,2.0,2.0
5510.0,2.0,0.29614425,2.0,2.0
5520.0,2.0,0.29573974,2.0,2.0
5530.0,2.0,0.2967201,2.0,2.0
5540.0,2.0,0.32375833,2.0,2.0
5550.0,2.0,0.32274792,2.0,2.0
5560.0,2.0,0.22992173,2.0,2.0
5570.0,2.0,0.24475293,2.0,2.0
5580.0,2.0,0.2848723,2.0,2.0
5590.0,2.0,0.28902593,2.0,2.0
5600.0,2.0,0.29043242,2.0,2.0
5610.0,2.0,0.29195958,2.0,2.0
5620.0,2.0,0.2908242,2.0,2.0
5630.0,2.0,0.33128726,2.0,2.0
5640.0,2.0,0.33043352,2.0,2.0
5650.0,2.0,0.3317154,2.0,2.0
5660.0,2.0,0.3308619,2.0,2.0
5670.0,2.0,0.33214512,2.0,2.0
5680.0,2.0,0.33129185,2.0,2.0
5690.0,2.0,0.3647923,2.0,2.0
5700.0,2.0,0.36333257,2.0,2.0
5710.0,2.0,0.35609156,2.0,2.0
5720.0,2.0,0.3693532,2.0,2.0
5730.0,2.0,0.34380144,2.0,2.0
5740.0,2.0,0.3747779,2.0,2.0
5750.0,2.0,0.3751039,2.0,2.0
5760.0,2.0,0.37526715,2.0,2.0
5770.0,2.0,0.37559426,2.0,2.0
5780.0,2.0,0.3757581,2.0,2.0
5790.0,2.0,0.37608638,2.0,2.0
5800.0,2.0,0.37625083,2.0,2.0
5810.0,2.0,0.3773766,2.0,2.0
5820.0,2.0,0.38196084,2.0,2.0
5830.0,2.0,0.40963972,2.0,2.0
5840.0,2.0,0.41061112,2.0,2.0
5850.0,2.0,0.41015407,2.0,2.0
5860.0,2.0,0.4111257,2.0,2.0
5870.0,2.0,0.38061377,2.0,2.0
5880.0,2.0,0.3613518,2.0,2.0
5890.0,2.0,0.36172011,2.0,2.0
5900.0,2.0,0.36190468,2.0,2.0
5910.0,2.0,0.3622746,2.0,2.0
5920.0,2.0,0.36245996,2.0,2.0
5930.0,2.0,0.3628315,2.0,2.0
5940.0,2.0,0.36301762,2.0,2.0
5950.0,2.0,0.36339077,2.0,2.0
5960.0,2.0,0.36357772,2.0,2.0
5970.0,2.0,0.3639525,2.0,2.0
5980.0,2.0,0.36414024,2.0,2.0
5990.0,2.0,0.3645166,2.0,2.0
6000.0,2.0,0.36470515,2.0,2.0
6010.0,2.0,0.36508316,2.0,2.0
6020.0,2.0,0.36527258,2.0,2.0
6030.0,2.0,0.36565217,2.0,2.0
6040.0,2.0,0.3658424,2.0,2.0
6050.0,2.0,0.3662237,2.0,2.0
6060.0,2.0,0.36641473,2.0,2.0
6070.0,2.0,0.36679766,2.0,2.0
6080.0,2.0,0.38635436,2.0,2.0
6090.0,2.0,0.39563882,2.0,2.0
6100.0,2.0,0.39504775,2.0,2.0
6110.0,2.0,0.39620072,2.0,2.0
6120.0,2.0,0.39561108,2.0,2.0
6130.0,2.0,0.39676467,2.0,2.0
6140.0,2.0,0.39617652,2.0,2.0
6150.0,2.0,0.3973307,2.0,2.0
6160.0,2.0,0.39674404,2.0,2.0
6170.0,2.0,0.39789882,2.0,2.0
6180.0,2.0,0.39731365,2.0,2.0
6190.0,2.0,0.3984691,2.0,2.0
6200.0,2.0,0.3978854,2.0,2.0
6210.0,2.0,0.42029667,2.0,2.0
6220.0,2.0,0.44086766,1.0,2.0
6230.0,2.0,0.44299227,1.0,2.0
6240.0,2.0,0.4489989,1.0,2.0
6250.0,2.0,0.4721005,1.0,2.0
6260.0,2.0,0.482666,1.0,2.0
6270.0,2.0,0.48278502,1.0,2.0
6280.0,2.0,0.47026458,1.0,2.0
6290.0,2.0,0.48183912,1.0,2.0
6300.0,2.0,0.48175016,1.0,2.0
6310.0,2.0,0.48315203,1.0,2.0
6320.0,2.0,0.4842932,1.0,2.0
6330.0,2.0,0.49226326,1.0,2.0
6340.0,2.0,0.49234015,1.0,2.0
6350.0,2.0,0.4958738,1.0,2.0
6360.0,2.0,0.49640346,1.0,2.0
6370.0,2.0,0.64832795,1.0,2.0
6380.0,2.0,0.64237225,1.0,2.0
6390.0,2.0,0.6270614,1.0,2.0
6400.0,1.0,0.50617677,1.0,2.0
6410.0,1.0,0.6704214,1.0,2.0
6420.0,1.0,0.66332495,1.0,2.0
6430.0,1.0,0.65743494,1.0,2.0
6440.0,1.0,0.49881202,1.0,2.0
6450.0,1.0,0.49888763,1.0,2.0
6460.0,1.0,0.49875453,1.0,2.0
6470.0,1.0,0.4986505,1.0,2.0
6480.0,1.0,0.49997345,1.0,2.0
6490.0,1.0,0.4999554,1.0,2.0
6500.0,2.0,0.49964976,1.0,2.0
6510.0,2.0,0.47801125,1.0,2.0
6520.0,2.0,0.48644942,1.0,2.0
6530.0,2.0,0.5599364,1.0,2.0
6540.0,2.0,0.5656975,1.0,2.0
6550.0,2.0,0.56575257,1.0,2.0
6560.0,2.0,0.65085876,1.0,2.0
6570.0,2.0,0.65069145,1.0,2.0
6580.0,2.0,0.6545907,1.0,2.0
6590.0,2.0,0.4376071,1.0,2.0
6600.0,2.0,0.43775687,1.0,2.0
6610.0,2.0,0.45420805,1.0,2.0
6620.0,2.0,0.45420805,1.0,2.0
6630.0,2.0,0.45420805,1.0,2.0
6640.0,2.0,0.41897687,2.0,2.0
6650.0,2.0,0.46647617,1.0,2.0
6660.0,2.0,0.46647617,1.0,2.0
6670.0,2.0,0.46647617,1.0,2.0
6680.0,2.0,0.47801125,1.0,2.0
6690.0,2.0,0.47801125,1.0,2.0
6700.0,2.0,0.47801125,1.0,2.0
6710.0,2.0,0.4548159,1.0,2.0
6720.0,2.0,0.45513842,1.0,2.0
6730.0,2.0,0.45435748,1.0,2.0
6740.0,2.0,0.47801125,1.0,2.0
6750.0,2.0,0.47801125,1.0,2.0
6760.0,2.0,0.47801125,1.0,2.0
6770.0,2.0,0.47951818,1.0,2.0
6780.0,2.0,0.4862104,1.0,2.0
6790.0,2.0,0.48644942,1.0,2.0
6800.0,2.0,0.47820914,1.0,2.0
6810.0,2.0,0.47801125,1.0,2.0
6820.0,2.0,0.47801125,1.0,2.0
6830.0,2.0,0.45435748,1.0,2.0
6840.0,2.0,0.43877655,1.0,2.0
6850.0,2.0,0.68714327,1.0,2.0
6860.0,2.0,0.7024902,2.0,2.0
6870.0,2.0,0.6900869,2.0,2.0
6880.0,2.0,0.72968644,2.0,3.0
6890.0,2.0,0.76220465,2.0,3.0
6900.0,2.0,0.734582,2.0,3.0
6910.0,2.0,0.73549396,2.0,3.0
6920.0,2.0,0.7244564,2.0,3.0
6930.0,2.0,0.73201776,2.0,3.0
6940.0,2.0,0.7489785,2.0,3.0
6950.0,2.0,0.7489785,2.0,3.0
6960.0,2.0,0.74966073,2.0,3.0
6970.0,2.0,0.7496605,2.0,3.0
6980.0,2.0,0.7493222,2.0,3.0
6990.0,2.0,0.7603653,2.0,3.0
7000.0,2.0,0.7610583,2.0,3.0
7010.0,2.0,0.7696273,2.0,3.0
7020.0,3.0,0.70633405,2.0,3.0
7030.0,3.0,0.71167326,2.0,3.0
7040.0,3.0,0.7130409,2.0,3.0
7050.0,3.0,0.7044181,2.0,3.0
7060.0,3.0,0.7394826,2.0,3.0
7070.0,3.0,0.7984504,2.0,3.0
7080.0,3.0,0.7984945,2.0,3.0
7090.0,3.0,0.8727437,2.0,3.0
7100.0,3.0,0.90910006,2.0,3.0
7110.0,3.0,0.9451865,2.0,3.0
7120.0,3.0,0.94435,2.0,3.0
7130.0,3.0,0.9112988,2.0,3.0
7140.0,3.0,0.91049,2.0,3.0
7150.0,3.0,0.94631743,2.0,3.0
7160.0,3.0,0.94626695,2.0,3.0
7170.0,3.0,0.9572341,2.0,3.0
7180.0,3.0,0.9357388,2.0,3.0
7190.0,3.0,0.8668573,2.0,3.0
7200.0,2.0,0.88261014,2.0,3.0
7210.0,2.0,0.8856974,2.0,3.0
7220.0,2.0,0.8868337,2.0,3.0
7230.0,2.0,0.88734674,2.0,3.0
7240.0,2.0,0.8862122,2.0,3.0
7250.0,2.0,0.796097,2.0,3.0
7260.0,2.0,0.8235014,1.0,3.0
7270.0,2.0,0.8378294,1.0,3.0
7280.0,2.0,0.837421,1.0,3.0
7290.0,2.0,0.8248887,1.0,3.0
7300.0,2.0,0.8129511,1.0,3.0
7310.0,2.0,0.81212753,1.0,3.0
7320.0,2.0,0.7982085,1.0,3.0
7330.0,2.0,0.80434275,1.0,3.0
7340.0,2.0,0.80434275,1.0,3.0
7350.0,2.0,0.8066085,1.0,3.0
7360.0,2.0,0.8250395,1.0,3.0
7370.0,2.0,0.7788345,1.0,3.0
7380.0,2.0,0.77895623,1.0,3.0
7390.0,2.0,0.79145557,1.0,3.0
7400.0,2.0,0.7642323,1.0,2.0
7410.0,2.0,0.7364123,1.0,2.0
7420.0,2.0,0.7359502,1.0,2.0
7430.0,2.0,0.7045381,1.0,2.0
7440.0,2.0,0.7045381,1.0,2.0
7450.0,2.0,0.7139758,1.0,2.0
7460.0,2.0,0.6422942,1.0,2.0
7470.0,2.0,0.6433678,1.0,2.0
7480.0,2.0,0.6225793,1.0,2.0
7490.0,2.0,0.63338375,1.0,2.0
7500.0,2.0,0.59035045,1.0,2.0
7510.0,2.0,0.58069235,1.0,2.0
7520.0,2.0,0.5921667,1.0,2.0
7530.0,2.0,0.48977178,1.0,2.0
7540.0,2.0,0.47283497,1.0,2.0
7550.0,2.0,0.48231742,1.0,2.0
7560.0,2.0,0.4827712,1.0,2.0
7570.0,2.0,0.4632352,1.0,2.0
7580.0,2.0,0.46943673,1.0,2.0
7590.0,2.0,0.46943673,1.0,2.0
7600.0,2.0,0.45198917,1.0,2.0
7610.0,2.0,0.43402204,1.0,2.0
7620.0,2.0,0.57187605,1.0,2.0
7630.0,2.0,0.58298665,1.0,2.0
7640.0,2.0,0.5944093,1.0,2.0
7650.0,2.0,0.6020743,1.0,2.0
7660.0,2.0,0.6406461,1.0,2.0
7670.0,2.0,0.64029104,1.0,2.0
7680.0,2.0,0.6747001,1.0,2.0
7690.0,2.0,0.73339236,1.0,3.0
7700.0,2.0,0.73211384,1.0,2.75
7710.0,2.0,0.73211384,1.0,2.75
7720.0,2.0,0.75680846,1.0,3.0
7730.0,2.0,0.75680846,1.0,3.0
7740.0,2.0,0.75680846,1.0,3.0
7750.0,2.0,0.7789995,1.0,3.0
7760.0,2.0,0.78852606,1.0,3.0
7770.0,2.0,0.7848337,1.0,3.0
7780.0,2.0,0.7912911,1.0,3.0
7790.0,2.0,0.6639391,2.0,2.0
7800.0,2.0,0.69156057,2.0,3.0
7810.0,2.0,0.6667653,2.0,3.0
7820.0,2.0,0.63852876,2.0,3.0
7830.0,2.0,0.6669237,2.0,3.0
7840.0,2.0,0.7102788,2.0,3.0
7850.0,2.0,0.7141341,2.0,3.0
7860.0,2.0,0.6768129,2.0,3.0
7870.0,2.0,0.6536544,2.0,3.0
7880.0,2.0,0.6650957,2.0,3.0
7890.0,2.0,0.67132634,2.0,3.0
7900.0,2.0,0.6700418,2.0,3.0
7910.0,2.0,0.6986551,2.0,3.0
7920.0,2.0,0.708867,2.0,3.0
7930.0,2.0,0.692242,2.0,3.0
7940.0,2.0,0.6650647,2.0,3.0
7950.0,3.0,0.66089636,2.0,3.0
7960.0,3.0,0.6621196,2.0,3.0
7970.0,3.0,0.679764,2.0,3.0
7980.0,3.0,0.6757891,2.0,3.0
7990.0,3.0,0.6626248,2.0,3.0
8000.0,3.0,0.68605465,2.0,3.0
8010.0,3.0,0.49638695,2.0,3.0
8020.0,3.0,0.49644,2.0,3.0
8030.0,3.0,0.49638695,2.0,3.0
8040.0,3.0,0.53391,2.0,3.0
8050.0,3.0,0.559657,2.0,3.0
8060.0,3.0,0.5560468,2.0,3.0
8070.0,3.0,0.5549775,2.0,3.0
8080.0,3.0,0.6036476,2.0,3.0
8090.0,2.0,0.60043234,2.0,3.0
8100.0,3.0,0.5995051,2.0,3.0
8110.0,3.0,0.5440257,2.0,3.0
8120.0,2.0,0.53989697,2.0,3.0
8130.0,3.0,0.5381812,2.0,3.0
8140.0,3.0,0.6154634,2.0,3.0
8150.0,3.0,0.6355344,2.0,3.0
8160.0,2.0,0.63073075,2.0,3.0
8170.0,3.0,0.6299333,2.0,3.0
8180.0,3.0,0.6308451,2.0,3.0
8190.0,3.0,0.62767434,2.0,3.0
8200.0,3.0,0.6260023,2.0,3.0
8210.0,3.0,0.6717664,2.0,3.0
8220.0,3.0,0.6692802,2.0,3.0
8230.0,2.0,0.57931,2.0,3.0
8240.0,3.0,0.4998675,2.0,3.0
8250.0,2.0,0.49994358,2.0,3.0
8260.0,2.0,0.49980396,2.0,3.0
8270.0,3.0,0.49996966,2.0,3.0
8280.0,3.0,0.49981734,2.0,3.0
8290.0,2.0,0.49929583,2.0,3.0
8300.0,2.0,0.4960151,2.0,3.0
8310.0,2.0,0.5037313,2.0,3.0
8320.0,2.0,0.5240391,2.0,3.0
8330.0,2.0,0.5405146,2.0,3.0
8340.0,2.0,0.55485076,2.0,3.0
8350.0,2.0,0.5589262,2.0,3.0
8360.0,2.0,0.5464641,2.0,3.0
8370.0,2.0,0.5295281,2.0,3.0
8380.0,2.0,0.5110186,2.0,3.0
8390.0,2.0,0.49924165,2.0,3.0
8400.0,2.0,0.49769068,2.0,3.0
8410.0,2.0,0.49655908,2.0,3.0
8420.0,2.0,0.49851254,2.0,3.0
8430.0,2.0,0.49959987,2.0,3.0
8440.0,2.0,0.5611358,2.0,3.0
8450.0,3.0,0.6418703,2.0,3.0
8460.0,3.0,0.6791761,2.0,3.0
8470.0,2.0,0.689568,2.0,3.0
8480.0,2.0,0.70929945,2.0,3.0
8490.0,2.0,0.7434614,2.0,3.0
8500.0,2.0,0.78485674,2.0,3.0
8510.0,3.0,0.83067405,2.0,3.0
8520.0,3.0,0.85959476,2.0,3.0
8530.0,2.0,0.8459946,2.0,3.0
8540.0,2.0,0.8621496,2.0,3.0
8550.0,2.0,0.8182264,2.0,3.0
8560.0,2.0,0.8455052,2.0,3.0
8570.0,2.0,0.8300333,2.0,3.0
8580.0,3.0,0.78524303,2.0,3.0
8590.0,3.0,0.7563855,2.0,3.0
8600.0,3.0,0.7623252,2.0,3.0
8610.0,3.0,0.76344556,2.0,3.0
8620.0,3.0,0.7154588,2.0,3.0
8630.0,3.0,0.61490476,2.0,3.0
8640.0,3.0,0.52289826,2.0,3.0
8650.0,3.0,0.49900475,2.0,3.0
8660.0,3.0,0.5264894,2.0,3.0
8670.0,3.0,0.5640549,2.0,3.0
8680.0,3.0,0.5977711,2.0,3.0
8690.0,3.0,0.6382212,2.0,3.0
8700.0,3.0,0.2847437,3.0,3.0
8710.0,3.0,0.6879179,3.0,4.0
8720.0,4.0,0.65528536,3.0,4.0
8730.0,4.0,0.6540069,3.0,4.0
8740.0,4.0,0.65528536,3.0,4.0
8750.0,4.0,0.65174156,3.0,4.0
8760.0,4.0,0.65331155,3.0,4.0
8770.0,4.0,0.65331155,3.0,4.0
8780.0,4.0,0.7003088,3.0,4.0
8790.0,4.0,0.7003688,3.0,4.0
8800.0,4.0,0.7017122,3.0,4.0
8810.0,4.0,0.70227563,3.0,4.0
8820.0,4.0,0.70113254,3.0,4.0
8830.0,4.0,0.8939709,3.0,4.0
8840.0,4.0,1.0289834,3.0,5.0
8850.0,4.0,1.0289834,3.0,5.0
8860.0,4.0,1.0516753,3.0,5.0
8870.0,4.0,1.109119,3.0,5.0
8880.0,4.0,1.1099509,3.0,5.0
8890.0,4.0,1.0883399,3.0,5.0
8900.0,4.0,1.143265,3.0,5.0
8910.0,4.0,1.143265,3.0,5.0
8920.0,4.0,1.1434604,3.0,5.0
8930.0,4.0,1.1344278,3.0,5.0
8940.0,4.0,1.2444979,3.0,5.0
8950.0,4.0,1.2444979,3.0,5.0
8960.0,4.0,1.2675788,2.0,5.0
8970.0,4.0,1.2693586,2.0,5.0
8980.0,4.0,1.2675788,2.0,5.0
8990.0,4.0,1.2438678,3.0,5.0
9000.0,4.0,1.3381201,3.0,5.0
9010.0,4.0,1.3381201,3.0,5.0
9020.0,4.0,1.2859097,3.0,4.0
9030.0,4.0,1.3077121,2.0,4.0
9040.0,4.0,1.3062806,2.0,4.0
9050.0,3.0,1.2431562,2.0,4.0
9060.0,3.0,1.3025128,2.0,4.0
9070.0,3.0,1.3025128,2.0,4.0
9080.0,3.0,1.0846708,2.0,4.0
9090.0,3.0,1.1402249,2.0,4.0
9100.0,3.0,1.1414075,2.0,4.0
9110.0,3.0,1.1229796,2.0,4.0
9120.0,3.0,1.1756449,2.0,4.0
9130.0,3.0,1.1756449,2.0,4.0
9140.0,3.0,1.1107404,2.0,4.0
9150.0,3.0,1.0767618,2.0,4.0
9160.0,3.0,1.0766635,2.0,4.0
9170.0,3.0,0.9949773,2.0,3.0
9180.0,3.0,0.96189785,2.0,3.0
9190.0,3.0,0.9619875,2.0,3.0
9200.0,3.0,0.8407072,2.0,3.0
9210.0,3.0,0.76799494,2.0,3.0
9220.0,3.0,0.76799494,2.0,3.0
9230.0,3.0,0.7611639,2.0,3.0
9240.0,3.0,0.7207493,2.0,3.0
9250.0,3.0,0.7207493,2.0,3.0
9260.0,2.0,0.7143004,2.0,3.0
9270.0,2.0,0.74547637,2.0,3.0
9280.0,2.0,0.74547637,2.0,3.0
9290.0,2.0,0.7341519,2.0,3.0
9300.0,2.0,0.76863265,2.0,3.0
9310.0,2.0,0.7679771,2.0,3.0
9320.0,2.0,0.76754624,2.0,3.0
9330.0,2.0,0.7379703,2.0,3.0
9340.0,2.0,0.73741275,2.0,3.0
9350.0,2.0,0.73741275,2.0,3.0
9360.0,2.0,0.6999491,2.0,3.0
9370.0,2.0,0.6999491,2.0,3.0
9380.0,2.0,0.6999491,2.0,3.0
9390.0,2.0,0.4090061,2.0,2.0
9400.0,2.0,0.408368,2.0,2.0
9410.0,2.0,0.408368,2.0,2.0
9420.0,2.0,0.40836805,2.0,2.0
9430.0,2.0,0.42624223,2.0,2.0
9440.0,2.0,0.42692083,2.0,2.0
9450.0,2.0,0.42692083,2.0,2.0
9460.0,2.0,0.44092342,1.0,2.0
9470.0,2.0,0.4409234,1.0,2.0
9480.0,2.0,0.4409234,1.0,2.0
9490.0,2.0,0.45717144,1.0,2.0
9500.0,2.0,0.45717144,1.0,2.0
9510.0,2.0,0.48352787,1.0,2.0
9520.0,2.0,0.4833498,1.0,2.0
9530.0,2.0,0.4833498,1.0,2.0
9540.0,2.0,0.48306385,1.0,2.0
9550.0,2.0,0.473271,1.0,2.0
9560.0,2.0,0.473271,1.0,2.0
9570.0,2.0,0.49609533,1.0,2.0
9580.0,2.0,0.4992294,1.0,2.0
9590.0,2.0,0.4992294,1.0,2.0
9600.0,1.0,0.49998754,1.0,2.0
9610.0,1.0,0.49997932,1.0,2.0
9620.0,1.0,0.49998754,1.0,2.0
9630.0,1.0,0.49998754,1.0,2.0
9640.0,1.0,0.49998754,1.0,2.0
9650.0,1.0,0.49999073,1.0,2.0
9660.0,1.0,0.49881914,1.0,2.0
9670.0,1.0,0.49992758,1.0,2.0
9680.0,1.0,0.49991897,1.0,2.0
9690.0,1.0,0.4999436,1.0,2.0
9700.0,1.0,0.5584141,1.0,2.0
9710.0,1.0,0.5584141,1.0,2.0
9720.0,1.0,0.5584141,1.0,2.0
9730.0,2.0,0.6490004,1.0,2.0
9740.0,2.0,0.6495405,1.0,2.0
9750.0,2.0,0.64954865,1.0,2.0
9760.0,2.0,0.7369727,1.0,2.0
9770.0,2.0,0.7342214,1.0,2.0
9780.0,2.0,0.7342214,1.0,2.0
9790.0,2.0,0.74669355,1.0,2.0
9800.0,2.0,0.74669355,1.0,2.0
9810.0,2.0,0.74669355,1.0,2.0
9820.0,2.0,0.7541834,1.0,3.0
9830.0,2.0,0.7541834,1.0,3.0
9840.0,2.0,0.7535073,1.0,3.0
9850.0,2.0,0.716536,2.0,3.0
9860.0,2.0,0.708281,2.0,3.0
9870.0,2.0,0.708281,2.0,3.0
9880.0,2.0,0.723559,2.0,3.0
9890.0,2.0,0.68683946,2.0,3.0
9900.0,2.0,0.6871843,2.0,3.0
9910.0,2.0,0.6867621,2.0,3.0
9920.0,2.0,0.71235865,2.0,3.0
9930.0,2.0,0.71235865,2.0,3.0
9940.0,2.0,0.73718804,2.0,3.0
9950.0,2.0,0.74688876,2.0,3.0
9960.0,2.0,0.74602044,2.0,3.0
9970.0,3.0,0.7537291,2.0,3.0
9980.0,3.0,0.7537291,2.0,3.0
9990.0,3.0,0.75498056,2.0,3.0
10000.0,3.0,0.75498056,2.0,3.0
10010.0,3.0,0.86501956,2.0,3.0
10020.0,3.0,0.86501956,2.0,3.0
10030.0,3.0,0.8621759,2.0,3.0
10040.0,3.0,0.89936805,2.0,3.0
10050.0,3.0,0.8995038,2.0,3.0
10060.0,3.0,0.8805589,2.0,3.0
10070.0,3.0,0.8804555,2.0,3.0
10080.0,3.0,0.8804555,2.0,3.0
10090.0,3.0,0.8706178,3.0,3.0
10100.0,3.0,0.9120238,3.0,3.0
10110.0,3.0,0.9120238,3.0,3.0
10120.0,3.0,0.9124266,3.0,3.0
10130.0,3.0,0.9085604,2.0,3.0
10140.0,3.0,0.9085604,2.0,3.0
10150.0,3.0,0.9085604,2.0,3.0
10160.0,3.0,0.9085604,2.0,3.0
10170.0,3.0,0.9485881,2.0,3.0
10180.0,3.0,0.9485881,2.0,3.0
10190.0,3.0,0.8956432,2.0,3.0
10200.0,3.0,0.9354138,2.0,3.0
10210.0,3.0,0.9354138,2.0,3.0
10220.0,3.0,0.9354139,2.0,3.0
10230.0,3.0,0.95349836,2.0,3.0
10240.0,3.0,0.95349836,2.0,3.0
10250.0,3.0,0.9776864,2.0,3.0
10260.0,3.0,0.93817776,2.0,3.0
10270.0,3.0,0.9386368,2.0,3.0
10280.0,3.0,0.9386368,2.0,3.0
10290.0,3.0,0.92748564,2.0,3.0
10300.0,3.0,0.9287928,2.0,3.0
10310.0,3.0,0.92748564,2.0,3.0
10320.0,3.0,0.88489324,2.0,3.0
10330.0,3.0,0.88602257,2.0,3.0
10340.0,3.0,0.90605134,2.0,3.0
10350.0,3.0,0.879639,3.0,4.0
10360.0,3.0,0.8837279,3.0,4.0
10370.0,3.0,0.8837279,3.0,4.0
10380.0,3.0,0.826982,3.0,4.0
10390.0,3.0,0.8291104,3.0,4.0
10400.0,3.0,0.8440736,3.0,4.0
10410.0,3.0,0.7793529,3.0,4.0
10420.0,3.0,0.7793529,3.0,4.0
10430.0,3.0,0.79005814,3.0,4.0
10440.0,3.0,0.75112647,3.0,4.0
10450.0,3.0,0.75107235,3.0,4.0
10460.0,3.0,0.7628902,3.0,4.0
10470.0,3.0,0.741583,3.0,4.0
10480.0,3.0,0.741583,3.0,4.0
10490.0,4.0,0.7546445,3.0,4.0
10500.0,4.0,0.848066,3.0,4.0
10510.0,4.0,0.848066,3.0,4.0
10520.0,4.0,0.8487875,3.0,4.0
10530.0,4.0,0.8431934,3.0,4.0
10540.0,4.0,0.84210306,3.0,4.0
10550.0,4.0,0.83000064,3.0,4.0
10560.0,4.0,0.8989168,3.0,4.0
10570.0,4.0,0.89857,3.0,4.0
10580.0,4.0,0.89094055,3.0,4.0
10590.0,4.0,0.9325547,3.0,5.0
10600.0,4.0,0.93190885,3.0,5.0
10610.0,4.0,0.93190885,3.0,5.0
10620.0,4.0,0.9512407,3.0,5.0
10630.0,4.0,0.9045085,3.0,5.0
10640.0,4.0,0.9061738,3.0,5.0
10650.0,5.0,1.0045253,3.0,5.0
10660.0,5.0,0.94964993,3.0,5.0
10670.0,5.0,0.9517306,3.0,5.0
10680.0,5.0,0.9670923,3.0,5.0
10690.0,5.0,0.90809715,3.0,5.0
10700.0,5.0,0.90809715,3.0,5.0
10710.0,5.0,0.914709,3.0,5.0
10720.0,5.0,0.8415377,4.0,5.0
10730.0,5.0,0.84223455,4.0,5.0
10740.0,5.0,0.8415377,4.0,5.0
10750.0,5.0,0.84138525,4.0,5.0
10760.0,5.0,0.84138525,4.0,5.0
10770.0,5.0,1.0384487,4.0,5.0
10780.0,5.0,1.006856,4.0,5.0
10790.0,5.0,1.0071931,4.0,5.0
10800.0,5.0,1.0849423,4.0,6.0
10810.0,5.0,1.0849423,4.0,6.0
10820.0,5.0,1.0834317,4.0,6.0
10830.0,5.0,1.1066772,4.0,6.0
10840.0,5.0,1.1066772,4.0,6.0
10850.0,5.0,1.1066772,4.0,6.0
10860.0,5.0,1.1257039,4.0,6.0
10870.0,5.0,1.1501821,4.0,6.0
10880.0,5.0,1.1494098,4.0,6.0
10890.0,5.0,1.2266443,4.0,6.0
10900.0,5.0,1.2266443,4.0,6.0
10910.0,5.0,1.2259169,4.0,6.0
10920.0,5.0,1.2679586,4.0,6.0
10930.0,5.0,1.2401501,4.0,6.0
10940.0,5.0,1.2409669,4.0,6.0
10950.0,5.0,1.2405608,4.0,6.0
10960.0,5.0,1.2078952,4.0,6.0
10970.0,5.0,1.2072977,4.0,6.0
10980.0,5.0,1.2080029,4.0,6.0
10990.0,5.0,1.2274461,4.0,6.0
11000.0,5.0,1.1990931,4.0,6.0
11010.0,5.0,1.1998316,4.0,6.0
11020.0,5.0,1.1812261,4.0,6.0
11030.0,5.0,1.0675204,4.0,6.0
11040.0,5.0,1.0675204,4.0,6.0
11050.0,5.0,1.0062445,4.0,6.0
11060.0,5.0,0.9678939,4.0,6.0
11070.0,5.0,0.96797466,4.0,6.0
11080.0,5.0,1.0263523,4.0,6.0
11090.0,5.0,1.0263523,4.0,6.0
11100.0,5.0,1.0248951,4.0,6.0
11110.0,5.0,1.0702701,4.0,6.0
11120.0,5.0,1.070476,4.0,6.0
11130.0,5.0,1.0711844,4.0,6.0
11140.0,5.0,1.0709803,4.0,6.0
11150.0,5.0,1.0711844,4.0,6.0
11160.0,5.0,1.0698196,4.0,6.0
11170.0,5.0,1.0341523,4.0,6.0
11180.0,5.0,1.054028,4.0,6.0
11190.0,5.0,1.0535877,4.0,6.0
11200.0,5.0,1.1329243,4.0,6.0
11210.0,6.0,1.091494,4.0,6.0
11220.0,6.0,1.090466,4.0,6.0
11230.0,6.0,1.0901393,4.0,6.0
11240.0,6.0,1.0903537,4.0,6.0
11250.0,6.0,1.090028,4.0,6.0
11260.0,6.0,1.2523094,4.0,7.0
11270.0,6.0,1.251287,4.0,7.0
11280.0,6.0,1.2508996,4.0,7.0
11290.0,6.0,1.251287,4.0,7.0
11300.0,6.0,1.2509735,4.0,7.0
11310.0,6.0,1.2509735,4.0,7.0
11320.0,6.0,1.2476315,4.0,7.0
11330.0,6.0,1.2741566,4.0,7.0
11340.0,6.0,1.2733853,4.0,7.0
11350.0,6.0,1.2736773,4.0,7.0
11360.0,6.0,1.2736773,4.0,7.0
11370.0,6.0,1.2733853,4.0,7.0
11380.0,6.0,1.2745268,4.0,7.0
11390.0,6.0,1.2976002,4.0,7.0
11400.0,6.0,1.2877452,4.0,7.0
11410.0,6.0,1.286637,4.0,7.0
11420.0,6.0,1.2867463,4.0,7.0
11430.0,6.0,1.2867463,4.0,7.0
11440.0,6.0,1.2867463,4.0,7.0
11450.0,6.0,1.2867463,4.0,7.0
11460.0,6.0,1.2876538,4.0,7.0
11470.0,6.0,1.2877452,4.0,7.0
11480.0,6.0,1.2877452,4.0,7.0
11490.0,6.0,1.2870208,4.0,7.0
11500.0,6.0,1.2867463,4.0,7.0
11510.0,6.0,1.2793238,4.0,7.0
11520.0,6.0,1.2793238,4.0,7.0
11530.0,6.0,1.2802901,4.0,7.0
11540.0,6.0,1.275521,4.0,7.0
11550.0,6.0,1.27487,4.0,7.0
11560.0,6.0,1.27487,4.0,7.0
11570.0,6.0,1.27487,4.0,7.0
11580.0,6.0,1.2102853,5.0,7.0
11590.0,6.0,1.2113901,5.0,7.0
11600.0,6.0,1.2291746,5.0,7.0
11610.0,6.0,1.1056923,5.0,7.0
11620.0,6.0,1.1051564,5.0,7.0
11630.0,6.0,1.1088812,5.0,7.0
11640.0,6.0,0.96263814,5.0,7.0
11650.0,6.0,0.9632876,5.0,7.0
11660.0,6.0,0.9632876,5.0,7.0
11670.0,6.0,0.8834434,5.0,7.0
11680.0,6.0,0.88304204,5.0,7.0
11690.0,6.0,0.88304204,5.0,7.0
11700.0,6.0,0.8312466,5.0,7.0
11710.0,6.0,0.8312466,5.0,7.0
11720.0,6.0,0.8312466,5.0,7.0
11730.0,6.0,0.49973544,6.0,7.0
11740.0,6.0,0.49973544,6.0,7.0
11750.0,6.0,0.5610329,6.0,7.0
11760.0,7.0,0.55922496,6.0,7.0
11770.0,7.0,0.55921656,6.0,7.0
11780.0,7.0,0.55921656,6.0,7.0
11790.0,7.0,0.53790957,6.0,7.0
11800.0,7.0,0.53824514,6.0,7.0
11810.0,7.0,0.54366535,6.0,7.0
11820.0,7.0,0.502436,6.0,7.0
11830.0,7.0,0.502436,6.0,7.0
11840.0,7.0,0.502436,6.0,7.0
11850.0,7.0,0.1831545,7.0,7.0
11860.0,7.0,0.18325353,7.0,7.0
11870.0,7.0,0.64765596,7.0,7.0
11880.0,7.0,0.53770673,7.0,7.0
11890.0,7.0,0.43552724,7.0,7.0
11900.0,7.0,0.43553734,7.0,8.0
11910.0,7.0,0.46776134,7.0,8.0
11920.0,7.0,0.4853481,7.0,8.0
11930.0,7.0,0.5577659,7.0,8.0
11940.0,7.0,0.5579374,7.0,8.0
11950.0,7.0,0.56516826,7.0,8.0
11960.0,7.0,0.5642388,7.0,8.0
11970.0,8.0,0.55907476,7.0,8.0
11980.0,8.0,0.5502362,7.0,8.0
11990.0,8.0,0.52604467,7.0,8.0
12000.0,8.0,0.4958607,7.0,8.0
12010.0,8.0,0.49528587,7.0,8.0
12020.0,8.0,0.5279279,7.0,8.0
12030.0,8.0,0.55174536,8.0,8.0
12040.0,8.0,0.48046407,8.0,8.0
12050.0,8.0,0.43573794,8.0,8.0
12060.0,8.0,0.38576996,8.0,8.0
12070.0,8.0,0.41333464,8.0,8.0
12080.0,8.0,0.42414576,8.0,8.0
12090.0,8.0,0.45751113,8.0,9.0
12100.0,8.0,0.49038222,8.0,9.0
12110.0,8.0,0.4988059,8.0,9.0
12120.0,9.0,0.4991272,8.0,9.0
12130.0,9.0,0.4959432,8.0,9.0
12140.0,9.0,0.47482494,8.0,9.0
12150.0,9.0,0.44913614,8.0,9.0
12160.0,9.0,0.4496244,8.0,9.0
12170.0,9.0,0.4491361,8.0,9.0
12180.0,9.0,0.44913614,8.0,9.0
12190.0,9.0,0.4109716,9.0,9.0
12200.0,9.0,0.39006168,9.0,9.0
12210.0,9.0,0.42484805,9.0,9.0
12220.0,9.0,0.45037368,8.0,9.0
12230.0,9.0,0.4335885,8.0,9.0
12240.0,8.0,1.2952521,7.0,9.0
12250.0,8.0,1.2638053,7.0,9.0
12260.0,8.0,1.2538924,7.0,9.0
12270.0,8.0,1.2476834,7.0,9.0
12280.0,8.0,1.2102172,7.0,9.0
12290.0,8.0,1.1504954,7.0,9.0
12300.0,8.0,1.0908712,8.0,9.0
12310.0,8.0,1.0158952,8.0,9.0
12320.0,8.0,0.9114418,8.0,9.0
12330.0,8.0,0.81759924,8.0,9.0
12340.0,8.0,0.7876836,8.0,9.0
12350.0,8.0,0.7796778,8.0,9.0
12360.0,8.0,0.7980313,8.0,9.0
12370.0,8.0,0.7870053,8.0,9.0
12380.0,8.0,0.7843234,8.0,9.0
12390.0,8.0,0.7769398,8.0,9.0
12400.0,8.0,0.7592926,8.0,9.0
12410.0,9.0,0.75756353,8.0,9.0
12420.0,9.0,0.76381737,8.0,9.0
12430.0,9.0,0.7607713,8.0,9.0
12440.0,9.0,0.7550401,8.0,9.0
12450.0,9.0,0.7215459,8.0,9.0
12460.0,9.0,0.728285,8.0,9.0
12470.0,9.0,0.79972583,8.0,9.0
12480.0,9.0,0.8139454,8.0,9.0
12490.0,9.0,0.84677434,8.0,9.0
12500.0,9.0,0.8789754,8.0,9.0
12510.0,9.0,0.8915552,8.0,9.0
12520.0,9.0,0.9105098,8.0,9.0
12530.0,9.0,0.92721784,8.0,9.0
12540.0,9.0,0.9361341,8.0,9.0
12550.0,9.0,0.94602627,8.0,9.0
12560.0,9.0,0.94363064,8.0,9.0
12570.0,9.0,0.9463781,8.0,9.0
12580.0,9.0,0.9594954,8.0,9.0
12590.0,9.0,0.97454906,8.0,9.0
12600.0,9.0,0.9856166,8.0,9.0
12610.0,9.0,0.9963519,8.0,9.0
12620.0,9.0,1.0067697,8.0,9.0
12630.0,9.0,0.9985957,8.0,9.0
12640.0,9.0,1.00679,8.0,9.0
12650.0,9.0,1.0171117,8.0,9.0
12660.0,9.0,1.0035427,8.0,9.0
12670.0,9.0,0.98479885,8.0,9.0
12680.0,9.0,1.0111276,8.0,9.0
12690.0,9.0,1.0323699,8.0,9.0
12700.0,9.0,0.9783988,8.0,9.0
12710.0,9.0,0.9903735,8.0,9.0
12720.0,9.0,1.0008512,8.0,9.0
12730.0,9.0,0.9710895,8.0,9.0
12740.0,9.0,0.9171357,8.0,9.0
12750.0,9.0,0.93905383,8.0,9.0
12760.0,9.0,0.95391446,8.0,9.0
12770.0,9.0,0.9169539,8.0,9.0
12780.0,9.0,0.8546488,8.0,9.0
12790.0,9.0,0.85870314,8.0,9.0
12800.0,9.0,0.87694,8.0,9.0
12810.0,9.0,0.8750064,8.0,9.0
12820.0,8.0,0.86987156,8.0,9.0
12830.0,8.0,0.86616856,8.0,9.0
12840.0,8.0,0.8447327,8.0,9.0
12850.0,8.0,0.8279793,8.0,9.0
12860.0,8.0,0.8757265,8.0,9.0
12870.0,8.0,0.8890472,7.0,9.0
12880.0,8.0,0.86518496,7.0,9.0
12890.0,8.0,1.1775743,7.0,9.0
12900.0,8.0,1.2374134,7.0,9.0
12910.0,8.0,1.2949336,7.0,9.0
12920.0,8.0,1.3419119,7.0,9.0
12930.0,8.0,1.3372352,6.0,9.0
12940.0,8.0,1.3260394,6.0,9.0
12950.0,8.0,1.3495274,7.0,9.0
12960.0,8.0,1.4083365,7.0,9.0
12970.0,8.0,1.443516,6.0,9.0
12980.0,8.0,1.468145,6.0,9.0
12990.0,8.0,1.487255,6.0,9.0
13000.0,8.0,1.4804934,6.0,9.0
13010.0,8.0,1.4701408,6.0,9.0
13020.0,8.0,1.4818268,6.0,9.0
13030.0,8.0,1.5059984,6.0,9.0
13040.0,8.0,1.5726926,6.0,9.0
13050.0,8.0,1.6236395,6.0,9.0
13060.0,8.0,1.5893546,6.0,9.0
13070.0,8.0,1.5332472,6.0,9.0
13080.0,8.0,1.54745,6.0,9.0
13090.0,8.0,1.6101123,6.0,9.0
13100.0,8.0,1.623745,6.0,9.0
13110.0,7.0,1.6030499,6.0,9.0
13120.0,7.0,1.619061,6.0,9.0
13130.0,7.0,1.6312829,6.0,9.0
13140.0,7.0,1.6239479,6.0,9.0
13150.0,7.0,1.6368929,6.0,9.0
13160.0,7.0,1.6681806,6.0,9.0
13170.0,8.0,1.6953425,6.0,9.0
13180.0,8.0,1.776626,6.0,9.0
13190.0,8.0,1.7260718,6.0,9.0
13200.0,7.0,1.7295638,6.0,9.0
13210.0,7.0,1.703044,6.0,9.0
13220.0,8.0,1.7218655,6.0,9.0
13230.0,8.0,1.7473626,6.0,9.0
13240.0,7.0,1.7167035,6.0,9.0
13250.0,7.0,1.7030535,6.0,9.0
13260.0,7.0,1.7127743,6.0,9.0
13270.0,7.0,1.724348,6.0,9.0
13280.0,7.0,1.6275991,6.0,9.0
13290.0,7.0,1.6097653,6.0,9.0
13300.0,7.0,1.6029161,6.0,8.0
13310.0,7.0,1.609335,6.0,8.0
13320.0,7.0,1.5530087,6.0,8.0
13330.0,8.0,1.5662283,6.0,8.0
13340.0,8.0,1.5590636,6.0,8.0
13350.0,8.0,1.5234644,6.0,8.0
13360.0,8.0,1.5109068,6.0,8.0
13370.0,8.0,1.5373505,6.0,8.0
13380.0,7.0,1.5368718,6.0,8.0
13390.0,7.0,1.4435176,6.0,8.0
13400.0,8.0,1.3729439,6.0,8.0
13410.0,8.0,1.4057877,6.0,8.0
13420.0,8.0,1.402295,6.0,8.0
13430.0,8.0,1.3397608,6.0,8.0
13440.0,8.0,1.2912614,6.0,8.0
13450.0,8.0,1.3428077,6.0,8.0
13460.0,8.0,1.3779402,6.0,8.0
13470.0,8.0,1.3360294,6.0,8.0
13480.0,8.0,1.2631353,7.0,8.0
13490.0,8.0,1.2764431,7.0,8.0
13500.0,8.0,1.2941216,7.0,8.0
13510.0,8.0,1.2205508,7.0,8.0
13520.0,8.0,1.1498852,7.0,8.0
13530.0,8.0,1.0940918,7.0,8.0
13540.0,8.0,1.122992,7.0,8.0
13550.0,8.0,1.1546065,7.0,8.0
13560.0,8.0,1.1471351,7.0,9.0
13570.0,8.0,1.0674736,7.0,9.0
13580.0,8.0,1.0385972,7.0,9.0
13590.0,8.0,1.0434734,7.0,9.0
13600.0,8.0,1.0385331,7.0,9.0
13610.0,8.0,0.9974803,7.0,9.0
13620.0,8.0,0.9785274,7.0,9.0
13630.0,8.0,0.9618212,7.0,9.0
13640.0,8.0,0.98079515,7.0,9.0
13650.0,8.0,0.99409807,7.0,9.0
13660.0,9.0,0.978668,8.0,9.0
13670.0,9.0,0.9046458,8.0,9.0
13680.0,9.0,0.8538228,8.0,9.0
13690.0,9.0,0.84632254,8.0,9.0
13700.0,9.0,0.83690864,8.0,9.0
13710.0,9.0,0.8182609,8.0,9.0
13720.0,9.0,0.8585942,8.0,9.0
13730.0,9.0,0.8682022,8.0,9.0
13740.0,9.0,0.9262743,8.0,9.0
13750.0,9.0,1.115146,8.0,9.0
13760.0,9.0,1.1295922,8.0,9.0
13770.0,9.0,1.0863799,8.0,9.0
13780.0,9.0,1.0412066,8.0,9.0
13790.0,9.0,1.0150604,8.0,9.0
13800.0,9.0,0.9908461,8.0,9.0
13810.0,9.0,0.9544402,8.0,9.0
13820.0,9.0,0.925657,8.0,9.0
13830.0,9.0,0.9763635,8.0,9.0
13840.0,9.0,1.0052418,8.0,9.0
13850.0,9.0,0.9639573,8.0,9.0
13860.0,9.0,0.94870645,8.0,9.0
13870.0,9.0,0.9638983,8.0,9.0
13880.0,9.0,0.95002323,8.0,9.0
13890.0,9.0,0.92153734,8.0,9.0
13900.0,9.0,0.9123376,8.0,9.0
13910.0,9.0,0.9529393,8.0,9.0
13920.0,9.0,0.956433,8.0,9.0
13930.0,9.0,0.926067,8.0,9.0
13940.0,9.0,0.93198735,8.0,9.0
13950.0,9.0,0.98471516,8.0,9.0
13960.0,9.0,0.9804241,8.0,9.0
13970.0,8.0,0.92661774,8.0,9.0
13980.0,8.0,0.9099538,8.0,9.0
13990.0,8.0,0.9429209,8.0,9.0
14000.0,8.0,0.91659015,8.0,9.0
14010.0,8.0,0.8790761,8.0,9.0
14020.0,8.0,0.88882244,8.0,9.0
14030.0,8.0,0.9416152,8.0,9.0
14040.0,8.0,0.9709916,8.0,9.0
14050.0,8.0,0.9592024,8.0,9.0
14060.0,8.0,0.9243007,8.0,9.0
14070.0,8.0,0.8892079,8.0,8.0
14080.0,8.0,0.8923765,8.0,8.0
14090.0,8.0,0.9090655,8.0,8.0
14100.0,8.0,0.872172,7.0,8.25
14110.0,8.0,0.89864576,7.0,8.0
14120.0,8.0,0.8592204,7.0,8.0
14130.0,8.0,0.84526694,7.0,8.0
14140.0,8.0,0.90873474,7.0,8.0
14150.0,8.0,0.88038814,7.0,8.0
14160.0,8.0,0.8516795,7.0,8.0
14170.0,8.0,0.7836796,7.0,8.0
14180.0,8.0,0.8064726,7.0,8.0
14190.0,8.0,0.79348755,7.0,8.0
14200.0,8.0,0.8037059,7.0,8.0
14210.0,8.0,0.8105439,7.0,8.0
14220.0,8.0,0.80190986,7.0,8.0
14230.0,8.0,0.79386127,7.0,8.0
14240.0,8.0,0.82014436,7.0,8.0
14250.0,8.0,0.85476464,7.0,8.0
14260.0,8.0,0.8496582,7.0,8.0
14270.0,8.0,0.86483145,7.0,8.0
14280.0,8.0,0.9198192,7.0,8.0
14290.0,8.0,0.93792564,7.0,8.0
14300.0,8.0,0.93234414,7.0,8.0
14310.0,8.0,0.91910547,7.0,8.0
14320.0,8.0,0.9850715,7.0,8.0
14330.0,8.0,0.9873149,7.0,8.0
14340.0,8.0,0.9794159,7.0,8.0
14350.0,8.0,0.968458,7.0,8.0
14360.0,8.0,0.95223874,7.0,8.0
14370.0,8.0,0.94944715,7.0,8.0
14380.0,8.0,0.96879107,7.0,8.0
14390.0,8.0,1.0865957,7.0,8.0
14400.0,8.0,1.1334825,7.0,8.0
14410.0,8.0,1.1249881,7.0,8.0
14420.0,8.0,1.1030694,7.0,8.0
14430.0,8.0,1.0944241,7.0,8.0
14440.0,8.0,1.1245363,7.0,8.0
14450.0,8.0,1.1789056,7.0,8.0
14460.0,8.0,1.2301247,7.0,8.0
14470.0,8.0,1.2326815,7.0,8.0
14480.0,8.0,1.225952,7.0,8.0
14490.0,8.0,1.2489532,7.0,8.0
14500.0,8.0,1.224264,7.0,8.0
14510.0,8.0,1.205359,7.0,8.0
14520.0,8.0,1.2038193,7.0,8.0
14530.0,8.0,1.2300229,7.0,8.0
14540.0,8.0,1.2516227,7.0,8.0
14550.0,8.0,1.2580452,7.0,9.0
14560.0,8.0,1.2489532,7.0,9.0
14570.0,8.0,1.2185962,7.0,8.0
14580.0,8.0,1.1981418,7.0,8.0
14590.0,8.0,1.2265085,7.0,8.0
14600.0,8.0,1.2208536,7.0,8.0
14610.0,8.0,1.2136517,7.0,8.0
14620.0,8.0,1.2266213,7.0,9.0
14630.0,8.0,1.223391,7.0,9.0
14640.0,8.0,1.2165198,7.0,9.0
14650.0,8.0,1.1806765,7.0,9.0
14660.0,8.0,1.1964177,7.0,9.0
14670.0,8.0,1.1801568,7.0,9.0
14680.0,8.0,1.1515968,7.0,9.0
14690.0,8.0,1.1440517,7.0,9.0
14700.0,8.0,1.1553469,7.0,9.0
14710.0,8.0,1.023451,7.0,8.0
14720.0,8.0,0.8043764,8.0,9.0
14730.0,8.0,0.7650647,8.0,8.0
14740.0,8.0,0.73221284,8.0,8.0
14750.0,8.0,0.71711785,8.0,8.0
14760.0,8.0,0.69870675,8.0,9.0
14770.0,8.0,0.6777879,8.0,9.0
14780.0,8.0,0.6648516,8.0,9.0
14790.0,8.0,0.6711185,8.0,9.0
14800.0,8.0,0.67105454,8.0,9.0
14810.0,8.0,0.6616624,8.0,9.0
14820.0,8.0,0.6439379,8.0,9.0
14830.0,8.0,0.62839276,8.0,9.0
14840.0,8.0,0.6265003,8.0,9.0
14850.0,8.0,0.6192221,8.0,9.0
14860.0,8.0,0.6129134,8.0,9.0
14870.0,8.0,0.60949045,8.0,9.0
14880.0,8.0,0.6073681,8.0,9.0
14890.0,8.0,0.6022949,8.0,9.0
14900.0,8.0,0.58873326,8.0,9.0
14910.0,8.0,0.56972885,8.0,9.0
14920.0,8.0,0.5531235,8.0,9.0
14930.0,8.0,0.53923947,8.0,9.0
14940.0,8.0,0.5355138,8.0,9.0
14950.0,9.0,0.53833014,8.0,9.0
14960.0,9.0,0.54762536,8.0,9.0
14970.0,9.0,0.5511579,8.0,9.0
14980.0,9.0,0.53479505,8.0,9.0
14990.0,9.0,0.53292,8.0,9.0
15000.0,9.0,0.5648894,8.0,9.0
15010.0,9.0,0.59279376,8.0,9.0
15020.0,9.0,0.6030149,8.0,9.0
15030.0,9.0,0.60478014,8.0,9.0
15040.0,9.0,0.6048316,8.0,9.0
15050.0,9.0,0.6174675,8.0,9.0
15060.0,9.0,0.6357956,8.0,9.0
15070.0,9.0,0.6225309,8.0,9.0
15080.0,9.0,0.6026815,8.0,9.0
15090.0,9.0,0.60475415,8.0,9.0
15100.0,9.0,0.6241625,8.0,9.0
15110.0,8.0,0.6216691,8.0,9.0
15120.0,8.0,0.6064912,8.0,9.0
15130.0,8.0,0.6000966,8.0,9.0
15140.0,8.0,0.6151918,8.0,9.0
15150.0,8.0,0.63927835,8.0,9.0
15160.0,9.0,0.4769533,8.0,9.0
15170.0,9.0,0.46647614,8.0,9.0
15180.0,9.0,0.46230212,8.0,9.0
15190.0,9.0,0.4609194,8.0,9.0
15200.0,9.0,0.4635359,8.0,9.0
15210.0,9.0,0.4510995,8.0,9.0
15220.0,9.0,0.45420697,8.0,9.0
15230.0,9.0,0.4391463,9.0,9.0
15240.0,9.0,0.44202328,9.0,9.0
15250.0,9.0,0.44487935,9.0,9.0
15260.0,9.0,0.42792064,9.0,9.0
15270.0,9.0,0.43161836,9.0,9.0
15280.0,9.0,0.43510804,9.0,9.0
15290.0,9.0,0.43889296,9.0,9.0
15300.0,9.0,0.49198154,8.0,9.0
15310.0,9.0,0.52136683,8.0,9.0
15320.0,9.0,0.5310554,8.0,9.0
15330.0,9.0,0.5329128,8.0,9.0
15340.0,9.0,0.5348232,8.0,9.0
15350.0,8.0,0.53411263,8.0,9.0
15360.0,8.0,0.5344239,8.0,9.0
15370.0,8.0,0.53604144,8.0,9.0
15380.0,8.0,0.5376466,8.0,9.0
15390.0,8.0,0.5392736,8.0,9.0
15400.0,8.0,0.59072626,8.0,9.0
15410.0,8.0,0.592058,8.0,9.0
15420.0,8.0,0.5948793,8.0,9.0
15430.0,8.0,0.6386167,8.0,9.0
15440.0,8.0,0.64106905,8.0,9.0
15450.0,8.0,0.64217156,8.0,9.0
15460.0,8.0,0.6432661,8.0,9.0
15470.0,8.0,0.6443524,8.0,9.0
15480.0,8.0,0.6454307,8.0,9.0
15490.0,8.0,0.68512946,8.0,9.0
15500.0,8.0,0.70682317,8.0,9.0
15510.0,8.0,1.2825034,7.0,9.0
15520.0,8.0,1.3535134,7.0,9.0
15530.0,8.0,1.3103179,7.0,9.0
15540.0,8.0,1.3296336,7.0,9.0
15550.0,8.0,1.3900236,7.0,9.0
15560.0,8.0,1.4310894,7.0,9.0
15570.0,8.0,1.4689718,7.0,9.0
15580.0,8.0,1.4707319,7.0,9.0
15590.0,8.0,1.4241166,7.0,9.0
15600.0,9.0,1.3928766,7.0,9.0
15610.0,9.0,1.4019738,7.0,9.0
15620.0,9.0,1.4223047,7.0,9.0
15630.0,9.0,1.4250135,7.0,9.0
15640.0,9.0,1.425353,7.0,9.0
15650.0,9.0,1.4175637,7.0,9.0
15660.0,9.0,1.4238039,7.0,9.0
15670.0,9.0,1.4273139,7.0,9.0
15680.0,9.0,1.429343,7.0,9.0
15690.0,9.0,1.4327911,7.0,9.0
15700.0,9.0,1.4226171,7.0,9.0
15710.0,9.0,1.4053998,7.0,9.0
15720.0,9.0,1.3871346,7.0,9.0
15730.0,9.0,1.353025,7.0,9.0
15740.0,9.0,1.3350809,7.0,9.0
15750.0,9.0,1.3303211,7.0,9.0
15760.0,9.0,1.3122042,7.0,9.0
15770.0,9.0,1.266704,7.0,9.0
15780.0,9.0,1.2747582,7.0,9.0
15790.0,9.0,1.2881445,7.0,9.0
15800.0,9.0,1.307033,7.0,9.0
15810.0,9.0,1.3181918,7.0,9.0
15820.0,9.0,1.294503,8.0,9.0
15830.0,9.0,1.2733568,8.0,9.0
15840.0,9.0,1.2267605,8.0,9.0
15850.0,9.0,1.1726916,8.0,9.0
15860.0,9.0,1.1339418,7.0,9.0
15870.0,9.0,1.1452746,7.0,9.0
15880.0,9.0,1.1759892,8.0,9.0
15890.0,9.0,1.1817342,8.0,9.0
15900.0,9.0,1.1525275,8.0,9.0
15910.0,9.0,1.1221359,8.0,9.0
15920.0,9.0,1.1214526,8.0,9.0
15930.0,9.0,1.1216367,8.0,9.0
15940.0,9.0,1.0945358,8.0,9.0
15950.0,9.0,1.09293,8.0,9.0
15960.0,9.0,1.0749409,8.0,9.0
15970.0,9.0,1.0368245,8.0,9.0
15980.0,9.0,1.021692,8.0,9.0
15990.0,9.0,1.0865561,8.0,9.0
16000.0,9.0,1.1251366,8.0,9.0
16010.0,9.0,1.0873839,8.0,9.0
16020.0,9.0,1.0478698,8.0,9.0
16030.0,9.0,1.0725876,8.0,9.0
16040.0,9.0,1.1226573,8.0,9.0
16050.0,9.0,1.09977,8.0,9.0
16060.0,9.0,1.0806426,8.0,9.0
16070.0,9.0,1.038579,8.0,9.0
16080.0,9.0,1.0196964,8.0,9.0
16090.0,9.0,1.0093932,8.0,9.0
16100.0,9.0,1.0413105,8.0,9.0
16110.0,8.0,1.0492239,8.0,9.0
16120.0,8.0,1.0202975,8.0,9.0
16130.0,8.0,0.9911366,8.0,9.0
16140.0,8.0,1.033705,8.0,9.0
16150.0,8.0,1.0978019,8.0,9.0
16160.0,8.0,1.0821604,7.0,9.0
16170.0,8.0,1.0514181,7.0,9.0
16180.0,8.0,1.0581068,7.0,9.0
16190.0,8.0,1.1027588,7.0,9.0
16200.0,8.0,1.1382537,7.0,9.0
16210.0,8.0,1.1701885,7.0,9.0
16220.0,8.0,1.1488615,7.0,9.0
16230.0,8.0,1.0921377,7.0,9.0
16240.0,8.0,1.0394346,7.0,9.0
16250.0,8.0,1.0506289,7.0,9.0
16260.0,8.0,1.0707933,7.0,9.0
16270.0,8.0,1.0629044,7.0,9.0
16280.0,8.0,1.070808,7.0,9.0
16290.0,8.0,1.0975872,7.0,9.0
16300.0,8.0,1.1363056,7.0,9.0
16310.0,8.0,1.127048,7.0,9.0
16320.0,8.0,1.1177832,7.0,9.0
16330.0,8.0,1.1206312,7.0,9.0
16340.0,8.0,1.1564686,7.0,9.0
16350.0,8.0,1.1471905,7.0,9.0
16360.0,8.0,1.0867529,7.0,9.0
16370.0,8.0,1.0238768,7.0,9.0
16380.0,8.0,1.0164217,7.0,9.0
16390.0,8.0,1.0099382,7.0,8.0
16400.0,8.0,1.0070238,7.0,8.0
16410.0,8.0,0.9659778,7.0,8.0
16420.0,8.0,0.946663,7.0,8.0
16430.0,8.0,0.94640243,7.0,8.0
16440.0,8.0,0.92692506,7.0,8.0
16450.0,8.0,0.8742424,7.0,8.0
16460.0,8.0,0.84122086,7.0,8.0
16470.0,8.0,0.8233422,7.0,8.0
16480.0,8.0,0.81030446,7.0,8.0
16490.0,8.0,0.78583187,7.0,8.0
16500.0,8.0,0.7317502,7.0,8.0
16510.0,8.0,0.6662495,7.0,8.0
16520.0,8.0,0.628767,7.0,8.0
16530.0,8.0,0.6133272,7.0,8.0
16540.0,8.0,0.5893949,8.0,8.0
16550.0,8.0,0.56558233,8.0,8.0
16560.0,8.0,0.5460787,8.0,8.0
16570.0,8.0,0.5247665,8.0,8.0
16580.0,8.0,0.49461105,8.0,8.0
16590.0,8.0,0.4621484,8.0,8.0
16600.0,8.0,0.31058922,8.0,8.0
16610.0,8.0,0.49449366,8.0,9.0
16620.0,8.0,0.48307246,8.0,9.0
16630.0,8.0,0.4814302,8.0,9.0
16640.0,8.0,0.48280433,8.0,9.0
16650.0,8.0,0.4838636,8.0,9.0
16660.0,8.0,0.48488766,8.0,9.0
16670.0,8.0,0.47970718,8.0,9.0
16680.0,8.0,0.47728294,8.0,9.0
16690.0,8.0,0.4694848,8.0,9.0
16700.0,8.0,0.46911728,8.0,9.0
16710.0,8.0,0.4711671,8.0,9.0
16720.0,8.0,0.47526556,8.0,9.0
16730.0,8.0,0.5017774,8.0,9.0
16740.0,8.0,0.51328146,8.0,9.0
16750.0,8.0,0.576277,8.0,9.0
16760.0,8.0,0.5990056,8.0,9.0
16770.0,8.0,0.60408133,8.0,9.0
16780.0,8.0,0.61724985,8.0,9.0
16790.0,8.0,0.6271523,8.0,9.0
16800.0,8.0,0.6784992,8.0,9.0
16810.0,8.0,0.63402677,8.0,9.0
16820.0,8.0,0.64151734,8.0,9.0
16830.0,8.0,0.49795863,7.0,8.0
16840.0,8.0,0.49940947,7.0,8.0
16850.0,8.0,0.4965435,7.0,8.0
16860.0,8.0,0.4971753,7.0,8.0
16870.0,8.0,0.49238047,7.0,8.0
16880.0,8.0,0.48889846,7.0,8.0
16890.0,8.0,0.4928131,7.0,8.0
16900.0,8.0,0.4836456,7.0,8.0
16910.0,8.0,0.47090855,7.0,8.0
16920.0,8.0,0.44701678,7.0,8.0
16930.0,8.0,0.43656498,7.0,8.0
16940.0,8.0,0.39557907,8.0,8.0
16950.0,8.0,0.3963509,8.0,8.0
16960.0,8.0,0.46952602,8.0,8.0
16970.0,8.0,0.51201177,8.0,8.0
16980.0,8.0,0.6014325,8.0,9.0
16990.0,8.0,0.6202637,8.0,9.0
17000.0,8.0,0.62986434,8.0,9.0
17010.0,8.0,0.64466965,8.0,9.0
17020.0,8.0,0.6491073,8.0,9.0
17030.0,8.0,0.6641157,8.0,9.0
17040.0,8.0,0.6641157,8.0,9.0
17050.0,9.0,0.6244867,8.0,9.0
17060.0,9.0,0.6275381,8.0,9.0
17070.0,9.0,0.61804175,8.0,9.0
17080.0,9.0,0.5724711,8.0,9.0
17090.0,9.0,0.5681649,8.0,9.0
17100.0,9.0,0.5093437,8.0,9.0
17110.0,9.0,0.50290114,8.0,9.0
17120.0,9.0,0.4928301,8.0,9.0
17130.0,9.0,0.49485704,8.0,9.0
17140.0,9.0,0.49732125,8.0,9.0
17150.0,9.0,0.50003904,8.0,9.0
17160.0,9.0,0.50220734,8.0,9.0
17170.0,9.0,0.49988952,9.0,9.0
17180.0,9.0,0.4790101,9.0,9.0
17190.0,9.0,0.48148105,9.0,9.0
17200.0,9.0,0.43561146,9.0,9.0
17210.0,9.0,0.43948156,9.0,9.0
17220.0,9.0,0.44330898,9.0,9.0
17230.0,9.0,0.45083952,9.0,9.0
17240.0,9.0,0.53253734,9.0,9.0
17250.0,9.0,0.5361535,9.0,9.0
17260.0,9.0,0.5428398,9.0,9.0
17270.0,9.0,0.57667214,9.0,9.0
17280.0,9.0,0.58524865,9.0,9.0
17290.0,9.0,0.8349863,9.0,10.0
17300.0,9.0,0.97605634,8.0,10.0
17310.0,9.0,0.9626591,8.0,10.0
17320.0,9.0,0.94987166,8.0,10.0
17330.0,9.0,0.9337863,9.0,10.0
17340.0,9.0,0.90658486,9.0,10.0
17350.0,9.0,0.8823049,9.0,10.0
17360.0,9.0,0.86939675,8.0,10.0
17370.0,9.0,0.89520746,8.0,10.0
17380.0,9.0,0.9042102,9.0,10.0
17390.0,9.0,0.8904476,9.0,10.0
17400.0,9.0,0.8689909,9.0,10.0
17410.0,9.0,0.8787883,9.0,10.0
17420.0,9.0,0.87413204,9.0,10.0
17430.0,9.0,0.8437857,9.0,10.0
17440.0,9.0,0.85544777,9.0,10.0
17450.0,9.0,0.8889757,8.0,10.0
17460.0,9.0,0.8844426,8.0,10.0
17470.0,9.0,0.29731464,9.0,9.0
17480.0,9.0,0.30783764,9.0,9.0
17490.0,9.0,0.31781128,9.0,9.0
17500.0,9.0,0.32378852,9.0,9.0
17510.0,9.0,0.3284372,9.0,9.0
17520.0,9.0,0.35410592,9.0,9.0
17530.0,9.0,0.37208065,9.0,9.0
17540.0,9.0,0.43509883,9.0,9.0
17550.0,9.0,0.518193,9.0,9.0
17560.0,9.0,0.594117,9.0,9.0
17570.0,9.0,0.60907716,9.0,9.0
17580.0,9.0,0.6297293,9.0,9.0
17590.0,9.0,0.66696626,9.0,9.0
17600.0,9.0,0.7040107,9.0,10.0
17610.0,9.0,0.7435852,9.0,10.0
17620.0,9.0,0.7795358,9.0,10.0
17630.0,9.0,0.79909885,9.0,10.0
17640.0,9.0,0.838994,8.0,10.0
17650.0,9.0,0.8848587,8.0,10.0
17660.0,9.0,0.9397787,8.0,10.0
17670.0,9.0,0.9737715,8.0,10.0
17680.0,9.0,0.99855095,8.0,10.0
17690.0,9.0,1.0021558,8.0,10.0
17700.0,9.0,1.0072334,8.0,10.0
17710.0,9.0,1.0183988,8.0,10.0
17720.0,9.0,1.0394802,8.0,10.0
17730.0,9.0,1.056859,8.0,10.0
17740.0,9.0,1.0650747,8.0,10.0
17750.0,9.0,1.0691231,8.0,10.0
17760.0,9.0,1.0721152,8.0,10.0
17770.0,9.0,1.1388482,8.0,10.0
17780.0,8.0,1.1945037,8.0,10.0
17790.0,8.0,1.2641484,8.0,10.0
17800.0,8.0,1.3073087,8.0,10.0
17810.0,9.0,0.83304054,8.0,9.0
17820.0,9.0,0.88733464,8.0,9.0
17830.0,9.0,0.87881386,8.0,9.0
17840.0,9.0,0.86128473,8.0,9.0
17850.0,9.0,0.82093716,8.0,9.0
17860.0,9.0,0.7742571,8.0,9.0
17870.0,9.0,0.7231594,8.0,9.0
17880.0,9.0,0.6980562,8.0,9.0
17890.0,9.0,0.7235929,8.0,9.0
17900.0,9.0,0.74980223,8.0,9.0
17910.0,9.0,0.72930235,8.0,9.0
17920.0,9.0,0.7041048,8.0,9.0
17930.0,9.0,0.6980688,8.0,9.0
17940.0,9.0,0.6514051,9.0,9.0
17950.0,9.0,0.61219746,9.0,9.0
17960.0,9.0,0.48402214,9.0,9.0
17970.0,9.0,0.41518497,9.0,9.0
17980.0,9.0,0.46876568,9.0,10.0
17990.0,9.0,0.48653775,9.0,10.0
18000.0,9.0,0.47760963,9.0,10.0
18010.0,9.0,0.45968515,9.0,10.0
18020.0,9.0,0.4665996,9.0,10.0
18030.0,9.0,0.47633606,9.0,10.0
18040.0,9.0,0.49226865,9.0,10.0
18050.0,9.0,0.4972306,9.0,10.0
18060.0,9.0,0.49961886,9.0,10.0
18070.0,9.0,0.49980396,9.0,10.0
18080.0,9.0,0.56000084,9.0,10.0
18090.0,10.0,0.6105778,9.0,10.0
18100.0,10.0,0.6516778,9.0,10.0
18110.0,10.0,0.68341494,9.0,10.0
18120.0,10.0,0.71759826,9.0,10.0
18130.0,10.0,0.7486149,9.0,10.0
18140.0,10.0,0.7382242,9.0,10.0
18150.0,10.0,0.7460938,9.0,10.0
18160.0,10.0,0.7548928,9.0,10.0
18170.0,10.0,0.72646475,9.0,10.0
18180.0,10.0,0.6981851,10.0,11.0
18190.0,10.0,0.69707316,10.0,11.0
18200.0,10.0,0.6967499,10.0,11.0
18210.0,10.0,0.69244426,10.0,11.0
18220.0,10.0,0.67442656,10.0,11.0
18230.0,10.0,0.6711351,10.0,11.0
18240.0,10.0,0.63355976,9.0,10.0
18250.0,10.0,0.68208146,9.0,10.0
18260.0,10.0,0.7242406,9.0,10.0
18270.0,10.0,0.7615117,9.0,10.0
18280.0,10.0,0.77111286,9.0,10.0
18290.0,10.0,0.77106416,9.0,10.0
18300.0,10.0,0.76917666,9.0,10.0
18310.0,10.0,0.7701911,9.0,10.0
18320.0,10.0,0.77190286,9.0,10.0
18330.0,10.0,0.77186966,9.0,10.0
18340.0,10.0,0.7538954,9.0,10.0
18350.0,10.0,0.7455094,9.0,10.0
18360.0,10.0,0.7489873,9.0,10.0
18370.0,10.0,0.7781384,9.0,10.0
18380.0,10.0,0.76038045,9.0,10.0
18390.0,10.0,0.76069593,9.0,10.0
18400.0,10.0,0.7679518,9.0,10.0
18410.0,10.0,0.80388474,9.0,11.0
18420.0,10.0,0.8040188,9.0,11.0
18430.0,10.0,0.82199025,9.0,11.0
18440.0,10.0,0.8018427,9.0,11.0
18450.0,10.0,0.78954035,9.0,11.0
18460.0,10.0,0.75103384,9.0,11.0
18470.0,10.0,0.7437066,9.0,11.0
18480.0,10.0,0.6899732,10.0,11.0
18490.0,10.0,0.7006737,10.0,11.0
18500.0,10.0,0.4817907,10.0,11.0
18510.0,10.0,0.555133,10.0,11.0
18520.0,11.0,0.5481526,10.0,11.0
18530.0,11.0,0.5263841,10.0,11.0
18540.0,11.0,0.48845562,10.0,11.0
18550.0,11.0,0.44788834,11.0,11.0
18560.0,11.0,0.4713891,11.0,11.0
18570.0,11.0,0.5615887,11.0,11.0
18580.0,11.0,0.5819922,11.0,11.0
18590.0,11.0,0.60382503,11.0,11.0
18600.0,11.0,0.6342761,11.0,11.0
18610.0,11.0,0.67137647,11.0,12.0
18620.0,11.0,0.68925077,11.0,12.0
18630.0,11.0,0.7113163,11.0,12.0
18640.0,11.0,0.7921866,11.0,12.0
18650.0,11.0,0.8513156,11.0,12.0
18660.0,11.0,0.7986337,11.0,12.0
18670.0,11.0,0.84275174,11.0,12.0
18680.0,11.0,0.8655583,11.0,12.0
18690.0,11.0,0.8745702,11.0,12.0
18700.0,11.0,0.8785003,11.0,12.0
18710.0,11.0,0.9169552,11.0,12.0
18720.0,11.0,0.9195762,11.0,12.0
18730.0,11.0,0.92101663,11.0,12.0
18740.0,11.0,0.93268263,10.0,12.0
18750.0,11.0,0.9868397,10.0,12.0
18760.0,11.0,1.0358489,10.0,12.0
18770.0,11.0,1.0368767,10.0,12.0
18780.0,11.0,1.0464507,10.0,12.0
18790.0,11.0,1.0396272,10.0,12.0
18800.0,11.0,1.0733607,10.0,12.0
18810.0,11.0,1.1105275,10.0,12.0
18820.0,11.0,1.1666305,10.0,12.0
18830.0,11.0,1.2105492,10.0,12.0
18840.0,11.0,1.1999276,10.0,12.0
18850.0,11.0,1.2214074,10.0,12.0
18860.0,11.0,1.2397202,10.0,12.0
18870.0,11.0,1.2901579,10.0,12.0
18880.0,11.0,1.3163487,10.0,12.0
18890.0,11.0,1.337204,10.0,12.0
18900.0,11.0,1.3270758,10.0,12.0
18910.0,11.0,1.3373141,10.0,12.0
18920.0,11.0,1.4187155,10.0,12.0
18930.0,11.0,1.5182377,10.0,12.0
18940.0,12.0,1.147622,10.0,12.0
18950.0,12.0,0.477594,11.0,12.0
18960.0,12.0,0.42210904,12.0,12.0
18970.0,12.0,0.24652584,12.0,12.0
18980.0,12.0,0.22992176,12.0,12.0
18990.0,12.0,0.22798027,12.0,12.0
19000.0,12.0,0.31117678,12.0,12.0
19010.0,12.0,0.44497192,12.0,12.0
19020.0,12.0,0.4445177,12.0,12.0
19030.0,12.0,0.49102342,12.0,12.0
19040.0,12.0,0.4957408,12.0,12.0
19050.0,12.0,0.55019635,12.0,13.0
19060.0,12.0,0.5635601,12.0,13.0
19070.0,12.0,0.56210226,12.0,13.0
19080.0,12.0,0.54421234,12.0,13.0
19090.0,12.0,0.54547447,12.0,13.0
19100.0,12.0,0.5455604,12.0,13.0
19110.0,12.0,0.544473,12.0,13.0
19120.0,12.0,0.6001658,12.0,13.0
19130.0,12.0,0.6043297,12.0,13.0
19140.0,12.0,0.6000689,12.0,13.0
19150.0,13.0,0.56052005,12.0,13.0
19160.0,13.0,0.5607488,12.0,13.0
19170.0,13.0,0.5606734,12.0,13.0
19180.0,13.0,0.61404073,12.0,13.0
19190.0,13.0,0.6139438,12.0,13.0
19200.0,13.0,0.6154957,12.0,13.0
19210.0,13.0,0.649511,12.0,13.0
19220.0,13.0,0.74284536,12.0,13.0
19230.0,13.0,0.7418401,12.0,13.0
19240.0,12.0,0.73375964,12.0,13.0
19250.0,12.0,0.75718606,12.0,13.0
19260.0,12.0,0.8418612,11.0,13.0
19270.0,12.0,0.8410529,11.0,13.0
19280.0,12.0,0.8589398,11.0,13.0
19290.0,12.0,0.87211394,11.0,13.0
19300.0,12.0,0.96187574,11.0,13.0
19310.0,12.0,0.96358,11.0,13.0
19320.0,12.0,0.96371174,11.0,13.0
19330.0,12.0,0.9617962,11.0,13.0
19340.0,12.0,1.0287006,11.0,13.0
19350.0,12.0,1.0591421,11.0,12.0
19360.0,12.0,1.0319284,11.0,12.0
19370.0,12.0,1.0345271,11.0,12.0
19380.0,12.0,1.0042797,10.0,12.0
19390.0,12.0,0.96161664,10.0,12.0
19400.0,11.0,1.0192051,10.0,12.0
19410.0,11.0,1.0088075,10.0,12.0
19420.0,11.0,1.0475124,10.0,12.0
19430.0,11.0,1.0876626,10.0,12.0
19440.0,11.0,2.0100908,9.0,13.0
19450.0,11.0,1.9589936,9.0,13.0
19460.0,11.0,1.9514122,9.0,13.0
19470.0,12.0,1.9575862,9.0,13.0
19480.0,11.0,1.9736164,9.0,13.0
19490.0,11.0,1.9740769,9.0,13.0
19500.0,12.0,1.918618,9.0,13.0
19510.0,12.0,1.8938483,9.0,13.0
19520.0,12.0,1.9189521,9.0,13.0
19530.0,12.0,1.94743,9.0,13.0
19540.0,11.0,1.9102566,9.0,13.0
19550.0,11.0,1.8776815,9.0,13.0
19560.0,11.0,1.8735418,9.0,13.0
19570.0,12.0,1.8645024,9.0,13.0
19580.0,12.0,1.8691711,9.0,13.0
19590.0,12.0,1.9014066,9.0,13.0
19600.0,11.0,1.924138,9.0,13.0
19610.0,11.0,1.8833674,9.0,13.0
19620.0,11.0,1.8359894,9.0,13.0
19630.0,11.0,1.7921548,9.0,12.0
19640.0,11.0,1.7651621,9.0,12.0
19650.0,11.0,1.7508652,9.0,12.0
19660.0,11.0,1.7299184,10.0,12.0
19670.0,11.0,1.7102062,10.0,12.0
19680.0,11.0,1.7024821,9.75,12.0
19690.0,11.0,1.744839,9.0,12.0
19700.0,11.0,1.7493936,9.0,12.0
19710.0,11.0,0.7771641,11.0,12.0
19720.0,12.0,0.49934804,11.0,12.0
19730.0,12.0,0.49601513,11.0,12.0
19740.0,12.0,0.48498267,11.0,12.0
19750.0,12.0,0.4811642,11.0,12.0
19760.0,12.0,0.49899,11.0,12.0
19770.0,12.0,0.5186615,12.0,12.0
19780.0,12.0,0.5840377,12.0,12.0
19790.0,12.0,0.6151751,12.0,12.0
19800.0,12.0,0.62625796,12.0,13.0
19810.0,12.0,0.61337435,12.0,13.0
19820.0,12.0,0.58320147,12.0,13.0
19830.0,13.0,0.5562901,12.0,13.0
19840.0,13.0,0.5174852,12.0,13.0
19850.0,13.0,0.49038222,12.0,13.0
19860.0,13.0,0.48086485,12.0,13.0
19870.0,13.0,0.46736562,12.0,13.0
19880.0,13.0,0.4586927,12.0,13.0
19890.0,13.0,0.46946672,12.0,13.0
19900.0,13.0,0.49248236,12.0,13.0
19910.0,13.0,0.5315035,12.0,13.0
19920.0,13.0,0.55609906,12.0,13.0
19930.0,13.0,0.5758394,12.0,13.0
19940.0,13.0,0.6030431,13.0,13.0
19950.0,13.0,0.60341614,13.0,13.0
19960.0,13.0,0.59786165,13.0,13.0
19970.0,13.0,0.59464276,13.0,13.0
19980.0,13.0,0.5867232,13.0,13.0
19990.0,13.0,0.5725163,13.0,13.0
20000.0,13.0,0.54017526,13.0,13.0
20010.0,13.0,0.4865788,13.0,13.0
20020.0,13.0,0.4275091,13.0,13.0
20030.0,13.0,0.42251727,13.0,13.0
20040.0,13.0,0.42790186,13.0,13.0
20050.0,13.0,0.43846813,13.0,13.0
20060.0,13.0,0.436897,13.0,13.0
20070.0,13.0,0.42258132,13.0,13.0
20080.0,13.0,0.39909396,13.0,13.0
20090.0,13.0,0.76315135,12.0,13.0
20100.0,13.0,0.8052429,12.0,13.0
20110.0,13.0,0.81778663,12.0,13.0
20120.0,13.0,0.82905,12.0,13.0
20130.0,13.0,0.8389881,12.0,13.0
20140.0,13.0,0.885571,12.0,13.0
20150.0,13.0,0.9210341,12.0,13.0
20160.0,13.0,0.9522689,12.0,13.0
20170.0,13.0,0.998591,12.0,13.0
20180.0,13.0,1.0134453,12.0,13.0
20190.0,13.0,1.0647818,12.0,13.0
20200.0,13.0,1.0705948,12.0,13.0
20210.0,13.0,1.0806105,12.0,13.0
20220.0,13.0,1.0289834,12.0,13.0
20230.0,13.0,1.02851,12.0,13.0
20240.0,13.0,1.0366465,12.0,13.0
20250.0,12.0,0.76192814,11.0,13.0
20260.0,12.0,0.78260356,11.0,13.0
20270.0,12.0,0.80028886,11.0,13.0
20280.0,12.0,0.82438827,11.0,13.0
20290.0,12.0,0.83185893,11.0,13.0
20300.0,12.0,0.83185893,11.0,13.0
20310.0,12.0,0.83185893,11.0,13.0
20320.0,12.0,0.82408667,11.0,13.0
20330.0,12.0,0.81159395,11.0,13.0
20340.0,12.0,0.8051969,11.0,13.0
20350.0,12.0,0.82805717,11.0,13.0
20360.0,12.0,0.84681994,11.0,13.0
20370.0,12.0,0.8503231,11.0,13.0
20380.0,12.0,0.8576201,11.0,13.0
20390.0,12.0,0.86741686,11.0,13.0
20400.0,12.0,0.87429976,11.0,13.0
20410.0,12.0,0.88300997,11.0,13.0
20420.0,12.0,0.87835777,11.0,13.0
20430.0,12.0,0.86527956,11.0,13.0
20440.0,12.0,0.8655611,11.0,13.0
20450.0,12.0,0.9451592,11.0,13.0
20460.0,12.0,1.2076014,11.0,13.0
20470.0,12.0,1.2769327,11.0,14.0
20480.0,12.0,1.263854,11.0,13.0
20490.0,12.0,1.2419716,11.0,13.0
20500.0,12.0,1.2495235,11.0,13.0
20510.0,12.0,1.3001373,11.0,14.0
20520.0,12.0,1.3032925,11.0,14.0
20530.0,12.0,1.2969288,11.0,14.0
20540.0,12.0,1.296292,11.0,14.0
20550.0,12.0,1.3190862,11.0,14.0
20560.0,12.0,1.320468,11.0,14.0
20570.0,12.0,1.3387384,11.0,14.0
20580.0,12.0,1.3743376,11.0,14.0
20590.0,12.0,1.4399858,11.0,14.0
20600.0,12.0,1.4396664,11.0,14.0
20610.0,12.0,1.440616,11.0,14.0
20620.0,12.0,1.4507422,11.0,14.0
20630.0,12.0,1.5076478,11.0,14.0
20640.0,12.0,1.5607239,11.0,14.0
20650.0,12.0,1.559688,11.0,14.0
20660.0,12.0,1.6002822,11.0,14.0
20670.0,12.0,1.6408657,11.0,14.0
20680.0,12.0,1.6396328,11.0,14.0
20690.0,12.0,1.6408021,11.0,14.0
20700.0,12.0,1.640115,11.0,14.0
20710.0,12.0,1.6408162,11.0,14.0
20720.0,12.0,1.6587276,11.0,14.0
20730.0,12.0,1.6585956,11.0,14.0
20740.0,12.0,1.6736209,11.0,14.0
20750.0,12.0,1.4778017,11.0,14.0
20760.0,12.0,1.1720067,11.0,14.0
20770.0,12.0,1.1873525,11.0,14.0
20780.0,12.0,1.2006688,11.0,14.0
20790.0,12.0,1.2190342,11.0,14.0
20800.0,12.0,1.228947,11.0,14.0
20810.0,12.0,1.2338456,11.0,14.0
20820.0,12.0,1.2348256,11.0,14.0
20830.0,12.0,1.2454703,11.0,14.0
20840.0,12.0,1.2672174,11.0,14.0
20850.0,12.0,1.2737342,11.0,14.0
20860.0,12.0,1.257418,11.0,14.0
20870.0,12.0,1.2535884,11.0,14.0
20880.0,12.0,1.2743493,11.0,14.0
20890.0,12.0,1.2854819,11.0,14.0
20900.0,12.0,1.2751275,11.0,14.0
20910.0,12.0,1.25568,11.0,14.0
20920.0,12.0,1.2634575,11.0,14.0
20930.0,12.0,1.274126,11.0,14.0
20940.0,12.0,1.2844886,11.0,14.0
20950.0,12.0,1.2960835,11.0,14.0
20960.0,11.0,1.320265,11.0,14.0
20970.0,11.0,1.3252604,11.0,14.0
20980.0,11.0,1.3187487,11.0,14.0
20990.0,11.0,1.3235202,11.0,14.0
21000.0,11.0,1.3290715,11.0,14.0
21010.0,11.0,1.3307298,11.0,14.0
21020.0,11.0,1.3309844,11.0,14.0
21030.0,11.0,1.3437842,11.0,14.0
21040.0,11.0,1.3344227,11.0,14.0
21050.0,11.0,1.3241088,11.0,14.0
21060.0,11.0,1.3406584,11.0,14.0
21070.0,11.0,1.3822647,11.0,14.0
21080.0,11.0,1.4227251,11.0,14.0
21090.0,11.0,1.430558,11.0,14.0
21100.0,11.0,1.4044486,11.0,14.0
21110.0,11.0,1.3570229,11.0,14.0
21120.0,11.0,1.3178574,11.0,14.0
21130.0,12.0,1.2846338,11.0,14.0
21140.0,12.0,1.2748878,11.0,14.0
21150.0,12.0,1.2729859,11.0,14.0
21160.0,12.0,1.273909,11.0,14.0
21170.0,12.0,1.2632815,11.0,14.0
21180.0,12.0,1.2697839,11.0,14.0
21190.0,12.0,1.2863381,11.0,14.0
21200.0,11.0,1.3119695,11.0,14.0
21210.0,11.0,1.3172542,11.0,14.0
21220.0,11.0,1.3123554,11.0,13.0
21230.0,11.0,1.2619791,11.0,13.0
21240.0,12.0,1.1628581,11.0,13.0
21250.0,12.0,1.0596881,11.0,13.0
21260.0,12.0,1.0265237,11.0,13.0
21270.0,12.0,1.0327886,11.0,13.0
21280.0,12.0,1.0282723,11.0,13.0
21290.0,12.0,1.0176444,11.0,13.0
21300.0,12.0,1.0109267,11.0,13.0
21310.0,12.0,1.0160708,11.0,13.0
21320.0,12.0,1.0217078,11.0,13.0
21330.0,12.0,1.0054805,11.0,13.0
21340.0,12.0,0.9199864,11.0,12.0
21350.0,12.0,0.8281642,11.0,12.0
21360.0,12.0,0.7957334,11.0,12.0
21370.0,12.0,0.8470602,11.0,12.0
21380.0,12.0,0.8922047,11.0,12.0
21390.0,12.0,0.9410717,11.0,12.0
21400.0,12.0,0.9520457,11.0,12.0
21410.0,12.0,0.9406352,11.0,12.0
21420.0,12.0,0.9319206,11.0,12.0
21430.0,11.0,0.93290615,11.0,12.0
21440.0,12.0,1.1299388,11.0,13.0
21450.0,12.0,1.0621845,11.0,12.0
21460.0,12.0,1.0651288,11.0,12.0
21470.0,12.0,1.1002942,11.0,13.0
21480.0,12.0,1.1134403,11.0,13.0
21490.0,12.0,1.1927496,11.0,13.0
21500.0,12.0,1.3250889,11.0,13.0
21510.0,12.0,1.4354749,11.0,13.0
21520.0,12.0,1.4543426,11.0,13.0
21530.0,12.0,1.4568704,11.0,13.0
21540.0,12.0,1.5321593,11.0,13.0
21550.0,12.0,1.5898058,11.0,13.0
21560.0,12.0,1.6121279,11.0,13.0
21570.0,12.0,1.6313688,11.0,13.0
21580.0,12.0,1.7372515,10.0,13.0
21590.0,12.0,1.7580928,10.0,13.0
21600.0,12.0,1.7643851,10.0,13.0
21610.0,11.0,1.3120533,10.0,12.0
21620.0,11.0,1.2958982,10.0,12.0
21630.0,11.0,1.361186,9.0,12.0
21640.0,11.0,1.3729225,9.0,12.0
21650.0,11.0,1.3777281,9.0,12.0
21660.0,11.0,1.3702435,9.0,12.0
21670.0,11.0,1.4267454,9.0,12.0
21680.0,11.0,1.4288014,9.0,12.0
21690.0,11.0,1.4211034,9.0,12.0
21700.0,11.0,1.4024029,9.0,12.0
21710.0,11.0,1.4722263,9.0,12.0
21720.0,11.0,1.5336748,9.0,12.0
21730.0,11.0,1.5934806,9.0,12.0
21740.0,11.0,1.6319718,9.0,12.0
21750.0,11.0,1.6591151,9.0,12.0
21760.0,11.0,1.6751108,10.0,12.0
21770.0,12.0,1.7094067,10.0,12.0
21780.0,12.0,1.7669729,9.0,13.0
21790.0,12.0,1.7805951,10.0,13.0
21800.0,12.0,1.7574162,10.0,13.0
21810.0,12.0,1.74111,10.0,13.0
21820.0,12.0,1.7608919,10.0,13.0
21830.0,12.0,1.7947567,10.0,13.0
21840.0,12.0,1.3336353,10.0,13.0
21850.0,12.0,1.0263697,11.0,12.0
21860.0,12.0,1.0623306,11.0,13.0
21870.0,12.0,1.0653131,11.0,13.0
21880.0,12.0,1.066312,11.0,13.0
21890.0,12.0,1.0807282,11.0,13.0
21900.0,12.0,1.0462987,11.0,13.0
21910.0,12.0,1.032931,11.0,13.0
21920.0,12.0,1.0590659,11.0,13.0
21930.0,12.0,1.1076119,11.0,13.0
21940.0,12.0,1.1823068,11.0,13.0
21950.0,13.0,1.2044848,11.0,13.0
21960.0,13.0,1.2206984,11.0,13.0
21970.0,13.0,1.1557658,12.0,13.0
21980.0,13.0,1.1253002,12.0,14.0
21990.0,13.0,1.1295592,12.0,14.0
22000.0,13.0,1.1246761,12.0,14.0
22010.0,13.0,1.07072,12.0,14.0
22020.0,13.0,1.0713692,12.0,14.0
22030.0,13.0,1.0642275,12.0,14.0
22040.0,13.0,1.0257509,12.0,14.0
22050.0,13.0,1.0240489,12.0,14.0
22060.0,13.0,1.044592,12.0,14.0
22070.0,14.0,1.0551889,12.0,14.0
22080.0,14.0,1.0795782,12.0,14.0
22090.0,14.0,1.1195813,12.0,14.0
22100.0,14.0,1.1424557,13.0,14.0
22110.0,14.0,1.1121249,13.0,14.0
22120.0,14.0,1.0759927,12.0,14.0
22130.0,14.0,1.0477723,13.0,14.0
22140.0,14.0,1.0177764,13.0,14.0
22150.0,14.0,1.0234035,13.0,14.0
22160.0,14.0,1.0404949,13.0,14.0
22170.0,14.0,1.0495707,13.0,14.0
22180.0,14.0,1.0116125,13.0,14.0
22190.0,14.0,1.0143955,13.0,14.0
22200.0,14.0,1.032449,13.0,14.0
22210.0,14.0,1.0303383,13.0,14.0
22220.0,14.0,0.9828534,13.0,14.0
22230.0,14.0,0.9766738,13.0,14.0
22240.0,14.0,0.98512363,13.0,14.0
22250.0,14.0,0.97271407,13.0,14.0
22260.0,14.0,0.9307132,13.0,14.0
22270.0,14.0,0.932387,13.0,14.0
22280.0,14.0,0.95049965,13.0,14.0
22290.0,14.0,0.93853575,13.0,14.0
22300.0,14.0,0.89972574,13.0,14.0
22310.0,14.0,0.8592211,13.0,14.0
22320.0,14.0,0.81857467,13.0,14.0
22330.0,14.0,0.80632395,13.0,14.0
22340.0,14.0,0.8179458,13.0,14.0
22350.0,14.0,0.81424665,13.0,14.0
22360.0,14.0,0.76258487,13.0,14.0
22370.0,14.0,0.7267117,13.0,14.0
22380.0,14.0,0.69343656,13.0,14.0
22390.0,14.0,0.6573633,13.0,14.0
22400.0,14.0,0.6190006,13.0,14.0
22410.0,14.0,0.49209386,13.0,14.0
22420.0,14.0,0.3950227,14.0,14.0
22430.0,14.0,0.42770928,14.0,14.0
22440.0,14.0,0.45295653,13.0,14.0
22450.0,14.0,0.47870377,13.0,14.0
22460.0,14.0,0.48672625,13.0,14.0
22470.0,14.0,0.49314633,13.0,14.0
22480.0,14.0,0.54703474,13.0,14.0
22490.0,13.0,0.6263535,13.0,14.0
22500.0,13.0,0.69347596,13.0,14.0
22510.0,13.0,0.7482108,13.0,14.0
22520.0,13.0,0.7681487,13.0,14.0
22530.0,13.0,0.76713294,13.0,14.0
22540.0,13.0,0.76632917,13.0,14.0
22550.0,13.0,0.80467975,13.0,14.0
22560.0,13.0,0.8742695,13.0,15.0
22570.0,13.0,0.8891342,13.0,15.0
22580.0,13.0,0.59418666,13.0,14.0
22590.0,13.0,1.1434604,12.0,14.0
22600.0,13.0,1.1733184,12.0,14.0
22610.0,13.0,1.2030616,12.0,14.0
22620.0,13.0,1.2137293,12.0,14.0
22630.0,13.0,1.2052742,12.0,14.0
22640.0,13.0,1.2226251,12.0,14.0
22650.0,13.0,1.2337443,12.0,14.0
22660.0,13.0,1.2356983,11.0,14.0
22670.0,12.0,1.2375441,11.0,14.0
22680.0,12.0,1.2568688,11.0,14.0
22690.0,12.0,1.2836174,11.0,14.0
22700.0,12.0,1.2992059,11.0,14.0
22710.0,12.0,1.2989631,11.0,14.0
