distance,median,stdev,prc_25,prc_75
120.0,5.0,1.7569592,4.0,6.0
130.0,5.0,1.7744472,4.0,6.0
140.0,5.0,1.7299762,4.0,5.0
150.0,5.0,1.573422,4.0,5.0
160.0,5.0,1.7384098,4.0,6.0
170.0,5.0,1.9709996,3.0,6.0
180.0,5.0,2.3324876,3.0,6.0
190.0,5.0,2.468874,3.0,6.0
200.0,5.0,2.388503,3.0,6.0
210.0,5.0,2.3167815,4.0,6.0
220.0,5.0,2.2159197,4.0,6.0
230.0,5.0,2.0821807,4.0,6.0
240.0,5.0,1.784959,5.0,7.0
250.0,6.0,1.7466414,5.0,7.0
260.0,5.0,2.0069435,5.0,7.0
520.0,7.0,2.0634508,6.0,9.0
530.0,7.0,2.1494753,6.0,9.0
540.0,7.0,2.2714725,6.0,9.0
550.0,8.0,2.184166,6.0,9.0
560.0,8.0,2.0842798,6.0,9.0
570.0,8.0,2.1656694,6.0,9.0
580.0,7.0,2.2440846,6.0,9.0
590.0,8.0,2.235998,7.0,9.0
600.0,8.0,2.2328606,7.0,9.0
610.0,8.0,2.0798519,7.0,9.0
620.0,8.0,2.1474648,7.0,10.0
630.0,8.0,2.3010337,7.0,10.0
640.0,8.0,2.367159,7.0,9.0
650.0,8.0,2.2961717,7.0,9.0
660.0,8.0,2.2454324,7.0,9.0
670.0,7.0,2.2053878,7.0,8.0
680.0,7.0,2.161012,6.0,8.0
690.0,7.0,1.9960601,7.0,8.0
700.0,8.0,1.8503888,7.0,9.0
710.0,8.0,1.7418963,7.0,9.0
720.0,8.0,1.8286797,7.0,9.0
730.0,8.0,1.9807445,7.0,9.0
740.0,8.0,1.8828225,7.0,9.0
750.0,8.0,1.887458,8.0,9.0
760.0,9.0,2.417842,7.0,10.0
770.0,9.0,2.4481618,7.0,10.0
780.0,9.0,2.4401329,7.0,10.0
790.0,8.0,2.3906455,7.0,9.0
800.0,9.0,2.2145398,7.0,10.0
810.0,9.0,2.069762,7.0,10.0
820.0,9.0,2.1256428,7.0,10.0
830.0,8.0,2.1686945,7.0,10.0
840.0,9.0,2.169715,7.0,10.0
850.0,9.0,2.691615,7.0,10.0
860.0,8.0,2.231229,7.0,9.0
870.0,8.0,2.142472,7.0,9.0
880.0,8.0,1.7673244,7.0,9.0
890.0,8.0,1.7530249,7.0,9.0
900.0,8.0,1.8302634,7.0,9.0
910.0,8.0,1.61234,7.0,9.0
920.0,8.0,1.826582,7.0,9.0
930.0,8.0,1.791255,7.0,9.0
940.0,8.0,1.9672407,7.0,9.0
950.0,8.0,1.7794024,7.0,9.0
960.0,8.0,1.8562502,7.0,9.0
970.0,9.0,2.5462027,7.0,10.0
980.0,8.0,1.7704431,7.0,9.0
990.0,8.0,1.7735703,7.0,9.0
1000.0,8.0,1.9280404,7.0,9.0
1010.0,8.0,1.9944472,7.0,9.0
1020.0,8.0,2.020045,7.0,9.0
1030.0,8.0,1.9925939,7.0,9.0
1040.0,8.0,2.1376667,7.0,9.0
1050.0,8.0,2.1380699,7.0,9.0
1060.0,8.0,1.9646492,7.0,9.0
1070.0,8.0,1.9356234,7.0,9.0
1080.0,8.0,1.5222933,7.0,9.0
1090.0,8.0,1.628531,7.0,9.0
1100.0,8.0,1.6007166,7.0,9.0
1110.0,8.0,1.8070842,7.0,9.0
1120.0,8.0,2.291741,7.0,9.0
1130.0,8.0,2.4164503,7.0,9.0
1140.0,8.0,2.4786308,6.0,10.0
1150.0,8.0,2.6417916,6.0,10.0
1160.0,8.0,2.7080624,7.0,10.0
1170.0,8.0,2.7644396,7.0,10.0
1180.0,8.0,2.5812461,7.0,10.0
1190.0,8.0,2.5213778,7.0,9.0
1200.0,7.0,1.527215,7.0,8.0
1210.0,7.0,1.5146064,7.0,9.0
1220.0,7.0,1.6386436,7.0,9.0
1230.0,7.0,1.7655263,6.0,9.0
1240.0,7.0,1.834279,6.0,9.0
1250.0,7.0,1.7564543,7.0,9.0
1260.0,8.0,1.6444455,7.0,9.0
1270.0,8.0,1.5103374,7.0,9.0
1280.0,8.0,1.4518381,7.0,9.0
1290.0,8.0,1.4696734,7.0,9.0
1300.0,8.0,1.5929296,7.0,9.0
1310.0,8.0,1.6082972,7.0,9.0
1320.0,8.0,1.6085129,7.0,9.0
1330.0,8.0,1.5970672,7.0,9.0
1340.0,8.0,1.5441523,7.0,9.0
1350.0,8.0,1.495281,7.0,9.0
1360.0,8.0,1.5045558,7.0,9.0
1370.0,8.0,1.5317706,7.0,9.0
1380.0,8.0,1.5999299,7.0,9.0
1390.0,8.0,1.6632425,7.0,9.0
1400.0,8.0,1.6752524,7.0,9.0
1410.0,8.0,1.6180061,7.0,9.0
1420.0,8.0,1.5264456,7.0,9.0
1430.0,8.0,1.4433383,7.0,9.0
1440.0,8.0,1.4244454,7.0,9.0
1450.0,8.0,1.5240847,7.0,9.0
1460.0,8.0,1.5823156,7.0,9.0
1470.0,8.0,1.6593401,7.0,9.0
1480.0,8.0,1.7786514,7.0,9.0
1490.0,8.0,1.861525,7.0,9.0
1500.0,8.0,1.8690764,6.0,9.0
1510.0,8.0,1.8427135,7.0,9.0
1520.0,8.0,1.7608254,7.0,9.0
1530.0,8.0,1.6504558,7.0,9.0
1540.0,8.0,1.5246247,7.0,9.0
1550.0,8.0,1.4916991,7.0,9.0
1560.0,8.0,1.5900007,7.0,9.0
1570.0,8.0,1.8211502,7.0,9.0
1580.0,8.0,2.0194554,7.0,9.0
1590.0,8.0,2.0458767,7.0,9.0
1600.0,8.0,2.0982962,7.0,9.0
1610.0,8.0,2.1500766,7.0,9.0
1620.0,8.0,2.0833497,7.0,10.0
1630.0,8.0,1.9620621,7.0,10.0
1640.0,8.0,1.8815755,7.0,10.0
1650.0,8.0,1.9561759,7.0,10.0
1660.0,8.0,1.9428424,7.0,10.0
1670.0,8.0,1.9430686,7.0,10.0
1680.0,8.0,1.805543,7.0,10.0
1690.0,8.0,1.677237,7.0,10.0
1700.0,8.0,1.5323877,7.0,10.0
1710.0,9.0,1.4879819,7.0,10.0
1720.0,9.0,1.4255633,7.0,10.0
1730.0,9.0,1.435303,8.0,10.0
1740.0,9.0,1.4366443,8.0,10.0
1750.0,9.0,1.399197,8.0,10.0
1760.0,8.0,1.8484347,6.0,10.0
1770.0,8.0,2.004749,7.0,10.0
1780.0,8.0,1.8926586,7.0,9.0
1790.0,8.0,1.8364685,7.0,9.0
1800.0,8.0,1.8110411,7.0,9.0
1810.0,8.0,1.7630243,7.0,9.0
1820.0,8.0,1.7492296,7.0,9.0
1830.0,8.0,1.78239,6.0,9.0
1840.0,7.0,1.7955042,6.0,9.0
1850.0,7.0,1.7740755,6.0,9.0
1860.0,7.0,1.6946433,6.0,9.0
1870.0,7.0,1.5598933,6.0,9.0
1880.0,7.0,1.4386772,6.0,9.0
1890.0,7.0,1.4480071,6.0,9.0
1900.0,8.0,1.5473443,7.0,9.0
1910.0,8.0,1.5555669,7.0,9.0
1920.0,8.0,1.5638583,7.0,9.0
1930.0,8.0,2.2528496,7.0,11.0
1940.0,9.0,2.481424,7.0,10.0
1950.0,9.0,2.4009326,7.0,10.0
1960.0,8.0,2.3224277,7.0,10.0
1970.0,9.0,2.2086277,7.0,10.0
1980.0,9.0,2.0705261,8.0,10.0
1990.0,9.0,2.2121112,8.0,11.0
2000.0,9.0,2.0147564,8.0,10.0
2010.0,9.0,2.0817983,8.0,11.0
2020.0,9.0,2.2604706,8.0,11.0
2030.0,9.0,2.180092,8.0,10.0
2040.0,9.0,2.2634077,7.0,10.0
2050.0,9.0,2.2316778,7.0,11.0
2060.0,9.0,2.2895567,7.0,11.0
2070.0,10.0,2.0039506,8.0,10.0
2080.0,9.0,1.3985671,8.0,10.0
2090.0,9.0,1.3835381,8.0,10.0
2100.0,9.0,1.4961517,8.0,10.0
2110.0,9.0,1.7043644,8.0,10.0
2120.0,9.0,1.793429,8.0,10.0
2130.0,9.0,1.8862662,7.0,10.0
2140.0,9.0,1.9660213,7.0,10.0
2150.0,9.0,1.9229145,7.0,10.0
2160.0,9.0,1.8121252,8.0,10.0
2170.0,9.0,1.7015269,8.0,10.0
2180.0,10.0,2.6294475,7.0,12.0
2190.0,8.0,1.8166226,7.0,9.0
2200.0,8.0,1.7575918,7.0,9.0
2210.0,8.0,1.7804974,7.0,9.0
2220.0,8.0,1.8235794,7.0,9.0
2230.0,8.0,1.9096628,7.0,9.0
2240.0,7.0,2.0751846,7.0,9.0
2250.0,7.0,2.211601,6.0,9.0
2260.0,8.0,2.3405793,6.0,9.0
2270.0,8.0,2.4974995,6.0,9.0
2280.0,8.0,2.6804051,7.0,10.0
2290.0,10.0,2.1533637,8.0,12.0
2300.0,9.0,2.1344013,8.0,11.0
2310.0,9.0,2.1993837,8.0,11.0
2320.0,9.0,2.1862075,8.0,11.0
2330.0,9.0,2.21148,8.0,11.0
2340.0,9.0,2.23413,8.0,11.0
2350.0,9.0,2.2337768,8.0,11.0
2360.0,9.0,2.1663587,8.0,11.0
2370.0,9.0,2.173051,7.0,11.0
2380.0,9.0,2.2030895,7.0,11.0
2390.0,9.0,2.0834744,7.0,10.0
2400.0,9.0,2.223616,7.0,11.0
2410.0,9.0,2.2874546,8.0,11.0
2420.0,9.0,2.2970076,8.0,11.0
2430.0,9.0,2.2838082,8.0,11.0
2440.0,9.0,2.4150102,8.0,11.0
2450.0,10.0,2.5588129,8.0,12.0
2460.0,9.0,2.4887376,8.0,12.0
2470.0,9.0,1.9046886,8.0,10.0
2480.0,8.0,2.083472,7.0,10.0
2490.0,8.0,2.0495696,7.0,9.0
2500.0,8.0,1.8945645,7.0,9.0
2510.0,8.0,1.944824,7.0,10.0
2520.0,8.0,2.0189252,7.0,10.0
2530.0,8.0,2.074379,7.0,10.0
2540.0,8.0,1.9220665,7.0,10.0
2550.0,8.0,1.895273,7.0,10.0
2560.0,8.0,1.9934105,7.0,10.0
2570.0,8.0,1.9430605,7.0,9.0
2580.0,8.0,2.2501554,7.0,9.0
2590.0,8.0,2.1719205,7.0,9.0
2600.0,7.0,2.354565,6.0,9.0
2610.0,7.0,2.3403404,6.0,9.0
2620.0,7.0,2.1799128,6.0,9.0
2630.0,7.0,2.027805,6.0,8.0
2640.0,7.0,1.9377757,6.0,8.0
2650.0,8.0,2.124952,7.0,10.0
2660.0,7.0,2.1812396,6.0,10.0
2670.0,7.0,2.255218,6.0,10.0
2680.0,7.0,2.324073,6.0,10.0
2690.0,7.0,2.33085,6.0,10.0
2700.0,8.0,2.5099282,6.0,11.0
2710.0,8.0,2.731432,6.0,11.0
2720.0,8.0,2.6810584,6.0,11.0
2730.0,7.0,2.5495536,6.0,10.0
2740.0,7.0,2.4461346,6.0,9.0
2750.0,7.0,2.2665598,6.0,9.0
2760.0,8.0,2.3765967,6.0,10.0
2770.0,8.0,2.868703,6.0,11.0
2780.0,8.0,2.9506454,6.0,11.0
2790.0,8.0,2.9106495,6.0,11.0
2800.0,8.0,2.7452817,6.0,11.0
2810.0,8.0,2.555643,6.0,10.0
2820.0,7.0,2.4292257,6.0,10.0
2830.0,7.0,2.2760754,6.0,10.0
2840.0,8.0,2.5816503,6.0,10.0
2850.0,8.0,2.68526,6.0,10.0
2860.0,8.0,2.7103333,7.0,10.0
2870.0,8.0,2.7232325,7.0,11.0
2880.0,8.0,2.7318866,7.0,11.0
2890.0,8.0,2.8225367,7.0,11.0
2900.0,8.0,2.8128896,7.0,10.0
2910.0,7.0,2.6420507,6.0,10.0
2920.0,7.0,2.4993222,6.0,10.0
2930.0,7.0,2.3856435,6.0,10.0
2940.0,7.0,2.2701962,6.0,10.0
2950.0,8.0,2.3028824,6.0,10.0
2960.0,8.0,2.5923831,7.0,10.0
2970.0,9.0,2.444584,7.0,10.0
2980.0,9.0,2.3217006,7.0,10.0
2990.0,8.0,2.211872,7.0,10.0
3000.0,8.0,2.180093,7.0,10.0
3010.0,8.0,2.2870028,7.0,10.0
3020.0,8.0,2.3360772,7.0,10.0
3030.0,8.0,2.2842445,7.0,10.0
3040.0,8.0,2.158541,7.0,9.0
3050.0,8.0,1.990794,7.0,9.0
3060.0,8.0,1.838666,7.0,9.0
3070.0,7.0,1.7804536,7.0,9.0
3080.0,7.0,1.8111117,7.0,9.0
3090.0,8.0,1.8503481,7.0,9.0
3100.0,8.0,1.7267232,7.0,9.0
3110.0,8.0,1.6937058,7.0,9.0
3120.0,8.0,1.5906013,7.0,9.0
3130.0,8.0,1.5135342,7.0,9.0
3140.0,8.0,1.6391739,7.0,9.0
3150.0,8.0,1.7985662,7.0,9.0
3160.0,8.0,1.8587859,7.0,9.0
3170.0,8.0,1.903257,7.0,9.0
3180.0,8.0,1.975545,7.0,9.0
3190.0,8.0,1.9918841,7.0,9.0
3200.0,8.0,1.9539673,7.0,9.0
3210.0,8.0,1.9690392,7.0,9.0
3220.0,8.0,2.0471807,7.0,9.0
3230.0,8.0,2.19527,7.0,10.0
3240.0,8.0,2.2917655,7.0,10.0
3250.0,8.0,2.2786696,7.0,9.0
3260.0,8.0,2.1766257,7.0,9.0
3270.0,8.0,2.1202092,7.0,9.0
3280.0,8.0,2.1039615,7.0,9.0
3290.0,8.0,2.0404088,7.0,9.0
3300.0,8.0,1.9228983,7.0,9.0
3310.0,8.0,1.7999537,7.0,9.0
3320.0,8.0,1.6847955,7.0,9.0
3330.0,8.0,1.5310317,7.0,8.0
3340.0,8.0,1.5744761,7.0,9.0
3350.0,8.0,1.5645599,6.0,9.0
3360.0,7.0,1.6265177,6.0,9.0
3370.0,7.0,1.6568065,7.0,9.0
3380.0,7.0,1.6797154,7.0,9.0
3390.0,7.0,1.7550282,6.0,9.0
3400.0,7.0,1.9831568,6.0,9.0
3410.0,8.0,2.188952,6.0,9.0
3420.0,7.0,2.3247383,6.0,10.0
3430.0,8.0,2.369047,6.0,10.0
3440.0,8.0,2.3989518,7.0,10.0
3450.0,8.0,2.2981381,7.0,9.0
3460.0,8.0,2.219736,7.0,10.0
3470.0,9.0,2.4466875,7.0,10.0
3480.0,9.0,2.5248067,7.0,10.0
3490.0,9.0,2.4678607,7.0,10.0
3500.0,9.0,2.474911,7.0,10.0
3510.0,9.0,2.3617365,7.0,10.0
3520.0,8.0,2.3999186,7.0,10.0
3530.0,8.0,2.3027687,7.0,10.0
3540.0,8.0,2.0258765,7.0,9.0
3550.0,8.0,1.9849434,7.0,9.0
3560.0,8.0,1.8813542,7.0,9.0
3570.0,8.0,1.8789282,7.0,10.0
3580.0,9.0,2.4065523,7.0,10.0
3590.0,8.0,2.3383145,7.0,10.0
3600.0,8.0,2.1314466,7.0,10.0
3610.0,8.0,1.9134628,7.0,10.0
3620.0,8.0,1.866886,7.0,10.0
3630.0,8.0,2.093898,7.0,10.0
3640.0,8.0,2.3450184,7.0,10.0
3650.0,8.0,2.6025162,7.0,10.0
3660.0,9.0,2.3458343,8.0,11.0
3670.0,10.0,2.372848,7.0,11.0
3680.0,9.0,2.3899727,7.0,11.0
3690.0,9.0,2.463076,8.0,11.0
3700.0,9.0,2.632269,8.0,11.0
3710.0,9.0,2.5537105,8.0,11.0
3720.0,9.0,2.4661355,8.0,11.0
3730.0,9.0,2.3418088,8.0,11.0
3740.0,9.0,2.4702501,8.0,11.0
3750.0,9.0,2.3035047,8.0,11.0
3760.0,9.0,2.508655,8.0,11.0
3770.0,9.0,2.721697,8.0,11.0
3780.0,9.0,2.9259171,8.0,12.0
3790.0,9.0,3.085552,8.0,12.0
3800.0,10.0,3.252228,8.0,12.0
3810.0,10.0,3.2513936,8.0,12.0
3820.0,10.0,2.954719,8.0,12.0
3830.0,9.0,2.6663961,8.0,12.0
3840.0,9.0,2.6660001,8.0,12.0
3850.0,9.0,2.7210886,8.0,12.0
3860.0,9.0,2.6791787,8.0,11.0
3870.0,9.0,2.2904382,8.0,11.0
3880.0,10.0,1.927363,8.0,11.0
3890.0,10.0,1.787673,8.0,11.0
3900.0,10.0,1.7156314,8.0,11.0
3910.0,10.0,1.6386029,8.0,11.0
3920.0,9.0,1.6532446,8.0,10.0
3930.0,9.0,1.87027,8.0,10.0
3940.0,9.0,2.1061678,8.0,10.0
3950.0,9.0,2.2370515,8.0,11.0
3960.0,9.0,2.2828832,8.0,10.0
3970.0,9.0,2.1472409,8.0,10.0
3980.0,9.0,2.859562,8.0,12.0
3990.0,9.0,2.8378944,8.0,12.0
4000.0,9.0,2.836219,8.0,11.0
4010.0,10.0,2.7851062,8.0,11.0
4020.0,9.0,2.6849573,8.0,11.0
4030.0,9.0,2.4494395,8.0,11.0
4040.0,9.0,2.4226744,8.0,11.0
4050.0,9.0,2.3358228,8.0,11.0
4060.0,9.0,2.2432642,8.0,11.0
4070.0,9.0,2.1220157,8.0,11.0
4080.0,9.0,2.1684186,8.0,11.0
4090.0,9.0,2.2708268,7.0,11.0
4100.0,9.0,2.36701,7.0,11.0
4110.0,9.0,2.3949401,7.0,11.0
4120.0,10.0,2.2822068,8.0,11.0
4130.0,10.0,3.1500316,8.0,12.0
4140.0,9.0,1.7997799,8.0,10.0
4150.0,9.0,1.8758831,8.0,10.0
4160.0,9.0,2.0223947,8.0,11.0
4170.0,9.0,2.0965137,8.0,11.0
4180.0,9.0,2.0524032,8.0,11.0
4190.0,9.0,2.1780667,8.0,11.0
4200.0,9.0,2.3039002,7.0,11.0
4210.0,9.0,2.3518693,8.0,11.0
4220.0,9.0,2.563761,8.0,12.0
4230.0,9.0,3.1182222,8.0,12.0
4240.0,9.0,3.26873,8.0,13.0
4250.0,10.0,3.3828754,8.0,13.0
4260.0,8.0,2.54095,8.0,10.0
4270.0,8.0,2.5745025,7.0,11.0
4280.0,8.0,2.6778166,7.0,11.0
4290.0,8.0,2.7242491,7.0,11.0
4300.0,8.0,2.8751798,7.0,11.0
4310.0,8.0,2.7329116,7.0,10.0
4320.0,9.0,2.9157526,7.0,11.0
4330.0,9.0,2.4914553,7.0,11.0
4340.0,9.0,2.5812323,8.0,11.0
4350.0,9.0,2.4850802,7.0,11.0
4360.0,9.0,2.756927,8.0,11.0
4370.0,9.0,2.5690434,8.0,12.0
4380.0,9.0,2.3325765,8.0,11.0
4390.0,9.0,2.280472,8.0,11.0
4400.0,9.0,2.352769,8.0,11.0
4410.0,9.0,2.5380657,8.0,11.0
4420.0,9.0,2.6885252,8.0,11.0
4430.0,10.0,2.439567,8.0,11.0
4440.0,9.0,2.3742278,8.0,12.0
4450.0,9.0,2.4884882,9.0,12.0
4460.0,9.0,2.1898909,9.0,12.0
4470.0,10.0,2.003868,9.0,11.0
4480.0,10.0,1.879691,9.0,11.0
4490.0,10.0,1.711506,9.0,11.0
4500.0,10.0,1.6855763,9.0,12.0
4510.0,10.0,2.555374,9.0,12.0
4520.0,11.0,2.4607604,9.0,12.0
4530.0,11.0,2.4460957,9.0,12.0
4540.0,10.0,2.4807887,9.0,12.0
4550.0,10.0,2.423887,9.0,11.0
4560.0,9.0,1.8811243,8.0,11.0
4570.0,9.0,2.0196228,8.0,10.0
4580.0,9.0,2.082713,8.0,10.0
4590.0,9.0,2.1382744,8.0,10.0
4600.0,9.0,2.1968048,8.0,10.0
4610.0,9.0,2.551053,8.0,11.0
4620.0,9.0,2.63302,8.0,11.0
4630.0,10.0,1.7748132,9.0,11.0
4640.0,9.0,1.7451192,8.0,10.0
4650.0,8.0,1.8625598,7.0,10.0
4660.0,9.0,1.7814928,7.0,10.0
4670.0,9.0,1.850509,8.0,10.0
4680.0,9.0,1.9817264,8.0,10.0
4690.0,9.0,2.076322,8.0,10.0
4700.0,9.0,2.0499642,8.0,10.0
4710.0,9.0,1.9733422,8.0,10.0
4720.0,9.0,1.8420274,8.0,10.0
4730.0,9.0,1.9130578,8.0,10.0
4740.0,9.0,1.870422,8.0,10.0
4750.0,9.0,1.9446194,8.0,10.0
4760.0,9.0,1.9089364,8.0,10.0
4770.0,9.0,1.9894813,8.0,10.0
4780.0,8.0,1.6167234,7.0,10.0
4790.0,8.0,1.8711663,7.0,10.0
4800.0,8.0,2.0429285,7.0,10.0
4810.0,8.0,2.107081,7.0,10.0
4820.0,9.0,2.2229474,7.0,10.0
4830.0,8.0,2.3231583,7.0,10.0
4840.0,8.0,2.278193,7.0,10.0
4850.0,8.0,2.1310139,7.0,10.0
4860.0,9.0,2.0023465,8.0,10.0
4870.0,9.0,2.1476796,7.0,11.0
4880.0,9.0,2.2896733,7.0,11.0
4890.0,9.0,2.4587622,7.0,11.0
4900.0,9.0,2.6735444,7.0,11.0
4910.0,9.0,2.835979,7.0,11.0
4920.0,8.0,2.7359588,7.0,11.0
4930.0,9.0,2.8934596,8.0,11.0
4940.0,9.0,2.6400945,8.0,11.0
4950.0,10.0,2.4439397,8.0,11.0
4960.0,10.0,2.3905296,8.0,12.0
4970.0,9.0,2.3708043,8.0,12.0
4980.0,9.0,2.1837888,8.0,11.0
4990.0,9.0,2.356965,7.0,11.0
5000.0,9.0,2.4326315,7.0,11.0
5010.0,9.0,2.4802828,7.0,10.0
5020.0,8.0,2.4607475,7.0,10.0
5030.0,8.0,2.5638983,7.0,10.0
5040.0,8.0,2.62387,7.0,10.0
5050.0,8.0,2.5254252,7.0,10.0
5060.0,8.0,2.3733394,7.0,9.0
5070.0,8.0,2.2676506,7.0,10.0
5080.0,8.0,2.2454205,7.0,10.0
5090.0,8.0,2.1317692,7.0,10.0
5100.0,9.0,2.7092247,7.0,12.0
5110.0,9.0,2.944459,7.0,12.0
5120.0,9.0,2.944459,7.0,12.0
5130.0,9.0,2.10296,7.0,10.0
5140.0,9.0,2.1032987,7.0,10.0
5150.0,9.0,2.1032987,7.0,10.0
5160.0,9.0,2.2240663,7.0,10.0
5170.0,9.0,2.2240663,7.0,10.0
5180.0,9.0,2.2240663,7.0,10.0
5190.0,9.0,3.1155329,7.0,11.0
5200.0,9.0,3.1155329,7.0,11.0
5210.0,9.0,3.1155329,7.0,11.0
5220.0,9.0,3.1312504,7.0,11.0
5230.0,9.0,3.1312504,7.0,11.0
5240.0,9.0,3.1312504,7.0,11.0
5250.0,10.0,3.0701873,8.0,12.0
5260.0,10.0,3.1478765,8.0,12.0
5270.0,10.0,2.9057856,8.0,12.0
5280.0,10.0,2.7691002,8.0,12.0
5290.0,10.0,2.7720053,8.0,13.0
5300.0,10.0,2.647946,8.0,12.0
5310.0,10.0,2.5777981,8.0,12.0
5320.0,9.0,2.6229951,8.0,12.0
5330.0,9.0,2.6072469,8.0,12.0
5340.0,10.0,2.581544,8.0,11.0
5350.0,10.0,2.7325025,8.0,11.0
5360.0,10.0,2.7191975,8.0,11.0
5370.0,10.0,2.7152228,8.0,11.0
5380.0,9.0,2.7329657,8.0,11.0
5390.0,9.0,2.6861627,8.0,11.0
5400.0,9.0,2.6205213,8.0,11.0
5410.0,9.0,2.4868612,8.0,11.0
5420.0,9.0,2.4625325,8.0,11.0
5430.0,9.0,2.3938107,8.0,11.0
5440.0,9.0,2.3632782,8.0,11.0
5450.0,9.0,2.647735,7.0,11.0
5460.0,9.0,2.7997978,7.0,11.0
5470.0,9.0,3.034693,7.0,11.0
5480.0,8.0,3.126658,7.0,11.0
5490.0,8.0,3.206101,7.0,11.0
5500.0,8.0,3.4273362,7.0,11.0
5510.0,8.0,3.3564477,7.0,10.0
5520.0,8.0,3.3278446,7.0,11.0
5530.0,8.0,3.0920682,7.0,11.0
5540.0,8.0,2.9805653,7.0,11.0
5550.0,8.0,2.934646,7.0,11.0
5560.0,8.0,2.6193192,7.0,11.0
5570.0,8.0,2.7705576,7.0,11.0
5580.0,8.0,2.7702937,7.0,11.0
5590.0,9.0,2.7709408,8.0,12.0
5600.0,9.0,2.7373674,8.0,11.0
5610.0,9.0,2.804899,8.0,11.0
5620.0,9.0,2.7330544,8.0,11.0
5630.0,9.0,2.7308536,8.0,11.0
5640.0,9.0,2.6196404,8.0,12.0
5650.0,9.0,2.6168795,8.0,11.0
5660.0,9.0,2.474949,8.0,11.0
5670.0,9.0,2.4899118,8.0,11.0
5680.0,9.0,2.5071065,8.0,11.0
5690.0,8.0,2.3592048,7.0,11.0
5700.0,8.0,2.2195463,7.0,11.0
5710.0,8.0,2.185314,8.0,10.0
5720.0,8.0,1.9654392,8.0,10.0
5730.0,8.0,1.6052717,8.0,9.0
5740.0,8.0,1.5819407,8.0,9.0
5750.0,8.0,1.692753,7.0,9.0
5760.0,8.0,1.6734405,7.0,9.0
5770.0,8.0,1.6844848,7.0,9.0
5780.0,8.0,1.6879259,7.0,9.0
5790.0,8.0,1.6569421,7.0,10.0
5800.0,9.0,1.7371333,8.0,10.0
5810.0,9.0,1.6840652,8.0,10.0
5820.0,9.0,1.8112572,8.0,10.0
5830.0,9.0,1.7472074,8.0,10.0
5840.0,9.0,1.7223966,8.0,10.0
5850.0,9.0,1.9910376,8.0,10.0
5860.0,9.0,2.304624,8.0,11.0
5870.0,9.0,2.6850717,8.0,11.0
5880.0,9.0,2.8091416,8.0,12.0
5890.0,9.0,2.7737994,8.0,12.0
5900.0,9.0,2.883222,8.0,12.0
5910.0,9.0,2.8940241,8.0,11.0
5920.0,9.0,2.7578933,8.0,11.0
5930.0,9.0,2.5217166,8.0,11.0
5940.0,9.0,2.2830641,8.0,11.0
5950.0,9.0,1.8020056,8.0,11.0
5960.0,9.0,1.6841639,8.0,10.0
5970.0,9.0,1.6057099,8.0,10.0
5980.0,9.0,1.9175112,8.0,10.0
5990.0,9.0,1.9832112,8.0,11.0
6000.0,10.0,2.113417,8.0,11.0
6010.0,10.0,2.129626,8.0,11.0
6020.0,10.0,2.0900004,8.0,11.0
6030.0,10.0,2.2011268,8.0,11.0
6040.0,10.0,2.2102015,8.0,11.0
6050.0,10.0,2.1472793,8.0,11.0
6060.0,9.0,2.2919657,8.0,11.0
6070.0,10.0,2.2755647,8.0,11.0
6080.0,10.0,2.3717794,8.0,11.0
6090.0,9.0,2.5015097,8.0,11.0
6100.0,9.0,2.5245028,8.0,11.0
6110.0,9.0,2.4792147,8.0,11.0
6120.0,9.0,2.5462754,8.0,11.0
6130.0,9.0,2.6035776,8.0,11.0
6140.0,9.0,2.7142148,8.0,11.0
6150.0,9.0,2.6364493,8.0,11.0
6160.0,9.0,2.5297663,8.0,12.0
6170.0,9.0,2.4570925,8.0,12.0
6180.0,9.0,2.198819,8.0,12.0
6190.0,9.0,1.9581777,8.0,10.0
6200.0,9.0,1.825097,8.0,10.0
6210.0,9.0,2.0050163,8.0,10.0
6220.0,8.0,1.8779957,8.0,10.0
6230.0,9.0,1.7202325,8.0,10.0
6240.0,9.0,1.8000063,7.0,10.0
6250.0,9.0,1.8203833,8.0,10.0
6260.0,9.0,1.635795,8.0,10.0
6270.0,9.0,1.5335975,8.0,10.0
6280.0,9.0,1.6097311,8.0,10.0
6290.0,9.0,1.6664078,8.0,10.0
6300.0,9.0,1.7072322,8.0,10.0
6310.0,9.0,1.6547259,8.0,10.0
6320.0,9.0,1.5783186,8.0,10.0
6330.0,8.0,1.7853022,7.0,10.0
6340.0,9.0,1.2905811,8.0,9.0
6350.0,9.0,1.2723744,8.0,9.0
6360.0,8.0,1.3355122,7.0,9.0
6370.0,9.0,1.3120748,7.0,9.0
6380.0,9.0,1.309573,7.0,9.0
6390.0,9.0,1.3429148,8.0,9.0
6400.0,9.0,1.3511343,8.0,9.0
6410.0,8.0,1.5843606,8.0,9.0
6420.0,8.0,2.0249493,7.75,10.0
6430.0,8.0,2.092093,7.0,10.0
6440.0,8.0,2.2662618,7.0,10.0
6450.0,8.0,2.5199327,7.0,10.0
6460.0,8.0,2.624661,8.0,10.0
6470.0,8.0,2.5263262,7.25,10.0
6480.0,9.0,2.5397024,7.0,10.0
6490.0,9.0,2.5544944,7.0,10.0
6500.0,8.0,2.495824,8.0,10.0
6510.0,9.0,2.1325045,8.0,10.0
6520.0,9.0,1.9823141,8.0,10.0
6530.0,9.0,2.3436112,8.0,10.0
6540.0,9.0,1.8287927,8.0,10.0
6550.0,9.0,1.728343,8.0,11.0
6560.0,9.0,1.9724348,9.0,11.0
6570.0,9.0,2.875896,9.0,12.0
6580.0,10.0,2.910886,9.0,12.0
6590.0,9.0,2.6663868,8.0,12.0
6600.0,9.0,2.5614634,8.0,11.0
6610.0,9.0,2.487174,8.0,11.0
6620.0,9.0,2.4931173,8.0,11.0
6630.0,9.0,2.2507963,8.0,11.0
6640.0,9.0,1.8864512,8.0,10.0
6650.0,10.0,1.6697983,8.0,10.0
6660.0,9.0,1.5963492,8.0,11.0
6670.0,9.0,1.5841614,8.0,10.0
6680.0,9.0,1.5489044,8.0,10.0
6690.0,9.0,1.3914601,8.0,10.0
6700.0,10.0,1.4219903,9.0,10.0
6710.0,9.0,1.4294667,9.0,10.0
6720.0,9.0,1.5352602,8.0,10.0
6730.0,9.0,1.9838567,8.0,10.0
6740.0,9.0,2.1904447,8.0,10.0
6750.0,9.0,2.2013671,8.0,11.0
6760.0,9.0,1.8123192,8.0,11.0
6770.0,9.0,1.6249704,9.0,11.0
6780.0,9.0,1.5135093,9.0,12.0
6790.0,10.0,1.250402,9.0,11.0
6800.0,10.0,1.2055693,9.0,11.0
6810.0,11.0,1.1559354,10.0,11.0
6820.0,11.0,1.1986892,10.0,12.0
6830.0,11.0,0.98845774,10.0,12.0
6840.0,11.0,1.2779713,11.0,12.0
6850.0,12.0,1.6281444,11.0,13.0
6860.0,12.0,1.7891872,11.0,13.0
6870.0,11.0,1.7879733,11.0,12.0
6880.0,11.0,1.5643216,11.0,13.0
6890.0,12.0,1.6473701,11.0,13.0
6900.0,11.0,1.7094662,10.0,13.0
6910.0,11.0,1.7302272,10.0,13.0
6920.0,11.0,1.5783931,10.0,13.0
6930.0,12.0,1.4972826,11.0,13.0
6940.0,12.0,1.3494784,10.0,13.0
6950.0,12.0,1.7657632,9.0,12.5
6960.0,11.0,1.6500788,9.0,12.0
6970.0,11.0,1.710134,9.0,12.0
6980.0,11.0,1.8801955,10.0,12.0
6990.0,11.0,2.6395297,9.25,12.0
7000.0,12.0,2.8914216,9.0,13.5
7010.0,11.0,2.44359,11.0,12.0
7020.0,12.0,1.8756539,11.0,13.0
7030.0,12.0,1.5787283,11.0,13.0
7040.0,12.0,1.5948765,11.0,13.0
7050.0,12.0,1.5869564,11.0,13.0
7060.0,12.0,1.7082534,11.0,13.0
7070.0,13.0,1.773584,11.0,14.0
7080.0,13.0,2.3242264,12.0,14.0
7090.0,13.0,2.281264,11.0,13.0
7100.0,13.0,2.3491106,11.0,14.0
7110.0,13.0,1.6903503,11.0,14.0
7120.0,13.0,1.5068547,11.0,14.0
7130.0,12.0,1.3893579,11.0,14.0
7140.0,12.0,1.462371,11.0,14.0
7150.0,12.0,1.9985868,12.0,14.0
7160.0,12.0,2.0223787,11.0,13.0
7170.0,12.0,1.7987496,12.0,14.0
7180.0,12.0,1.7192618,11.0,14.0
7190.0,13.0,1.7551823,12.0,14.0
7200.0,14.0,1.6858128,12.0,14.0
7210.0,14.0,2.1115708,12.0,14.0
7220.0,13.0,2.1205294,12.0,14.0
7230.0,13.0,2.003098,12.0,14.0
7240.0,13.0,1.2227061,12.0,13.0
7250.0,12.0,1.2344625,11.0,13.0
7260.0,12.0,1.3291571,11.0,12.0
7270.0,12.0,1.6237117,10.0,12.0
7280.0,11.0,2.0538306,10.0,13.0
7290.0,12.0,2.6025236,9.0,14.0
7300.0,12.0,3.130287,10.0,14.0
7310.0,12.0,2.9939258,10.0,14.0
7320.0,11.0,3.0463743,10.0,13.0
7330.0,12.0,2.1431952,11.0,14.0
7340.0,12.0,2.2127287,11.0,13.0
7350.0,11.0,2.1087224,10.0,13.0
7360.0,11.0,1.9000882,10.0,12.0
7370.0,11.0,2.5031655,10.0,12.0
7380.0,11.0,2.918082,10.0,12.0
7390.0,10.0,3.0426517,9.0,14.0
7400.0,11.0,2.7432296,9.0,14.5
7410.0,11.0,2.772732,9.0,12.0
7420.0,11.0,2.4675374,9.0,12.0
7430.0,11.0,2.0609272,9.0,13.0
7440.0,12.0,1.8273356,9.0,13.0
7450.0,11.0,1.9850757,10.0,13.0
7460.0,11.0,1.9996928,9.5,12.0
7470.0,10.0,1.8481714,9.5,12.0
7480.0,10.0,1.7709357,10.0,12.0
7490.0,10.0,1.9441218,10.0,12.0
7500.0,10.0,1.9385782,9.0,11.0
7510.0,10.0,1.9840202,9.0,11.0
7520.0,10.0,1.3342754,9.0,11.0
7530.0,10.0,1.4398817,9.0,10.0
7540.0,10.0,1.5716976,9.0,10.0
7550.0,10.0,1.8414295,9.0,11.0
7560.0,10.0,2.1249883,9.0,11.0
7570.0,10.0,2.0775003,9.0,11.0
7580.0,9.0,1.8511714,8.75,11.0
7590.0,9.0,1.9223101,9.0,10.0
7600.0,9.0,2.2033648,9.0,10.0
7610.0,9.0,2.3698196,9.0,11.0
7620.0,9.0,2.2713099,9.0,12.5
7630.0,10.0,2.13059,9.0,12.0
7640.0,10.0,2.4135187,9.0,12.0
7650.0,10.0,2.650656,10.0,13.0
7660.0,10.0,2.3405614,10.0,13.0
7670.0,10.0,1.7161895,10.0,12.0
7680.0,10.0,1.6391021,9.0,12.0
7690.0,10.0,1.7034338,9.0,11.0
7700.0,10.0,1.7591944,9.0,12.0
7710.0,11.0,1.9339633,9.0,12.0
7720.0,11.0,1.8414733,10.0,13.0
7730.0,11.0,1.8711069,10.0,13.0
7740.0,10.0,2.317715,9.0,13.0
7750.0,10.0,2.9997137,8.0,13.0
7760.0,9.0,3.085937,8.0,13.0
7770.0,9.0,2.669546,9.0,12.0
7780.0,9.0,1.9726679,9.0,12.0
7790.0,11.0,2.6522677,9.0,13.0
7800.0,11.0,2.5811627,9.0,13.0
7810.0,10.0,2.6876762,9.0,13.0
7820.0,10.0,2.9312804,9.0,13.0
7830.0,10.0,2.4004593,9.0,12.0
7840.0,10.0,2.2242553,8.0,12.0
7850.0,10.0,2.5147438,8.0,13.0
7860.0,9.0,3.0399158,8.0,12.0
7870.0,10.0,3.0655086,8.0,12.0
7880.0,10.0,2.9148276,9.0,12.0
7890.0,9.0,2.9064107,9.0,10.0
7900.0,10.0,3.727731,9.0,11.5
7910.0,9.0,3.8582215,8.25,10.0
7920.0,9.0,3.2327502,8.0,10.0
7930.0,9.0,3.201659,8.0,9.0
7940.0,8.5,3.5521958,8.0,9.0
7950.0,8.0,3.8039567,7.0,10.5
7960.0,7.0,2.2528603,7.0,8.0
7970.0,7.0,2.7698271,7.0,8.0
7980.0,7.0,2.7888086,7.0,8.0
7990.0,7.0,2.8759522,6.0,8.0
8000.0,7.0,1.9278859,6.0,8.0
8010.0,7.0,2.033186,6.0,9.0
8020.0,7.0,1.9962345,6.0,9.0
8030.0,7.0,1.281949,6.0,9.0
8040.0,7.0,1.556724,7.0,9.0
8050.0,7.0,1.3674932,7.0,10.0
8060.0,7.0,1.5391301,7.0,10.0
8070.0,7.0,1.4767544,7.0,9.0
8080.0,7.0,1.5673585,7.0,9.0
8090.0,7.0,1.1023922,7.0,8.0
8100.0,7.0,0.8806306,7.0,8.0
8110.0,7.0,0.71784824,7.0,7.0
8120.0,7.0,0.7965467,7.0,7.0
8130.0,7.0,0.54688865,7.0,7.0
8140.0,7.0,0.55456066,7.0,7.0
8150.0,7.0,0.5583749,7.0,8.0
8160.0,7.0,0.6039669,7.0,8.0
8170.0,7.0,0.6895117,7.0,8.0
8180.0,7.0,0.50814486,7.0,7.0
8190.0,7.0,1.4452988,7.0,7.0
8200.0,7.0,1.4114166,7.0,8.0
8210.0,8.0,1.3859648,7.0,8.0
8220.0,8.0,0.49800307,8.0,8.0
8230.0,8.0,0.73799926,8.0,8.0
8240.0,8.0,0.8143621,8.0,8.0
8250.0,9.0,1.0337111,8.0,10.0
8260.0,9.0,1.4982717,8.0,10.0
8270.0,9.0,1.9935323,7.0,10.0
8280.0,9.0,2.207988,7.0,11.0
8290.0,9.0,2.3216348,6.0,10.0
8300.0,9.0,2.5391703,6.0,11.0
8310.0,9.0,2.5766127,6.0,11.0
8320.0,9.0,2.202926,6.0,11.0
8330.0,9.0,1.9155799,7.0,10.0
8340.0,7.0,1.6500183,7.0,10.0
8350.0,9.0,1.5442859,7.0,10.0
8360.0,8.5,1.6668036,7.0,10.0
8370.0,8.0,1.7024016,7.0,10.0
8380.0,8.0,1.6482662,7.0,8.0
8390.0,7.0,1.3408501,7.0,8.0
8400.0,7.0,1.1601378,7.0,9.0
8410.0,8.0,1.3197007,7.0,9.0
8420.0,8.5,1.5391845,8.0,9.0
8430.0,8.0,1.5865741,8.0,11.0
8440.0,8.0,1.5905712,8.0,11.0
8450.0,8.0,1.3564659,8.0,9.0
8460.0,8.0,1.5565999,8.0,11.0
8470.0,9.0,1.8418772,8.0,12.0
8480.0,10.0,1.6311086,8.0,12.0
8490.0,10.0,1.3124727,9.0,10.5
8500.0,10.0,0.9534534,9.0,10.0
8510.0,10.0,1.0973406,9.0,11.0
8520.0,10.0,1.155832,9.0,11.0
8530.0,10.0,0.98577106,9.0,10.0
8540.0,10.0,0.8117647,9.0,10.0
8550.0,10.0,0.71104467,9.0,10.0
8560.0,10.0,0.77559733,9.0,11.0
8570.0,10.0,0.825322,9.0,11.0
8580.0,10.0,1.3497049,9.0,11.0
8590.0,9.0,1.5818423,9.0,10.0
8600.0,9.0,1.54076,9.0,10.0
8610.0,9.0,0.9845172,8.0,10.0
8620.0,9.0,0.8843311,8.0,10.0
8630.0,9.0,0.8944272,8.0,10.0
8640.0,9.0,0.8571872,8.0,10.0
8650.0,9.0,0.71362936,9.0,10.0
8660.0,9.0,0.5014479,9.0,9.0
8670.0,9.0,0.6131207,9.0,9.0
8680.0,9.0,0.76155454,8.0,9.0
8690.0,9.0,1.0367136,8.0,9.0
8700.0,9.0,0.94902974,9.0,9.0
8710.0,9.0,0.81269246,9.0,9.0
8720.0,9.0,0.7729091,9.0,9.0
8730.0,9.0,1.3226624,9.0,9.0
8740.0,9.0,1.3600326,9.0,10.0
8750.0,9.0,1.3539766,9.0,10.0
8760.0,10.0,1.3279619,9.0,10.0
8770.0,10.0,1.3920578,9.0,11.0
8780.0,10.0,1.6055883,9.0,11.0
8790.0,10.0,1.7255719,10.0,11.0
8800.0,10.0,1.6530755,10.0,11.0
8810.0,10.0,0.8447862,10.0,10.0
8820.0,10.0,0.4093598,10.0,10.0
8830.0,10.0,0.37081236,10.0,10.0
8840.0,10.0,0.90104043,8.0,10.0
8850.0,8.0,0.9674631,8.0,10.0
8860.0,8.0,1.434747,8.0,8.0
8870.0,8.0,1.6142781,8.0,8.0
8880.0,8.0,1.6451409,8.0,8.0
8890.0,8.0,2.3244035,8.0,9.0
8900.0,9.0,2.2566252,8.0,10.0
8910.0,9.0,2.1139934,8.0,10.0
8920.0,9.0,2.0167642,8.0,10.0
8930.0,8.0,2.0335078,8.0,10.0
8940.0,8.0,2.1672294,8.0,9.0
8950.0,8.0,2.5389962,8.0,8.0
8960.0,8.0,2.7285457,8.0,8.0
8970.0,8.0,4.5292277,8.0,9.0
8980.0,9.0,4.9030495,8.0,11.0
8990.0,9.0,4.895217,7.0,11.0
9000.0,8.0,5.37215,7.0,11.0
9010.0,9.0,4.944624,7.0,11.0
9020.0,9.0,4.9371815,7.0,11.0
9030.0,9.0,3.520974,7.0,11.0
9040.0,13.0,3.1495144,10.0,13.0
9050.0,12.0,2.5073965,10.0,13.0
9060.0,12.0,2.1584299,9.0,13.0
9070.0,13.0,2.2666087,9.0,13.0
9080.0,12.5,2.3060157,9.0,13.0
9090.0,13.0,2.9985325,9.0,15.0
9100.0,12.0,3.130451,9.0,15.0
9110.0,12.0,3.2113488,9.0,15.0
9120.0,12.0,2.4132724,9.0,14.0
9130.0,12.0,4.5348477,10.0,18.0
9140.0,15.0,4.4873753,10.0,18.0
9150.0,15.0,4.304663,10.0,17.0
9160.0,14.0,4.15019,11.0,17.0
9170.0,14.0,4.044615,11.0,17.0
9180.0,14.0,4.270642,11.0,17.0
9190.0,14.0,4.4687095,11.0,17.0
9200.0,13.0,4.4865155,11.0,17.0
9210.0,14.0,3.7017975,11.0,15.0
9220.0,14.0,3.2900898,11.0,15.0
9230.0,13.0,3.0079257,11.0,15.0
9240.0,13.0,2.8730955,12.0,16.0
9250.0,13.0,2.6314344,12.0,16.0
9260.0,13.0,2.3536124,12.0,15.0
9270.0,14.0,1.6517874,13.0,15.0
9280.0,13.0,1.3034544,12.0,14.0
9290.0,13.0,1.2191262,12.0,14.0
9300.0,13.0,1.2391509,13.0,14.0
9310.0,13.0,1.4117376,12.0,14.0
9660.0,12.0,1.7910558,11.0,13.0
9670.0,12.0,1.8400462,11.0,13.0
9680.0,12.0,1.9006795,10.0,13.0
9690.0,13.0,1.8890607,10.0,13.0
9700.0,13.0,1.6225694,12.0,14.0
9710.0,13.0,1.1276369,13.0,14.0
9720.0,13.0,0.54236734,13.0,14.0
9730.0,13.0,0.5165623,13.0,14.0
9740.0,14.0,2.713324,11.0,16.0
9750.0,13.0,2.7087324,11.0,16.0
9760.0,12.0,2.5618367,11.0,16.0
9770.0,12.0,2.333753,11.0,15.0
9780.0,12.0,2.4535549,11.0,14.0
9790.0,12.0,2.1416686,11.0,14.0
9800.0,15.0,3.83057,11.0,18.0
9810.0,15.0,4.2921276,12.0,20.0
9820.0,15.0,4.609932,12.0,20.0
9830.0,15.5,5.01227,12.0,20.0
9840.0,15.0,5.2536488,12.0,20.75
9850.0,14.0,5.0871673,12.0,21.0
9860.0,15.0,4.591738,12.0,21.0
9870.0,15.0,4.163937,12.0,18.0
9880.0,16.0,3.8878438,12.75,18.0
9890.0,14.0,4.565166,12.0,20.0
9900.0,14.0,4.842095,13.0,20.0
10980.0,11.0,4.032372,9.0,14.0
10990.0,11.0,4.15317,9.0,14.0
11000.0,11.0,3.7170832,9.0,11.0
11010.0,11.0,3.2500768,9.0,11.0
11020.0,11.0,3.09171,9.0,11.0
11030.0,11.0,2.575071,9.0,11.0
11040.0,10.0,2.4689257,8.0,11.0
11050.0,10.0,2.4360445,8.0,11.0
11060.0,10.0,2.1954334,7.0,11.0
11070.0,10.0,2.2252119,7.0,12.0
11080.0,10.0,2.1392083,8.0,11.0
11090.0,9.5,1.9625007,8.0,11.0
11100.0,10.0,2.4637938,8.0,11.0
11110.0,9.0,2.7413738,8.0,12.0
11120.0,9.0,2.6754038,8.0,13.0
11130.0,9.0,2.793272,8.0,13.0
11140.0,10.0,3.4704657,8.0,13.0
11150.0,9.0,3.64797,8.0,13.0
11160.0,10.0,3.3230224,8.0,13.0
11170.0,10.0,2.9292424,8.0,13.0
11180.0,10.0,2.7910907,8.0,13.0
11190.0,10.0,2.451749,8.0,11.0
11200.0,10.0,2.1020808,8.0,12.0
11210.0,10.0,2.0427861,8.0,13.0
11220.0,10.0,1.8928872,9.0,13.0
11230.0,10.0,1.8675498,9.0,11.0
11240.0,10.0,1.9267746,8.0,11.0
11250.0,10.0,1.7078359,9.0,12.0
11260.0,11.0,1.2506325,10.0,13.0
11270.0,12.0,1.2551544,11.0,13.0
11280.0,12.0,1.1040721,12.0,13.0
11290.0,12.0,0.88458306,12.0,13.0
11300.0,12.0,0.36940753,12.0,12.0
11310.0,12.0,1.0609663,12.0,13.0
11320.0,12.0,1.3985912,12.0,13.0
11330.0,13.0,1.2227807,12.0,13.0
11340.0,13.0,0.81135917,12.0,13.0
11350.0,13.0,0.49899754,12.0,13.0
11360.0,13.0,0.48804227,12.0,13.0
11370.0,13.0,0.47380254,12.0,13.0
11380.0,13.0,0.46035576,12.0,13.0
11390.0,13.0,0.8157145,12.0,13.0
11400.0,13.0,1.1909583,11.0,13.0
11410.0,12.0,1.6996008,11.0,14.0
11420.0,13.0,1.7744383,12.0,14.0
11430.0,14.0,1.3317773,13.0,14.0
11440.0,14.0,0.78350335,13.0,15.0
11450.0,14.0,0.8174685,13.0,15.0
11460.0,15.0,0.9735749,13.0,15.0
11470.0,15.0,1.2091448,13.0,15.0
11480.0,14.0,1.5396794,13.0,15.0
11490.0,13.0,1.4386988,12.0,15.0
11500.0,13.0,1.3650833,12.0,15.0
11510.0,14.0,1.2051454,12.0,14.0
11520.0,14.0,0.9333004,12.0,14.0
11530.0,13.0,0.77162457,12.0,14.0
11540.0,13.0,0.71293545,12.0,13.0
11550.0,13.0,1.3573086,12.0,13.0
11560.0,13.0,1.5141563,12.0,13.0
11570.0,13.0,1.593765,12.0,14.0
11580.0,13.0,1.5862609,12.0,14.0
11590.0,13.0,1.6055024,13.0,14.0
11600.0,13.0,1.242233,13.0,15.0
11610.0,13.0,1.1157817,13.0,15.0
11620.0,13.0,1.0659405,13.0,15.0
11630.0,13.0,1.0351757,12.0,13.0
11640.0,13.0,1.1211302,12.0,13.0
11650.0,12.0,0.9188567,12.0,13.0
11660.0,13.0,0.7746105,12.0,13.0
11670.0,13.0,0.7084431,12.0,13.0
11680.0,13.0,0.44889414,13.0,13.0
11690.0,13.0,0.4285496,13.0,13.0
11700.0,13.0,0.5351678,12.0,13.0
11710.0,12.5,0.9723861,12.0,13.0
11720.0,12.5,0.8050859,12.0,13.0
11730.0,13.0,0.890511,12.0,14.0
11740.0,13.0,0.90427226,12.0,13.0
11750.0,13.0,0.8784721,12.0,13.0
11760.0,13.0,0.8752604,12.0,13.0
11770.0,13.0,0.894285,12.0,13.0
11780.0,13.0,0.89323556,12.0,14.0
11790.0,13.0,1.1059486,12.0,14.0
11800.0,13.0,1.2898328,12.0,15.0
11810.0,14.0,1.5324701,12.0,15.0
11820.0,14.0,1.7204537,12.0,16.0
11830.0,13.0,2.1674395,12.0,16.0
11840.0,13.0,2.443845,10.0,16.0
11850.0,13.0,2.085283,12.0,16.0
11860.0,13.0,1.7119627,12.0,16.0
11870.0,12.0,1.5106153,12.0,13.0
11880.0,12.0,1.0173517,11.0,13.0
11890.0,12.0,0.8700255,12.0,13.0
11900.0,12.0,0.86756957,12.0,13.0
11910.0,12.0,1.0388068,12.0,13.0
11920.0,12.0,1.1783272,12.0,12.0
11930.0,12.0,1.2202668,10.0,12.0
11940.0,10.0,1.3048466,10.0,11.0
11950.0,13.0,1.9250659,12.0,16.0
11960.0,10.0,2.0064366,9.0,12.0
11970.0,10.0,1.666998,9.0,12.0
11980.0,10.0,1.6193758,9.0,12.0
11990.0,10.0,1.7966882,9.0,11.25
12000.0,9.0,1.6195846,9.0,10.0
12010.0,9.0,1.5635673,9.0,10.0
12020.0,10.0,2.138712,8.0,12.0
12030.0,10.0,2.446299,8.0,12.0
12040.0,9.0,2.371228,7.0,10.0
12050.0,9.0,2.371228,7.0,10.0
12060.0,9.0,1.9236605,7.0,10.0
12070.0,9.0,2.3935397,7.0,10.0
12080.0,9.0,1.9252976,7.0,10.0
12090.0,8.0,1.9437947,7.0,10.0
12100.0,8.0,1.3281457,7.0,8.0
12110.0,8.0,2.5421257,8.0,9.0
12120.0,8.0,3.0001533,7.0,11.0
12130.0,9.0,3.0229492,7.0,12.0
12140.0,9.0,2.6425447,8.0,11.0
12150.0,9.0,2.290907,8.0,11.0
12160.0,9.0,2.280588,8.0,11.0
12170.0,9.0,2.1227784,8.0,11.0
12180.0,9.0,2.007358,8.0,12.0
12190.0,9.0,2.010883,8.0,12.0
12200.0,11.0,1.9097502,9.0,12.0
12210.0,11.0,1.9866143,9.0,13.0
12220.0,11.0,2.0778465,9.0,13.0
12230.0,11.0,2.0508173,9.0,13.0
12240.0,11.0,1.9802384,9.0,13.0
12250.0,11.0,1.9663914,9.0,13.0
12260.0,12.0,1.9607173,10.0,13.0
12270.0,12.0,2.2276945,9.0,14.0
12280.0,12.0,2.5002084,9.0,14.0
12290.0,12.0,2.6055984,9.0,14.0
12300.0,12.0,2.5524845,9.0,14.0
12310.0,10.0,2.1666632,8.0,12.0
12320.0,12.0,1.3968301,11.0,12.0
12330.0,12.0,1.5620724,12.0,13.0
12340.0,12.0,1.5480496,12.0,13.0
12350.0,12.0,1.4349778,12.0,13.0
12360.0,12.0,1.1628767,12.0,13.0
12370.0,12.0,1.2370278,12.0,13.0
12380.0,12.0,1.7510676,11.0,13.0
12390.0,12.0,2.0719118,10.0,13.0
12400.0,11.0,2.1079419,10.0,13.0
12410.0,11.0,2.105194,10.0,13.0
12420.0,13.0,1.306138,12.0,14.0
12430.0,13.0,1.3069295,12.0,14.0
12440.0,13.0,1.3997648,12.0,14.0
12450.0,13.0,1.2149118,12.0,14.0
12460.0,12.0,1.4056178,12.0,14.0
12470.0,13.0,1.7266146,12.0,14.0
12480.0,13.0,1.6817274,12.0,14.0
12490.0,13.0,1.4407624,13.0,14.0
12500.0,13.0,1.1646419,13.0,14.0
12510.0,13.0,1.2050569,12.0,14.0
12520.0,9.0,2.3175273,8.0,11.0
12530.0,10.0,2.2626843,9.0,12.0
12540.0,10.0,2.0534482,9.0,12.0
12550.0,11.0,1.8468521,9.0,11.0
12560.0,11.0,1.615298,9.0,11.0
12570.0,10.0,1.4637845,9.0,11.0
12580.0,10.0,1.3046104,9.0,11.0
12590.0,9.0,1.227832,9.0,11.0
12600.0,9.0,1.290342,8.0,10.0
12610.0,10.0,1.8871061,8.0,12.0
12620.0,10.0,2.2717586,8.0,12.0
12630.0,9.0,3.101482,8.0,12.0
12640.0,9.0,3.5440404,7.0,12.0
12650.0,9.0,3.643473,7.0,12.0
12660.0,10.0,3.230529,7.0,14.0
12670.0,10.0,3.1630101,7.0,14.0
12680.0,9.0,3.1401742,7.0,12.0
12690.0,9.0,3.2677374,7.0,12.0
12700.0,9.0,3.03879,7.0,12.0
12710.0,8.0,2.7298288,7.0,12.0
12720.0,9.0,1.6470124,8.0,10.0
12730.0,12.0,1.9461466,12.0,13.0
12740.0,12.0,2.130691,12.0,14.0
12750.0,12.0,2.4813855,10.0,14.0
12760.0,12.0,2.4597204,10.0,14.0
12770.0,11.0,2.5855134,9.0,13.0
12780.0,10.0,2.4426653,8.0,11.0
12790.0,10.0,2.4089122,8.0,12.0
12800.0,8.0,2.756064,7.75,12.0
12810.0,8.0,1.8272074,7.0,10.0
12820.0,8.0,1.8309747,7.0,10.0
12830.0,9.0,1.737863,7.0,10.0
12840.0,8.0,1.7752728,7.0,10.0
12850.0,8.0,1.44753,7.0,9.0
12860.0,8.0,1.2521803,7.0,9.0
12870.0,11.0,2.1886303,9.0,12.0
12880.0,11.0,2.1115024,9.0,14.0
12890.0,11.0,2.084004,9.0,13.0
12900.0,11.0,1.9784806,9.0,13.0
12910.0,10.0,1.942136,9.0,12.0
12920.0,10.0,2.2853553,8.0,11.0
12930.0,11.0,2.8112643,7.0,13.0
12940.0,11.0,2.806842,7.0,12.0
12950.0,10.0,2.429379,7.0,11.0
12960.0,10.0,2.5098267,7.0,11.0
12970.0,10.0,2.8245366,7.0,11.0
12980.0,9.0,2.633824,7.0,11.0
12990.0,8.0,2.654428,7.0,11.0
13000.0,9.0,2.5443726,7.0,11.0
13010.0,9.0,2.4345548,7.0,11.0
13020.0,10.0,2.2152336,8.0,11.0
13030.0,9.0,2.1163836,8.0,11.0
13040.0,9.0,2.2888615,8.0,11.0
13050.0,11.0,2.2549791,8.0,12.0
13060.0,11.0,2.163378,8.0,12.0
13070.0,11.0,2.7289808,9.0,13.0
13080.0,13.0,2.8965073,10.0,14.0
13090.0,13.0,2.7407331,9.0,14.0
13100.0,13.0,2.5469334,9.0,13.0
13110.0,12.0,2.7498987,9.5,14.0
13120.0,13.0,2.5878792,11.0,14.0
13130.0,13.0,2.28737,11.0,14.0
13140.0,12.0,2.0198593,11.0,14.0
13150.0,13.0,1.9543368,11.0,14.0
13160.0,12.0,1.8576192,11.0,14.0
13170.0,12.0,1.7283093,11.0,13.0
13180.0,12.0,1.936403,11.0,13.0
13190.0,12.0,2.140848,9.0,13.0
13200.0,12.0,2.1898856,9.0,13.0
13210.0,12.0,2.3478613,8.0,13.0
13220.0,12.0,2.3933153,8.0,13.0
13230.0,12.0,2.4989612,8.0,13.0
13240.0,12.0,2.5895948,8.0,13.0
13250.0,12.0,2.889668,8.0,13.0
13260.0,12.0,3.04548,8.0,13.0
13270.0,12.0,3.085082,8.0,13.0
13280.0,11.0,3.0043855,8.0,14.0
13290.0,10.0,2.8916292,8.0,13.0
13300.0,11.0,2.7663808,8.0,13.0
13310.0,10.0,2.6256094,7.0,12.0
13320.0,11.0,2.7441986,9.0,13.0
13330.0,12.0,2.974827,9.0,14.0
13340.0,13.0,2.8121543,11.0,14.0
13350.0,13.0,2.6837368,11.0,14.0
13360.0,12.0,2.577691,11.0,13.0
13370.0,12.0,2.517154,10.0,13.0
13380.0,12.0,2.3550174,10.0,13.0
13390.0,12.0,2.4217014,10.0,13.0
13400.0,12.0,2.4080825,10.0,13.0
13410.0,12.0,2.2803283,12.0,13.0
13420.0,12.0,2.1526475,12.0,13.0
13430.0,13.0,2.3748403,12.0,14.0
13440.0,8.0,0.9948178,8.0,9.0
13450.0,8.0,1.0661271,8.0,9.0
13460.0,8.0,1.4121891,8.0,10.5
13470.0,8.0,1.772731,8.0,11.0
13480.0,10.0,2.1396933,8.0,11.0
13490.0,12.0,2.4650037,10.0,14.0
13500.0,12.0,2.4142756,10.0,14.0
13510.0,12.0,2.6548452,11.0,14.0
13520.0,13.0,2.6366065,11.0,14.0
13530.0,13.0,2.411248,11.0,14.0
13540.0,13.0,2.0776212,11.0,14.0
13550.0,12.0,1.9011592,11.0,14.0
13560.0,12.0,1.8053774,12.0,13.0
13570.0,12.0,1.7794995,11.0,13.0
13580.0,12.0,1.9807271,11.0,13.0
13590.0,13.0,2.3381627,11.0,14.0
13600.0,13.0,2.5022326,11.0,14.0
13610.0,13.0,2.4911735,10.0,14.0
13620.0,13.0,2.434799,10.0,14.0
13630.0,13.0,2.532306,10.0,14.0
13640.0,13.0,2.6276736,10.0,14.0
13650.0,13.0,2.7112648,10.0,14.0
13660.0,13.0,2.6139925,10.0,14.0
13670.0,12.0,2.3075156,10.0,14.0
13680.0,12.0,1.990893,10.0,13.0
13690.0,12.0,1.8510865,10.0,13.0
13700.0,12.0,1.9095976,10.0,13.0
13710.0,12.0,1.9978077,10.0,13.0
13720.0,12.0,2.1421025,10.0,13.0
13730.0,12.0,2.3780596,10.0,14.0
13740.0,12.0,2.6442943,10.0,14.0
13750.0,12.0,2.7408302,10.0,14.0
13760.0,12.0,2.6750517,10.0,14.0
13770.0,12.0,2.6417694,10.0,13.0
13780.0,12.0,2.622029,10.0,13.0
13790.0,12.0,2.5423493,10.0,14.0
13800.0,12.0,2.325111,10.0,14.0
13810.0,12.0,2.1690848,10.0,14.0
13820.0,12.0,2.090432,10.0,14.0
13830.0,12.0,2.556647,10.0,13.0
13840.0,11.0,1.6458558,10.0,12.0
13850.0,10.0,1.5329744,10.0,12.0
13860.0,10.0,1.5329181,9.0,12.0
13870.0,10.0,1.8629668,9.0,12.0
13880.0,10.0,2.0960846,9.0,12.75
13890.0,10.0,2.2301395,9.0,13.0
13900.0,10.0,2.3815196,9.0,14.0
13910.0,11.0,2.4868221,9.0,14.0
13920.0,12.0,2.3983812,9.0,14.0
13930.0,12.0,2.3069654,9.0,14.0
13940.0,13.0,2.3845892,10.0,13.0
13950.0,12.0,2.3965049,11.0,13.0
13960.0,12.0,2.2678425,11.0,13.0
13980.0,9.0,2.255638,7.0,11.0
13990.0,8.0,2.2611613,7.0,11.0
14000.0,8.0,2.2209666,7.0,10.0
14010.0,8.0,2.2469082,8.0,10.0
14020.0,8.0,2.3866627,8.0,10.0
14030.0,9.0,2.48857,8.0,10.0
14040.0,9.0,2.467697,8.0,10.0
14050.0,9.0,2.5566318,8.0,10.0
14060.0,9.0,2.6392336,8.0,10.0
14070.0,9.0,2.7168298,8.0,10.0
14080.0,9.0,2.633285,8.0,11.0
14090.0,9.0,2.32366,8.0,11.0
14100.0,9.0,2.1046958,9.0,11.0
14110.0,10.0,2.0662234,9.0,12.0
14120.0,9.0,1.8599036,9.0,10.0
14130.0,9.0,1.8280041,8.0,10.0
14140.0,9.0,1.6665605,9.0,10.0
14150.0,9.0,1.8624882,9.0,10.0
14160.0,9.0,2.09011,9.0,11.0
14170.0,9.0,2.1471174,8.0,12.0
14180.0,9.0,2.1944911,8.0,11.0
14190.0,10.0,2.3159833,9.0,11.0
14200.0,10.0,2.4368815,9.0,11.0
14210.0,10.0,2.4379573,9.0,11.0
14220.0,10.0,2.5568054,8.0,11.0
14230.0,10.0,2.5636883,9.0,11.0
14240.0,10.0,2.6724305,8.0,12.0
14250.0,10.0,2.57293,9.0,12.0
14260.0,10.0,2.6993861,9.0,12.0
14270.0,11.0,2.0883615,10.0,13.0
14280.0,12.0,2.1225622,10.0,14.0
14290.0,12.0,2.17157,10.0,14.0
14300.0,11.5,2.18834,10.0,14.0
14310.0,12.0,2.0684896,10.0,13.0
14320.0,12.0,2.239807,10.0,13.0
14330.0,12.0,2.2428772,10.0,13.0
14340.0,11.0,2.4934232,9.0,12.0
14350.0,11.0,2.2067363,10.0,12.0
14360.0,11.0,2.451562,9.0,13.0
14370.0,11.0,2.5230565,9.0,13.0
14380.0,11.0,2.4635286,9.0,13.0
14390.0,11.0,2.5505867,9.0,13.0
14400.0,11.0,2.7024431,9.0,14.0
14410.0,11.0,2.7475703,9.0,14.0
14420.0,11.0,2.9580493,9.0,13.0
14430.0,11.0,2.9147005,8.0,13.0
14440.0,11.0,2.9238563,9.0,13.0
14450.0,11.0,3.12533,9.0,13.0
14460.0,11.5,3.1215346,9.0,13.0
14470.0,11.0,3.0302398,10.0,13.0
14480.0,12.0,2.9678073,9.0,14.0
14490.0,13.0,3.2018592,10.0,14.0
14500.0,13.0,3.2076101,10.0,14.0
14510.0,13.0,3.1625242,10.0,14.0
14520.0,13.0,3.2303283,10.0,15.0
14530.0,13.0,3.2805588,10.0,15.0
14540.0,13.0,3.215192,11.0,15.0
14550.0,12.0,2.8608363,11.0,14.0
14560.0,12.0,2.5616436,11.0,14.0
14570.0,12.0,2.4886978,11.0,14.0
14580.0,12.0,2.3479693,11.0,14.0
14590.0,13.0,2.3252995,11.0,14.0
14600.0,13.0,2.1756237,11.0,14.0
14610.0,13.0,2.092548,11.0,14.0
14620.0,12.0,2.8452904,9.0,14.0
14630.0,12.0,3.0330276,8.0,14.0
14640.0,12.0,2.9372969,8.0,14.0
14650.0,12.0,2.9042797,9.0,14.0
14660.0,12.0,3.0163832,9.0,14.0
14670.0,12.0,3.2263691,9.0,14.0
14680.0,13.0,3.3478162,9.0,14.0
14690.0,13.0,3.3311632,10.0,14.0
14700.0,12.0,3.235985,10.0,15.0
14710.0,12.0,2.8906167,10.0,15.0
14720.0,13.0,2.4134765,10.0,14.0
14730.0,13.0,2.6581206,11.0,14.0
14740.0,14.0,1.4750444,13.0,15.0
14750.0,14.0,1.3959922,12.0,15.0
14760.0,14.0,1.3323414,12.0,14.0
14770.0,13.0,1.0440685,12.0,14.0
14780.0,13.0,1.0629278,12.0,14.0
14790.0,13.0,1.0073286,12.0,13.0
14800.0,13.0,1.1960726,12.0,13.0
14810.0,13.0,1.8404177,12.0,13.0
14820.0,13.0,1.936219,12.0,14.0
14830.0,14.0,2.1428719,13.0,14.0
14840.0,14.0,2.4282026,13.0,15.0
14850.0,14.0,2.3953564,13.0,15.0
14860.0,14.0,2.1872647,13.0,15.0
14870.0,14.0,1.8014402,13.0,15.0
14880.0,14.0,1.7510543,13.0,14.0
14890.0,14.0,1.2820095,13.0,14.0
14900.0,14.0,0.6725773,13.0,14.0
14910.0,14.0,0.75897217,13.0,14.0
14920.0,13.0,3.0497818,8.0,14.0
14930.0,12.0,2.266037,10.0,15.0
14940.0,12.0,2.1074853,10.0,14.0
14950.0,12.0,1.8437275,11.0,14.0
14960.0,12.0,1.8819724,12.0,14.0
14970.0,12.0,1.9872066,11.0,14.0
14980.0,12.0,1.8871759,11.0,14.0
14990.0,12.0,1.7624098,11.0,14.0
15000.0,12.0,1.6754303,11.0,13.0
15010.0,12.0,1.593326,11.0,13.0
15020.0,12.0,1.6380419,11.0,13.0
15030.0,14.0,2.3312619,12.0,15.0
15040.0,13.0,2.4975767,11.0,15.0
15050.0,13.0,2.5558443,11.0,15.0
15060.0,13.0,2.6026127,11.0,15.0
15070.0,13.0,2.6912515,11.0,16.0
15080.0,13.0,2.673402,11.0,15.0
15090.0,13.0,2.8379774,11.0,15.0
15100.0,13.0,2.8636591,11.0,15.0
15110.0,14.0,2.8746157,11.0,15.0
15120.0,13.0,2.6935132,11.0,15.0
15130.0,12.0,2.4849236,11.0,15.0
15140.0,12.0,2.3996432,10.0,14.0
15150.0,13.0,1.985384,12.0,14.0
15160.0,13.0,1.8635918,12.0,14.0
15170.0,12.0,1.8524407,11.0,14.0
15180.0,12.0,1.9229261,11.0,14.0
15190.0,13.0,1.8891993,10.0,14.0
15200.0,12.0,1.9832351,10.0,13.0
15210.0,12.0,2.1800616,10.0,13.0
15220.0,11.0,2.384293,9.0,13.0
15230.0,12.0,2.1332302,10.0,14.0
15240.0,14.0,1.660046,12.0,14.0
15250.0,13.0,1.797839,12.0,14.0
15260.0,13.0,1.7482098,12.0,15.0
15270.0,14.0,1.869108,12.0,15.0
15280.0,14.0,2.1048064,12.0,15.0
15290.0,14.0,2.3225467,11.0,15.0
15300.0,14.0,2.4985898,11.0,15.0
15310.0,14.0,2.63542,11.0,15.0
15320.0,13.0,2.5727265,11.0,15.0
15330.0,13.0,2.3579705,11.0,15.0
15340.0,12.0,2.1306057,11.0,14.0
15350.0,13.0,2.0519166,11.0,14.0
15360.0,12.0,2.032919,11.0,13.0
15370.0,13.0,2.0907054,12.0,14.0
15380.0,13.0,2.3060486,12.0,14.0
15390.0,13.0,2.2990856,12.0,14.0
15400.0,13.0,2.22219,12.0,15.0
15410.0,13.0,2.262807,12.0,15.0
15420.0,13.0,2.236292,12.0,15.0
15430.0,13.0,2.2456312,12.0,14.0
15440.0,13.0,2.2131512,12.0,15.0
15450.0,13.0,2.370115,11.0,15.0
15460.0,13.0,2.173466,11.0,15.0
15470.0,13.0,2.0582728,11.0,14.0
15480.0,13.0,1.8153481,11.0,14.0
15490.0,13.0,1.8412868,11.0,14.0
15500.0,13.0,2.7553394,11.0,15.0
15510.0,13.0,2.8066988,11.0,14.0
15520.0,13.0,2.7179167,11.0,15.0
15530.0,13.0,2.50498,11.0,14.0
15540.0,13.0,2.2919102,11.0,14.0
15550.0,12.0,2.0221457,11.0,13.0
15560.0,12.0,1.7349691,11.0,13.0
15570.0,12.0,1.5222707,12.0,13.0
15580.0,13.0,1.4276259,12.0,14.0
15590.0,13.0,1.4781601,12.0,14.0
15600.0,13.0,1.5752659,12.0,14.0
15610.0,13.0,1.672828,12.0,14.0
15620.0,13.0,1.7572893,12.0,14.0
15630.0,13.0,1.9210556,12.0,14.0
15640.0,13.0,2.0527215,11.0,14.0
15650.0,13.0,2.0597277,11.0,14.0
15660.0,13.0,2.0666885,11.0,14.0
15670.0,13.0,2.253365,11.0,14.0
15680.0,12.0,2.4307547,10.0,14.0
15690.0,13.0,2.3071122,11.0,14.0
15700.0,13.0,2.3951066,10.5,14.0
15710.0,13.0,2.7227106,10.0,14.0
15720.0,13.0,3.01909,10.0,14.0
15730.0,13.0,3.1342669,11.0,15.0
15740.0,13.0,3.0798633,11.0,14.0
15750.0,13.0,3.0083609,12.0,14.0
15760.0,13.0,2.9200046,12.0,14.0
15770.0,13.0,2.8409517,11.0,14.0
15780.0,13.0,2.790743,11.0,14.0
15790.0,13.0,2.69956,11.0,14.0
15800.0,13.0,2.4910712,11.0,14.0
15810.0,13.0,2.3945465,11.0,14.0
15820.0,13.0,2.3369598,11.0,14.0
15830.0,13.0,2.2967796,11.0,14.0
15840.0,13.0,2.2338517,11.0,14.0
15850.0,13.0,2.360424,12.0,14.0
15860.0,13.0,2.1227589,12.0,14.0
15870.0,13.0,2.1964347,12.0,14.0
15880.0,13.0,2.1303556,11.0,14.0
15890.0,13.0,2.0509908,12.0,14.0
15900.0,13.0,1.9729012,11.0,13.0
15910.0,13.0,1.9462987,11.0,13.0
15920.0,12.0,1.8595631,11.0,14.0
15930.0,13.0,1.7545649,11.0,14.0
15940.0,12.0,1.8522834,11.0,14.0
15950.0,13.0,1.9596958,11.0,14.0
15960.0,13.0,1.8737768,11.0,14.0
15970.0,13.0,1.9786963,12.0,14.0
15980.0,13.0,2.037665,12.0,14.0
15990.0,13.0,1.8461822,12.0,14.0
16000.0,13.0,2.5404847,11.0,15.0
16010.0,13.0,2.589738,11.0,15.0
16020.0,13.0,2.388703,11.0,15.0
16030.0,13.0,2.250845,12.0,15.0
16040.0,13.0,2.1458824,12.0,14.0
16050.0,13.0,2.1155024,12.0,14.0
16060.0,13.0,2.1283035,12.0,14.0
16070.0,13.0,2.021035,12.0,14.0
16080.0,13.0,1.9309922,12.0,14.0
16090.0,13.0,1.8718632,12.0,14.0
16100.0,13.0,1.8354833,12.0,14.0
16110.0,13.0,1.7826753,12.0,14.0
16120.0,13.0,1.9051322,11.0,14.0
16130.0,13.0,1.9058002,12.0,14.0
16140.0,13.0,1.9615709,12.0,14.0
16150.0,13.0,2.2537973,12.0,14.0
16160.0,13.0,2.5128562,11.0,15.0
16170.0,13.0,2.3949988,11.0,15.0
16180.0,13.0,2.0876708,12.0,15.0
16190.0,13.0,2.0276122,12.0,14.0
16200.0,13.0,1.8666501,12.0,14.0
16210.0,14.0,1.5973034,12.0,14.0
16220.0,13.0,1.4648218,12.0,14.0
16230.0,13.0,1.4629074,12.0,14.0
16240.0,13.0,1.495074,12.0,14.0
16250.0,13.0,1.6785156,12.0,14.0
16260.0,13.0,1.7942107,12.0,14.0
16270.0,13.0,1.9153293,12.0,14.0
16280.0,13.0,1.8315659,12.0,14.0
16290.0,13.0,1.9556023,12.0,14.0
16300.0,13.0,1.993607,12.0,14.0
16310.0,13.0,1.918617,12.0,14.0
16320.0,13.0,1.8634845,12.0,14.0
16330.0,13.0,1.8431274,12.0,14.0
16340.0,13.0,1.8631476,12.0,15.0
16350.0,14.0,1.9340204,13.0,15.0
16360.0,14.0,2.073903,13.0,15.0
16370.0,14.0,1.9861679,12.0,15.0
16380.0,14.0,1.7213191,12.0,14.0
16390.0,14.0,1.6272057,12.0,14.0
16400.0,14.0,1.8327101,12.0,14.0
16410.0,14.0,2.0707254,12.0,15.0
16420.0,14.0,2.2100441,13.0,15.0
16430.0,14.0,2.2459958,13.0,15.0
16440.0,14.0,2.7096004,12.0,15.0
16450.0,13.0,2.5762727,12.0,14.0
16460.0,13.0,2.7685707,11.0,14.0
16470.0,13.0,2.818125,11.0,14.0
16480.0,13.0,2.543891,11.0,14.0
16490.0,13.0,2.5998268,11.0,15.0
16500.0,13.0,2.7940125,11.0,15.0
16510.0,14.0,2.8337107,11.0,16.0
16520.0,13.0,2.8686836,10.0,16.0
16530.0,13.0,2.8363163,10.0,15.0
16540.0,13.0,2.62054,10.0,15.0
16550.0,13.0,2.4843915,10.0,14.0
16560.0,12.0,2.6233504,10.0,14.0
16570.0,12.0,2.582781,10.0,13.0
16580.0,12.0,2.4254894,9.0,13.0
16590.0,11.0,2.58019,9.0,14.0
16600.0,12.0,2.852541,9.0,14.0
16610.0,11.0,2.9170365,9.0,14.0
16620.0,11.0,2.983146,9.0,14.0
16630.0,11.0,2.627585,8.0,12.0
16640.0,11.0,2.748277,8.0,12.0
16650.0,11.0,3.0824275,8.0,12.0
16660.0,10.0,2.9513159,9.0,11.0
16670.0,10.0,3.5368416,9.0,12.0
16680.0,10.0,4.1904883,8.0,13.0
16690.0,10.0,4.23247,8.0,13.0
16700.0,10.0,4.230641,8.0,13.0
16710.0,10.0,4.3691974,8.0,13.0
16720.0,10.0,4.4686337,8.0,14.0
16730.0,10.0,4.480703,8.0,14.0
16740.0,10.0,4.573344,8.0,13.0
16750.0,9.0,4.567993,8.0,13.0
16760.0,9.0,4.067883,8.0,13.0
16770.0,9.0,1.43474,8.0,10.0
16780.0,8.0,1.2655675,8.0,9.0
16790.0,8.0,1.1164064,8.0,9.0
16800.0,8.0,2.4587915,8.0,11.0
16810.0,9.5,2.1874998,9.0,11.0
16820.0,10.0,2.276861,9.0,11.0
16830.0,9.0,2.6232948,9.0,11.0
16840.0,11.0,3.023823,8.0,12.0
16850.0,11.0,2.8373477,9.0,12.0
16860.0,11.0,2.8124251,9.0,12.0
16870.0,11.0,2.6228724,9.0,12.0
16880.0,11.0,2.5377135,9.0,12.0
16890.0,11.0,2.3547792,9.0,12.0
16900.0,10.0,3.0012693,9.0,12.75
16910.0,11.5,2.957216,10.0,13.0
16920.0,11.5,2.9830778,9.25,13.0
16930.0,11.0,1.6467692,10.0,13.0
16940.0,11.0,1.4024934,10.0,13.0
16950.0,11.0,1.4024035,10.0,13.0
16960.0,13.0,2.2335076,10.0,14.0
16970.0,13.0,2.2993221,10.0,14.0
16980.0,12.0,1.5047233,10.0,13.0
16990.0,12.0,1.4897105,10.0,13.0
17000.0,12.0,1.7180116,10.0,13.0
17010.0,12.0,1.8891753,9.0,13.0
17020.0,12.0,1.8947961,9.0,13.0
17030.0,12.0,1.6215423,11.0,14.0
17040.0,12.0,1.7228007,11.0,14.0
17050.0,12.5,1.771691,11.0,14.0
17060.0,13.0,2.1353815,11.0,14.0
17070.0,13.0,2.2220428,11.0,14.0
17080.0,13.0,2.203635,11.0,14.0
17090.0,13.0,1.8568567,12.0,14.0
17100.0,13.0,1.3653386,12.0,14.0
17110.0,13.0,1.5684415,11.0,14.0
17120.0,13.0,1.5176419,11.0,14.0
17130.0,13.0,1.1545067,13.0,13.0
17140.0,13.0,1.3028771,13.0,14.0
17150.0,13.0,1.7196553,13.0,15.5
17160.0,14.0,1.8740363,13.0,16.0
17170.0,14.0,2.7346895,13.0,16.0
