distance,median,stdev,prc_25,prc_75
70.0,4.0,0.93437934,3.0,5.0
80.0,4.0,0.8720213,3.0,4.0
90.0,4.0,0.71649545,4.0,4.0
100.0,4.0,0.6959792,4.0,5.0
110.0,4.0,0.7060169,4.0,5.0
120.0,4.0,0.64492834,4.0,5.0
130.0,4.0,0.673354,4.0,5.0
140.0,5.0,0.6574495,4.0,5.0
150.0,5.0,0.45679563,5.0,5.0
160.0,5.0,0.40192664,5.0,5.0
170.0,5.0,0.47976458,5.0,6.0
180.0,5.0,0.4790654,5.0,6.0
190.0,5.0,0.6028485,5.0,6.0
200.0,6.0,0.59574944,5.0,6.0
210.0,6.0,0.58817166,5.0,6.0
220.0,6.0,0.63330835,5.0,6.0
230.0,6.0,0.743213,5.0,6.0
240.0,6.0,0.7261241,5.0,6.0
250.0,5.0,0.49884874,5.0,6.0
260.0,5.0,0.426699,5.0,5.0
270.0,5.0,0.42110276,5.0,5.0
280.0,5.0,0.41498652,5.0,5.0
290.0,5.0,0.40830475,5.0,5.0
300.0,5.0,0.38844773,5.0,5.0
310.0,5.0,0.3720684,5.0,5.0
320.0,5.0,0.3800807,5.0,5.0
330.0,5.0,0.42945418,5.0,5.0
340.0,5.0,0.4885423,5.0,6.0
350.0,5.0,0.49988618,5.0,6.0
360.0,6.0,0.4994941,5.0,6.0
370.0,6.0,0.49670443,5.0,6.0
380.0,6.0,0.491633,5.0,6.0
390.0,6.0,0.49179292,5.0,6.0
400.0,6.0,0.6193769,5.0,6.0
410.0,6.0,0.76643497,5.0,6.0
420.0,6.0,0.8539838,5.0,7.0
430.0,6.0,0.8601139,5.0,7.0
440.0,6.0,0.8575789,5.0,7.0
450.0,6.0,0.8632162,5.0,7.0
460.0,6.0,0.8693413,5.0,7.0
470.0,6.0,0.8886182,5.0,7.0
480.0,6.0,0.9432703,5.0,7.0
490.0,6.0,0.9725658,5.0,7.0
500.0,6.0,0.98622334,5.0,7.0
510.0,6.0,0.83903223,5.0,7.0
520.0,6.0,0.8299241,5.0,7.0
530.0,6.0,0.8306389,5.0,7.0
540.0,6.0,0.8474871,5.0,7.0
550.0,6.0,0.8182686,5.0,7.0
560.0,6.0,0.8157986,5.0,7.0
570.0,6.0,0.7572627,6.0,7.0
580.0,6.0,0.7376087,6.0,7.0
590.0,6.0,0.68216795,6.0,7.0
600.0,6.0,0.6752146,6.0,7.0
610.0,6.0,0.6253783,6.0,7.0
620.0,6.0,0.6163492,6.0,7.0
630.0,6.0,0.59037447,6.0,7.0
640.0,6.0,0.55386335,6.0,7.0
650.0,6.0,0.5630382,6.0,7.0
660.0,6.0,0.4996849,6.0,7.0
670.0,7.0,0.4999696,6.0,7.0
680.0,7.0,0.49937007,6.0,7.0
690.0,7.0,0.49161455,6.0,7.0
700.0,7.0,0.4828307,6.0,7.0
710.0,7.0,0.4716922,6.0,7.0
720.0,7.0,0.45712712,6.0,7.0
730.0,7.0,0.4692179,7.0,7.0
740.0,7.0,0.54153514,7.0,7.0
750.0,7.0,0.59553635,7.0,7.0
760.0,7.0,0.6409784,7.0,7.0
770.0,7.0,0.6842532,7.0,8.0
780.0,7.0,0.69085115,7.0,8.0
790.0,7.0,0.6726189,7.0,8.0
800.0,7.0,0.6104474,7.0,8.0
810.0,7.5,0.56998163,7.0,8.0
820.0,8.0,0.55693245,7.0,8.0
830.0,8.0,0.48025116,7.0,8.0
840.0,8.0,0.46145695,7.0,8.0
850.0,8.0,0.8559096,7.0,8.0
860.0,8.0,0.9077053,7.0,9.0
870.0,8.0,0.93799967,7.0,9.0
880.0,8.0,0.95519286,7.0,9.0
890.0,8.0,0.9583289,7.0,9.0
900.0,8.0,0.9765946,7.0,9.0
910.0,8.0,0.97612876,8.0,9.0
920.0,9.0,0.9064255,8.0,9.0
930.0,9.0,0.83614546,8.0,9.0
940.0,9.0,0.8345969,8.0,9.0
950.0,9.0,0.8378071,8.0,9.0
960.0,9.0,0.73637515,8.0,9.0
970.0,9.0,0.69758356,8.0,9.0
980.0,9.0,0.69758356,8.0,9.0
990.0,9.0,0.70010227,8.0,9.0
1000.0,9.0,0.6999532,8.0,9.0
1010.0,9.0,0.70040727,8.0,9.0
1020.0,9.0,0.6993312,8.0,9.0
1030.0,9.0,0.6383742,8.0,9.0
1040.0,9.0,0.57198256,8.0,9.0
1050.0,9.0,0.5742192,8.0,9.0
1060.0,9.0,0.57244474,8.0,9.0
1070.0,9.0,0.5714641,8.0,9.0
1080.0,9.0,0.5714641,8.0,9.0
1090.0,9.0,0.5742193,8.0,9.0
1100.0,9.0,0.57498294,8.0,9.0
1110.0,9.0,0.5760317,8.0,9.0
1120.0,9.0,0.5759323,8.0,9.0
1130.0,9.0,0.5759323,8.0,9.0
1140.0,9.0,0.5759865,8.0,9.0
1150.0,9.0,0.57642657,8.0,9.0
1160.0,9.0,0.50187266,8.0,9.0
1170.0,9.0,0.4931011,8.0,9.0
1180.0,9.0,0.4931011,8.0,9.0
1190.0,9.0,0.4931011,8.0,9.0
1200.0,9.0,0.4929686,8.0,9.0
1210.0,9.0,0.4927383,8.0,9.0
1220.0,9.0,0.4982146,8.0,9.0
1230.0,9.0,0.49580935,8.0,9.0
1240.0,9.0,0.49523965,8.0,9.0
1250.0,9.0,0.48957428,8.0,9.0
1260.0,9.0,0.48504516,8.0,9.0
1270.0,9.0,0.48329756,8.0,9.0
1280.0,9.0,0.48128572,8.0,9.0
1290.0,9.0,0.44511133,8.0,9.0
1300.0,9.0,0.39333734,9.0,9.0
1310.0,9.0,0.34487706,9.0,9.0
1320.0,9.0,0.34587044,9.0,9.0
1330.0,9.0,0.34707335,9.0,9.0
1340.0,9.0,0.34808493,9.0,9.0
1350.0,9.0,0.34930998,9.0,9.0
1360.0,9.0,0.3501335,9.0,9.0
1370.0,9.0,0.3146621,9.0,9.0
1380.0,9.0,0.2655874,9.0,9.0
1390.0,9.0,0.21659125,9.0,9.0
1400.0,9.0,0.21718977,9.0,9.0
1410.0,9.0,0.21518259,9.0,9.0
1420.0,9.0,0.16980736,9.0,9.0
1430.0,9.0,0.0,9.0,9.0
1440.0,9.0,0.0,9.0,9.0
1450.0,9.0,0.34059018,9.0,9.0
1460.0,9.0,0.46241757,9.0,10.0
1470.0,10.0,0.49999934,9.0,10.0
1480.0,10.0,0.4938972,9.0,10.0
1490.0,10.0,0.48092392,9.0,10.0
1500.0,10.0,0.4700808,9.0,10.0
1510.0,9.0,0.0,9.0,9.0
1520.0,9.0,0.33094928,9.0,9.0
1530.0,9.0,0.0,9.0,9.0
1540.0,9.0,0.48873883,9.0,10.0
1550.0,9.0,0.49555022,9.0,10.0
1560.0,9.0,0.49567267,9.0,10.0
1570.0,9.0,0.49567267,9.0,10.0
1580.0,10.0,0.49403772,9.0,10.0
1590.0,10.0,0.49393055,9.0,10.0
1600.0,10.0,0.49393055,9.0,10.0
1610.0,10.0,0.46906593,9.0,10.0
1620.0,10.0,0.46887064,9.0,10.0
1630.0,10.0,0.46946588,9.0,10.0
1640.0,10.0,0.42251042,10.0,10.0
1650.0,10.0,0.4222727,10.0,10.0
1660.0,10.0,0.4222727,10.0,10.0
1670.0,10.0,0.34394947,10.0,10.0
1680.0,10.0,0.3437164,10.0,10.0
1690.0,10.0,0.8486615,9.0,11.0
1700.0,10.0,0.8016779,9.0,10.0
1710.0,10.0,0.8177636,9.0,11.0
1720.0,10.0,0.8400623,9.0,11.0
1730.0,10.0,0.8451106,9.0,11.0
1740.0,10.0,0.8456604,9.0,11.0
1750.0,10.0,0.84530586,9.0,11.0
1760.0,10.0,0.8518865,9.0,11.0
1770.0,10.0,0.84183145,9.0,11.0
1780.0,10.0,0.8569656,9.0,11.0
1790.0,10.0,0.8415515,9.0,11.0
1800.0,10.0,0.85393244,9.0,11.0
1810.0,10.0,0.8420765,9.0,11.0
1820.0,10.0,0.83959925,9.0,11.0
1830.0,10.0,0.8419079,9.0,11.0
1840.0,10.0,0.858767,9.0,11.0
1850.0,10.0,0.8455366,9.0,11.0
1860.0,10.0,0.8442783,9.0,11.0
1870.0,10.0,0.86288583,9.0,11.0
1880.0,10.0,0.88625276,9.0,11.0
1890.0,10.0,0.8869928,9.0,11.0
1900.0,10.0,0.88687927,9.0,11.0
1910.0,10.0,0.8848663,9.0,11.0
1920.0,10.0,0.5413473,10.0,10.0
1930.0,10.0,0.68414414,10.0,11.0
1940.0,11.0,0.7367292,10.0,11.0
1950.0,11.0,0.74525225,10.0,11.0
1960.0,11.0,0.743067,10.0,11.0
1970.0,11.0,0.7481792,10.0,11.0
1980.0,11.0,0.7766599,10.0,11.0
1990.0,11.0,0.7766599,10.0,11.0
2000.0,11.0,0.7766599,10.0,11.0
2010.0,11.0,0.7768224,10.0,11.0
2020.0,11.0,0.7748097,10.0,11.0
2030.0,11.0,0.7303559,10.0,11.0
2040.0,11.0,0.72508585,10.0,11.0
2050.0,11.0,0.69408584,10.0,11.0
2060.0,10.0,0.6596857,10.0,11.0
2070.0,10.0,0.65686816,10.0,11.0
2080.0,10.0,0.6539464,10.0,11.0
2090.0,11.0,0.64692277,10.0,11.0
2100.0,11.0,0.5497931,10.0,11.0
2110.0,11.0,0.49889877,10.0,11.0
2120.0,10.0,0.4999901,10.0,11.0
2130.0,10.0,0.49994317,10.0,11.0
2140.0,10.0,0.49717146,10.0,11.0
2150.0,10.0,0.49648175,10.0,11.0
2160.0,10.0,0.49708325,10.0,11.0
2170.0,10.0,0.6412221,10.0,11.0
2180.0,10.0,0.67768335,10.0,11.0
2190.0,10.0,0.635,10.0,11.0
2200.0,10.0,0.6336093,10.0,11.0
2210.0,10.0,0.6609258,10.0,11.0
2220.0,10.0,0.65022045,10.0,11.0
2230.0,10.0,0.6443795,10.0,11.0
2240.0,10.0,0.63786817,10.0,11.0
2250.0,10.0,0.6226556,10.0,11.0
2260.0,10.0,0.6228023,10.0,11.0
2270.0,10.0,0.64774925,10.0,11.0
2280.0,10.0,0.65774906,10.0,11.0
2290.0,10.0,0.6702639,10.0,11.0
2300.0,10.0,0.6849809,10.0,11.0
2310.0,10.0,0.6866992,10.0,11.0
2320.0,10.0,0.6840402,10.0,11.0
2330.0,10.0,0.6991797,10.0,11.0
2340.0,10.0,0.7315043,10.0,11.0
2350.0,10.0,0.7249181,10.0,11.0
2360.0,10.0,0.7103885,10.0,11.0
2370.0,10.0,0.7224641,10.0,11.0
2380.0,10.0,0.7320519,10.0,11.0
2390.0,10.0,0.72080284,10.0,11.0
2400.0,10.0,0.7165183,10.0,11.0
2410.0,10.0,0.7292845,10.0,11.0
2420.0,10.0,0.7292219,10.0,11.0
2430.0,10.5,0.73672414,10.0,11.0
2440.0,11.0,0.74557376,10.0,11.0
2450.0,11.0,0.74760145,10.0,11.0
2460.0,11.0,0.7308779,10.0,11.0
2470.0,11.0,0.728368,10.0,11.0
2480.0,11.0,0.69674563,10.0,11.0
2490.0,11.0,0.6491198,10.0,11.0
2500.0,11.0,0.60102355,10.0,11.0
2510.0,11.0,0.48493463,10.0,11.0
2520.0,11.0,0.0,11.0,11.0
2530.0,11.0,0.0,11.0,11.0
2540.0,11.0,0.0,11.0,11.0
2550.0,11.0,0.0,11.0,11.0
2560.0,11.0,0.0,11.0,11.0
2570.0,11.0,0.0,11.0,11.0
2580.0,11.0,0.20517088,11.0,11.0
2590.0,11.0,0.30650774,11.0,11.0
2600.0,11.0,0.39698592,11.0,11.0
2610.0,11.0,0.4796676,11.0,12.0
2620.0,12.0,0.49873737,11.0,12.0
2630.0,12.0,0.46723753,11.0,12.0
2640.0,12.0,0.43052426,12.0,12.0
2650.0,12.0,0.3487197,12.0,12.0
2660.0,12.0,0.21094416,12.0,12.0
2670.0,12.0,0.0,12.0,12.0
2680.0,12.0,0.19542481,12.0,12.0
2690.0,12.0,0.22860214,12.0,12.0
2700.0,12.0,0.3207964,12.0,12.0
2710.0,12.0,0.3397308,12.0,12.0
2720.0,12.0,0.40599424,12.0,12.0
2730.0,12.0,0.42757902,12.0,12.0
2740.0,12.0,0.45491847,12.0,13.0
2750.0,12.0,0.47092128,12.0,13.0
2760.0,12.0,0.4917459,12.0,13.0
2770.0,12.0,0.6018375,12.0,13.0
2780.0,13.0,0.64519227,12.0,13.0
2790.0,13.0,0.6644361,12.0,13.0
2800.0,13.0,0.640049,13.0,13.0
2810.0,13.0,0.61626196,13.0,13.0
2820.0,13.0,0.51934665,13.0,13.0
2830.0,13.0,0.41144112,13.0,13.0
2840.0,12.0,1.1627327,11.0,13.0
2850.0,12.0,1.123854,11.0,13.0
2860.0,12.0,1.0274237,11.0,13.0
2870.0,12.0,0.9757624,12.0,13.0
2880.0,12.0,0.95934707,12.0,13.0
2890.0,12.0,0.9592146,12.0,13.0
2900.0,12.0,0.9712529,12.0,13.0
2910.0,12.0,0.9961354,12.0,13.0
2920.0,12.0,0.99246544,12.0,13.0
2930.0,12.0,0.98731124,12.0,13.0
2940.0,12.0,0.94184375,12.0,13.0
2950.0,12.0,0.88815504,12.0,13.0
2960.0,13.0,0.87480927,12.0,13.0
2970.0,13.0,0.8590637,12.0,13.0
2980.0,13.0,0.78745466,12.0,13.0
2990.0,13.0,0.7494373,12.0,13.0
3000.0,13.0,0.7727966,12.0,13.0
3010.0,13.0,0.7640641,12.0,13.0
3020.0,13.0,0.68793404,12.0,13.0
3030.0,13.0,0.92807424,12.0,13.0
3040.0,13.0,1.0942918,12.0,13.0
3050.0,13.0,1.0384343,12.0,13.25
3060.0,13.0,1.1241279,12.0,14.0
3070.0,13.0,1.1984407,12.0,14.0
3080.0,13.0,1.2911979,12.0,14.0
3090.0,13.0,1.4216648,12.0,15.0
3100.0,13.0,1.4574175,13.0,15.0
3110.0,14.0,1.4079877,13.0,15.0
3120.0,14.0,1.4020389,13.0,15.0
3130.0,14.0,1.360314,13.0,15.0
3140.0,14.0,1.4119009,13.0,15.0
3150.0,14.0,1.4029077,13.0,15.0
3160.0,14.0,1.302928,13.0,15.0
3170.0,14.0,1.2,14.0,15.0
3180.0,14.0,1.11966,14.0,16.0
3190.0,14.0,1.198054,14.0,16.0
3200.0,15.0,1.1832094,14.0,16.0
3210.0,15.0,1.12309,14.0,16.0
3220.0,15.0,1.1448029,14.0,16.0
3230.0,15.0,1.149652,14.0,16.0
3240.0,15.0,0.52331704,15.0,16.0
3250.0,14.0,1.2723712,13.0,15.0
3260.0,14.0,1.1769159,14.0,15.0
3270.0,14.0,1.1757915,14.0,15.0
3280.0,14.0,1.2665951,14.0,16.0
3290.0,14.0,1.2472057,14.0,16.0
3300.0,14.0,1.2472057,14.0,16.0
3310.0,14.0,1.3481032,14.0,16.0
3320.0,14.0,1.3535033,14.0,16.0
3330.0,14.0,1.3535033,14.0,16.0
3340.0,15.0,1.3843563,14.0,16.0
3350.0,15.0,1.39546,14.0,17.0
3360.0,15.0,1.3955921,14.0,17.0
3370.0,16.0,1.5088923,15.0,17.0
3380.0,16.0,1.5088923,15.0,17.0
3390.0,16.0,1.5088923,15.0,17.0
3400.0,16.0,1.4028306,15.0,18.0
3410.0,16.0,1.402805,15.0,18.0
3420.0,16.0,1.4026814,15.0,18.0
3430.0,17.0,1.6106966,16.0,18.0
3440.0,17.0,1.6106966,16.0,18.0
3450.0,17.0,1.6134634,16.0,18.0
3460.0,17.0,1.6904751,16.0,19.0
3470.0,17.0,1.6922222,16.0,19.0
3480.0,17.0,1.6922222,16.0,19.0
3490.0,18.0,1.6928447,16.0,19.0
3500.0,18.0,1.6928447,16.0,19.0
3510.0,18.0,1.6922361,16.0,19.0
3520.0,18.0,1.53539,16.0,19.0
3530.0,18.0,1.5329903,16.0,19.0
3540.0,18.0,1.5329903,16.0,19.0
3550.0,18.0,1.5517266,17.0,19.0
3560.0,18.0,1.5517266,17.0,19.0
3570.0,18.0,1.5517266,17.0,19.0
3580.0,17.0,0.21426764,17.0,17.0
3590.0,17.0,0.0,17.0,17.0
3600.0,17.0,0.16717914,17.0,17.0
3610.0,17.0,0.25819492,17.0,17.0
3620.0,17.0,0.33896592,17.0,17.0
3630.0,17.0,0.42615217,17.0,17.0
3640.0,17.0,0.49612635,17.0,18.0
3650.0,18.0,0.47235584,17.0,18.0
3660.0,18.0,0.3859913,18.0,18.0
3670.0,18.0,0.35281378,18.0,18.0
3680.0,18.0,0.34246904,18.0,18.0
3690.0,18.0,0.26620135,18.0,18.0
3700.0,18.0,0.11395071,18.0,18.0
3710.0,18.0,0.0,18.0,18.0
3720.0,18.0,0.23529412,18.0,18.0
3730.0,18.0,0.3883229,18.0,18.0
3740.0,18.0,0.4623173,18.0,19.0
3750.0,18.0,0.47924796,18.0,19.0
3760.0,18.0,0.48682234,18.0,19.0
3770.0,18.0,0.49796587,18.0,19.0
3780.0,19.0,0.4906011,18.0,19.0
3790.0,19.0,0.4099932,19.0,19.0
3800.0,19.0,0.2832864,19.0,19.0
3810.0,19.0,0.24031538,19.0,19.0
3820.0,19.0,0.31517208,19.0,19.0
3830.0,19.0,0.3666874,19.0,19.0
3840.0,19.0,0.40611646,19.0,19.0
3850.0,19.0,0.43236935,19.0,19.0
3860.0,19.0,0.47784227,19.0,20.0
3870.0,20.0,0.48920733,19.0,20.0
3880.0,20.0,0.37858984,20.0,20.0
3890.0,20.0,0.26530263,20.0,20.0
3900.0,20.0,0.15227859,20.0,20.0
3910.0,20.0,0.19297685,20.0,20.0
3920.0,19.0,0.984583,18.0,19.0
3930.0,19.0,0.9310237,18.25,20.0
3940.0,19.0,0.9332526,19.0,20.0
3950.0,19.0,1.0470074,19.0,20.0
3960.0,19.0,1.0882872,19.0,20.0
3970.0,20.0,0.9162457,19.0,20.0
3980.0,20.0,0.9092121,19.0,20.0
3990.0,20.0,0.9094389,19.0,20.0
4000.0,20.0,0.9141154,19.0,20.0
4010.0,20.0,0.9403526,19.0,20.0
4020.0,20.0,0.8145715,20.0,21.0
4030.0,20.0,0.75962156,20.0,21.0
4040.0,20.0,0.974008,20.0,21.0
4050.0,20.0,0.98461545,20.0,21.0
4060.0,21.0,0.9486175,20.0,21.0
4070.0,21.0,0.9495575,20.0,21.0
4080.0,21.0,1.0,20.0,22.0
4090.0,21.0,1.011218,20.0,22.0
4100.0,21.0,1.1780457,21.0,22.0
4110.0,21.0,1.1860213,20.5,22.0
4120.0,21.0,1.1873173,20.75,22.0
4130.0,21.0,1.1055416,21.0,22.25
4140.0,22.0,1.003454,21.0,23.0
4150.0,22.0,0.9534626,21.0,23.0
4160.0,22.0,0.9534626,21.0,23.0
4170.0,22.0,0.9534626,21.0,23.0
4180.0,22.0,0.9013067,21.0,23.0
4190.0,22.0,1.0126477,22.0,23.0
4200.0,22.0,1.0198039,22.0,23.0
4210.0,22.0,1.1817313,22.0,23.0
4220.0,22.0,1.2801983,22.0,24.0
4230.0,23.0,1.7774745,22.0,24.0
4240.0,23.0,1.8235799,22.0,25.0
4250.0,24.0,2.73847,22.0,26.0
4260.0,24.0,2.8126187,22.0,27.0
4270.0,25.0,3.35112,23.0,28.0
4280.0,25.0,3.3740308,23.0,28.0
4290.0,26.0,4.074685,23.0,30.0
4300.0,26.0,4.14048,23.0,31.0
4310.0,26.0,4.0813475,24.0,31.0
4320.0,26.0,3.9188762,24.0,31.0
4330.0,24.0,0.68789876,23.0,24.0
4340.0,23.0,1.349091,21.0,24.0
4350.0,23.0,1.3155862,22.0,24.0
4360.0,24.0,1.1789172,22.0,24.0
4370.0,24.0,1.0107802,23.0,24.0
4380.0,24.0,0.89317477,24.0,24.0
4390.0,24.0,0.7874487,24.0,25.0
4400.0,25.0,0.7985688,24.0,25.0
4410.0,25.0,0.8238347,25.0,26.0
4420.0,25.0,0.62893903,25.0,26.0
4430.0,25.0,0.76546353,25.0,26.0
4440.0,26.0,0.74869716,25.0,26.0
4450.0,26.0,0.7267649,26.0,27.0
4460.0,26.0,0.5659619,26.0,27.0
4470.0,26.0,0.7694388,26.0,27.0
4480.0,26.0,0.80282617,26.0,27.0
4490.0,27.0,0.77490324,26.0,28.0
4500.0,27.0,0.62845695,27.0,28.0
4510.0,27.0,0.7164958,27.0,28.0
4520.0,27.0,0.7251405,27.0,28.0
4530.0,28.0,0.7598772,27.0,28.0
4540.0,28.0,0.67364067,28.0,28.0
4550.0,28.0,0.61050975,28.0,29.0
4560.0,28.0,0.49968934,28.0,29.0
4570.0,29.0,0.63570964,28.0,29.0
4580.0,29.0,0.8036633,28.0,29.0
4590.0,29.0,0.936305,28.0,30.0
4600.0,29.0,0.94334346,28.0,30.0
4610.0,29.0,0.78281605,29.0,30.0
4620.0,29.0,0.7687061,29.0,30.0
4630.0,30.0,0.69364893,29.0,30.0
4640.0,30.0,0.76234907,29.0,30.0
4650.0,30.0,1.1052792,29.0,31.0
4660.0,30.0,1.1725712,29.0,31.0
4670.0,30.0,1.1409407,29.0,31.0
4680.0,30.0,0.9928008,30.0,31.0
4690.0,30.0,1.2054816,29.0,30.0
4700.0,28.0,2.5502877,27.0,31.0
4710.0,28.0,2.467475,27.0,31.0
4720.0,28.0,2.2564962,27.0,30.0
4730.0,28.0,1.9891766,27.0,30.0
4740.0,28.0,1.7864656,27.0,30.0
4750.0,28.0,1.6323537,28.0,30.0
4760.0,28.0,1.5907937,28.0,30.0
4770.0,28.0,1.6154809,28.0,31.0
4780.0,29.0,1.4638262,28.0,30.25
4790.0,29.0,1.3499907,28.0,30.0
4800.0,29.0,1.2050816,28.0,30.0
4810.0,29.0,1.0890586,29.0,30.0
4820.0,29.0,0.9128585,29.0,30.0
4830.0,29.0,1.0117549,29.0,30.0
4840.0,29.0,1.0079247,29.0,30.0
4850.0,29.0,0.95022374,29.0,30.0
4860.0,30.0,0.75929236,29.0,30.0
4870.0,30.0,0.681425,29.0,30.0
4880.0,30.0,0.5743692,30.0,30.0
4890.0,30.0,0.5074187,30.0,30.0
4900.0,30.0,0.53215754,30.0,30.0
4910.0,30.0,0.5440411,30.0,30.25
4920.0,30.0,0.5299379,30.0,31.0
4930.0,30.0,0.49911618,30.0,31.0
4940.0,31.0,0.49583098,30.0,31.0
4950.0,31.0,0.47377837,30.0,31.0
4960.0,31.0,0.35447282,31.0,31.0
4970.0,31.0,0.27508587,31.0,31.0
4980.0,31.0,0.27540904,31.0,31.0
4990.0,31.0,0.3762686,31.0,31.0
5000.0,31.0,0.38765728,31.0,31.0
5010.0,31.0,0.48966727,31.0,32.0
5020.0,32.0,0.48147744,31.0,32.0
5030.0,32.0,0.40196022,32.0,32.0
5040.0,32.0,0.29000685,32.0,32.0
5050.0,32.0,0.1289021,32.0,32.0
5060.0,32.0,0.07474234,32.0,32.0
5070.0,32.0,0.30555263,32.0,32.0
5080.0,32.0,0.45764026,32.0,33.0
5090.0,33.0,0.49957758,32.0,33.0
5100.0,33.0,0.4368038,32.0,33.0
5110.0,33.0,0.325879,33.0,33.0
5120.0,33.0,0.40742952,33.0,33.0
5130.0,33.0,0.5077088,33.0,33.0
5140.0,33.0,0.50192845,33.0,34.0
5150.0,33.0,0.47346693,33.0,34.0
5160.0,33.0,0.49084592,33.0,34.0
5170.0,34.0,0.7261137,33.0,34.0
5180.0,34.0,1.179168,32.25,35.0
5190.0,34.0,1.179168,32.25,35.0
5200.0,34.0,1.1509722,33.0,35.0
5210.0,34.0,0.8344474,33.0,35.0
5220.0,34.0,0.8344474,33.0,35.0
5230.0,34.0,0.8344005,33.0,35.0
5240.0,35.0,0.7821369,34.0,35.0
5250.0,35.0,0.8005825,34.0,35.0
5260.0,35.0,0.8005825,34.0,35.0
5270.0,35.0,0.92304057,34.0,35.0
5280.0,35.0,0.9230405,34.0,35.0
5290.0,35.0,0.9204913,34.0,35.0
5300.0,35.0,0.8457507,34.0,35.0
5310.0,35.0,0.8015922,34.0,35.0
5320.0,35.0,0.89895314,34.0,35.0
5330.0,35.0,0.89895314,34.0,35.0
5340.0,35.0,0.9005914,34.0,35.0
5350.0,35.0,0.90133625,34.0,35.0
5360.0,35.0,0.7494923,34.0,35.0
5370.0,35.0,0.7494923,34.0,35.0
5380.0,35.0,0.8320301,34.0,36.0
5390.0,35.0,0.8320301,34.0,36.0
5400.0,35.0,0.8293684,34.0,36.0
5410.0,35.0,0.82936835,34.0,36.0
5420.0,35.0,0.8293684,34.0,36.0
5430.0,35.0,0.77286184,34.0,36.0
5440.0,35.0,0.89115286,34.0,36.0
5450.0,35.0,0.9182292,34.0,36.0
5460.0,35.0,0.87653494,35.0,36.0
5470.0,35.0,0.9013363,35.0,36.0
5480.0,35.0,0.68536717,35.0,36.0
5490.0,36.0,0.66759425,35.0,36.0
5500.0,36.0,0.78701615,35.0,36.0
5510.0,36.0,0.78701615,35.0,36.0
5520.0,36.0,0.7377404,35.0,36.0
5530.0,36.0,0.8149718,35.0,37.0
5540.0,36.0,0.8149718,35.0,37.0
5550.0,36.0,0.73464835,36.0,37.0
5560.0,36.0,0.91784686,36.0,37.0
5570.0,36.0,0.69077,36.0,37.0
5580.0,37.0,0.6742678,36.0,37.0
5590.0,37.0,0.89161354,36.0,38.0
5600.0,37.0,0.9956304,36.0,38.0
5610.0,37.0,0.91784686,37.0,38.0
5620.0,37.0,0.620967,37.0,37.0
5630.0,37.0,0.4647752,37.0,37.0
5640.0,37.0,0.68408906,37.0,38.0
5650.0,37.0,0.68828136,37.0,38.0
5660.0,38.0,0.78506666,37.0,38.0
5670.0,38.0,0.74154574,37.0,38.0
5680.0,38.0,0.6420094,38.0,39.0
5690.0,38.0,0.57165414,38.0,39.0
5700.0,38.5,0.69471145,38.0,39.0
5710.0,38.5,0.69471145,38.0,39.0
5720.0,38.0,0.6944396,38.0,39.0
5730.0,39.0,0.68495774,38.0,39.0
5740.0,39.0,0.6988104,38.0,39.0
5750.0,39.0,0.64621973,39.0,39.75
5760.0,39.0,0.6492679,39.0,40.0
5770.0,39.0,0.5582422,39.0,40.0
5780.0,40.0,0.6835603,39.0,40.0
5790.0,40.0,0.6985854,39.0,40.0
5800.0,40.0,0.7023573,39.0,40.0
5810.0,40.0,0.6985854,39.0,40.0
5820.0,40.0,0.6957442,39.0,40.0
5830.0,40.0,0.64067036,39.0,40.0
5840.0,40.0,0.63864934,39.0,40.0
5850.0,40.0,0.6777092,39.0,40.0
5860.0,40.0,0.7416963,39.25,41.0
5870.0,40.0,0.62294304,40.0,41.0
5880.0,40.0,0.47013575,40.0,41.0
5890.0,40.0,0.47202763,40.0,41.0
5900.0,40.0,0.47202763,40.0,41.0
5910.0,40.0,0.47077048,40.0,41.0
5920.0,40.0,0.47202763,40.0,41.0
5930.0,40.0,0.49861166,40.0,41.0
5940.0,40.0,0.49999285,40.0,41.0
5950.0,41.0,0.6830707,40.0,41.0
5960.0,41.0,0.63910013,41.0,41.0
5970.0,41.0,0.6324555,41.0,41.0
5980.0,41.0,0.6324555,41.0,41.0
5990.0,41.0,0.6324555,41.0,41.0
6000.0,41.0,0.6324555,41.0,41.0
6010.0,41.0,0.6324555,41.0,41.0
6020.0,41.0,0.67539036,41.0,42.0
6030.0,41.0,0.6871842,41.0,42.0
6040.0,41.0,0.6871842,41.0,42.0
6050.0,41.0,0.54319656,41.0,42.0
6060.0,42.0,0.489898,41.0,42.0
6070.0,42.0,0.5532574,41.0,42.0
6080.0,42.0,0.74833155,41.0,42.0
6090.0,42.0,0.74833155,41.0,42.0
6100.0,42.0,0.74833155,41.0,42.0
6110.0,42.0,0.77638906,41.0,42.0
6120.0,42.0,0.79301894,41.0,43.0
6130.0,42.0,0.6871843,42.0,43.0
6140.0,42.0,0.7675884,42.0,43.0
6150.0,43.0,0.7532223,42.0,43.0
6160.0,43.0,0.74833155,42.0,43.0
6170.0,43.0,0.74833155,42.0,43.0
6180.0,43.0,0.8,42.0,44.0
6190.0,43.0,0.8164966,42.0,44.0
6200.0,43.0,0.8164966,42.0,44.0
6210.0,43.0,1.0338115,42.0,44.0
6220.0,43.0,1.0627495,43.0,45.0
6230.0,43.0,1.0106432,43.0,45.0
6240.0,43.5,0.74535596,43.0,44.0
6250.0,43.0,0.7449617,43.0,44.0
6260.0,43.0,0.74304134,43.0,44.0
6270.0,44.0,0.7065175,43.0,44.0
6280.0,44.0,0.68468744,43.0,44.0
6290.0,44.0,0.92634076,43.0,45.0
6300.0,44.0,1.0333948,43.0,45.0
6310.0,44.0,1.026981,43.0,45.0
6320.0,44.0,1.0017287,43.0,45.0
6330.0,44.0,0.9306995,44.0,45.0
6340.0,44.0,0.73540217,44.0,45.0
6350.0,44.0,0.5095487,44.0,45.0
6360.0,44.0,0.71074986,44.0,45.0
6370.0,44.0,0.7300809,44.0,45.0
6380.0,44.0,0.7251049,44.0,45.0
6390.0,44.0,0.74717563,44.0,45.0
6400.0,44.0,0.82356215,44.0,45.0
6410.0,44.0,0.82886237,44.0,45.0
6420.0,45.0,0.83501667,44.0,46.0
6430.0,45.0,0.83304477,44.0,46.0
6440.0,45.0,0.8346439,44.0,46.0
6450.0,45.0,0.83304477,44.0,46.0
6460.0,45.0,0.9277665,44.0,46.0
6470.0,45.0,1.047905,44.0,46.0
6480.0,44.0,1.0496686,44.0,45.0
6490.0,44.5,0.92108184,44.0,45.75
6500.0,45.0,0.95421326,44.0,46.0
6510.0,45.0,1.0529004,44.0,46.0
6520.0,45.0,1.0148438,44.0,46.0
6530.0,45.0,0.9505005,45.0,46.0
6540.0,45.0,0.93049175,44.25,45.75
6550.0,45.0,0.8515061,45.0,45.0
6560.0,45.0,0.5726717,45.0,45.75
6570.0,45.0,0.6443914,45.0,46.0
6580.0,45.0,0.686679,45.0,46.0
6590.0,45.0,0.68667907,45.0,46.0
6600.0,45.0,0.69074535,45.0,46.0
6610.0,45.0,0.99106246,45.0,46.0
6620.0,45.0,1.033566,45.0,46.0
6630.0,45.0,1.0311958,45.0,46.0
6640.0,45.0,1.0271621,45.0,46.0
6650.0,45.0,1.0311959,45.0,46.0
6660.0,45.0,1.0271621,45.0,46.0
6670.0,45.0,1.1536058,45.0,46.0
6680.0,45.0,1.375705,45.0,47.0
6690.0,46.0,1.3573127,45.0,47.0
6700.0,46.0,1.3335702,45.0,47.0
6710.0,46.0,1.3865248,46.0,48.0
6720.0,46.0,1.4506058,46.0,48.0
6730.0,46.0,1.375705,46.0,48.0
6740.0,46.5,1.3711073,46.0,48.0
6750.0,46.0,1.375705,46.0,48.0
6760.0,47.0,1.3604147,46.0,48.0
6770.0,47.0,1.3359749,46.0,48.0
6780.0,47.0,1.654791,46.0,48.0
6790.0,47.0,1.7764686,47.0,49.0
6800.0,47.0,1.8275696,47.0,49.0
6810.0,47.5,1.7801378,47.0,50.0
6820.0,48.0,1.8018955,47.0,50.0
6830.0,48.0,1.7765371,47.0,50.0
6840.0,48.0,1.8314393,48.0,50.0
6850.0,48.0,1.725773,48.0,50.0
6860.0,48.0,1.6449473,48.0,50.0
6870.0,49.0,1.8855039,48.0,50.0
6880.0,49.0,2.268754,48.0,51.0
6890.0,49.0,2.319984,48.0,51.0
6900.0,49.0,2.29397,48.0,51.0
6910.0,49.5,2.18943,49.0,52.0
6920.0,49.0,2.2114089,49.0,52.0
6930.0,49.5,2.3196268,49.0,52.0
6940.0,50.0,2.357939,49.0,52.0
6950.0,50.0,2.2748847,49.0,52.0
6960.0,50.0,2.1933236,50.0,52.0
6970.0,50.0,2.0767777,50.0,52.0
6980.0,50.0,2.0557768,50.0,52.0
6990.0,51.0,1.975359,50.0,52.0
7000.0,51.0,1.9297558,50.0,52.0
7010.0,51.0,2.2911968,51.0,53.0
7020.0,51.0,2.7983568,51.0,54.0
7030.0,51.5,2.6702585,51.0,54.0
7040.0,51.5,2.5865033,51.0,54.0
7050.0,51.5,2.5865033,51.0,54.0
7060.0,51.5,2.5865033,51.0,54.0
7070.0,52.0,2.5418043,51.0,55.0
7080.0,52.0,2.528127,52.0,55.0
7090.0,53.0,2.4211533,52.0,55.0
7100.0,53.0,2.4037008,52.0,55.0
7110.0,53.0,2.4037008,52.0,55.0
7120.0,53.0,2.4037008,52.0,55.0
7130.0,53.0,2.3131418,52.0,55.0
7140.0,53.0,2.1960244,53.0,55.0
7150.0,53.0,2.091563,53.0,55.0
7160.0,53.0,2.114033,53.0,56.0
7170.0,54.0,2.1754353,53.0,56.0
7180.0,54.0,2.831538,53.0,57.0
7190.0,55.0,3.0081577,54.0,58.0
7200.0,55.0,2.9388409,54.0,58.0
7210.0,55.0,3.0161414,54.0,58.0
7220.0,55.0,3.0360096,54.0,58.0
7230.0,55.0,2.9660056,54.0,58.0
7240.0,56.0,2.9113386,54.0,58.0
7250.0,56.0,2.8811586,55.0,59.0
7260.0,56.0,2.9018714,55.0,59.0
7270.0,56.0,2.828427,55.0,59.0
7280.0,56.0,2.789551,55.0,59.0
7290.0,56.5,2.822258,55.75,59.5
7300.0,57.0,2.9273612,56.0,59.5
7310.0,57.0,2.8912585,56.0,59.5
7320.0,57.5,2.732143,56.0,59.5
7330.0,58.0,3.3558521,56.0,61.0
7340.0,58.0,3.7367098,56.0,62.0
7350.0,58.0,3.7745082,56.0,62.0
7360.0,58.0,3.9333317,56.0,62.0
7370.0,58.0,3.9094696,57.0,62.0
7380.0,59.5,3.9651,57.0,62.5
7390.0,59.5,3.8385382,57.0,62.75
7400.0,59.5,3.798633,57.0,62.75
7410.0,59.5,3.7332962,57.75,62.75
7420.0,59.5,3.7332962,57.75,62.75
7430.0,59.5,3.7332962,57.75,62.75
7440.0,59.5,3.7332962,57.75,62.75
7450.0,59.5,3.6688497,58.0,62.75
7460.0,59.5,3.620687,58.0,62.75
7470.0,60.0,3.5872307,58.0,65.0
7480.0,61.0,3.4992712,58.0,65.0
7490.0,61.0,3.499271,58.0,65.0
7500.0,61.0,3.3916671,58.0,65.0
7510.0,60.0,4.1101956,58.0,65.0
7520.0,61.0,4.303428,59.0,65.5
7530.0,61.5,4.2548237,59.0,64.75
7540.0,61.5,3.8525412,59.0,64.75
7550.0,61.5,3.7113862,59.0,64.75
7560.0,62.0,3.5092378,60.0,66.0
7570.0,62.0,3.2950177,60.0,66.0
7580.0,62.0,3.2950177,60.0,66.0
7590.0,62.0,3.2950177,60.0,66.0
7600.0,62.0,3.4056318,60.0,66.0
7610.0,62.5,4.1658516,60.75,66.75
7620.0,62.5,4.0836005,60.75,65.5
7630.0,62.5,3.7096686,60.75,65.5
7640.0,62.5,3.354102,60.75,65.5
7650.0,62.5,3.354102,60.75,65.5
7660.0,62.5,3.235992,60.75,65.5
7670.0,62.5,3.0,61.0,65.5
7680.0,62.5,2.9340656,61.0,65.25
7690.0,63.0,2.577409,61.0,66.0
7700.0,63.0,2.466329,61.0,66.0
7710.0,63.0,2.441144,61.0,66.0
7720.0,63.0,2.441144,61.0,66.0
7730.0,63.5,2.9047375,61.75,66.5
7740.0,63.5,2.8554282,61.75,66.5
7750.0,63.5,2.3334122,62.0,65.75
7760.0,63.5,2.3334122,62.0,65.75
7770.0,63.5,2.3334122,62.0,65.75
7780.0,63.5,2.3347473,62.0,65.75
7790.0,63.5,2.0661163,62.0,65.75
7800.0,63.0,1.8024231,62.0,65.5
7810.0,63.0,1.7928866,62.0,64.0
7820.0,63.0,1.7928866,62.0,64.0
7830.0,63.0,1.4040719,62.0,64.0
7840.0,63.0,1.4104385,62.0,64.0
7850.0,63.0,1.0902046,63.0,64.0
7860.0,63.0,1.451507,63.0,65.0
7870.0,63.0,1.451507,63.0,65.0
7880.0,63.0,1.4524994,63.0,65.0
7890.0,63.0,1.4524994,63.0,65.0
7900.0,63.0,1.4524994,63.0,65.0
7910.0,64.0,1.156861,64.0,65.0
7920.0,64.0,0.91471684,64.0,65.0
7930.0,64.0,0.91471684,64.0,65.0
7940.0,64.0,0.6810715,64.0,65.0
7950.0,64.0,0.6868551,64.0,65.0
7960.0,64.0,0.6868551,64.0,65.0
7970.0,65.0,0.6675977,64.0,65.0
7980.0,65.0,0.6675977,64.0,65.0
7990.0,65.0,0.6675977,64.0,65.0
8000.0,65.0,0.9241296,65.0,66.0
8010.0,65.0,0.91423905,65.0,66.0
8020.0,65.0,0.91423905,65.0,66.0
8030.0,66.0,0.97421086,65.0,66.0
8040.0,65.0,0.9752343,65.0,66.0
8050.0,65.0,0.9810988,65.0,66.0
8060.0,66.0,0.641783,66.0,66.0
8070.0,66.0,0.641783,66.0,66.0
8080.0,66.0,0.641783,66.0,66.0
8090.0,66.0,0.6649469,66.0,67.0
8100.0,66.0,0.6649469,66.0,67.0
8110.0,66.5,0.66423464,66.0,67.0
8120.0,67.0,0.6419841,67.0,67.0
8130.0,67.0,0.6419841,67.0,67.0
8140.0,67.0,0.6419841,67.0,67.0
8150.0,67.0,0.65934837,67.0,68.0
8160.0,67.0,0.65934837,67.0,68.0
8170.0,67.0,0.65934837,67.0,68.0
8180.0,68.0,0.9878576,68.0,69.0
8190.0,68.0,0.9908068,68.0,69.0
8200.0,68.0,0.9908068,68.0,69.0
8210.0,68.0,1.1959572,68.0,69.0
8220.0,68.0,1.1959572,68.0,69.0
8230.0,68.0,1.1959572,68.0,69.0
8240.0,69.0,0.9906558,69.0,70.0
8250.0,69.0,0.9906558,69.0,70.0
8260.0,69.0,0.98178,69.0,70.0
8270.0,70.0,0.9313119,69.0,70.0
8280.0,70.0,0.9313119,69.0,70.0
8290.0,70.0,0.9313119,69.0,70.0
8300.0,70.0,1.1512778,70.0,71.0
8310.0,70.0,1.1512778,70.0,71.0
8320.0,70.0,1.1489847,70.0,71.0
8330.0,71.0,1.4258556,70.0,72.0
8340.0,71.0,1.4258556,70.0,72.0
8350.0,71.0,1.4258556,70.0,72.0
8360.0,71.0,1.4387265,71.0,73.0
8370.0,71.0,1.4387265,71.0,73.0
8380.0,71.0,1.4387265,71.0,73.0
8390.0,72.0,1.2606883,71.0,73.0
8400.0,72.0,1.2663062,71.0,73.0
8410.0,72.0,1.2663062,71.0,73.0
8420.0,72.0,1.1117946,72.0,73.0
8430.0,72.0,1.020484,72.0,73.0
8440.0,72.0,1.0208151,72.0,73.0
8450.0,72.0,1.0208151,72.0,73.0
8460.0,72.0,1.0197562,72.0,73.0
8470.0,72.0,1.0148374,72.0,73.0
8480.0,73.0,0.9496969,72.0,73.0
8490.0,73.0,0.8593574,73.0,73.0
8500.0,73.0,0.76449203,73.0,73.0
8510.0,73.0,0.6607041,73.0,73.0
8520.0,73.0,0.66750973,73.0,73.0
8530.0,73.0,0.6804881,73.0,73.0
8540.0,73.0,0.97757137,73.0,74.0
8550.0,73.0,1.0426389,73.0,74.0
8560.0,73.0,1.0311472,73.0,74.0
8570.0,73.0,1.0311474,73.0,74.0
8580.0,73.0,0.97853494,73.0,74.0
8590.0,73.0,0.9353721,73.0,74.0
8600.0,73.0,0.9436023,73.0,74.0
8610.0,73.0,0.94360226,73.0,74.0
8620.0,74.0,0.93924075,73.0,74.0
8630.0,74.0,1.148288,73.0,74.0
8640.0,74.0,1.3333257,73.0,75.0
8650.0,74.0,1.2954617,73.0,75.0
8660.0,74.0,1.208062,74.0,75.0
8670.0,74.0,1.0551579,74.0,75.0
8680.0,74.0,1.0551579,74.0,75.0
8690.0,74.0,1.0723567,74.0,75.0
8700.0,74.0,1.08906,74.0,75.0
8710.0,74.0,1.0908109,74.0,75.5
8720.0,74.0,1.2476758,74.0,76.0
8730.0,74.0,1.6748849,74.0,76.0
8740.0,74.0,1.6847509,74.0,76.0
8750.0,74.0,1.5912665,74.0,76.0
8760.0,74.0,1.4497142,74.0,76.0
8770.0,74.0,1.4511423,74.0,76.0
8780.0,74.0,1.4550185,74.0,76.0
8790.0,75.0,1.4798155,74.0,76.5
8800.0,75.0,1.4791803,74.0,76.5
8810.0,74.0,1.4607887,74.0,76.5
8820.0,75.0,1.8992074,74.0,76.0
8830.0,75.0,2.0075073,74.0,76.0
8840.0,75.0,2.0075073,74.0,76.0
8850.0,75.0,2.030127,74.0,76.0
8860.0,75.0,2.0333426,74.0,76.0
8870.0,75.0,1.9579422,74.0,77.0
8880.0,75.0,2.0169332,74.0,78.0
8890.0,75.0,2.593688,74.0,77.0
8900.0,75.0,2.5999997,74.0,77.0
8910.0,75.0,2.6025333,74.0,77.0
8920.0,75.0,2.6046312,74.0,77.0
8930.0,75.0,2.6049204,74.0,77.0
8940.0,75.0,2.594452,74.0,77.0
8950.0,75.0,2.6437478,75.0,78.0
8960.0,75.0,2.6464534,74.5,78.0
8970.0,75.0,2.6475348,74.5,78.0
8980.0,75.0,3.4273283,75.0,79.0
8990.0,75.0,3.5412095,75.0,79.0
9000.0,75.0,3.3479097,75.0,79.0
9010.0,75.0,3.1778517,75.0,79.0
9020.0,75.0,3.180908,75.0,79.0
9030.0,77.0,3.1733403,75.0,80.0
9040.0,77.0,3.0646434,75.0,80.0
9050.0,77.0,3.064332,75.0,80.0
9060.0,77.0,3.0593095,75.0,79.5
9070.0,77.0,3.6191642,75.0,81.0
9080.0,77.0,4.057746,75.0,81.0
9090.0,77.0,4.0679574,75.0,81.0
9100.0,77.0,4.0679574,75.0,81.0
9110.0,77.0,4.0679574,75.0,81.0
9120.0,79.0,5.305817,75.0,84.0
9130.0,79.0,5.305817,75.0,84.0
9140.0,79.0,5.305817,75.0,84.0
9150.0,79.0,5.104582,75.0,84.0
9160.0,79.0,5.1045823,75.0,84.0
9170.0,77.0,5.1072106,75.0,84.0
9180.0,77.0,5.1072106,75.0,84.0
9190.0,77.0,4.9970517,76.0,84.0
9200.0,77.0,4.934347,76.0,83.0
9210.0,79.0,6.119628,76.0,87.0
9220.0,79.0,5.954323,77.0,87.0
9230.0,79.0,5.9517913,77.0,87.0
9240.0,79.0,5.686966,77.0,86.0
9250.0,80.0,5.6862516,77.0,86.0
9260.0,80.0,5.6643105,77.0,86.0
9270.0,80.0,5.463859,77.0,85.0
9280.0,80.0,5.245764,77.0,85.0
9290.0,80.0,5.2051473,77.0,85.0
9300.0,80.0,4.867652,77.0,85.0
9310.0,81.0,4.90039,77.0,85.0
9320.0,80.0,4.8374524,77.0,85.0
9330.0,80.0,4.460917,77.0,84.0
9340.0,80.0,4.460917,77.0,84.0
9350.0,80.0,4.502092,77.0,85.0
9360.0,80.0,4.3238597,77.0,85.0
9370.0,80.0,4.2073126,78.0,85.0
9380.0,80.0,4.1521654,78.0,84.0
9390.0,80.0,3.7955077,78.0,84.0
9400.0,80.0,3.8043277,78.0,84.0
9410.0,80.0,3.7519195,78.0,83.0
9420.0,80.0,3.3154361,78.0,83.0
9430.0,80.0,3.2227154,78.0,83.0
9440.0,80.0,3.2227154,78.0,83.0
9450.0,80.0,2.999634,78.0,83.0
9460.0,80.0,2.9996338,78.0,83.0
9470.0,80.0,2.945689,78.0,82.0
9480.0,80.0,2.529118,79.0,82.0
9490.0,80.0,2.3596025,79.0,82.0
9500.0,80.0,2.3922749,79.0,83.0
9510.0,80.0,2.1323195,79.0,83.0
9520.0,80.0,1.9834727,80.0,83.0
9530.0,80.0,1.8881319,80.0,82.0
9540.0,80.0,1.8891197,80.0,82.0
9550.0,80.0,1.8891197,80.0,82.0
9560.0,80.0,1.7922535,80.0,81.0
9570.0,80.0,1.4933414,80.0,81.0
9580.0,80.0,1.3991727,80.0,81.0
9590.0,80.0,1.4952215,80.0,81.0
9600.0,80.0,1.2267611,80.0,81.0
9610.0,80.0,1.1929741,80.0,81.0
9620.0,80.0,1.0428287,80.0,81.0
9630.0,80.0,1.0312217,80.0,81.0
9640.0,80.0,1.0156254,80.0,81.0
9650.0,81.0,1.1552309,80.0,81.0
9660.0,81.0,1.1552309,80.0,81.0
9670.0,81.0,0.9443404,81.0,81.0
9680.0,81.0,0.8177594,81.0,82.0
9690.0,81.0,0.68566954,81.0,82.0
9700.0,81.0,0.68566954,81.0,82.0
9710.0,81.0,0.61828613,81.0,82.0
9720.0,81.0,0.4718408,81.0,82.0
9730.0,81.0,0.47052097,81.0,82.0
9740.0,81.0,0.68611073,81.0,82.0
9750.0,81.0,0.68611073,81.0,82.0
9760.0,82.0,0.33190617,82.0,82.0
9770.0,82.0,0.33190617,82.0,82.0
9780.0,82.0,0.33190617,82.0,82.0
9790.0,82.0,0.43421885,82.0,82.75
9800.0,82.0,0.43421885,82.0,82.75
9810.0,82.0,0.43421885,82.0,82.75
9820.0,83.0,0.0,83.0,83.0
9830.0,83.0,0.0,83.0,83.0
9840.0,83.0,0.0,83.0,83.0
9850.0,83.0,0.0,83.0,83.0
9860.0,83.0,0.0,83.0,83.0
9870.0,83.0,0.0,83.0,83.0
9880.0,84.0,0.0,84.0,84.0
9890.0,84.0,0.0,84.0,84.0
9900.0,84.0,0.0,84.0,84.0
9910.0,85.0,0.45077083,84.0,85.0
9920.0,85.0,0.45077083,84.0,85.0
9930.0,85.0,0.45175397,84.0,85.0
9940.0,85.0,1.1179705,84.0,86.0
9950.0,85.0,1.164532,84.0,86.0
9960.0,85.0,1.0790429,85.0,86.0
9970.0,86.0,0.8412687,85.0,86.0
9980.0,86.0,0.7096333,85.0,86.0
9990.0,86.0,0.71145827,85.0,86.0
10000.0,86.0,0.840045,86.0,87.0
10010.0,86.0,0.88655895,86.0,87.0
10020.0,86.0,0.8309396,86.0,87.5
10030.0,86.0,0.7806536,86.0,87.0
10040.0,87.0,0.7292953,86.0,87.0
10050.0,87.0,0.6960938,86.0,87.0
10060.0,87.0,0.7087804,86.5,87.5
10070.0,87.0,0.72629255,86.0,87.25
10080.0,87.0,0.90465134,86.0,88.0
10090.0,87.0,1.0755796,86.0,88.0
10100.0,87.0,1.0315614,86.0,88.0
10110.0,87.5,0.8153013,87.0,88.0
10120.0,88.0,0.6730023,87.0,88.0
10130.0,88.0,0.6830391,87.0,88.0
10140.0,88.0,0.7116431,87.0,88.0
10150.0,88.0,0.69159913,88.0,89.0
10160.0,88.0,0.6109533,88.0,89.0
10170.0,88.0,0.49796873,88.0,89.0
10180.0,88.0,0.4771926,88.0,89.0
10190.0,88.0,0.647867,88.0,89.0
10200.0,88.0,0.7797602,88.0,89.0
10210.0,88.0,0.83093953,88.0,89.5
10220.0,89.0,0.7670426,88.0,89.0
10230.0,89.0,0.66795146,88.0,89.0
10240.0,89.0,0.51667583,89.0,89.0
10250.0,89.0,0.430941,89.0,89.0
10260.0,89.0,0.4089108,89.0,89.0
10270.0,89.0,0.372678,89.0,89.0
10280.0,89.0,0.372678,89.0,89.0
10290.0,89.0,0.43822813,89.0,90.0
10300.0,89.0,0.48529476,89.0,90.0
10310.0,90.0,0.49477533,89.0,90.0
10320.0,90.0,0.45110917,89.0,90.0
10330.0,90.0,0.3835576,90.0,90.0
10340.0,90.0,0.41851452,90.0,90.0
10350.0,90.0,0.40275115,90.0,90.0
10360.0,90.0,0.43369463,90.0,90.5
10370.0,90.0,0.38745347,90.0,90.0
10380.0,90.0,0.372678,90.0,90.0
10390.0,90.0,0.39215446,90.0,90.0
10400.0,90.0,0.45962697,90.0,91.0
10410.0,90.0,0.49792954,90.0,91.0
10420.0,91.0,0.48599046,90.0,91.0
10430.0,91.0,0.4259177,91.0,91.0
10440.0,91.0,0.31698593,91.0,91.0
10450.0,91.0,0.33589554,91.0,91.0
10460.0,91.0,0.372678,91.0,91.0
10470.0,91.0,0.27933952,91.0,91.0
10480.0,91.0,0.11729787,91.0,91.0
10490.0,91.0,0.3199138,91.0,91.0
10500.0,91.0,0.4126089,91.0,91.0
10510.0,91.0,0.430941,91.0,91.0
10520.0,91.0,0.43502662,91.0,92.0
10530.0,91.0,0.47660238,91.0,92.0
10540.0,91.0,0.4992278,91.0,92.0
10550.0,92.0,0.5549378,91.0,92.0
10560.0,92.0,0.49815986,92.0,92.0
10570.0,92.0,0.42300424,92.0,92.0
10580.0,92.0,0.4230451,92.0,92.0
10590.0,92.0,0.45237902,92.0,93.0
10600.0,92.0,0.4714045,92.0,93.0
10610.0,92.0,0.4714045,92.0,93.0
10620.0,92.0,0.43369463,92.0,92.5
10630.0,92.0,0.52800107,92.0,93.0
10640.0,92.0,0.7133738,92.0,93.0
10650.0,93.0,0.69159913,92.0,93.0
10660.0,93.0,0.50331604,93.0,93.0
10670.0,93.0,0.36542428,93.0,93.0
10680.0,93.0,0.41296047,93.0,93.0
10690.0,93.0,0.42697284,93.0,93.0
10700.0,93.0,0.47634163,93.0,94.0
10710.0,93.0,0.499935,93.0,94.0
10720.0,94.0,0.49399862,93.0,94.0
10730.0,94.0,0.48294824,93.0,94.0
10740.0,94.0,0.5414886,93.0,94.0
10750.0,94.0,0.58223194,94.0,94.0
10760.0,94.0,0.55906016,94.0,94.0
10770.0,94.0,0.41609105,94.0,94.0
10780.0,94.0,0.372678,94.0,94.0
10790.0,94.0,0.372678,94.0,94.0
10800.0,94.0,0.45814887,94.0,94.0
10810.0,94.0,0.66886723,94.0,95.0
10820.0,95.0,0.74555963,94.0,95.0
10830.0,95.0,0.71542,94.0,95.0
10840.0,95.0,0.5528427,95.0,95.0
10850.0,95.0,0.39650288,95.0,95.0
10860.0,95.0,0.39215446,95.0,95.0
10870.0,95.0,0.44221666,95.0,96.0
10880.0,95.0,0.4908459,95.0,96.0
10890.0,96.0,0.463861,95.0,96.0
10900.0,96.0,0.27638543,96.0,96.0
10910.0,96.0,0.06884206,96.0,96.0
10920.0,96.0,0.30689222,96.0,96.0
10930.0,96.0,0.42177933,96.0,96.0
10940.0,96.0,0.47247946,96.0,97.0
10950.0,97.0,0.54272336,96.0,97.0
10960.0,97.0,0.61408526,97.0,97.0
10970.0,97.0,0.51001924,97.0,98.0
10980.0,97.0,0.42542037,97.0,97.0
10990.0,97.0,0.4303066,97.0,97.0
11000.0,97.0,0.4963645,97.0,98.0
11010.0,98.0,0.4982609,97.0,98.0
11020.0,98.0,0.60510707,97.0,98.0
11030.0,98.0,0.8170657,98.0,98.0
11040.0,98.0,0.7584811,98.0,99.0
11050.0,98.5,0.745356,98.0,99.0
11060.0,99.0,0.8016512,98.0,99.0
11070.0,99.0,0.98697203,98.0,100.0
11080.0,99.0,0.9550475,99.0,100.0
11090.0,99.0,0.8371796,99.0,100.0
11100.0,99.0,0.79695153,99.0,100.0
11110.0,99.0,1.2463564,99.0,100.0
11120.0,99.0,1.4128098,99.0,101.0
11130.0,100.0,1.4107839,99.0,101.0
11140.0,100.0,1.3600636,99.0,101.0
11150.0,100.0,1.2937475,100.0,101.0
11160.0,100.0,1.2205633,100.0,101.0
11170.0,100.0,1.3206539,100.0,101.0
11180.0,100.0,1.5032524,100.0,102.0
11190.0,101.0,1.4549228,100.0,102.0
11200.0,101.0,1.4039843,100.0,102.0
11210.0,101.0,1.5377833,100.0,102.0
11220.0,101.0,1.8766015,101.0,104.0
11230.0,101.0,1.9054267,101.0,104.0
11240.0,101.0,1.8673531,101.0,104.0
11250.0,102.0,1.960232,101.0,103.0
11260.0,102.0,2.3989263,101.0,105.0
11270.0,102.0,2.4711924,101.0,105.0
11280.0,102.0,2.355928,101.0,105.0
11290.0,102.5,2.1021934,101.0,104.0
11300.0,102.5,1.9179355,102.0,104.0
11310.0,103.0,1.6518663,102.0,104.0
11320.0,103.0,1.8041593,102.0,104.0
11330.0,103.0,2.0845144,102.0,105.0
12800.0,123.0,0.24803919,123.0,123.0
12810.0,123.0,0.0,123.0,123.0
12820.0,123.0,0.31726772,123.0,123.0
12830.0,123.0,0.49909702,123.0,124.0
12840.0,124.0,0.38383514,124.0,124.0
12850.0,124.0,0.11929756,124.0,124.0
12860.0,124.0,0.20499735,124.0,124.0
12870.0,124.0,0.42010748,124.0,124.0
12880.0,125.0,0.50323284,124.0,125.0
12890.0,125.0,0.500701,125.0,125.0
12900.0,125.0,0.47293904,125.0,126.0
12910.0,125.0,0.5701871,125.0,126.0
12920.0,126.0,0.75870275,125.0,126.0
12930.0,126.0,0.8499475,125.0,127.0
12940.0,126.0,0.85441476,125.0,127.0
12950.0,126.0,0.82741576,126.0,127.0
12960.0,126.5,0.81000656,126.0,127.0
12970.0,127.0,0.98242056,126.0,128.0
12980.0,127.0,1.0278628,126.0,128.0
12990.0,127.0,0.9341737,127.0,128.0
13000.0,127.0,0.80262417,127.0,128.0
13010.0,127.0,1.084379,127.0,128.0
13020.0,128.0,1.3027786,127.0,129.0
13030.0,128.0,1.3950205,127.0,129.0
13040.0,128.0,1.3234578,128.0,129.0
13050.0,126.0,3.6542308,124.0,129.0
13060.0,126.0,3.6619184,125.0,129.0
13070.0,127.0,3.398898,125.0,131.0
13080.0,127.0,3.4046552,125.0,131.0
13090.0,127.0,3.386397,125.0,131.0
13100.0,128.0,3.229242,126.0,131.0
13110.0,127.5,3.5985546,126.0,131.0
13120.0,127.5,3.5978038,126.0,131.0
13130.0,129.0,3.2983167,127.0,131.0
13140.0,129.5,2.732372,127.25,131.0
13150.0,129.5,2.7315965,128.0,131.75
13160.0,129.5,2.574876,128.0,131.75
13170.0,130.0,2.322891,128.0,131.0
13180.0,129.5,2.3365614,127.25,131.0
13190.0,129.5,2.337468,127.25,131.75
13200.0,129.5,2.5738716,128.0,131.75
13210.0,129.5,2.574876,128.0,131.75
13220.0,129.5,2.3560753,128.25,131.0
13230.0,129.5,2.125274,128.25,131.0
13240.0,129.5,2.125274,129.0,131.75
13250.0,130.0,1.9209796,129.0,132.0
13260.0,130.0,2.0535939,129.0,133.0
13270.0,130.0,2.060454,129.0,133.0
13280.0,130.0,1.979923,129.0,133.0
13290.0,130.5,2.2547214,129.25,132.0
13300.0,130.5,2.2610195,129.25,132.0
13310.0,131.0,2.0602336,130.0,133.5
13320.0,131.0,2.4176548,130.0,134.0
13330.0,131.0,1.9417794,130.0,133.5
13340.0,131.0,1.1042951,131.0,132.0
13350.0,132.0,1.0942479,131.0,132.0
13360.0,132.0,1.0981792,131.0,132.0
13370.0,132.0,1.1769714,132.0,134.0
13380.0,132.0,1.157968,132.0,134.0
13390.0,133.0,1.1097561,132.0,133.0
13400.0,133.0,1.0979612,132.0,133.0
13410.0,133.0,1.2747864,132.0,135.0
13420.0,133.0,1.2958533,133.0,135.0
13430.0,133.0,1.2227248,133.0,134.0
13440.0,133.0,1.1790227,133.0,134.0
13450.0,134.0,1.5745925,133.0,136.0
13460.0,134.0,1.7354718,133.0,136.0
13470.0,134.0,1.5171863,134.0,136.0
13480.0,134.0,1.2461141,134.0,135.0
13490.0,134.0,1.5437118,134.0,137.0
13500.0,135.0,1.8129852,134.0,137.0
13510.0,135.0,1.7755362,134.0,137.0
13520.0,135.0,1.5821152,134.0,136.0
13530.0,135.0,1.6761212,134.25,138.0
13540.0,136.0,1.8582165,135.0,138.0
13550.0,136.0,1.9207106,135.0,138.0
13560.0,136.0,2.2156441,135.0,139.0
13570.0,137.0,2.3916197,135.0,139.0
13580.0,137.0,2.2602699,136.0,138.0
13590.0,136.0,2.0071325,136.0,138.0
13600.0,136.0,2.153565,136.0,140.0
13610.0,138.0,2.2307744,136.0,140.0
13620.0,138.0,2.2639575,136.0,139.0
13630.0,137.0,2.1821702,136.0,139.0
13640.0,137.0,2.2332847,137.0,140.5
13650.0,138.0,2.2364852,137.0,141.0
13660.0,138.0,2.1420023,137.0,141.0
13670.0,138.0,1.8948895,137.0,139.0
13680.0,138.0,2.0659952,137.0,139.0
13690.0,138.0,2.3348584,137.0,141.0
13700.0,139.0,2.2546315,138.0,141.0
13710.0,138.0,2.514611,137.0,140.0
13720.0,137.0,2.6694708,135.0,140.0
13730.0,138.0,2.966178,136.0,142.0
13740.0,138.0,2.9650965,136.0,142.0
13750.0,138.0,2.9650965,136.0,142.0
13760.0,138.5,2.360127,137.0,141.0
13770.0,138.5,2.363531,137.0,141.0
13780.0,138.5,2.363531,137.0,141.0
13790.0,139.0,1.7016072,137.0,140.0
13800.0,139.0,1.694888,137.0,140.0
13810.0,139.0,1.694888,137.0,140.0
13820.0,139.0,1.5539689,138.0,140.0
13830.0,139.0,1.5575093,138.0,140.0
13840.0,139.0,1.5575093,138.0,140.0
13850.0,139.0,1.4023635,138.0,141.0
13860.0,139.0,1.4023635,138.0,141.0
13870.0,139.0,1.3986914,138.0,141.0
13880.0,140.0,1.2474457,139.0,141.0
13890.0,140.0,1.2474457,139.0,141.0
13900.0,140.0,1.0719213,139.0,141.0
13910.0,140.5,1.5635897,140.0,141.75
13920.0,140.5,1.5635897,140.0,141.75
13930.0,140.0,1.3152516,140.0,141.0
13940.0,140.0,1.3152516,140.0,141.0
13950.0,141.0,1.3136669,140.0,141.0
13960.0,141.0,1.2607211,140.0,141.0
13970.0,141.0,1.4967247,140.0,142.0
13980.0,141.0,1.5039257,140.0,142.0
13990.0,141.0,1.2547528,141.0,143.0
14000.0,142.0,1.564795,141.0,143.0
14010.0,142.0,1.564795,141.0,143.0
14020.0,142.0,1.2535838,142.0,144.0
14030.0,142.0,1.40226,142.0,144.0
14040.0,142.0,1.40226,142.0,144.0
14050.0,143.0,1.0463096,143.0,144.0
14060.0,143.0,0.93157315,143.0,144.0
14070.0,143.0,1.27772,142.0,144.0
14080.0,143.0,1.246081,142.0,144.0
14090.0,144.0,1.4374007,143.0,144.0
14100.0,144.0,1.3892214,143.0,144.0
14110.0,144.0,1.1399931,143.0,144.0
14120.0,144.0,0.93038714,143.0,144.0
14130.0,144.0,0.924408,143.75,144.25
14140.0,144.0,0.8820098,144.0,145.0
14150.0,144.0,0.89843637,144.0,145.0
14160.0,144.0,1.0400474,144.0,145.0
14170.0,145.0,1.0541509,144.0,145.0
14180.0,145.0,0.98558843,144.0,145.25
14190.0,145.0,0.9901684,145.0,146.0
14200.0,146.0,1.0456617,145.0,146.0
14210.0,146.0,0.9159441,146.0,146.0
14220.0,146.0,0.6478395,146.0,146.25
14230.0,146.0,0.50670534,146.0,147.0
14240.0,146.0,0.6711501,146.0,147.0
14250.0,146.0,0.70460373,146.0,147.0
14260.0,146.0,0.61732453,146.0,147.0
14270.0,147.0,0.5147833,146.0,147.0
14280.0,147.0,0.5020682,147.0,147.0
14290.0,147.0,0.49233946,147.0,148.0
14300.0,147.5,0.5,147.0,148.0
14310.0,148.0,0.48960525,147.0,148.0
14320.0,148.0,0.71681696,147.0,148.0
14330.0,148.0,0.8198503,148.0,148.0
14340.0,148.0,0.7357403,148.0,149.0
14350.0,149.0,0.65484303,148.0,149.0
14360.0,149.0,0.60838866,148.5,149.0
14370.0,149.0,0.58769023,149.0,149.0
14380.0,149.0,0.57006925,149.0,150.0
14390.0,149.0,0.49188018,149.0,150.0
14400.0,150.0,0.499911,149.0,150.0
14410.0,150.0,0.5589246,149.0,150.0
14420.0,150.0,0.56273645,150.0,150.0
14430.0,150.0,0.49006692,150.0,151.0
14440.0,150.0,0.49464908,150.0,151.0
14450.0,151.0,0.49928707,150.0,151.0
14460.0,151.0,0.48293963,150.0,151.0
14470.0,151.0,0.4462709,150.75,151.0
14480.0,151.0,0.51483387,151.0,151.0
14490.0,151.0,0.5031356,151.0,152.0
14500.0,152.0,0.49690396,151.0,152.0
14510.0,152.0,0.40000007,152.0,152.0
14520.0,152.0,0.3147801,152.0,152.0
14530.0,152.0,0.277885,152.0,152.0
14540.0,152.0,0.41321984,152.0,152.0
14550.0,152.0,0.49598134,152.0,153.0
14560.0,153.0,0.4862285,152.0,153.0
14570.0,153.0,0.38963088,153.0,153.0
14580.0,153.0,0.30435792,153.0,153.0
14590.0,153.0,0.3896882,153.0,153.0
14600.0,153.0,0.47095275,153.0,154.0
14610.0,154.0,0.49994746,153.0,154.0
14620.0,154.0,0.49494633,153.0,154.0
14630.0,154.0,0.46590182,153.0,154.0
14640.0,154.0,0.45074537,154.0,154.0
14650.0,154.0,0.4488326,154.0,155.0
14660.0,154.0,0.4842502,154.0,155.0
14670.0,154.0,0.49996978,154.0,155.0
14680.0,155.0,0.59128565,154.0,155.0
14690.0,155.0,0.7883064,154.0,156.0
14700.0,156.0,0.76543707,155.0,156.0
14710.0,156.0,0.6793318,155.0,156.0
14720.0,156.0,0.7381928,155.0,156.0
14730.0,156.0,0.82680553,155.0,157.0
14740.0,156.0,0.9079556,155.0,157.0
14750.0,156.0,0.9362772,155.0,157.0
14760.0,157.0,0.8737691,156.0,157.0
14770.0,157.0,0.80802214,156.0,157.0
14780.0,157.0,0.8890254,156.0,158.0
14790.0,157.0,0.9539189,156.0,158.0
14800.0,157.0,0.5142169,157.0,157.0
14810.0,157.0,0.49795532,157.0,158.0
14820.0,158.0,0.46894392,157.0,158.0
14830.0,158.0,0.3741507,158.0,158.0
14840.0,158.0,0.43595868,158.0,158.0
14850.0,158.0,0.49542636,158.0,159.0
14860.0,159.0,0.53721327,158.0,159.0
14870.0,159.0,0.56944096,159.0,159.0
14880.0,159.0,0.5938749,159.0,160.0
14890.0,160.0,0.48157492,159.0,160.0
14900.0,160.0,0.36139512,160.0,160.0
14910.0,160.0,0.3592622,160.0,160.0
14920.0,160.0,0.4756999,160.0,161.0
14930.0,161.0,0.4978131,160.0,161.0
14940.0,161.0,0.4684717,160.0,161.0
14950.0,161.0,0.4765329,161.0,161.0
14960.0,161.0,0.5710175,161.0,162.0
14970.0,162.0,0.4958609,161.0,162.0
14980.0,162.0,0.42055762,162.0,162.0
14990.0,162.0,0.18348527,162.0,162.0
15000.0,162.0,0.083187014,162.0,162.0
15010.0,162.0,0.4036001,162.0,162.0
15020.0,163.0,0.9184561,162.0,163.0
15030.0,163.0,1.0232387,162.0,163.0
15040.0,163.0,1.1551592,162.0,164.0
15050.0,163.0,1.1191051,162.0,164.0
15060.0,163.0,0.93828183,163.0,164.0
15070.0,163.0,0.905989,163.0,164.0
15080.0,163.0,0.9032664,163.0,164.0
15090.0,164.0,0.8284177,163.0,164.0
15100.0,164.0,0.7645422,163.0,164.0
15110.0,164.0,0.95583165,163.0,165.0
15120.0,164.0,1.0047226,163.0,165.0
15130.0,164.0,1.0061902,164.0,165.0
15140.0,164.5,0.9606754,164.0,165.0
15150.0,165.0,0.95250803,164.0,165.0
15160.0,164.5,0.9606754,164.0,165.0
15170.0,165.0,1.0731857,164.0,165.0
15180.0,165.0,1.0705832,164.0,166.0
15190.0,165.0,1.0691136,164.0,166.0
15200.0,165.0,1.0676727,164.0,166.0
15210.0,165.0,1.0810866,164.0,166.0
15220.0,165.0,1.1045845,164.0,166.0
15230.0,166.0,1.0856656,165.0,166.0
15240.0,166.0,1.3321754,165.0,167.0
15250.0,166.0,1.3686553,165.0,167.0
15260.0,166.0,1.2683797,165.0,167.0
15270.0,166.0,1.0146537,165.0,167.0
15280.0,166.0,0.87691,166.0,167.0
15290.0,167.0,0.7499737,166.0,167.0
15300.0,167.0,0.90061545,166.0,167.0
15310.0,167.0,0.98744404,166.0,168.0
15320.0,167.0,0.8818472,167.0,167.0
15330.0,167.0,1.0658772,167.0,167.0
15340.0,167.0,1.3182224,167.0,168.0
15350.0,168.0,1.4041095,167.0,170.0
15360.0,168.0,1.2494891,168.0,169.0
15370.0,169.0,1.0887433,168.0,169.0
15380.0,169.0,1.1369871,168.0,169.0
15390.0,169.0,1.2710665,169.0,171.0
15400.0,169.0,0.78071123,169.0,170.0
15410.0,170.0,0.87999845,169.0,171.0
15420.0,170.0,0.81820565,169.0,171.0
15430.0,170.0,0.7309034,170.0,171.0
15440.0,171.0,0.75294596,170.0,171.0
15450.0,171.0,1.04,170.0,172.0
15460.0,171.0,1.382353,170.0,172.0
15470.0,171.0,1.3790402,171.0,173.0
15480.0,171.0,1.1274004,171.0,173.0
15490.0,171.0,0.93604964,171.0,172.0
15500.0,172.0,1.3437439,171.0,173.0
15510.0,172.0,1.4449983,171.0,174.0
15520.0,172.0,1.2911147,172.0,174.0
15530.0,172.0,0.9616736,172.0,173.0
15540.0,172.0,1.2380286,172.0,173.0
15550.0,172.0,1.4341488,172.0,173.0
15560.0,173.0,1.5583909,172.0,174.0
15570.0,173.0,1.8558193,172.0,174.0
15580.0,173.0,2.0154057,172.0,174.0
15590.0,173.0,1.7532904,172.0,173.0
15600.0,173.0,1.4099058,173.0,175.0
15610.0,173.0,1.6340533,173.0,175.0
15620.0,174.0,1.7202567,173.0,175.0
15630.0,174.0,2.1167002,173.0,176.0
15640.0,174.0,2.4318001,173.0,176.0
15650.0,174.0,2.4548874,173.0,176.0
15660.0,174.0,2.07494,173.0,176.0
15670.0,174.0,2.0348155,173.0,176.0
15680.0,174.0,2.3030066,173.5,176.0
15690.0,174.0,2.3286474,174.0,176.0
15700.0,174.0,1.7532487,173.0,176.0
15710.0,174.0,2.2672467,173.0,176.0
15720.0,174.0,2.379516,173.0,176.0
15730.0,174.0,2.746811,174.0,178.0
15740.0,175.0,2.9313998,174.0,178.0
15750.0,175.0,2.7294714,174.0,177.0
15760.0,175.0,2.2266138,174.0,177.0
15770.0,176.0,2.4962432,174.0,178.0
15780.0,176.0,2.7807,174.0,178.0
15790.0,176.0,3.1706388,174.0,178.0
15800.0,177.0,3.663716,174.0,180.0
15810.0,177.0,3.8453264,174.0,180.0
15820.0,177.0,3.389263,174.0,179.0
15830.0,176.0,2.8150344,174.0,179.0
15840.0,176.0,2.4874837,174.0,178.0
15850.0,175.5,2.5727148,174.0,179.0
15860.0,176.0,2.9556997,175.0,179.0
15870.0,176.0,2.9628482,175.0,179.0
15880.0,176.0,2.5730326,175.0,179.0
15890.0,176.0,2.1952264,175.0,179.0
15900.0,176.0,1.9095592,175.0,178.0
15910.0,176.0,2.1015816,174.0,178.0
15920.0,175.5,1.8364949,174.0,177.75
15930.0,176.0,1.8030832,174.0,178.0
15940.0,176.0,1.7704846,174.0,178.0
15950.0,176.0,1.775881,174.0,178.0
15960.0,176.0,1.5037172,175.0,178.0
15970.0,176.0,1.3638616,175.0,177.0
15980.0,176.0,1.3775392,175.0,177.0
15990.0,176.0,1.3779758,175.0,177.0
16000.0,176.0,1.0700912,175.0,177.0
16010.0,176.0,1.0607271,175.0,177.0
16020.0,176.0,0.76621056,176.0,177.0
16030.0,176.0,0.76497567,176.0,177.0
16040.0,176.0,0.76497567,176.0,177.0
16050.0,176.5,0.7411472,176.0,177.0
16060.0,176.5,0.7474444,176.0,177.0
16070.0,176.0,0.74701744,176.0,177.0
16080.0,177.0,0.36929387,177.0,177.0
16090.0,177.0,0.36929387,177.0,177.0
16100.0,177.0,0.37434453,177.0,177.0
16110.0,177.0,0.47205877,177.0,178.0
16120.0,177.0,0.4707383,177.0,178.0
16130.0,177.0,0.4707383,177.0,178.0
16140.0,178.0,0.26919436,178.0,178.0
16150.0,178.0,0.4507708,178.0,179.0
16160.0,178.0,0.4507708,178.0,179.0
16170.0,179.0,0.0,179.0,179.0
16180.0,179.0,0.6070079,179.0,179.0
16190.0,179.0,0.596728,179.0,180.0
16200.0,179.0,0.450803,179.0,180.0
16210.0,179.0,0.45723557,179.0,180.0
16220.0,180.0,0.4947753,179.0,180.0
16230.0,180.0,0.36876422,180.0,180.0
16240.0,180.0,0.42537168,180.0,180.0
16250.0,181.0,0.4857293,180.0,181.0
16260.0,181.0,0.39619607,181.0,181.0
16270.0,181.0,0.41642842,181.0,181.0
16280.0,182.0,0.4995617,181.0,182.0
16290.0,182.0,0.5184743,181.5,182.0
16300.0,182.0,0.50716877,182.0,182.0
16310.0,182.0,0.4947753,182.0,183.0
16320.0,183.0,0.48743796,182.0,183.0
16330.0,183.0,0.99205875,182.0,184.0
16340.0,183.0,0.9895441,182.0,184.0
16350.0,183.0,0.72956705,183.0,184.0
16360.0,183.0,1.1259037,183.0,185.0
16370.0,183.0,1.1259787,183.0,185.0
16380.0,184.0,0.7519544,184.0,185.0
16390.0,185.0,1.0715994,184.0,186.0
16400.0,185.0,1.0629132,184.0,186.0
16410.0,185.0,0.7318913,185.0,186.0
16420.0,185.0,1.1188504,185.0,187.0
16430.0,185.0,1.128641,185.0,187.0
16440.0,186.0,0.75676054,186.0,187.0
16450.0,186.0,1.1579214,186.0,188.0
16460.0,187.0,1.1554931,186.0,188.0
16470.0,187.0,0.7602351,187.0,188.0
16480.0,188.0,1.1554931,187.0,189.0
16490.0,187.5,1.1563212,187.0,189.0
16500.0,188.0,0.75263655,188.0,189.0
16510.0,188.5,1.0712675,188.0,189.0
16520.0,189.0,1.06834,188.0,189.0
16530.0,189.0,0.75882214,189.0,190.0
16540.0,190.0,1.3584641,189.0,191.0
16550.0,190.0,1.3581539,189.0,191.0
16560.0,190.0,1.1819636,190.0,191.0
16570.0,190.0,1.2798219,190.0,192.0
16580.0,190.0,1.2798485,190.0,192.0
16590.0,191.0,1.0098329,190.0,192.0
16600.0,191.0,1.4024934,190.0,193.0
16610.0,191.0,1.3957138,190.0,193.0
16620.0,192.0,1.1113051,191.0,193.0
16630.0,192.0,1.3760082,191.0,193.0
16640.0,192.0,1.3879501,191.0,193.0
16650.0,192.5,1.0589404,192.0,193.0
16660.0,193.0,1.0366228,192.0,193.0
16670.0,193.0,1.010363,192.75,194.0
16680.0,193.0,0.7968442,193.0,194.0
16690.0,194.0,0.7457379,193.0,194.0
16700.0,194.0,0.8481029,193.0,194.0
16710.0,194.0,1.1271567,193.0,194.0
16720.0,194.0,1.2928182,194.0,196.0
16730.0,194.0,1.1407423,194.0,196.0
16740.0,195.0,1.0730709,194.0,196.0
16750.0,195.0,1.0562228,194.0,196.0
16760.0,195.0,0.9889901,194.0,196.0
16770.0,195.0,1.1514276,195.0,196.0
16780.0,195.0,1.1800455,195.0,196.0
16790.0,195.0,1.1929144,195.0,197.0
16800.0,195.0,1.1485914,195.0,197.0
16810.0,195.5,1.1547005,195.0,197.0
16820.0,196.0,1.1094782,195.0,197.0
16830.0,196.0,1.1466357,195.0,197.0
16840.0,197.0,1.5585911,196.0,198.0
16850.0,197.0,1.572847,196.0,198.0
16860.0,197.0,1.5011642,196.0,199.0
16870.0,197.0,1.4951777,196.0,199.0
16880.0,197.0,1.6226622,196.0,199.0
16890.0,197.0,1.8144888,196.0,199.0
16900.0,197.0,1.6698496,196.0,199.0
16910.0,197.0,1.6698496,196.0,199.0
16920.0,197.0,1.667586,196.0,199.0
16930.0,198.0,1.5318329,197.0,199.0
16940.0,198.0,1.6657315,197.0,200.0
16950.0,198.0,1.4912579,197.0,200.0
16960.0,198.0,1.4912579,197.0,200.0
16970.0,198.0,2.435276,197.0,200.0
16980.0,198.0,2.4223015,197.0,200.0
16990.0,198.5,2.3274012,198.0,200.0
17000.0,198.5,2.384723,198.0,201.0
17010.0,199.0,2.365368,198.0,201.5
17020.0,199.0,2.2091892,198.0,201.5
17030.0,200.0,2.5725584,198.0,202.0
17040.0,200.0,2.440473,198.0,203.0
17050.0,200.0,2.3148203,199.0,203.0
17060.0,200.0,2.3148203,199.0,203.0
17070.0,200.0,2.233881,199.0,203.0
17080.0,201.0,2.036907,199.0,203.0
17090.0,201.0,2.44455,199.0,204.0
17100.0,201.0,2.4466565,199.0,204.0
17110.0,201.0,2.3173413,200.0,204.0
17120.0,201.0,2.9092066,200.0,204.0
17130.0,201.0,2.8933713,200.0,205.0
17140.0,201.0,2.8726037,200.0,205.0
17150.0,201.0,3.0987778,200.0,205.0
17160.0,201.0,3.1055217,200.0,205.0
17170.0,202.0,2.8228264,201.0,205.0
17180.0,202.0,3.0046968,201.0,206.0
17190.0,202.0,2.8672235,201.0,205.0
17200.0,202.0,2.7615254,201.5,205.0
17210.0,202.0,2.7568429,201.5,205.0
17220.0,204.0,2.6524358,202.0,207.0
17230.0,204.0,2.4276345,202.0,207.0
17240.0,204.0,2.731299,202.0,207.0
17250.0,204.0,2.6924155,203.0,207.0
17260.0,205.0,2.3205988,203.0,207.0
17270.0,205.0,2.440473,203.0,208.0
17280.0,205.0,2.440473,203.0,208.0
17290.0,205.0,2.3148203,204.0,208.0
17300.0,205.0,2.3148203,204.0,208.0
17310.0,205.0,2.2139726,204.0,208.0
17320.0,206.0,1.9126312,205.0,208.0
17330.0,206.0,2.3148203,205.0,209.0
17340.0,206.0,2.1915338,205.0,209.0
17350.0,206.0,2.0878575,205.0,209.0
17360.0,207.0,2.7473626,205.25,209.0
17370.0,206.0,2.6512806,206.0,210.0
17380.0,207.0,2.3466425,206.5,210.0
17390.0,207.0,2.7780032,206.5,211.0
17400.0,207.0,2.652205,207.0,211.0
17410.0,208.0,2.4525108,207.0,211.0
17420.0,208.0,2.435276,207.0,210.0
17430.0,209.0,2.404181,208.0,212.0
17440.0,210.0,2.0384684,208.0,212.0
17450.0,210.0,2.3050086,208.0,212.0
17460.0,210.0,2.2479181,209.0,212.0
17470.0,210.0,1.9423127,209.0,212.0
17480.0,210.0,2.0701966,209.0,213.0
17490.0,210.0,2.0086803,210.0,213.0
17500.0,211.0,1.763286,210.0,213.0
17510.0,211.0,1.7621043,210.0,213.0
17520.0,211.0,1.7621043,210.0,213.0
17530.0,211.0,1.5543981,211.0,213.0
17540.0,211.0,1.5543982,211.0,213.0
17550.0,211.0,1.4359647,211.0,213.0
17560.0,212.0,1.2894536,211.0,213.0
17570.0,212.5,1.955317,211.25,214.0
17580.0,213.0,1.8521911,212.0,214.5
17590.0,213.0,1.6614618,212.0,214.5
17600.0,213.0,1.8017399,212.0,215.0
17610.0,213.0,1.7013398,213.0,215.0
17620.0,213.0,1.4693166,213.0,215.0
17630.0,213.0,1.4813133,213.0,215.5
17640.0,214.0,1.5013558,213.0,216.0
17650.0,214.0,1.4027383,213.0,216.0
17660.0,214.0,1.3995521,213.0,216.0
17670.0,214.0,1.3459697,214.0,216.0
17680.0,214.0,1.1247581,214.0,216.0
17690.0,214.0,1.4022485,214.0,216.0
17700.0,214.0,1.4022485,214.0,216.0
17710.0,215.0,1.3439782,214.0,216.0
17720.0,215.0,1.3552619,214.0,216.0
17730.0,215.0,1.3561872,214.0,216.0
17740.0,215.0,1.1782582,215.0,216.0
17750.0,215.0,1.1801801,215.0,216.0
17760.0,215.0,1.0536098,215.0,216.0
17770.0,215.0,1.0314307,215.0,216.0
17780.0,215.0,1.1259787,215.0,217.0
17790.0,215.0,1.1259787,215.0,217.0
17800.0,215.0,1.1259787,215.0,217.0
17810.0,216.0,1.4798945,215.0,217.5
17820.0,216.0,1.483408,215.0,218.0
17830.0,216.0,0.774074,216.0,217.0
17840.0,216.0,0.8175326,216.0,217.0
17850.0,216.0,0.82762814,216.0,217.0
17860.0,216.0,0.82884794,216.0,217.0
17870.0,217.0,0.8276406,216.0,217.0
17880.0,217.0,0.8343682,216.0,218.0
17890.0,217.0,0.8297494,216.0,218.0
17900.0,217.0,0.951109,216.0,218.0
17910.0,217.0,0.9713232,217.0,218.0
17920.0,217.0,0.9380638,217.0,219.0
17930.0,217.0,0.905599,217.0,219.0
17940.0,217.0,1.0707008,217.0,219.0
17950.0,217.0,1.1684767,217.0,219.0
17960.0,217.0,1.2869852,217.0,220.0
17970.0,217.0,1.3192292,217.0,220.0
17980.0,218.0,1.4357557,217.0,220.0
17990.0,218.0,1.4388885,217.0,220.0
18000.0,219.0,1.4666649,218.0,221.0
18010.0,219.0,1.9943929,218.0,221.0
18020.0,219.0,2.1019604,218.0,221.0
18030.0,220.0,2.0183232,219.0,223.0
18040.0,220.0,1.6299591,219.0,222.0
18050.0,220.0,2.259434,219.0,222.0
18060.0,219.0,3.5329025,217.0,222.0
18070.0,219.5,3.4670737,217.25,222.0
18080.0,220.0,3.3382754,217.5,223.0
18090.0,220.0,3.1214015,218.0,224.0
18100.0,220.0,3.0021808,218.0,223.0
18110.0,220.0,2.8368938,218.0,223.0
18120.0,220.0,2.6212385,218.0,223.0
18130.0,220.0,2.570637,218.0,223.0
18140.0,221.0,2.2208123,219.0,223.0
18150.0,221.0,2.3728607,220.0,224.0
18160.0,221.0,2.7040656,220.0,224.0
18170.0,221.5,2.8395505,219.0,224.0
18180.0,221.0,2.7077653,219.0,224.0
18190.0,222.0,2.628752,219.0,224.0
18200.0,220.0,2.551517,219.0,223.0
18210.0,219.0,2.4809904,219.0,223.0
18220.0,220.0,2.4637032,219.0,223.0
18230.0,221.0,2.402337,219.0,223.0
18240.0,221.0,1.958829,219.0,223.0
18250.0,220.0,1.864683,219.0,223.0
18260.0,221.0,1.7732083,219.0,222.0
18270.0,221.0,1.8886588,220.0,222.0
18280.0,221.5,2.1033936,220.0,224.0
18290.0,222.0,2.038808,220.0,223.0
18300.0,222.0,1.9355872,220.0,223.0
18310.0,221.0,1.7762817,220.0,223.0
18320.0,221.0,1.7764304,220.0,223.0
18330.0,221.0,1.487644,220.0,223.0
18340.0,221.0,1.487644,220.0,223.0
18350.0,222.0,1.4937537,220.0,223.0
18360.0,222.0,1.83588,220.0,223.0
18370.0,222.0,2.0553524,220.0,224.0
18380.0,222.0,1.955127,221.0,224.0
18390.0,222.0,1.6057299,221.0,224.0
18400.0,222.0,1.5017898,221.0,224.0
18410.0,222.0,1.4981128,221.0,224.0
18420.0,222.0,1.4387056,221.0,224.0
18430.0,222.0,1.3436847,222.0,224.0
18440.0,223.0,1.3436847,222.0,224.0
18450.0,223.0,1.1570513,222.0,224.0
18460.0,223.0,1.0637648,222.0,224.0
18470.0,223.0,1.029819,222.0,223.0
18480.0,223.0,1.0819455,222.0,223.0
18490.0,223.0,1.6851648,222.0,225.0
18500.0,224.0,1.6202493,223.0,225.0
18510.0,224.0,1.2707317,223.0,224.0
18520.0,224.0,0.9845956,223.0,224.0
18530.0,224.0,1.0686322,223.0,225.0
18540.0,225.0,1.356821,223.0,226.0
18550.0,224.0,1.3436847,224.0,226.0
18560.0,224.0,1.3436847,224.0,226.0
18570.0,225.0,1.1570513,224.0,226.0
18580.0,225.0,1.1059061,224.0,226.0
18590.0,225.0,1.0637648,224.0,226.0
18600.0,225.0,0.8962082,225.0,226.0
18610.0,225.0,1.1227236,225.0,227.0
18620.0,226.0,1.0659035,225.0,227.0
18630.0,226.0,1.0094864,225.0,226.0
18640.0,226.0,0.9267991,225.0,226.0
18650.0,226.0,0.95374954,225.0,226.0
18660.0,227.0,0.9942352,226.0,228.0
18670.0,227.0,1.0566108,226.0,228.0
18680.0,227.0,0.939239,227.0,228.0
18690.0,227.0,0.81433594,227.0,228.0
18700.0,227.0,0.7673267,227.0,228.0
18710.0,227.0,0.755562,227.0,228.0
18720.0,228.0,0.9107832,227.0,229.0
18730.0,228.0,0.9713799,228.0,230.0
18740.0,228.0,0.88155466,228.0,230.0
18750.0,228.0,0.88155466,228.0,230.0
18760.0,229.0,1.0899075,228.0,230.0
18770.0,229.0,0.98593783,228.0,230.0
18780.0,229.0,1.0283393,229.0,231.0
18790.0,229.0,0.94280905,229.0,231.0
18800.0,229.0,0.93402666,229.0,231.0
18810.0,230.0,0.8764382,229.0,231.0
18820.0,230.0,1.0971549,230.0,231.0
18830.0,230.0,1.1033564,230.0,232.0
18840.0,231.0,1.1181794,230.0,232.0
18850.0,231.0,1.3824828,230.0,233.0
18860.0,231.0,1.4014407,230.0,233.0
18870.0,231.0,1.3209436,231.0,233.0
18880.0,231.0,1.1227236,231.0,233.0
18890.0,231.0,1.1269726,231.0,233.0
18900.0,231.0,1.2484529,231.0,233.0
18910.0,232.0,1.3875479,231.0,234.0
18920.0,232.0,1.193936,232.0,234.0
18930.0,232.0,1.1823248,232.0,234.0
18940.0,232.0,1.1008363,232.0,233.0
18950.0,233.0,1.764902,232.0,235.0
18960.0,233.0,1.6609901,232.0,235.0
18970.0,233.0,1.497601,233.0,235.0
18980.0,233.0,1.4626094,233.0,235.0
18990.0,233.0,1.4682417,233.0,235.0
19000.0,233.0,1.4519724,233.0,235.0
19010.0,234.0,1.3542627,233.0,235.0
19020.0,234.0,1.2816329,234.0,235.0
19030.0,234.0,1.3521693,234.0,236.0
19040.0,234.0,1.5203439,234.0,236.0
19050.0,234.0,1.4857761,234.0,236.0
19060.0,236.0,1.4840267,234.0,237.0
19070.0,236.0,1.6140952,235.0,237.0
19080.0,235.0,1.6030421,235.0,237.0
19090.0,235.0,1.5076053,235.0,237.0
19100.0,235.0,1.8245826,235.0,238.0
19110.0,236.0,1.7863094,235.0,238.0
19120.0,238.0,1.7136878,235.0,238.0
19130.0,237.0,1.394139,236.0,238.0
19140.0,236.0,1.4755515,236.0,238.0
19150.0,237.0,1.5969003,236.0,239.0
19160.0,237.0,1.8927308,236.0,239.0
19170.0,238.0,1.7723799,236.0,239.0
19180.0,238.0,1.6443094,237.0,239.0
19190.0,239.0,1.7342921,238.0,239.0
19200.0,238.0,1.9530741,238.0,241.0
19210.0,238.0,1.9055165,238.0,241.0
19220.0,238.0,2.1971931,238.0,242.0
19230.0,240.0,2.144795,238.0,242.0
19240.0,240.0,2.1364794,238.0,242.0
19250.0,240.0,1.8905524,239.0,242.0
19260.0,241.0,1.7623947,239.0,242.0
19270.0,241.0,1.7823592,239.0,243.0
19280.0,241.0,1.816478,240.0,243.0
19290.0,242.0,2.4065623,240.0,245.0
19300.0,242.0,2.2752874,241.0,245.0
19310.0,242.0,2.2351537,241.0,246.0
19320.0,244.0,2.388072,241.0,246.0
19330.0,244.0,2.1973872,242.0,246.0
19340.0,244.0,2.0166438,242.0,246.0
19350.0,244.0,1.9871192,242.0,246.0
19360.0,245.0,1.7778443,244.0,246.0
19370.0,245.0,1.7820631,244.0,247.0
19380.0,245.0,1.9813151,244.0,247.0
19390.0,245.5,1.9032295,244.0,247.0
19400.0,246.0,2.0413835,244.0,248.0
19410.0,246.0,2.7467837,244.0,250.0
19420.0,247.0,2.8680747,244.0,250.0
19430.0,247.0,2.8706155,245.0,250.0
19440.0,247.0,3.0220244,245.0,251.0
19450.0,247.0,2.9164906,245.0,251.0
19460.0,247.0,2.864361,245.0,251.0
19470.0,247.0,2.884341,245.0,251.0
19480.0,247.0,2.828852,246.0,251.0
19490.0,248.0,2.7975092,246.0,251.0
19500.0,249.0,2.8152254,246.0,251.0
19510.0,247.0,2.8400247,246.0,251.0
19520.0,247.5,2.939107,246.0,250.0
19530.0,248.0,3.421123,245.0,250.0
19540.0,247.0,3.994185,245.0,253.0
19550.0,247.0,4.3119926,245.0,251.5
19560.0,247.0,4.211242,243.0,251.0
19570.0,245.0,4.3481765,243.0,251.0
19580.0,245.0,4.6534204,243.0,249.0
19590.0,245.0,4.466482,240.0,249.0
19600.0,241.0,4.410405,240.0,249.0
19610.0,241.0,3.670455,240.0,244.0
19620.0,241.0,2.4514236,240.0,244.0
19630.0,242.0,4.6463184,235.0,244.0
19640.0,236.0,1.7765892,235.0,238.0
19650.0,236.0,1.7744795,235.0,238.0
19660.0,236.0,4.8098254,229.0,238.0
19670.0,229.0,0.9451088,229.0,230.0
19680.0,229.0,0.9451088,229.0,230.0
19690.0,229.0,5.845535,218.0,230.0
19700.0,219.0,0.68898785,218.0,219.0
19710.0,219.0,0.68898785,218.0,219.0
19720.0,208.0,6.2117877,207.0,219.0
19730.0,206.0,0.7575964,206.0,207.0
19740.0,206.0,0.7649756,206.0,207.0
19750.0,206.0,6.795513,193.0,206.0
19760.0,191.0,1.1699817,190.0,192.0
19770.0,191.0,1.1659323,190.0,192.0
19780.0,190.0,7.3200097,175.0,190.0
19790.0,174.0,1.720465,173.0,175.0
19800.0,173.0,3.9879804,169.0,175.0
19810.0,163.0,6.147955,159.0,172.0
19820.0,159.0,5.2087145,155.0,163.0
19830.0,154.0,4.8274355,151.0,159.0
19840.0,155.0,10.730424,134.0,157.0
19850.0,192.0,38.13634,155.0,218.0
19860.0,175.0,36.698563,135.0,207.0
19870.0,175.0,34.70987,135.0,207.0
19880.0,157.0,32.42049,135.0,193.0
19890.0,138.0,32.154263,117.0,177.0
19900.0,138.0,25.467047,117.0,159.0
19910.0,128.5,22.395275,105.5,140.0
19920.0,131.0,22.339796,119.0,154.25
19930.0,122.0,25.46182,101.0,143.0
19940.0,122.0,27.572681,101.0,143.0
19950.0,124.0,27.463478,104.0,143.0
19960.0,124.0,27.196836,104.0,145.0
19970.0,124.0,29.631268,88.0,145.0
19980.0,107.0,31.47248,91.0,145.0
19990.0,118.5,31.901983,91.0,148.0
20000.0,110.0,31.674362,91.0,148.0
20010.0,113.0,32.0179,94.0,148.0
20020.0,111.5,29.61265,80.25,130.75
20030.0,97.0,26.495207,81.0,133.0
20040.0,97.0,22.437376,81.0,116.0
20050.0,97.0,23.382013,81.0,116.0
20060.0,97.0,24.343817,72.0,116.0
20070.0,86.5,13.621334,81.0,104.0
20080.0,88.0,11.766969,72.0,92.0
20090.0,88.0,11.051263,72.0,92.0
20100.0,79.0,11.112415,76.0,96.0
20110.0,83.0,10.399524,76.0,96.0
20120.0,79.0,8.859144,71.0,87.0
20130.0,75.0,8.36352,71.0,87.0
20140.0,78.0,7.149043,75.0,87.0
20150.0,82.0,4.221063,78.0,86.0
20160.0,82.0,2.9958422,82.0,86.0
20170.0,86.0,1.490712,86.0,86.0
20180.0,nan,nan,nan,nan
20190.0,nan,nan,nan,nan
20200.0,nan,nan,nan,nan
20210.0,nan,nan,nan,nan
20220.0,nan,nan,nan,nan
20230.0,nan,nan,nan,nan
20240.0,nan,nan,nan,nan
20250.0,nan,nan,nan,nan
20260.0,nan,nan,nan,nan
20270.0,nan,nan,nan,nan
20280.0,nan,nan,nan,nan
20290.0,nan,nan,nan,nan
20300.0,nan,nan,nan,nan
20310.0,nan,nan,nan,nan
20320.0,nan,nan,nan,nan
20330.0,nan,nan,nan,nan
20340.0,nan,nan,nan,nan
20350.0,nan,nan,nan,nan
20360.0,nan,nan,nan,nan
20370.0,nan,nan,nan,nan
20380.0,nan,nan,nan,nan
20390.0,nan,nan,nan,nan
20400.0,nan,nan,nan,nan
20410.0,nan,nan,nan,nan
20420.0,nan,nan,nan,nan
20430.0,nan,nan,nan,nan
20440.0,nan,nan,nan,nan
20450.0,nan,nan,nan,nan
20460.0,nan,nan,nan,nan
20470.0,nan,nan,nan,nan
20480.0,nan,nan,nan,nan
20490.0,nan,nan,nan,nan
20500.0,nan,nan,nan,nan
20510.0,nan,nan,nan,nan
20520.0,nan,nan,nan,nan
20530.0,nan,nan,nan,nan
20540.0,nan,nan,nan,nan
20550.0,nan,nan,nan,nan
20560.0,nan,nan,nan,nan
20570.0,nan,nan,nan,nan
20580.0,nan,nan,nan,nan
20590.0,nan,nan,nan,nan
20600.0,nan,nan,nan,nan
20610.0,nan,nan,nan,nan
20620.0,nan,nan,nan,nan
20630.0,nan,nan,nan,nan
20640.0,nan,nan,nan,nan
20650.0,nan,nan,nan,nan
20660.0,nan,nan,nan,nan
20670.0,nan,nan,nan,nan
20680.0,nan,nan,nan,nan
20690.0,nan,nan,nan,nan
20700.0,nan,nan,nan,nan
20710.0,nan,nan,nan,nan
20720.0,nan,nan,nan,nan
20730.0,nan,nan,nan,nan
20740.0,nan,nan,nan,nan
20750.0,nan,nan,nan,nan
20760.0,nan,nan,nan,nan
20770.0,nan,nan,nan,nan
20780.0,nan,nan,nan,nan
20790.0,nan,nan,nan,nan
20800.0,nan,nan,nan,nan
20810.0,nan,nan,nan,nan
20820.0,nan,nan,nan,nan
20830.0,nan,nan,nan,nan
20840.0,nan,nan,nan,nan
20850.0,nan,nan,nan,nan
20860.0,nan,nan,nan,nan
20870.0,nan,nan,nan,nan
20880.0,nan,nan,nan,nan
20890.0,nan,nan,nan,nan
20900.0,nan,nan,nan,nan
20910.0,nan,nan,nan,nan
20920.0,nan,nan,nan,nan
20930.0,nan,nan,nan,nan
20940.0,nan,nan,nan,nan
20950.0,nan,nan,nan,nan
20960.0,nan,nan,nan,nan
20970.0,nan,nan,nan,nan
20980.0,nan,nan,nan,nan
20990.0,nan,nan,nan,nan
21000.0,nan,nan,nan,nan
21010.0,nan,nan,nan,nan
21020.0,nan,nan,nan,nan
21030.0,nan,nan,nan,nan
21040.0,nan,nan,nan,nan
21050.0,nan,nan,nan,nan
21060.0,nan,nan,nan,nan
21070.0,nan,nan,nan,nan
21080.0,nan,nan,nan,nan
21090.0,nan,nan,nan,nan
21100.0,nan,nan,nan,nan
21110.0,nan,nan,nan,nan
21120.0,nan,nan,nan,nan
21130.0,nan,nan,nan,nan
21140.0,nan,nan,nan,nan
21150.0,nan,nan,nan,nan
21160.0,nan,nan,nan,nan
21170.0,nan,nan,nan,nan
21180.0,nan,nan,nan,nan
21190.0,nan,nan,nan,nan
21200.0,nan,nan,nan,nan
21210.0,nan,nan,nan,nan
21220.0,nan,nan,nan,nan
21230.0,nan,nan,nan,nan
21240.0,nan,nan,nan,nan
21250.0,nan,nan,nan,nan
21260.0,nan,nan,nan,nan
21270.0,nan,nan,nan,nan
21280.0,nan,nan,nan,nan
21290.0,nan,nan,nan,nan
21300.0,nan,nan,nan,nan
21310.0,nan,nan,nan,nan
21320.0,nan,nan,nan,nan
21330.0,nan,nan,nan,nan
21340.0,nan,nan,nan,nan
21350.0,nan,nan,nan,nan
21360.0,nan,nan,nan,nan
21370.0,nan,nan,nan,nan
21380.0,nan,nan,nan,nan
21390.0,nan,nan,nan,nan
21400.0,nan,nan,nan,nan
21410.0,nan,nan,nan,nan
21420.0,nan,nan,nan,nan
21430.0,nan,nan,nan,nan
21440.0,nan,nan,nan,nan
21450.0,nan,nan,nan,nan
21460.0,nan,nan,nan,nan
21470.0,nan,nan,nan,nan
21480.0,nan,nan,nan,nan
21490.0,nan,nan,nan,nan
21500.0,nan,nan,nan,nan
21510.0,nan,nan,nan,nan
21520.0,nan,nan,nan,nan
21530.0,nan,nan,nan,nan
21540.0,nan,nan,nan,nan
21550.0,nan,nan,nan,nan
21560.0,nan,nan,nan,nan
21570.0,nan,nan,nan,nan
21580.0,nan,nan,nan,nan
21590.0,nan,nan,nan,nan
21600.0,nan,nan,nan,nan
21610.0,nan,nan,nan,nan
21620.0,nan,nan,nan,nan
21630.0,nan,nan,nan,nan
21640.0,nan,nan,nan,nan
21650.0,nan,nan,nan,nan
21660.0,nan,nan,nan,nan
21670.0,nan,nan,nan,nan
21680.0,nan,nan,nan,nan
21690.0,nan,nan,nan,nan
21700.0,nan,nan,nan,nan
21710.0,nan,nan,nan,nan
21720.0,nan,nan,nan,nan
21730.0,nan,nan,nan,nan
21740.0,nan,nan,nan,nan
21750.0,nan,nan,nan,nan
21760.0,nan,nan,nan,nan
21770.0,nan,nan,nan,nan
21780.0,nan,nan,nan,nan
21790.0,nan,nan,nan,nan
21800.0,nan,nan,nan,nan
21810.0,nan,nan,nan,nan
21820.0,nan,nan,nan,nan
21830.0,nan,nan,nan,nan
21840.0,nan,nan,nan,nan
21850.0,nan,nan,nan,nan
21860.0,nan,nan,nan,nan
21870.0,nan,nan,nan,nan
21880.0,nan,nan,nan,nan
21890.0,nan,nan,nan,nan
21900.0,nan,nan,nan,nan
21910.0,nan,nan,nan,nan
21920.0,nan,nan,nan,nan
21930.0,nan,nan,nan,nan
21940.0,nan,nan,nan,nan
21950.0,nan,nan,nan,nan
21960.0,nan,nan,nan,nan
21970.0,nan,nan,nan,nan
21980.0,nan,nan,nan,nan
21990.0,nan,nan,nan,nan
22000.0,nan,nan,nan,nan
22010.0,nan,nan,nan,nan
22020.0,nan,nan,nan,nan
22030.0,nan,nan,nan,nan
22040.0,nan,nan,nan,nan
22050.0,nan,nan,nan,nan
22060.0,nan,nan,nan,nan
22070.0,nan,nan,nan,nan
22080.0,nan,nan,nan,nan
22090.0,nan,nan,nan,nan
22100.0,nan,nan,nan,nan
22110.0,nan,nan,nan,nan
22120.0,nan,nan,nan,nan
22130.0,nan,nan,nan,nan
22140.0,nan,nan,nan,nan
22150.0,nan,nan,nan,nan
22160.0,nan,nan,nan,nan
22170.0,nan,nan,nan,nan
22180.0,nan,nan,nan,nan
22190.0,nan,nan,nan,nan
22200.0,nan,nan,nan,nan
22210.0,nan,nan,nan,nan
22220.0,nan,nan,nan,nan
22230.0,nan,nan,nan,nan
22240.0,nan,nan,nan,nan
22250.0,nan,nan,nan,nan
22260.0,nan,nan,nan,nan
22270.0,nan,nan,nan,nan
22280.0,nan,nan,nan,nan
22290.0,nan,nan,nan,nan
22300.0,nan,nan,nan,nan
22310.0,nan,nan,nan,nan
22320.0,nan,nan,nan,nan
22330.0,nan,nan,nan,nan
22340.0,nan,nan,nan,nan
22350.0,nan,nan,nan,nan
22360.0,nan,nan,nan,nan
22370.0,nan,nan,nan,nan
22380.0,nan,nan,nan,nan
22390.0,nan,nan,nan,nan
22400.0,nan,nan,nan,nan
22410.0,nan,nan,nan,nan
22420.0,nan,nan,nan,nan
22430.0,nan,nan,nan,nan
22440.0,nan,nan,nan,nan
22450.0,nan,nan,nan,nan
22460.0,nan,nan,nan,nan
22470.0,nan,nan,nan,nan
22480.0,nan,nan,nan,nan
22490.0,nan,nan,nan,nan
22500.0,nan,nan,nan,nan
22510.0,nan,nan,nan,nan
22520.0,nan,nan,nan,nan
22530.0,nan,nan,nan,nan
22540.0,nan,nan,nan,nan
22550.0,nan,nan,nan,nan
22560.0,nan,nan,nan,nan
22570.0,nan,nan,nan,nan
22580.0,nan,nan,nan,nan
22590.0,nan,nan,nan,nan
22600.0,nan,nan,nan,nan
22610.0,nan,nan,nan,nan
22620.0,nan,nan,nan,nan
22630.0,nan,nan,nan,nan
22640.0,nan,nan,nan,nan
22650.0,nan,nan,nan,nan
22660.0,nan,nan,nan,nan
22670.0,nan,nan,nan,nan
22680.0,nan,nan,nan,nan
22690.0,nan,nan,nan,nan
22700.0,nan,nan,nan,nan
22710.0,nan,nan,nan,nan
22720.0,nan,nan,nan,nan
22730.0,nan,nan,nan,nan
22740.0,nan,nan,nan,nan
22750.0,nan,nan,nan,nan
22760.0,nan,nan,nan,nan
22770.0,nan,nan,nan,nan
22780.0,nan,nan,nan,nan
22790.0,nan,nan,nan,nan
22800.0,nan,nan,nan,nan
22810.0,nan,nan,nan,nan
22820.0,nan,nan,nan,nan
22830.0,nan,nan,nan,nan
22840.0,nan,nan,nan,nan
22850.0,nan,nan,nan,nan
22860.0,nan,nan,nan,nan
22870.0,nan,nan,nan,nan
22880.0,nan,nan,nan,nan
22890.0,nan,nan,nan,nan
22900.0,nan,nan,nan,nan
22910.0,nan,nan,nan,nan
22920.0,nan,nan,nan,nan
22930.0,nan,nan,nan,nan
22940.0,nan,nan,nan,nan
22950.0,nan,nan,nan,nan
22960.0,nan,nan,nan,nan
22970.0,nan,nan,nan,nan
22980.0,nan,nan,nan,nan
22990.0,nan,nan,nan,nan
23000.0,nan,nan,nan,nan
23010.0,nan,nan,nan,nan
23020.0,nan,nan,nan,nan
23030.0,nan,nan,nan,nan
23040.0,nan,nan,nan,nan
23050.0,nan,nan,nan,nan
23060.0,nan,nan,nan,nan
23070.0,nan,nan,nan,nan
23080.0,nan,nan,nan,nan
23090.0,nan,nan,nan,nan
23100.0,nan,nan,nan,nan
23110.0,nan,nan,nan,nan
23120.0,nan,nan,nan,nan
23130.0,nan,nan,nan,nan
23140.0,nan,nan,nan,nan
23150.0,nan,nan,nan,nan
23160.0,nan,nan,nan,nan
23170.0,nan,nan,nan,nan
23180.0,nan,nan,nan,nan
23190.0,nan,nan,nan,nan
23200.0,nan,nan,nan,nan
23210.0,nan,nan,nan,nan
23220.0,nan,nan,nan,nan
23230.0,nan,nan,nan,nan
23240.0,nan,nan,nan,nan
23250.0,nan,nan,nan,nan
23260.0,nan,nan,nan,nan
23270.0,nan,nan,nan,nan
23280.0,nan,nan,nan,nan
23290.0,nan,nan,nan,nan
23300.0,nan,nan,nan,nan
23310.0,nan,nan,nan,nan
23320.0,nan,nan,nan,nan
23330.0,nan,nan,nan,nan
23340.0,nan,nan,nan,nan
23350.0,nan,nan,nan,nan
23360.0,nan,nan,nan,nan
23370.0,nan,nan,nan,nan
23380.0,nan,nan,nan,nan
23390.0,nan,nan,nan,nan
23400.0,nan,nan,nan,nan
23410.0,nan,nan,nan,nan
23420.0,nan,nan,nan,nan
23430.0,nan,nan,nan,nan
23440.0,nan,nan,nan,nan
23450.0,nan,nan,nan,nan
23460.0,nan,nan,nan,nan
23470.0,nan,nan,nan,nan
23480.0,nan,nan,nan,nan
23490.0,nan,nan,nan,nan
23500.0,nan,nan,nan,nan
23510.0,nan,nan,nan,nan
23520.0,nan,nan,nan,nan
23530.0,nan,nan,nan,nan
23540.0,nan,nan,nan,nan
23550.0,nan,nan,nan,nan
23560.0,nan,nan,nan,nan
23570.0,nan,nan,nan,nan
23580.0,nan,nan,nan,nan
23590.0,nan,nan,nan,nan
23600.0,nan,nan,nan,nan
23610.0,nan,nan,nan,nan
23620.0,nan,nan,nan,nan
23630.0,nan,nan,nan,nan
23640.0,nan,nan,nan,nan
23650.0,nan,nan,nan,nan
23660.0,nan,nan,nan,nan
23670.0,nan,nan,nan,nan
23680.0,nan,nan,nan,nan
23690.0,nan,nan,nan,nan
23700.0,nan,nan,nan,nan
23710.0,nan,nan,nan,nan
23720.0,nan,nan,nan,nan
23730.0,nan,nan,nan,nan
23740.0,nan,nan,nan,nan
23750.0,nan,nan,nan,nan
23760.0,nan,nan,nan,nan
23770.0,nan,nan,nan,nan
23780.0,nan,nan,nan,nan
23790.0,nan,nan,nan,nan
23800.0,nan,nan,nan,nan
23810.0,nan,nan,nan,nan
23820.0,nan,nan,nan,nan
23830.0,nan,nan,nan,nan
23840.0,nan,nan,nan,nan
23850.0,nan,nan,nan,nan
23860.0,nan,nan,nan,nan
23870.0,nan,nan,nan,nan
23880.0,nan,nan,nan,nan
23890.0,nan,nan,nan,nan
23900.0,nan,nan,nan,nan
23910.0,nan,nan,nan,nan
23920.0,nan,nan,nan,nan
23930.0,nan,nan,nan,nan
23940.0,nan,nan,nan,nan
23950.0,nan,nan,nan,nan
23960.0,nan,nan,nan,nan
23970.0,nan,nan,nan,nan
23980.0,nan,nan,nan,nan
23990.0,nan,nan,nan,nan
24000.0,nan,nan,nan,nan
24010.0,nan,nan,nan,nan
24020.0,nan,nan,nan,nan
24030.0,nan,nan,nan,nan
24040.0,nan,nan,nan,nan
24050.0,nan,nan,nan,nan
24060.0,nan,nan,nan,nan
24070.0,nan,nan,nan,nan
24080.0,nan,nan,nan,nan
24090.0,nan,nan,nan,nan
24100.0,nan,nan,nan,nan
24110.0,nan,nan,nan,nan
24120.0,nan,nan,nan,nan
24130.0,nan,nan,nan,nan
24140.0,nan,nan,nan,nan
24150.0,nan,nan,nan,nan
24160.0,nan,nan,nan,nan
24170.0,nan,nan,nan,nan
24180.0,nan,nan,nan,nan
24190.0,nan,nan,nan,nan
24200.0,nan,nan,nan,nan
24210.0,nan,nan,nan,nan
24220.0,nan,nan,nan,nan
24230.0,nan,nan,nan,nan
24240.0,nan,nan,nan,nan
24250.0,nan,nan,nan,nan
24260.0,nan,nan,nan,nan
24270.0,nan,nan,nan,nan
24280.0,nan,nan,nan,nan
24290.0,nan,nan,nan,nan
24300.0,nan,nan,nan,nan
24310.0,nan,nan,nan,nan
24320.0,nan,nan,nan,nan
24330.0,nan,nan,nan,nan
24340.0,nan,nan,nan,nan
24350.0,nan,nan,nan,nan
24360.0,nan,nan,nan,nan
24370.0,nan,nan,nan,nan
24380.0,nan,nan,nan,nan
24390.0,nan,nan,nan,nan
24400.0,nan,nan,nan,nan
24410.0,nan,nan,nan,nan
24420.0,nan,nan,nan,nan
24430.0,nan,nan,nan,nan
24440.0,nan,nan,nan,nan
24450.0,nan,nan,nan,nan
24460.0,nan,nan,nan,nan
24470.0,nan,nan,nan,nan
24480.0,nan,nan,nan,nan
24490.0,nan,nan,nan,nan
24500.0,nan,nan,nan,nan
24510.0,nan,nan,nan,nan
24520.0,nan,nan,nan,nan
24530.0,nan,nan,nan,nan
24540.0,nan,nan,nan,nan
24550.0,nan,nan,nan,nan
24560.0,nan,nan,nan,nan
24570.0,nan,nan,nan,nan
24580.0,nan,nan,nan,nan
24590.0,nan,nan,nan,nan
24600.0,nan,nan,nan,nan
24610.0,nan,nan,nan,nan
24620.0,nan,nan,nan,nan
24630.0,nan,nan,nan,nan
24640.0,nan,nan,nan,nan
24650.0,nan,nan,nan,nan
24660.0,nan,nan,nan,nan
24670.0,nan,nan,nan,nan
24680.0,nan,nan,nan,nan
24690.0,nan,nan,nan,nan
24700.0,nan,nan,nan,nan
24710.0,nan,nan,nan,nan
24720.0,nan,nan,nan,nan
24730.0,nan,nan,nan,nan
24740.0,nan,nan,nan,nan
24750.0,nan,nan,nan,nan
24760.0,nan,nan,nan,nan
24770.0,nan,nan,nan,nan
24780.0,nan,nan,nan,nan
24790.0,nan,nan,nan,nan
24800.0,nan,nan,nan,nan
24810.0,nan,nan,nan,nan
24820.0,nan,nan,nan,nan
24830.0,nan,nan,nan,nan
24840.0,nan,nan,nan,nan
24850.0,nan,nan,nan,nan
24860.0,nan,nan,nan,nan
24870.0,nan,nan,nan,nan
24880.0,nan,nan,nan,nan
24890.0,nan,nan,nan,nan
24900.0,nan,nan,nan,nan
24910.0,nan,nan,nan,nan
24920.0,nan,nan,nan,nan
24930.0,nan,nan,nan,nan
24940.0,nan,nan,nan,nan
24950.0,nan,nan,nan,nan
24960.0,nan,nan,nan,nan
24970.0,nan,nan,nan,nan
24980.0,nan,nan,nan,nan
24990.0,nan,nan,nan,nan
25000.0,nan,nan,nan,nan
25010.0,nan,nan,nan,nan
25020.0,nan,nan,nan,nan
25030.0,nan,nan,nan,nan
25040.0,nan,nan,nan,nan
25050.0,nan,nan,nan,nan
25060.0,nan,nan,nan,nan
25070.0,nan,nan,nan,nan
25080.0,nan,nan,nan,nan
25090.0,nan,nan,nan,nan
25100.0,nan,nan,nan,nan
25110.0,nan,nan,nan,nan
25120.0,nan,nan,nan,nan
25130.0,nan,nan,nan,nan
25140.0,nan,nan,nan,nan
25150.0,nan,nan,nan,nan
25160.0,nan,nan,nan,nan
25170.0,nan,nan,nan,nan
25180.0,nan,nan,nan,nan
25190.0,nan,nan,nan,nan
25200.0,nan,nan,nan,nan
25210.0,nan,nan,nan,nan
25220.0,nan,nan,nan,nan
25230.0,nan,nan,nan,nan
25240.0,nan,nan,nan,nan
25250.0,nan,nan,nan,nan
25260.0,nan,nan,nan,nan
25270.0,nan,nan,nan,nan
25280.0,nan,nan,nan,nan
25290.0,nan,nan,nan,nan
25300.0,nan,nan,nan,nan
25310.0,nan,nan,nan,nan
25320.0,nan,nan,nan,nan
25330.0,nan,nan,nan,nan
25340.0,nan,nan,nan,nan
25350.0,nan,nan,nan,nan
25360.0,nan,nan,nan,nan
25370.0,nan,nan,nan,nan
25380.0,nan,nan,nan,nan
25390.0,nan,nan,nan,nan
25400.0,nan,nan,nan,nan
25410.0,nan,nan,nan,nan
25420.0,nan,nan,nan,nan
25430.0,nan,nan,nan,nan
25440.0,nan,nan,nan,nan
25450.0,nan,nan,nan,nan
25460.0,nan,nan,nan,nan
25470.0,nan,nan,nan,nan
25480.0,nan,nan,nan,nan
25490.0,nan,nan,nan,nan
25500.0,nan,nan,nan,nan
25510.0,nan,nan,nan,nan
25520.0,nan,nan,nan,nan
25530.0,nan,nan,nan,nan
25540.0,nan,nan,nan,nan
25550.0,nan,nan,nan,nan
25560.0,nan,nan,nan,nan
25570.0,nan,nan,nan,nan
25580.0,nan,nan,nan,nan
25590.0,nan,nan,nan,nan
25600.0,nan,nan,nan,nan
25610.0,nan,nan,nan,nan
25620.0,nan,nan,nan,nan
25630.0,nan,nan,nan,nan
25640.0,nan,nan,nan,nan
25650.0,nan,nan,nan,nan
25660.0,nan,nan,nan,nan
25670.0,nan,nan,nan,nan
25680.0,nan,nan,nan,nan
25690.0,nan,nan,nan,nan
25700.0,nan,nan,nan,nan
25710.0,nan,nan,nan,nan
25720.0,nan,nan,nan,nan
25730.0,nan,nan,nan,nan
25740.0,nan,nan,nan,nan
25750.0,nan,nan,nan,nan
25760.0,nan,nan,nan,nan
25770.0,nan,nan,nan,nan
25780.0,nan,nan,nan,nan
25790.0,nan,nan,nan,nan
25800.0,nan,nan,nan,nan
25810.0,nan,nan,nan,nan
25820.0,nan,nan,nan,nan
25830.0,nan,nan,nan,nan
25840.0,nan,nan,nan,nan
25850.0,nan,nan,nan,nan
25860.0,nan,nan,nan,nan
25870.0,nan,nan,nan,nan
25880.0,nan,nan,nan,nan
25890.0,nan,nan,nan,nan
25900.0,nan,nan,nan,nan
25910.0,nan,nan,nan,nan
25920.0,nan,nan,nan,nan
25930.0,nan,nan,nan,nan
25940.0,nan,nan,nan,nan
25950.0,nan,nan,nan,nan
25960.0,nan,nan,nan,nan
25970.0,nan,nan,nan,nan
25980.0,nan,nan,nan,nan
25990.0,nan,nan,nan,nan
26000.0,nan,nan,nan,nan
26010.0,nan,nan,nan,nan
26020.0,nan,nan,nan,nan
26030.0,nan,nan,nan,nan
26040.0,nan,nan,nan,nan
26050.0,nan,nan,nan,nan
26060.0,nan,nan,nan,nan
26070.0,nan,nan,nan,nan
26080.0,nan,nan,nan,nan
26090.0,nan,nan,nan,nan
26100.0,nan,nan,nan,nan
26110.0,nan,nan,nan,nan
26120.0,nan,nan,nan,nan
26130.0,nan,nan,nan,nan
26140.0,nan,nan,nan,nan
26150.0,nan,nan,nan,nan
26160.0,nan,nan,nan,nan
26170.0,nan,nan,nan,nan
26180.0,nan,nan,nan,nan
26190.0,nan,nan,nan,nan
26200.0,nan,nan,nan,nan
26210.0,nan,nan,nan,nan
26220.0,nan,nan,nan,nan
26230.0,nan,nan,nan,nan
26240.0,nan,nan,nan,nan
26250.0,nan,nan,nan,nan
26260.0,nan,nan,nan,nan
26270.0,nan,nan,nan,nan
26280.0,nan,nan,nan,nan
26290.0,nan,nan,nan,nan
26300.0,nan,nan,nan,nan
26310.0,nan,nan,nan,nan
26320.0,nan,nan,nan,nan
26330.0,nan,nan,nan,nan
26340.0,nan,nan,nan,nan
26350.0,nan,nan,nan,nan
26360.0,nan,nan,nan,nan
26370.0,nan,nan,nan,nan
26380.0,nan,nan,nan,nan
26390.0,nan,nan,nan,nan
26400.0,nan,nan,nan,nan
26410.0,nan,nan,nan,nan
26420.0,nan,nan,nan,nan
26430.0,nan,nan,nan,nan
26440.0,nan,nan,nan,nan
26450.0,nan,nan,nan,nan
26460.0,nan,nan,nan,nan
26470.0,nan,nan,nan,nan
26480.0,nan,nan,nan,nan
26490.0,nan,nan,nan,nan
26500.0,nan,nan,nan,nan
26510.0,nan,nan,nan,nan
26520.0,nan,nan,nan,nan
26530.0,nan,nan,nan,nan
26530.0,nan,nan,nan,nan
26530.0,nan,nan,nan,nan
