distance,median,stdev,prc_25,prc_75
20.0,12.0,2.079353,10.0,14.0
30.0,12.0,2.153638,10.0,14.0
40.0,12.0,2.0402532,10.0,14.0
50.0,12.0,2.0806577,10.0,14.0
60.0,13.0,2.0085304,10.0,14.0
70.0,13.0,2.0413246,11.0,14.0
80.0,13.0,2.2179844,11.0,15.0
90.0,13.0,2.10645,11.0,15.0
100.0,13.0,2.1419728,11.0,15.0
110.0,13.0,1.9531487,11.0,15.0
120.0,14.0,1.9420668,12.0,15.0
130.0,14.0,1.9533395,12.0,15.0
140.0,14.0,1.8475024,12.0,16.0
150.0,14.0,1.7506166,13.0,16.0
160.0,14.0,1.7152385,13.0,16.0
170.0,14.0,1.5342737,13.0,16.0
180.0,15.0,1.4898574,13.0,16.0
190.0,15.0,1.4809341,14.0,16.0
200.0,15.0,1.3735579,14.0,16.0
210.0,15.0,1.3614503,14.0,16.0
220.0,15.0,1.3246713,15.0,17.0
230.0,15.0,1.2494063,15.0,17.0
240.0,16.0,1.1306934,15.0,17.0
250.0,16.0,1.104355,15.0,17.0
260.0,16.0,0.92516,15.0,17.0
270.0,16.0,1.0090219,16.0,17.0
280.0,16.0,1.0495981,16.0,17.0
290.0,16.0,1.0324372,16.0,18.0
300.0,17.0,0.97657895,16.0,18.0
310.0,17.0,0.9335019,16.0,18.0
320.0,17.0,0.73161745,17.0,18.0
330.0,17.0,0.8136137,17.0,18.0
340.0,17.0,0.9152117,17.0,18.0
350.0,17.0,0.91812474,17.0,19.0
360.0,18.0,0.8395612,17.0,19.0
370.0,18.0,0.78001934,18.0,19.0
380.0,18.0,0.6188227,18.0,19.0
390.0,18.0,0.7622476,18.0,19.0
400.0,18.0,0.87663114,18.0,19.0
410.0,18.0,0.9336394,18.0,20.0
420.0,19.0,0.92196697,18.0,20.0
430.0,19.0,0.99320894,18.0,20.0
440.0,19.0,0.9425199,19.0,20.0
450.0,19.0,0.9628267,19.0,21.0
460.0,19.0,0.9675739,19.0,21.0
470.0,19.0,0.98088497,19.0,21.0
480.0,19.0,1.1208708,19.0,21.0
490.0,20.0,1.1864063,19.0,21.0
500.0,20.0,1.2176288,19.0,22.0
510.0,20.0,1.1568652,19.0,22.0
520.0,20.0,1.2889584,20.0,22.0
530.0,20.0,1.2233648,20.0,22.0
540.0,20.0,1.3147491,20.0,23.0
550.0,20.0,1.2993238,20.0,23.0
560.0,20.0,1.3361375,20.0,23.0
570.0,21.0,1.3783263,20.0,23.0
580.0,21.0,1.468513,20.0,23.0
590.0,21.0,1.5186297,21.0,23.0
600.0,21.0,1.4727389,21.0,24.0
610.0,21.0,1.6456965,21.0,24.0
620.0,21.0,1.6205704,21.0,24.0
630.0,22.0,1.7255532,21.0,25.0
640.0,22.0,1.8212645,21.0,25.0
650.0,22.0,1.9428076,21.0,25.0
660.0,22.0,1.9121006,22.0,25.0
670.0,23.0,1.9770788,22.0,25.0
680.0,23.0,1.968177,22.0,26.0
690.0,23.0,0.8259268,22.0,23.0
700.0,23.0,0.9069583,22.0,23.0
710.0,23.0,0.8659194,23.0,24.0
720.0,23.0,0.87672603,23.0,24.0
730.0,23.0,0.9809241,23.0,24.0
740.0,24.0,1.0266358,23.0,24.0
750.0,24.0,0.9504574,23.0,24.0
760.0,24.0,0.87800497,24.0,25.0
770.0,24.0,0.8405419,24.0,25.0
780.0,25.0,0.8553833,24.0,25.0
790.0,25.0,0.88776344,24.0,25.0
800.0,25.0,0.89759773,25.0,25.0
810.0,25.0,0.9013658,25.0,26.0
820.0,25.0,0.92236006,25.0,26.0
830.0,26.0,0.91713095,25.0,26.0
840.0,26.0,0.8787172,25.0,26.0
850.0,26.0,0.90609866,26.0,26.0
860.0,26.0,0.9654173,26.0,27.0
870.0,27.0,0.94797367,26.0,27.0
880.0,27.0,0.8631464,26.0,27.0
890.0,27.0,0.8435106,27.0,27.0
900.0,27.0,0.8921726,27.0,27.0
910.0,27.0,0.9132316,27.0,28.0
920.0,28.0,0.8408341,27.0,28.0
930.0,28.0,0.79808277,28.0,28.0
940.0,28.0,0.80995333,28.0,28.0
950.0,28.0,0.8342258,28.0,29.0
960.0,29.0,0.81290704,28.0,29.0
970.0,29.0,0.8056829,28.0,29.0
980.0,29.0,0.77572477,29.0,29.0
990.0,29.0,0.7668186,29.0,29.0
1000.0,29.0,0.77937853,29.0,30.0
1010.0,30.0,0.7669032,29.0,30.0
1020.0,30.0,0.71589756,30.0,30.0
1030.0,30.0,0.70499456,30.0,30.0
1040.0,30.0,0.7397331,30.0,31.0
1050.0,31.0,0.73257565,30.0,31.0
1060.0,31.0,0.71194184,30.0,31.0
1070.0,31.0,0.680864,31.0,31.0
1080.0,31.0,0.6247695,31.0,32.0
1090.0,31.0,0.6428502,31.0,32.0
1100.0,32.0,0.70954674,31.0,32.0
1110.0,32.0,0.715693,31.0,32.0
1120.0,32.0,0.6594451,32.0,32.0
1130.0,32.0,0.5820609,32.0,33.0
1140.0,32.0,0.57851726,32.0,33.0
1150.0,33.0,0.63690627,32.0,33.0
1160.0,33.0,0.6641318,32.0,33.0
1170.0,33.0,0.5923524,33.0,33.0
1180.0,33.0,0.550489,33.0,34.0
1190.0,33.0,0.6178922,33.0,34.0
1200.0,34.0,0.7144345,33.0,34.0
1210.0,34.0,0.7331615,33.0,34.0
1220.0,34.0,0.65170926,34.0,35.0
1230.0,34.0,0.5281545,34.0,35.0
1240.0,34.0,0.5635997,34.0,35.0
1250.0,35.0,0.65513396,34.0,35.0
1260.0,35.0,0.6589589,35.0,35.25
1270.0,35.0,0.58686733,35.0,36.0
1280.0,35.0,0.56678206,35.0,36.0
1290.0,36.0,0.65410364,35.0,36.0
1300.0,36.0,0.72863096,35.0,36.0
1310.0,36.0,0.7353393,36.0,37.0
1320.0,36.0,0.71622324,36.0,37.0
1330.0,36.0,0.73890847,36.0,37.0
1340.0,36.0,0.79005826,36.0,37.0
1350.0,37.0,0.81160384,36.0,38.0
1360.0,37.0,0.76186305,36.0,38.0
1370.0,37.0,0.72368336,37.0,38.0
1380.0,37.0,0.7143234,37.0,38.0
1390.0,37.0,0.7444875,37.0,38.0
1400.0,38.0,0.7689317,37.0,38.0
1410.0,38.0,0.7649264,37.0,39.0
1420.0,38.0,0.7455762,38.0,39.0
1430.0,38.0,0.6502519,38.0,39.0
1440.0,38.0,0.6138866,38.0,39.0
1450.0,39.0,0.70549375,38.0,39.0
1460.0,39.0,0.71870947,38.0,39.0
1470.0,39.0,0.7040266,38.0,39.0
1480.0,39.0,0.7264881,39.0,40.0
1490.0,39.0,0.69040227,39.0,40.0
1500.0,39.0,0.5989498,39.0,40.0
1510.0,40.0,0.64707506,39.0,40.0
1520.0,40.0,0.7342499,39.0,40.0
1530.0,40.0,0.72594875,39.0,40.0
1540.0,40.0,0.6976197,40.0,41.0
1550.0,40.0,0.6587581,40.0,41.0
1560.0,40.0,0.6316366,40.0,41.0
1570.0,41.0,0.6121229,40.0,41.0
1580.0,41.0,0.6833405,40.0,41.0
1590.0,41.0,0.7359391,40.0,41.0
1600.0,41.0,0.79377526,40.0,42.0
1610.0,41.0,0.83992434,40.0,42.0
1620.0,41.0,0.87468344,41.0,42.0
1630.0,42.0,0.8689196,41.0,42.0
1640.0,42.0,0.86737686,41.0,42.0
1650.0,42.0,0.84974724,41.0,42.0
1660.0,42.0,0.8266842,41.0,42.0
1670.0,42.0,0.80706,41.0,43.0
1680.0,42.0,0.9159014,41.0,43.0
1690.0,42.0,1.0062271,42.0,43.0
1700.0,42.0,0.99392116,42.0,43.0
1710.0,43.0,0.95163,42.0,43.0
1720.0,43.0,1.0596206,42.0,43.0
1730.0,43.0,1.1546729,42.0,44.0
1740.0,43.0,1.15679,42.0,44.0
1750.0,43.0,1.1475363,42.0,44.0
1760.0,43.0,1.211724,42.0,44.0
1770.0,43.0,1.2649437,43.0,45.0
1780.0,43.0,1.2402884,43.0,45.0
1790.0,44.0,1.2654117,43.0,45.0
1800.0,44.0,1.338962,43.0,45.0
1810.0,44.0,1.4323313,43.0,45.0
1820.0,44.0,1.454837,43.0,45.0
1830.0,44.0,1.440232,44.0,45.5
1840.0,44.0,1.4647603,44.0,46.0
1850.0,45.0,1.5951916,44.0,46.0
1860.0,45.0,1.6455086,44.0,46.0
1870.0,45.0,1.6712288,44.0,46.0
1880.0,45.0,1.6852015,45.0,47.0
1890.0,45.0,1.6878896,45.0,47.0
1900.0,46.0,1.7346935,45.0,47.0
1910.0,46.0,1.7926046,45.0,47.0
1920.0,46.0,1.8446244,45.0,48.0
1930.0,46.0,1.9039986,45.0,48.0
1940.0,46.0,1.9474517,46.0,48.0
1950.0,46.0,1.9771456,46.0,48.0
1960.0,47.0,2.0082786,46.0,49.0
1970.0,47.0,2.0614405,46.0,49.0
1980.0,47.0,2.1568215,46.0,49.0
1990.0,47.0,2.1857328,47.0,49.0
2000.0,48.0,2.169441,47.0,49.0
2010.0,48.0,2.1695888,47.0,50.0
2020.0,48.0,2.2145872,47.0,50.0
2030.0,48.0,2.2305422,47.0,50.0
2040.0,48.0,2.3038194,47.75,50.0
2050.0,49.0,1.6374112,48.0,50.0
2060.0,49.0,1.1782959,48.0,50.0
2070.0,49.0,1.2411914,48.0,50.0
2080.0,49.0,1.2462499,49.0,50.0
2090.0,50.0,1.2530198,49.0,50.0
2100.0,50.0,1.2955308,49.0,50.0
2110.0,50.0,1.3485844,49.0,51.0
2120.0,50.0,1.3680713,50.0,51.0
2130.0,51.0,1.4229139,50.0,51.0
2140.0,51.0,1.4928701,50.0,52.0
2150.0,51.0,1.5529878,50.0,52.0
2160.0,52.0,1.5623056,51.0,52.0
2170.0,52.0,1.5591927,51.0,52.0
2180.0,52.0,1.5624334,51.0,53.0
2190.0,52.0,1.6368138,51.0,53.0
2200.0,52.0,1.6855941,51.0,53.0
2210.0,53.0,1.7589625,51.0,53.0
2220.0,53.0,1.7567233,51.0,54.0
2230.0,53.0,1.7618858,52.0,54.0
2240.0,53.0,1.7729121,52.0,54.0
2250.0,54.0,1.8002622,52.0,54.0
2260.0,54.0,1.7450184,53.0,54.0
2270.0,54.0,1.7216932,53.0,55.0
2280.0,54.0,1.7844191,53.0,55.0
2290.0,55.0,1.8472106,53.0,55.0
2300.0,55.0,1.8937405,53.0,55.0
2310.0,55.0,1.9377593,53.0,56.0
2320.0,55.0,1.9492356,53.0,56.0
2330.0,55.0,1.9538012,54.0,56.0
2340.0,56.0,1.9368219,54.0,56.0
2350.0,56.0,1.9314771,54.0,56.0
2360.0,56.0,1.952941,54.0,57.0
2370.0,56.0,1.9516327,55.0,57.0
2380.0,57.0,1.9261174,55.0,57.0
2390.0,57.0,1.9023644,55.0,57.0
2400.0,57.0,1.9243115,56.0,57.0
2410.0,57.0,1.9415033,56.0,58.0
2420.0,57.0,1.9548178,55.0,58.0
2430.0,58.0,1.9441295,55.0,58.0
2440.0,58.0,1.8695377,56.0,58.0
2450.0,58.0,1.8436776,56.0,58.0
2460.0,58.0,1.8685265,56.0,59.0
2470.0,58.0,1.8822646,57.0,59.0
2480.0,59.0,1.8396122,57.0,59.0
2490.0,59.0,1.7926517,57.0,59.0
2500.0,59.0,1.72593,57.0,60.0
2510.0,59.0,1.6804788,58.0,60.0
2520.0,59.0,1.6627612,58.0,60.0
2530.0,60.0,1.626901,58.0,60.0
2540.0,60.0,1.494955,59.0,60.0
2550.0,60.0,1.4360496,59.0,61.0
2560.0,60.0,1.408507,59.0,61.0
2570.0,60.0,1.3676842,60.0,61.0
2580.0,61.0,1.2885886,60.0,62.0
2590.0,61.0,1.1743774,60.0,62.0
2600.0,61.0,1.0801289,61.0,62.0
2610.0,62.0,1.0385576,61.0,62.25
2620.0,62.0,1.0267322,61.0,63.0
2630.0,62.0,1.0695609,62.0,63.0
2640.0,63.0,1.0639032,62.0,64.0
2650.0,63.0,1.0588244,63.0,64.0
2660.0,64.0,1.0643754,63.0,65.0
2670.0,65.0,1.1345739,63.0,65.0
2680.0,65.0,1.2666229,64.0,66.0
2690.0,66.0,1.4437689,64.0,66.0
2700.0,66.0,1.6458441,64.0,67.0
2710.0,66.0,1.9597633,64.0,68.0
2720.0,67.0,2.2531116,65.0,69.0
2730.0,68.0,2.488171,65.0,70.0
2740.0,68.0,2.7395205,66.0,71.0
2750.0,69.0,3.0179088,67.0,72.0
2760.0,69.0,3.2430694,67.0,73.0
2770.0,70.5,3.4372022,68.0,74.0
2780.0,71.0,3.715195,68.0,74.0
2790.0,71.0,4.048753,68.0,74.0
2800.0,72.0,4.4888525,69.0,77.0
2810.0,66.0,7.111581,65.0,73.0
2820.0,62.0,8.172229,61.0,69.0
2830.0,62.0,8.666612,61.0,71.0
2840.0,63.0,8.828152,61.0,71.0
2850.0,63.0,9.5932665,61.0,71.0
2860.0,63.0,10.0232115,61.0,73.0
2870.0,64.0,10.211737,61.0,73.0
2880.0,64.0,8.303164,61.0,70.0
2890.0,64.0,8.879703,62.0,72.0
2900.0,64.0,9.104659,62.0,72.0
2910.0,64.0,9.320608,62.0,72.0
2920.0,64.0,9.888129,63.0,74.0
2930.0,64.0,10.161205,63.0,74.0
2940.0,66.0,10.463794,63.0,74.0
2950.0,66.0,10.898694,64.0,76.0
2960.0,66.0,11.069956,64.0,76.0
2970.0,67.0,10.0210495,64.0,73.0
2980.0,67.0,9.464149,65.0,73.0
2990.0,67.0,9.798444,65.0,75.0
3000.0,68.0,9.850512,65.0,75.0
3010.0,68.0,10.171242,66.0,75.0
3020.0,68.0,10.365356,66.0,77.0
3030.0,70.0,10.428362,66.0,77.0
3040.0,70.0,10.796893,67.0,77.0
3050.0,70.0,10.959044,68.0,79.0
3060.0,71.0,10.824497,68.75,79.0
3070.0,71.0,8.542571,69.0,76.0
3080.0,73.0,8.705387,69.0,78.0
3090.0,73.0,8.67433,72.0,81.0
3100.0,74.0,8.721594,72.0,81.0
3110.0,76.0,8.865328,74.0,83.0
3120.0,76.0,8.749002,74.0,83.0
3130.0,78.0,8.783926,76.0,85.0
3140.0,78.0,8.962716,77.0,85.0
3150.0,81.0,8.814515,78.0,85.0
3160.0,81.0,9.044958,79.0,88.0
3170.0,81.0,9.073354,81.0,88.0
3180.0,84.0,8.9346,81.0,94.0
3190.0,84.0,6.631404,82.0,91.0
3200.0,85.0,6.4599285,84.0,91.0
3210.0,87.0,6.2746816,85.0,91.0
3220.0,88.0,6.0834737,87.0,94.0
3230.0,90.0,6.374608,87.0,94.0
3240.0,90.5,6.436516,89.0,100.0
3250.0,92.0,6.2485123,90.0,100.0
3260.0,94.5,6.5184646,92.0,100.0
3270.0,94.5,6.3546,94.0,103.75
3280.0,96.0,5.4085774,94.0,100.0
3290.0,98.0,3.73255,96.0,100.0
3300.0,98.0,3.745123,98.0,100.0
3310.0,101.0,3.353211,98.0,103.0
3320.0,102.0,3.5374825,101.0,105.0
3330.0,103.0,3.3586535,101.0,107.0
3340.0,105.0,3.1715431,103.0,107.0
3350.0,106.0,3.7325275,104.0,111.0
3360.0,107.0,3.6248548,105.0,111.0
3370.0,110.0,3.5186238,107.0,111.0
3380.0,110.0,2.8254845,108.0,111.0
3390.0,111.0,2.7847564,109.0,114.0
3400.0,112.0,3.7325513,111.0,115.0
3410.0,113.0,3.613731,112.0,116.0
3420.0,116.0,3.6493242,112.0,121.0
3430.0,116.0,4.4386125,115.0,121.0
3440.0,120.5,6.6697116,116.0,126.0
3450.0,120.5,6.251119,118.25,126.5
3460.0,121.5,6.5866065,119.0,131.0
3470.0,124.0,7.995919,119.0,131.0
3480.0,124.0,7.7450414,121.0,132.25
3490.0,124.0,8.366911,121.0,136.75
3500.0,127.0,9.154584,123.0,136.75
3510.0,127.0,8.872615,123.0,135.0
3520.0,128.0,9.34064,126.0,135.0
3530.0,131.0,9.921344,126.0,135.0
3540.0,131.0,9.957055,126.0,139.0
3550.0,131.0,15.574215,124.5,149.0
3560.0,126.0,12.714757,123.0,144.0
3570.0,129.0,13.046336,123.0,144.0
3580.0,129.0,13.152081,125.0,148.0
3590.0,129.0,14.009527,125.0,148.0
3600.0,132.0,14.118015,125.0,148.0
3610.0,132.0,14.554208,128.0,152.0
3620.0,133.0,14.810693,128.0,152.0
3630.0,134.0,14.908666,128.0,147.0
3640.0,134.0,15.413952,129.0,146.0
3650.0,134.0,15.80452,129.5,151.5
3660.0,136.0,15.827199,130.0,150.0
3670.0,134.0,12.465023,130.0,150.0
3680.0,134.0,12.110378,130.0,150.0
3690.0,135.0,12.727359,130.0,150.0
3700.0,135.0,12.922545,131.0,154.0
3710.0,135.0,13.343303,131.0,154.0
3720.0,140.0,13.187516,134.0,149.0
3730.0,137.0,13.5051155,133.25,147.0
3740.0,140.0,14.479096,133.5,152.5
3750.0,139.5,14.7614975,134.0,147.0
3760.0,139.0,13.249545,134.0,151.0
3770.0,137.0,10.839319,134.0,151.0
3780.0,137.0,11.61086,134.0,151.0
3790.0,137.0,11.894435,133.0,155.0
3800.0,137.0,12.663794,133.0,155.0
3810.0,138.0,12.769806,136.0,155.0
3820.0,140.0,12.95037,134.25,148.0
3830.0,140.0,14.048223,134.5,153.5
3840.0,140.0,14.677102,134.25,148.0
3850.0,140.0,15.362404,134.0,159.0
3860.0,141.0,16.674185,136.0,159.0
3870.0,137.0,17.098478,135.0,159.0
3880.0,138.0,15.839445,134.0,157.0
3890.0,138.0,13.023111,134.0,157.0
3900.0,139.0,13.934504,134.0,157.0
3910.0,140.0,13.988151,134.0,147.0
3920.0,140.0,15.0398035,134.0,157.0
3930.0,140.0,16.281273,136.0,152.0
3940.0,142.0,16.492846,136.0,152.0
3950.0,142.0,17.4245,137.0,157.0
3960.0,142.0,18.423174,135.0,157.0
3970.0,142.0,18.848173,135.0,157.0
3980.0,142.0,15.009805,135.0,148.0
3990.0,142.0,15.366189,136.0,154.0
4000.0,143.0,19.327599,137.0,161.0
4010.0,141.0,15.189421,135.0,157.0
4020.0,141.0,12.922137,135.0,150.0
4030.0,141.0,12.038409,134.5,146.0
4040.0,138.0,10.939218,136.0,154.0
4050.0,138.0,10.772164,136.0,147.0
4060.0,141.0,13.158786,135.0,147.0
4070.0,138.0,12.916621,136.0,151.5
4080.0,138.0,12.069432,136.0,156.0
4090.0,138.0,11.00942,136.0,150.0
4100.0,139.0,10.316231,136.0,150.0
4110.0,139.0,9.106713,136.0,150.0
4120.0,139.0,10.705003,136.0,146.0
4130.0,138.0,12.705886,136.0,154.0
4140.0,142.0,12.085132,136.0,154.0
4150.0,142.0,10.584722,137.0,154.0
4160.0,142.0,9.8301735,135.0,148.0
4170.0,138.0,9.7882805,135.0,148.0
4180.0,138.0,8.398335,135.0,148.0
4190.0,139.0,11.075855,136.0,148.0
4200.0,139.0,11.89153,136.0,153.0
4210.0,139.0,11.793345,136.0,153.0
4220.0,141.0,10.394973,136.0,153.0
4230.0,137.0,9.856014,135.0,147.0
4240.0,137.0,8.889076,135.0,147.0
4250.0,137.0,7.7459564,134.0,147.0
4260.0,139.0,7.3991942,135.0,143.0
4270.0,135.0,6.2123256,135.0,143.0
4280.0,135.0,7.9990726,135.0,149.0
4290.0,137.0,9.427725,133.0,149.0
4300.0,135.0,9.334192,132.25,144.0
4310.0,135.0,8.565078,132.0,144.0
4320.0,135.0,8.044887,131.0,144.0
4330.0,132.0,7.381469,132.0,139.0
4340.0,132.0,6.0399423,132.0,139.0
4350.0,135.0,8.806312,132.0,146.0
4360.0,135.0,9.866757,129.0,146.0
4370.0,131.0,9.293038,129.0,140.0
4380.0,131.0,7.528212,128.0,140.0
4390.0,131.0,7.491763,128.0,135.0
4400.0,133.0,6.7886906,127.25,135.0
4410.0,131.0,6.8334,128.0,141.0
4420.0,131.0,8.682465,126.0,141.0
4430.0,131.0,8.842861,125.0,135.0
4440.0,127.0,8.070043,125.0,135.0
4450.0,127.0,6.690895,125.0,135.0
4460.0,127.0,6.7157235,124.0,131.0
4470.0,127.5,6.0925264,124.0,135.5
4480.0,127.0,7.098857,124.0,137.0
4490.0,127.0,8.263884,123.0,137.0
4500.0,127.0,7.962399,123.0,131.0
4510.0,124.0,6.7747374,123.0,131.0
4520.0,124.0,5.9735193,123.0,131.0
4530.0,124.0,5.4452477,122.0,128.0
4540.0,124.0,4.260529,122.0,128.0
4550.0,124.0,4.366467,122.0,125.0
4560.0,124.0,4.0919094,121.0,129.0
4570.0,123.0,5.689403,121.0,129.0
4580.0,123.0,5.520134,122.0,129.0
4590.0,123.0,4.725997,122.0,126.0
4600.0,123.0,3.8286135,121.0,126.0
4610.0,123.0,3.7036972,121.0,124.0
4620.0,123.0,3.1947935,121.0,124.0
4630.0,124.0,4.4428434,121.0,129.0
4640.0,123.5,4.923822,122.0,129.0
4650.0,123.0,4.733636,122.0,127.0
4660.0,123.0,4.561579,122.0,127.0
4670.0,123.0,4.3846674,122.0,127.0
4680.0,123.0,4.1955194,122.0,125.0
4690.0,123.0,3.2064853,122.0,125.0
4700.0,124.0,5.306053,122.0,130.0
4710.0,124.0,5.36564,122.0,130.0
4720.0,124.0,5.1786036,122.0,128.0
4730.0,123.0,4.6204724,122.0,128.0
4740.0,123.0,4.5078506,123.0,128.0
4750.0,123.0,4.2933497,123.0,127.0
4760.0,124.0,5.0674887,123.0,127.0
4770.0,125.5,6.406392,123.0,133.0
4780.0,125.5,6.09514,123.0,131.0
4790.0,126.0,5.3669176,124.0,131.0
4800.0,126.0,4.708793,124.0,131.0
4810.0,126.0,4.519443,124.0,129.0
4820.0,126.0,4.324904,124.0,129.0
4830.0,125.0,4.0994577,124.0,129.0
4840.0,125.0,4.0471425,125.0,128.0
4850.0,125.0,3.7243865,125.0,128.0
4860.0,127.0,5.3581223,125.0,134.0
4870.0,127.5,5.372096,126.0,134.0
4880.0,128.0,4.9817524,126.0,132.0
4890.0,128.5,4.144334,126.0,132.0
4900.0,128.5,3.997861,127.0,132.0
4910.0,128.0,3.8722458,127.0,131.0
4920.0,128.0,4.3526354,127.0,131.0
4930.0,130.0,5.657991,128.0,137.0
4940.0,130.0,5.4216437,128.0,135.0
7090.0,332.0,25.324083,314.0,364.0
7100.0,332.0,23.787807,314.0,354.0
7110.0,332.0,22.00561,314.0,354.0
7120.0,319.0,22.280918,302.0,343.0
7130.0,319.0,22.742666,290.0,343.0
7140.0,307.0,22.483555,290.0,329.0
7150.0,307.0,20.054995,290.0,329.0
7160.0,294.0,21.003405,287.5,315.0
7170.0,302.0,22.994734,281.0,327.0
7180.0,302.0,25.197226,281.0,327.0
7190.0,288.0,24.881958,269.0,327.0
7200.0,288.0,27.13042,269.0,313.0
7210.0,288.0,30.902786,258.0,313.0
7220.0,284.0,32.18965,263.0,325.0
7230.0,284.0,27.716831,263.0,309.0
7240.0,284.0,30.533394,263.0,309.0
7250.0,284.0,31.457634,266.5,309.0
7260.0,270.0,31.599312,252.0,309.0
7270.0,280.0,29.348076,259.0,308.0
7280.0,280.0,33.866688,248.0,308.0
7290.0,273.5,36.29426,248.0,308.0
7300.0,267.0,34.885212,248.0,308.0
7310.0,267.0,30.919949,255.0,292.0
7320.0,278.0,34.255978,246.0,307.0
7330.0,266.0,36.96991,246.0,307.0
7340.0,266.0,37.384315,240.0,307.0
7350.0,266.0,35.121983,238.0,291.0
7360.0,255.0,36.483543,232.75,291.0
7370.0,255.0,39.657707,231.0,307.0
7380.0,260.5,40.617126,231.0,292.0
7390.0,245.0,38.142883,225.0,292.0
7400.0,255.0,24.161093,239.0,279.0
7410.0,255.0,20.151598,239.0,279.0
7420.0,255.0,20.170145,239.0,279.0
7430.0,255.0,17.21665,238.0,267.0
7440.0,255.0,17.21665,238.0,267.0
7450.0,255.0,17.21665,238.0,267.0
7460.0,237.0,15.344031,231.0,257.0
7470.0,237.0,15.344031,231.0,257.0
7480.0,237.0,15.344031,231.0,257.0
7490.0,231.0,13.704709,225.0,249.0
7500.0,231.0,13.704709,225.0,249.0
7510.0,231.0,13.704709,225.0,249.0
7520.0,226.0,11.748711,221.0,242.0
7530.0,226.0,11.6775675,221.0,242.0
7540.0,226.0,11.6775675,221.0,242.0
7550.0,228.0,13.615774,219.0,246.0
7560.0,228.0,13.615774,219.0,246.0
7570.0,228.0,13.541498,219.0,246.0
7580.0,225.0,11.704713,218.0,240.0
7590.0,225.0,11.704713,218.0,240.0
7600.0,225.0,11.776836,218.0,240.0
7610.0,222.0,9.891246,217.0,235.0
7620.0,222.0,9.891246,217.0,235.0
7630.0,222.0,9.891246,217.0,235.0
7640.0,220.0,8.060992,217.0,231.0
7650.0,220.0,8.060992,217.0,231.0
7660.0,220.0,8.060992,217.0,231.0
7670.0,219.0,6.60859,217.0,228.0
7680.0,219.0,6.60859,217.0,228.0
7690.0,219.0,6.60859,217.0,228.0
7700.0,220.0,4.9239106,218.0,225.0
7710.0,220.0,4.9239106,218.0,225.0
7720.0,220.0,4.9344735,218.0,225.0
7730.0,219.0,3.7063897,217.0,223.0
7740.0,219.0,3.7063897,217.0,223.0
7750.0,219.0,3.7063897,217.0,223.0
7760.0,220.0,2.4553428,218.0,223.0
7770.0,220.0,2.4553428,218.0,223.0
7780.0,220.0,2.4553428,218.0,223.0
7790.0,219.0,2.7514665,217.0,222.0
7800.0,219.0,2.7514665,217.0,222.0
7810.0,219.0,3.0536437,217.0,222.0
7820.0,219.0,3.1879735,217.0,222.0
7830.0,219.5,3.3703673,217.0,222.5
7840.0,220.0,3.9968712,217.0,224.0
7850.0,220.0,3.9607449,217.0,224.0
7860.0,219.0,3.8971143,217.0,222.5
7870.0,220.0,4.5565953,217.0,225.0
7880.0,220.0,4.5479827,217.0,225.0
7890.0,220.0,4.640733,217.0,224.0
7900.0,220.0,4.9116125,217.0,224.0
7910.0,220.0,4.83106,217.0,224.0
7920.0,219.0,4.830652,217.0,224.0
7930.0,219.0,3.8107166,216.5,223.0
7940.0,217.0,2.6677248,216.0,221.25
7950.0,218.0,2.4378047,216.0,222.0
7960.0,218.0,2.1621146,217.0,220.0
7970.0,218.0,2.4034357,216.0,220.0
7980.0,219.0,2.8214438,216.0,220.0
7990.0,219.0,2.7893527,216.0,221.0
8000.0,218.0,2.4947755,217.0,221.0
8010.0,218.0,2.6949909,217.0,221.0
8020.0,220.0,3.3544736,217.0,221.0
8030.0,220.0,3.3888824,217.75,222.0
8040.0,220.0,2.8414304,219.0,222.0
8050.0,220.0,2.720372,219.0,222.0
8060.0,221.0,3.7897546,220.0,223.0
8070.0,221.0,4.1136336,220.0,224.0
8080.0,222.0,3.4768271,221.0,224.0
8090.0,222.0,2.849435,221.0,224.0
8100.0,223.0,3.8128686,222.0,226.0
8110.0,224.0,4.227638,223.0,227.0
8120.0,226.0,3.7159026,224.0,228.0
8130.0,227.0,3.0169907,224.0,228.0
8140.0,228.0,3.91041,226.0,232.0
8150.0,228.0,4.385268,228.0,232.0
8160.0,232.0,3.9878848,228.0,233.0
8170.0,232.0,3.1596696,229.0,233.0
8180.0,232.0,3.7533884,231.0,236.0
8190.0,234.0,4.3066454,232.0,236.0
8200.0,235.0,4.4372683,232.0,237.0
8210.0,235.0,3.8200278,234.0,237.0
8220.0,237.0,3.8621163,235.0,242.0
8230.0,240.0,4.270223,237.0,242.0
8240.0,241.0,4.400064,239.0,244.0
8250.0,241.0,3.8232603,241.0,244.0
8260.0,244.0,3.3645449,241.0,249.0
8270.0,246.0,4.1004906,244.0,249.0
8280.0,248.0,4.099511,246.0,251.0
8290.0,250.0,3.5418282,248.0,251.0
8300.0,251.0,3.1886423,248.0,256.0
8310.0,253.0,4.1508374,251.0,257.0
8320.0,257.0,4.507399,252.0,257.0
8330.0,257.0,4.125007,253.0,258.0
8340.0,258.0,16.877619,244.0,274.0
8350.0,255.0,13.386218,248.0,267.0
8360.0,258.0,12.983004,248.75,274.25
8370.0,264.0,12.608033,251.0,269.0
8380.0,259.0,11.201834,256.0,269.0
8390.0,261.5,11.977571,253.75,277.25
8400.0,267.0,11.566499,256.0,272.0
8410.0,265.0,10.366088,260.0,277.25
8420.0,265.0,11.191883,258.5,276.0
8430.0,268.0,10.640529,260.0,276.0
8440.0,269.5,9.28568,264.25,280.5
8450.0,271.0,10.01596,265.0,280.0
8460.0,272.0,9.402878,265.0,280.0
8470.0,275.0,6.083922,270.0,280.0
8480.0,275.0,7.1430926,270.0,283.0
8490.0,276.0,6.2264724,275.0,283.0
8500.0,279.0,5.125363,275.0,283.0
8510.0,279.0,6.5407553,275.0,287.0
8520.0,281.0,5.458133,280.0,287.0
8530.0,283.0,4.504704,280.0,287.0
8540.0,283.0,5.9576354,280.0,290.0
8550.0,284.0,5.110422,284.0,290.0
8560.0,284.0,4.2658024,284.0,290.0
8570.0,284.0,3.600177,284.0,289.0
8580.0,287.0,2.9495392,287.0,289.0
8590.0,289.0,2.4660804,287.0,293.0
8600.0,289.0,3.5124917,287.0,293.0
8610.0,290.0,3.131604,287.0,290.0
8620.0,290.0,2.8418362,289.0,293.0
8630.0,290.0,2.1355093,290.0,293.0
8640.0,292.0,1.4164103,292.0,293.0
8650.0,292.5,1.7217315,292.0,293.0
8660.0,294.0,1.6131027,292.0,295.25
8670.0,295.0,1.6770794,294.0,296.0
8680.0,295.0,1.6358725,294.0,295.75
8690.0,295.0,1.6613866,294.0,298.0
8700.0,295.0,1.8822603,295.0,298.0
8710.0,295.0,1.8427632,295.0,299.0
8720.0,296.0,1.6996732,295.0,299.0
8730.0,296.0,1.5048131,296.0,299.0
8740.0,296.0,1.4106382,296.0,299.0
8750.0,296.0,1.4142135,296.0,299.0
8760.0,296.0,1.7230375,296.0,299.0
8770.0,296.0,2.8027174,296.0,299.0
8780.0,297.0,2.8693926,296.0,300.0
8790.0,297.0,2.7771533,296.0,299.0
8800.0,298.0,3.2540812,296.0,302.0
8810.0,297.5,5.1763344,296.0,302.0
8820.0,298.5,5.383006,296.5,303.75
8830.0,298.5,5.143309,295.75,301.75
8840.0,300.0,5.3206725,296.0,307.0
8850.0,299.0,7.434847,296.0,307.0
8860.0,299.0,7.566347,295.0,307.0
8870.0,299.0,7.5882616,295.0,307.0
8880.0,297.0,7.2349315,295.0,304.0
8890.0,297.0,6.3147225,295.0,304.0
8900.0,296.0,5.960459,296.0,302.0
8910.0,296.0,5.518823,296.0,302.0
8920.0,300.0,6.158151,296.0,308.0
8930.0,300.0,7.681424,296.0,308.0
8940.0,298.0,8.006294,296.0,306.0
8950.0,298.0,7.7844477,296.0,306.0
8960.0,298.0,7.809378,296.0,314.0
8970.0,302.0,9.688217,296.0,314.0
8980.0,302.0,9.9629345,296.0,310.0
8990.0,300.0,9.471842,296.0,310.0
9000.0,300.0,8.470592,296.0,310.0
9010.0,306.0,10.580186,299.0,318.0
9020.0,306.0,11.184011,299.0,315.0
9030.0,304.0,10.697663,298.0,314.0
9040.0,304.0,9.528458,298.0,314.0
9050.0,307.0,9.061986,301.0,310.0
9060.0,303.5,8.159164,301.0,310.0
9070.0,306.0,8.489149,300.0,317.0
9080.0,306.0,9.858035,300.0,317.0
9090.0,312.0,9.845016,302.0,321.5
9100.0,309.0,8.971027,304.0,316.5
9110.0,309.0,8.767767,302.0,321.0
9120.0,309.0,10.545998,302.0,321.0
9130.0,315.0,10.623011,304.0,325.5
9140.0,311.0,9.827203,304.0,319.5
9150.0,311.0,8.591606,304.25,324.0
9160.0,311.0,10.601258,305.0,324.0
9170.0,311.0,10.768334,305.0,326.25
9180.0,311.0,10.212478,307.0,322.5
9190.0,316.0,10.272744,309.0,322.5
9200.0,314.0,10.074811,307.0,327.0
9210.0,314.0,9.835069,307.0,327.0
9220.0,314.0,8.038889,307.0,327.0
9230.0,312.0,6.8203773,309.0,321.0
9240.0,317.0,6.0248795,309.0,321.0
9250.0,317.0,7.874722,309.0,321.0
9260.0,313.0,8.17359,309.0,323.0
9270.0,313.0,7.316104,309.0,323.0
9280.0,312.0,5.6896014,310.0,319.0
9290.0,312.0,7.118127,310.5,319.0
9300.0,313.0,7.4529037,311.0,319.0
9310.0,316.0,6.8321166,310.5,322.5
9320.0,316.0,7.1721683,312.0,322.0
9330.0,316.0,7.1721683,312.0,322.0
9340.0,316.0,7.1721683,312.0,322.0
9350.0,314.0,5.344156,311.0,318.0
9360.0,314.0,5.344156,311.0,318.0
9370.0,314.0,5.344156,311.0,318.0
9380.0,313.0,3.6331804,311.0,316.0
9390.0,313.0,3.6331804,311.0,316.0
9400.0,313.0,3.6331804,311.0,316.0
9410.0,313.0,1.9595917,313.0,315.0
9420.0,313.0,1.962786,313.0,315.0
9430.0,313.0,1.962786,313.0,315.0
9440.0,315.0,0.89365125,314.0,316.0
9450.0,315.0,0.89365125,314.0,316.0
9460.0,315.0,0.89365125,314.0,316.0
9470.0,317.0,1.4745259,316.0,317.0
9480.0,317.0,1.4745259,316.0,317.0
9490.0,317.0,1.4745259,316.0,317.0
9500.0,319.0,2.661732,317.0,321.0
9510.0,319.0,2.661732,317.0,321.0
9520.0,319.0,2.661732,317.0,321.0
9530.0,322.0,3.6781254,318.0,325.0
9540.0,322.0,3.8928883,319.0,325.0
9550.0,322.0,7.5363913,317.0,329.0
9560.0,322.0,6.9998927,318.0,329.0
9570.0,322.0,6.1962395,318.0,329.0
9580.0,325.0,6.632261,320.0,333.0
9590.0,325.0,7.0630608,320.0,333.0
9600.0,323.0,6.707769,320.0,329.0
9610.0,323.0,5.887518,319.0,329.0
9620.0,326.0,6.417904,320.0,333.0
9630.0,326.0,7.138627,320.0,333.0
9640.0,323.0,6.8705935,320.0,329.0
9650.0,323.0,6.1963406,319.0,329.0
9660.0,326.0,6.493243,319.0,334.0
9670.0,326.0,7.316696,321.0,334.0
9680.0,324.0,7.1753507,321.0,330.0
9690.0,324.0,6.7162066,320.0,330.0
9700.0,324.0,6.7805095,320.0,336.0
9710.0,328.0,7.6491485,322.0,336.0
9720.0,328.0,7.60811,322.0,332.0
9730.0,326.0,6.950004,322.0,332.0
9740.0,326.0,6.456061,322.0,335.75
9750.0,329.0,7.670227,324.0,337.0
9760.0,329.0,7.9686193,324.0,334.0
9770.0,329.0,7.746495,324.0,334.0
9780.0,328.0,6.7295113,324.0,334.0
9790.0,328.0,7.391917,324.0,334.0
9800.0,330.0,7.2872167,325.5,335.75
9810.0,332.0,6.787373,326.0,337.5
9820.0,331.0,7.3889112,326.0,338.0
9830.0,331.0,8.284964,326.0,338.0
9840.0,331.0,8.320703,327.0,338.0
9850.0,336.0,7.5850034,330.0,342.0
9860.0,334.0,7.802318,330.0,343.0
9870.0,334.0,8.750328,330.0,343.0
9880.0,334.0,9.156702,330.0,343.0
9890.0,334.0,8.377288,330.0,343.0
9900.0,339.0,7.84825,333.0,348.0
9910.0,339.0,9.136213,333.0,348.0
9920.0,339.0,9.832898,333.0,348.0
9930.0,339.0,9.095786,334.0,348.0
9940.0,343.0,8.145442,337.0,348.5
9950.0,343.0,9.70105,337.0,352.0
9960.0,343.0,10.566493,337.0,352.0
9970.0,343.0,9.903282,338.0,352.0
9980.0,343.5,8.756669,339.75,354.0
9990.0,346.0,9.796863,340.0,356.0
10000.0,346.0,10.873776,340.0,356.0
10010.0,346.0,10.618692,340.0,356.0
10020.0,349.0,9.33468,343.5,357.75
10030.0,349.0,9.205678,343.0,358.0
10040.0,349.0,10.306405,343.0,358.0
10050.0,349.0,9.096376,343.0,358.0
10060.0,353.0,8.849817,343.0,364.0
10070.0,349.0,9.895077,344.0,359.0
10080.0,349.0,10.404458,344.0,359.0
10090.0,349.0,9.251339,344.0,359.0
10100.0,347.0,7.9666944,344.0,353.0
10110.0,350.0,8.5360155,346.0,357.0
10120.0,350.0,8.824103,346.0,357.0
10130.0,350.0,7.686472,346.0,357.0
10140.0,350.0,6.229033,346.0,357.0
10150.0,348.0,6.6877356,345.75,354.0
10160.0,348.0,7.0330873,346.0,354.0
10170.0,348.0,6.3416104,346.0,354.0
10180.0,348.0,5.271199,345.0,354.0
10190.0,345.0,4.574326,345.0,350.5
10200.0,347.0,3.5157502,345.0,350.5
10210.0,347.0,2.7856061,344.75,351.0
10220.0,346.0,3.1905954,344.0,347.0
10230.0,346.0,3.285019,344.75,347.0
10240.0,345.0,2.5843732,345.0,348.0
10250.0,345.0,1.8009722,345.0,348.0
10260.0,345.0,1.919541,345.0,348.0
10270.0,345.0,1.9776461,344.25,348.0
10280.0,347.0,3.09958,345.0,349.0
10290.0,348.0,3.104103,345.0,349.0
10300.0,345.0,2.1707184,345.0,348.0
10310.0,345.0,2.5480206,345.0,348.0
10320.0,346.0,2.7681007,344.0,349.0
10330.0,346.0,2.7468765,344.0,349.0
10340.0,346.0,2.5937805,344.0,349.0
10350.0,346.0,2.678561,343.0,349.0
10360.0,345.0,2.5528955,344.0,349.0
10370.0,346.0,2.6081889,344.0,348.0
10380.0,346.0,3.6124778,344.0,350.0
10390.0,346.0,3.7780392,344.0,350.0
10400.0,346.0,3.680939,344.0,352.0
10410.0,347.0,4.6852226,344.0,352.0
10420.0,347.0,5.4264746,344.0,353.0
10430.0,347.5,5.429829,344.0,353.0
10440.0,348.0,5.353365,345.0,353.0
10450.0,348.0,5.825462,345.0,357.0
10460.0,351.0,6.594889,345.0,357.0
10470.0,348.0,8.882707,345.0,357.0
10480.0,351.0,8.107797,345.0,358.0
10490.0,351.0,8.107797,345.0,358.0
10500.0,351.0,8.103267,345.0,358.0
10510.0,354.0,9.961993,347.0,361.0
10520.0,354.0,9.961993,347.0,361.0
10530.0,354.0,9.955262,348.0,361.0
10540.0,353.0,6.9980865,348.0,360.0
10550.0,353.0,6.9980865,348.0,360.0
10560.0,353.0,6.9980865,348.0,360.0
10570.0,354.0,6.410492,350.0,361.0
10580.0,354.0,6.410492,350.0,361.0
10590.0,354.0,6.410492,350.0,361.0
10600.0,355.0,6.3924594,351.0,361.0
10610.0,355.0,5.9949007,352.0,361.0
10620.0,355.0,5.551339,352.0,361.0
10630.0,357.0,5.9327517,353.0,363.0
10640.0,357.0,5.2922854,354.0,363.0
10650.0,357.0,5.5920057,354.0,364.0
10660.0,360.0,5.2706146,356.0,364.0
10670.0,360.0,4.6041045,356.0,364.0
10680.0,360.0,5.305288,356.0,366.0
10690.0,362.0,5.131542,358.0,366.0
10700.0,362.0,4.4126034,359.0,366.0
10710.0,362.0,5.1614385,359.0,368.0
10720.0,363.0,4.3907433,359.0,366.0
10730.0,361.0,6.7385273,357.0,366.0
10740.0,362.0,7.132949,358.0,366.0
10750.0,362.0,7.2172675,359.0,369.0
10760.0,363.0,6.4056935,360.0,370.0
10770.0,364.0,5.4886374,362.0,369.0
10780.0,364.0,5.746689,362.0,370.0
10790.0,366.0,5.872771,364.0,370.0
10800.0,368.0,5.225169,364.0,372.0
10810.0,368.0,4.4600782,366.0,372.0
10820.0,368.0,4.668791,367.0,372.0
10830.0,371.0,4.961354,368.0,375.5
10840.0,372.0,4.435978,370.0,375.0
10850.0,373.0,3.7876477,371.0,375.0
10860.0,375.0,3.8851736,373.0,375.0
10870.0,375.0,3.8841908,374.0,380.5
10880.0,377.0,4.061164,375.0,380.25
10890.0,379.0,4.020359,375.0,384.0
10900.0,379.0,4.2855425,378.0,384.0
10910.0,382.0,4.448326,378.0,384.5
10920.0,382.0,4.3265023,380.0,387.0
10930.0,382.0,3.6899693,380.0,387.0
10940.0,384.0,3.559349,382.0,387.0
10950.0,386.0,3.9541554,382.0,388.0
10960.0,386.0,3.9352038,384.0,388.0
10970.0,387.0,3.8625038,386.0,389.0
10980.0,387.0,3.568833,386.0,391.0
10990.0,389.0,3.1190379,387.0,391.0
11000.0,389.0,3.2361953,387.0,391.0
11010.0,391.0,2.7597806,389.0,392.5
11020.0,391.5,2.2509105,390.0,393.25
11030.0,392.0,3.5539947,390.0,394.0
11040.0,395.0,3.3680985,391.0,397.0
11050.0,395.0,2.471715,394.0,397.25
11060.0,397.0,5.628575,394.0,401.0
11070.0,397.0,5.628575,394.0,401.0
11080.0,400.0,6.063832,397.0,405.0
11090.0,400.0,6.063832,397.0,405.0
11100.0,400.0,6.063832,397.0,405.0
11110.0,405.0,7.791122,401.0,411.5
11120.0,405.0,7.794826,401.0,411.5
11130.0,404.0,7.7485065,401.0,409.0
11140.0,407.0,10.690408,404.0,418.0
11150.0,407.0,10.690408,404.0,418.0
11160.0,407.0,10.689894,404.0,418.0
11170.0,401.0,4.027485,400.0,403.0
11180.0,401.0,4.2530036,400.0,403.0
11190.0,402.0,4.7533574,401.0,407.0
11200.0,402.0,5.1975355,402.0,407.0
11210.0,406.0,5.575251,402.0,411.0
11220.0,406.0,6.035412,403.0,411.0
11230.0,410.0,6.550758,405.0,411.0
11240.0,410.0,6.494842,405.0,416.0
11250.0,409.5,5.838457,406.0,414.0
11260.0,409.0,5.6424546,406.0,414.0
11270.0,409.0,6.192184,408.0,415.0
11280.0,413.0,6.3732505,408.0,418.0
11290.0,413.0,5.741362,409.0,417.0
11300.0,413.0,5.0419335,410.0,417.0
11310.0,413.0,4.445314,410.5,419.0
11320.0,415.0,4.337428,412.0,419.0
11330.0,416.0,4.465622,413.5,421.0
11340.0,416.0,4.094167,414.0,421.0
11350.0,417.0,3.621386,415.0,421.0
11360.0,418.0,4.006905,416.0,423.0
11370.0,420.0,4.2116723,417.0,425.0
11380.0,420.0,4.602816,419.0,425.0
11390.0,422.0,5.239294,419.0,428.0
11400.0,423.0,5.4242415,421.0,428.0
11410.0,425.0,4.593426,422.0,426.0
11420.0,425.0,5.0160985,422.0,428.75
11430.0,419.0,4.6425347,418.0,425.0
11440.0,422.0,4.5265465,418.0,425.0
11450.0,423.0,3.9030018,421.0,425.0
11460.0,423.0,3.5803156,422.0,425.0
11470.0,424.0,4.770683,423.0,429.0
11480.0,427.0,4.9493747,424.0,429.0
11490.0,428.0,4.46666,426.0,430.0
11500.0,428.0,4.593969,427.0,434.0
11510.0,432.0,4.185301,428.0,434.0
11520.0,433.0,3.5509117,430.0,436.0
11530.0,433.0,3.6222441,432.0,437.0
11540.0,436.0,5.2371445,432.0,441.0
11550.0,438.0,4.5749397,436.0,441.0
11560.0,438.0,4.195282,437.0,441.0
11570.0,440.0,5.020915,438.0,445.0
11580.0,443.0,5.569758,440.0,445.0
11590.0,443.0,4.951168,443.0,447.0
11600.0,444.0,5.0683146,443.0,452.0
11610.0,447.0,6.4240093,444.0,452.0
11620.0,449.0,6.1458244,446.0,452.0
11630.0,449.0,5.9192896,449.0,455.0
11640.0,451.0,5.541326,449.0,456.0
11650.0,455.0,8.250383,453.0,459.0
11660.0,456.0,9.511498,453.0,466.0
11670.0,459.0,5.251101,457.0,463.0
11680.0,462.0,10.689696,457.0,472.0
11690.0,464.0,11.960051,459.0,477.0
11700.0,465.0,11.209193,460.0,475.0
11710.0,467.0,9.8027725,464.0,478.0
11720.0,468.0,8.953061,465.0,479.0
11730.0,470.0,10.543962,466.0,484.0
11740.0,472.0,10.729781,468.0,481.0
11750.0,474.0,9.667991,470.0,481.0
11760.0,474.0,8.228291,472.0,481.0
11770.0,475.0,8.900007,474.0,484.0
11780.0,479.0,9.934392,475.0,488.0
11790.0,482.0,9.035177,477.0,488.0
11800.0,482.0,8.182927,478.0,488.0
11810.0,483.0,7.8872247,480.0,492.0
11820.0,488.0,9.477473,482.0,492.0
11830.0,491.0,9.538755,484.0,495.0
11840.0,491.0,9.006095,485.0,497.0
11850.0,491.0,7.9757023,491.0,501.0
11860.0,499.0,8.505376,491.0,501.0
11870.0,484.0,7.1973834,482.0,491.0
11880.0,449.0,28.001617,427.0,475.0
11890.0,449.0,27.793745,427.0,475.0
11900.0,452.0,27.679632,424.0,475.0
11910.0,452.0,27.43556,427.0,475.0
11920.0,447.0,26.426046,427.0,475.0
11930.0,447.0,25.038408,427.0,469.0
11940.0,450.0,24.837734,426.25,470.0
11950.0,450.0,24.461098,428.0,470.0
11960.0,446.0,23.48404,428.0,470.0
11970.0,446.0,22.271015,428.0,466.0
11980.0,451.0,21.8846,428.0,468.0
11990.0,451.0,21.449291,432.0,468.0
12000.0,449.0,20.628008,432.0,468.0
12010.0,449.0,19.539068,432.0,465.0
12020.0,449.0,18.890408,432.0,468.0
12030.0,453.0,18.480219,438.0,468.0
12040.0,454.0,17.8745,438.0,468.0
12050.0,454.0,16.819986,438.0,468.0
12060.0,458.0,15.427476,443.0,471.0
12070.0,459.0,13.984876,449.0,471.0
12080.0,465.0,12.752641,455.0,474.0
12090.0,469.0,9.492993,461.0,475.0
12100.0,471.0,8.741306,464.0,478.0
12110.0,475.0,7.982819,469.0,481.0
12120.0,482.0,4.1605268,481.0,489.0
12130.0,482.0,3.774093,481.0,486.0
12140.0,484.0,4.8669286,481.0,486.0
12150.0,486.0,4.9568577,484.0,494.0
12160.0,491.0,5.3647428,488.0,494.0
12170.0,491.0,5.107706,488.0,500.0
12180.0,493.5,5.0973577,488.0,496.0
12190.0,492.0,3.8039107,488.0,496.0
12200.0,492.0,4.4449186,491.0,496.0
12210.0,492.0,4.51919,491.0,501.0
12220.0,497.0,4.631026,491.0,501.0
12230.0,496.0,5.524743,491.0,497.0
12240.0,496.0,5.5082946,495.0,505.0
12250.0,495.0,4.4484997,495.0,502.0
12260.0,499.0,3.3366213,495.0,502.0
12270.0,499.0,4.5148234,499.0,505.0
12280.0,500.0,4.0833006,499.0,508.0
12290.0,505.0,4.6804376,500.0,508.0
12300.0,504.5,5.379877,500.0,513.25
12310.0,505.0,4.9274015,504.0,511.0
12320.0,508.5,3.4290326,505.0,511.0
12330.0,509.0,3.132767,506.5,511.0
12340.0,509.0,3.8163307,508.0,510.0
12350.0,511.0,3.3601944,510.0,516.25
12360.0,514.0,4.1524925,511.0,516.0
12370.0,514.0,4.4056935,514.0,521.0
12380.0,516.0,3.6165392,514.0,521.0
12390.0,516.0,2.6852324,516.0,520.75
12400.0,520.0,3.4669905,519.0,521.0
12410.0,521.0,3.226522,520.0,525.0
12420.0,523.0,3.676524,521.0,525.0
12430.0,525.0,4.1141214,523.0,529.0
12440.0,529.0,3.4424272,526.0,531.0
12450.0,529.0,2.309401,528.0,531.0
12460.0,531.0,2.3824298,528.0,531.0
12470.0,532.0,2.8729265,531.0,536.0
12480.0,535.0,2.5027125,532.0,537.0
12490.0,536.0,3.2499008,535.0,538.0
12500.0,538.0,3.42615,536.0,541.0
12510.0,541.0,2.8273685,538.0,542.0
12520.0,541.0,2.43764,539.0,543.0
12530.0,543.0,2.9247973,542.0,546.0
12540.0,544.0,2.7300887,544.0,549.0
12550.0,548.0,2.7321692,544.0,549.0
12560.0,549.0,3.5241528,547.0,553.5
12570.0,551.0,3.2066143,548.0,555.0
12580.0,554.0,3.600497,550.0,555.0
12590.0,554.0,3.861211,551.0,557.0
12600.0,554.0,3.4213402,554.0,560.0
12610.0,555.0,2.6206684,554.0,559.0
12620.0,559.0,3.181877,555.0,559.0
12630.0,559.0,3.432448,559.0,564.0
12640.0,561.0,3.2140057,560.0,565.0
12650.0,564.0,3.7267945,561.0,565.0
12660.0,565.0,3.8023763,561.0,566.0
12670.0,566.0,3.4050477,565.0,571.0
12680.0,568.0,2.6573105,566.0,571.0
12690.0,570.0,3.30513,567.0,571.0
12700.0,571.0,3.4873116,568.0,573.0
12710.0,573.0,3.8205533,571.0,576.0
12720.0,576.0,4.004816,572.0,578.0
12730.0,576.0,3.915932,573.0,579.0
12740.0,576.0,3.466308,574.0,579.0
12750.0,579.0,5.006452,576.0,582.0
12760.0,582.0,10.848861,577.0,588.0
12770.0,588.0,21.252722,580.0,601.0
12780.0,591.0,27.269457,582.0,623.0
12790.0,595.0,30.579668,585.0,633.0
12800.0,598.0,32.2501,587.0,645.0
12810.0,598.0,34.293182,587.0,645.0
12820.0,590.0,11.097885,586.0,599.0
12920.0,564.0,27.716053,541.0,585.0
12930.0,571.0,29.370005,546.0,590.0
12940.0,590.0,32.015488,546.0,597.0
12950.0,597.0,28.11774,591.0,605.0
12960.0,605.0,11.834477,597.0,613.0
12970.0,609.5,9.891723,599.0,622.0
12980.0,614.0,10.64412,606.0,623.0
12990.0,614.0,11.255334,606.0,624.0
13000.0,615.0,12.646998,608.0,632.0
13010.0,624.0,12.737613,615.0,633.0
13020.0,626.0,11.849473,618.0,635.0
13030.0,628.0,10.946092,620.0,637.0
13040.0,635.0,11.236714,626.0,645.0
13050.0,637.0,12.000772,628.0,646.0
13060.0,639.0,13.15178,631.0,648.0
13070.0,648.0,13.687453,633.0,658.0
13080.0,650.0,13.373782,639.0,660.0
13090.0,650.0,9.140903,645.0,658.0
13210.0,685.0,2.4009593,683.0,686.0
13220.0,694.0,3.5035596,693.0,694.25
13230.0,694.0,0.60067713,694.0,694.5
13240.0,694.0,0.55074894,694.0,695.0
13250.0,704.0,4.5293202,696.5,705.0
13260.0,704.0,0.6388766,704.0,705.0
13270.0,704.0,0.6388766,704.0,705.0
13280.0,714.0,4.714267,712.0,715.0
13290.0,714.0,1.4982984,712.0,715.0
13300.0,714.0,1.4986085,712.0,715.0
13310.0,723.0,5.3790216,720.0,725.0
13320.0,723.0,2.4411438,720.0,725.0
13330.0,723.0,2.4411438,720.0,725.0
13340.0,731.0,5.6242914,728.0,734.0
13350.0,731.0,3.1651552,727.5,733.5
13360.0,730.0,3.1598063,727.75,733.25
13370.0,737.0,6.204936,727.0,741.0
13380.0,737.0,3.2387958,734.0,741.0
13390.0,737.0,3.2387958,734.0,741.0
13400.0,745.0,6.6249995,734.0,749.0
13410.0,745.0,8.543207,734.0,749.0
13420.0,745.0,9.74925,734.0,756.0
13430.0,745.0,10.2789755,742.0,756.0
13440.0,752.0,9.67252,742.0,763.0
13450.0,752.0,9.633735,742.0,763.0
13460.0,759.0,10.026464,749.0,763.0
13470.0,759.0,9.110436,749.0,770.0
13480.0,759.0,8.044982,749.0,767.0
13490.0,759.0,8.039738,756.0,767.0
13500.0,764.0,7.864979,756.0,767.0
13510.0,764.0,7.796771,764.0,774.0
13520.0,772.0,7.8764215,764.0,774.0
13530.0,772.0,8.179613,764.0,780.0
13540.0,772.0,9.221133,771.0,783.0
13550.0,778.0,10.42388,771.0,789.0
13560.0,779.0,10.474977,778.0,789.75
13570.0,786.0,10.027427,778.0,795.75
13580.0,786.0,9.86661,778.0,795.75
13590.0,793.0,11.017832,784.0,798.0
13600.0,787.0,7.011974,784.0,795.0
13610.0,786.0,2.7104745,784.0,789.0
13620.0,786.0,2.7104745,784.0,789.0
13630.0,794.0,3.673273,791.0,796.5
13640.0,793.0,3.6797018,791.0,796.5
13650.0,793.0,3.6797018,791.0,796.5
13660.0,798.0,3.0916843,795.0,798.0
13670.0,772.0,25.964027,750.0,791.0
13680.0,774.0,23.50963,758.0,791.0
13690.0,780.0,20.90729,763.0,798.0
13700.0,785.0,18.989481,770.0,805.0
13710.0,791.0,19.269903,777.0,805.0
13720.0,793.0,18.745995,783.0,811.0
13730.0,798.0,16.622736,787.5,811.0
13740.0,804.0,13.863751,793.0,818.0
13750.0,804.0,13.14961,795.0,817.0
13760.0,810.0,14.2132225,798.0,824.0
13770.0,810.0,15.386934,800.0,824.0
13780.0,810.0,7.9759235,806.0,817.0
13790.0,814.0,5.963761,812.0,818.0
13800.0,817.0,5.540935,813.0,818.0
13810.0,817.0,4.7072706,816.0,824.0
13820.0,818.0,4.197938,817.0,824.0
13830.0,822.0,4.77046,820.0,824.0
13840.0,823.0,4.3777986,822.0,830.0
14270.0,874.0,4.4346275,869.0,877.0
14280.0,871.0,6.0435586,867.0,877.0
14290.0,869.0,6.2616525,866.0,874.0
14300.0,867.0,6.7565455,864.0,874.0
14310.0,866.5,7.5719676,862.0,874.0
14320.0,865.0,8.930477,859.0,873.0
14330.0,863.0,11.291786,859.0,873.0
14340.0,863.0,11.977433,856.0,873.0
14350.0,863.0,13.0309725,854.0,873.0
14360.0,857.0,15.16339,848.0,873.0
14370.0,854.0,16.603186,846.5,868.0
14380.0,857.0,17.677277,844.0,874.0
14390.0,857.0,20.569748,844.0,874.0
14400.0,853.0,22.53069,840.0,876.0
14410.0,853.0,26.72063,837.0,876.0
14420.0,855.5,27.637398,836.0,877.25
14430.0,881.0,4.862219,879.0,887.0
14440.0,885.0,3.1188643,884.0,885.0
14450.0,887.0,2.751652,885.0,889.0
14460.0,889.0,2.378571,887.0,890.25
14470.0,891.0,2.2528865,889.0,892.0
14480.0,894.0,2.1515844,891.0,894.0
14490.0,895.0,3.0722027,894.0,898.0
14500.0,901.0,2.8688598,898.0,901.0
14510.0,901.0,2.3159988,901.0,902.0
14520.0,905.0,2.3601015,902.0,907.0
14530.0,907.0,3.0060189,905.0,909.0
14540.0,909.0,2.9583795,907.0,913.0
14550.0,913.0,3.230761,912.0,914.0
14560.0,918.0,2.9921806,914.0,918.0
14570.0,918.5,2.6692197,918.0,920.0
14580.0,921.0,3.0439394,919.0,924.0
14590.0,924.0,3.294222,924.0,927.0
14600.0,927.0,3.0928674,924.0,930.0
14610.0,930.0,2.5949767,929.0,932.0
14620.0,930.0,2.1261594,929.0,932.0
14630.0,930.0,7.338593,924.0,936.0
14640.0,932.0,6.480206,929.0,938.0
14650.0,936.0,5.6432395,932.0,938.0
14660.0,936.0,7.222079,936.0,946.0
14670.0,942.0,7.723328,936.0,948.0
14680.0,942.0,6.7961516,941.0,950.0
14690.0,947.0,6.14243,943.0,950.0
14700.0,947.0,5.938376,943.0,953.0
14710.0,952.0,5.6383643,946.0,953.0
14720.0,953.0,5.061639,952.0,958.75
14730.0,958.0,6.21891,953.0,961.0
14740.0,958.0,6.0955744,953.0,964.0
14750.0,962.0,5.606703,958.0,964.0
14760.0,964.0,5.041987,962.0,972.0
14770.0,968.0,6.685072,962.0,972.0
14780.0,968.0,6.206568,967.5,978.0
14790.0,974.0,5.644334,967.75,976.5
14800.0,975.0,5.569313,973.0,981.0
14810.0,978.0,6.9125333,973.0,983.0
14820.0,983.0,8.074601,978.0,992.0
14830.0,985.0,8.8894415,978.0,992.0
14840.0,983.0,3.411135,983.0,985.0
14850.0,985.0,2.6130435,983.0,988.0
14860.0,989.0,2.615118,985.0,992.0
14870.0,992.0,2.4961727,989.0,993.0
14880.0,994.0,3.352065,993.0,996.0
14890.0,998.0,3.2557132,994.0,999.0
14900.0,999.0,2.6160064,998.0,1002.0
14910.0,1003.0,2.3545558,999.0,1003.0
14920.0,1003.0,3.5072649,1003.0,1004.0
14930.0,1006.0,3.9403841,1004.0,1013.0
14940.0,1012.0,3.0491562,1008.0,1013.0
14950.0,1013.0,4.5973525,1012.0,1014.0
14960.0,1014.0,4.969978,1012.0,1023.0
14970.0,1018.0,4.457611,1014.0,1023.0
14980.0,1022.5,3.3825107,1018.0,1023.0
14990.0,1023.0,4.667226,1022.0,1024.0
15000.0,1024.0,4.8069816,1022.0,1032.0
15010.0,1028.0,4.953595,1024.0,1032.0
15020.0,1032.0,6.2375264,1028.0,1032.0
15030.0,1033.0,6.4463773,1032.0,1043.0
15040.0,1034.0,5.599206,1033.0,1043.0
15050.0,1042.0,4.968725,1034.0,1042.0
15060.0,1042.0,6.2920356,1037.0,1042.0
15070.0,1042.0,6.313994,1042.0,1052.0
15080.0,1047.0,7.099004,1042.0,1052.0
15090.0,1051.0,8.812818,1043.0,1062.0
15100.0,1051.0,7.836407,1043.0,1062.0
15110.0,1051.0,9.321375,1050.0,1060.5
15120.0,1059.5,9.4486685,1051.0,1070.75
15130.0,1059.0,9.900255,1052.0,1070.0
15140.0,1059.0,11.24738,1052.0,1070.0
15150.0,1068.0,11.474591,1059.0,1081.0
15160.0,1068.0,10.172812,1059.0,1081.0
15170.0,1067.5,9.5511675,1059.0,1079.5
15180.0,1078.0,10.813928,1066.75,1079.5
15190.0,1079.0,10.245774,1067.0,1089.0
15200.0,1077.0,9.891712,1066.0,1089.0
15210.0,1075.0,13.082427,1066.0,1087.0
15220.0,1075.0,12.2467375,1066.0,1085.0
15230.0,1085.0,12.8935585,1075.0,1095.0
15240.0,1085.0,14.0195875,1074.0,1095.0
15250.0,1083.0,13.861578,1074.0,1095.0
15260.0,1083.0,12.945983,1074.0,1092.0
15270.0,1083.0,12.771983,1074.0,1092.0
15280.0,1082.0,12.711871,1074.0,1092.0
15290.0,1082.0,11.379108,1074.0,1091.0
15300.0,1082.0,11.074295,1075.0,1091.0
15310.0,1082.0,10.823739,1075.0,1091.0
15320.0,1082.0,9.780879,1075.0,1090.0
15330.0,1090.0,13.686492,1077.0,1099.0
15340.0,1090.0,17.954052,1077.0,1109.0
15350.0,1098.0,21.931665,1083.0,1120.0
15360.0,1098.0,22.577168,1085.0,1120.0
15370.0,1090.5,11.709427,1085.0,1109.0
15380.0,1092.0,5.884724,1090.0,1100.0
15390.0,1097.0,4.947681,1091.0,1100.0
15400.0,1098.0,3.4226031,1093.0,1099.0
15410.0,1099.0,2.3506289,1097.0,1099.0
15420.0,1100.0,3.8157692,1098.0,1101.0
15430.0,1103.0,3.8081777,1100.0,1108.0
15440.0,1107.0,2.8409061,1103.0,1108.0
15450.0,1108.0,5.196997,1107.0,1110.0
15460.0,1113.0,4.977234,1108.0,1118.0
15470.0,1116.0,4.0823545,1113.0,1118.0
15480.0,1117.0,6.0640993,1116.0,1118.0
15490.0,1117.0,6.0676327,1117.0,1129.0
15500.0,1126.0,5.9729505,1120.0,1129.0
15510.0,1126.0,7.8327675,1123.0,1129.0
15520.0,1127.0,7.668737,1126.0,1140.0
15530.0,1136.0,6.2376823,1127.0,1138.0
15540.0,1136.0,6.9950976,1130.0,1138.0
15550.0,1137.0,7.826941,1136.0,1150.0
15560.0,1139.0,6.6307483,1137.0,1150.0
15570.0,1147.0,8.4939995,1139.0,1150.0
15580.0,1147.0,9.285221,1146.0,1163.0
15590.0,1160.0,8.281046,1146.0,1163.0
15600.0,1160.0,10.440029,1148.0,1163.0
15610.0,1160.0,10.415991,1158.0,1176.0
15620.0,1171.0,9.265244,1158.0,1176.0
15630.0,1170.0,11.801265,1158.0,1176.0
15640.0,1170.0,11.507949,1169.0,1190.0
15650.0,1182.0,10.3517475,1169.0,1190.0
15660.0,1180.0,9.148162,1170.0,1186.0
15670.0,1182.0,11.290729,1180.0,1186.0
15680.0,1182.0,9.919909,1180.0,1199.0
15690.0,1195.0,10.967317,1181.0,1199.0
15700.0,1195.0,12.369798,1192.0,1212.0
15710.0,1194.0,10.854042,1192.0,1212.0
15720.0,1208.0,9.77149,1192.0,1212.0
15730.0,1208.0,10.119995,1204.0,1212.0
15740.0,1208.0,11.918743,1204.0,1226.0
15750.0,1221.0,10.594628,1204.0,1226.0
15760.0,1221.0,10.657128,1215.0,1226.0
15770.0,1221.0,12.516778,1215.0,1239.0
15780.0,1234.0,11.016281,1215.0,1239.0
15790.0,1229.0,5.1195498,1227.0,1234.0
15800.0,1229.0,10.868595,1227.0,1246.0
15810.0,1241.0,9.881605,1227.0,1246.0
15820.0,1241.0,6.7117267,1238.0,1246.0
15830.0,1238.0,11.381201,1238.0,1259.0
15840.0,1248.0,10.886753,1238.0,1259.0
15850.0,1248.0,9.62709,1247.0,1259.0
15860.0,1248.0,12.355516,1247.0,1270.0
15870.0,1259.0,11.673515,1247.0,1270.0
15880.0,1259.0,8.674144,1256.0,1270.0
15890.0,1259.0,9.440797,1256.0,1263.0
15900.0,1268.0,9.988767,1256.0,1274.0
15910.0,1268.0,7.2027783,1266.0,1274.0
15920.0,1267.5,9.558456,1266.0,1274.0
15930.0,1267.0,10.054222,1266.0,1283.0
15940.0,1274.0,8.475768,1273.0,1283.0
15950.0,1275.0,10.40255,1274.0,1283.0
15960.0,1283.0,11.0208645,1274.0,1294.0
15970.0,1283.0,9.1036415,1282.0,1294.0
15980.0,1283.0,11.118859,1283.0,1294.0
15990.0,1292.0,11.4842825,1283.0,1304.0
16000.0,1292.0,9.671756,1290.0,1304.0
16010.0,1292.0,7.2948713,1290.0,1296.0
16020.0,1294.0,8.946365,1290.0,1305.0
16030.0,1300.0,7.795082,1294.0,1305.0
16040.0,1300.0,8.481333,1298.0,1305.0
16050.0,1301.0,10.039378,1298.0,1316.0
16060.0,1310.0,8.711438,1301.0,1316.0
16070.0,1310.0,9.26141,1307.0,1316.0
16080.0,1310.0,10.524292,1307.0,1325.0
16090.0,1320.0,9.192218,1309.0,1325.0
16100.0,1320.0,9.692184,1316.0,1325.0
16110.0,1322.0,10.193772,1316.0,1336.0
16120.0,1326.0,8.99787,1322.0,1336.0
16130.0,1327.0,4.38694,1325.0,1330.0
16140.0,1330.0,8.5310335,1326.0,1342.0
16150.0,1336.0,7.654034,1327.0,1342.0
16160.0,1337.0,5.8149576,1336.0,1342.0
16170.0,1341.0,8.917553,1337.0,1354.0
16180.0,1347.0,8.026632,1341.0,1354.0
16190.0,1350.0,6.539187,1347.0,1354.0
16200.0,1351.0,8.931157,1348.0,1366.0
16210.0,1361.0,8.140579,1351.0,1366.0
16220.0,1361.0,5.1827497,1360.0,1363.0
16230.0,1363.0,7.0028515,1361.0,1368.0
16240.0,1368.0,7.259215,1363.0,1376.0
16250.0,1374.0,5.060772,1368.0,1376.0
16260.0,1374.0,10.813451,1368.0,1390.0
16270.0,1376.0,10.914755,1374.0,1390.0
16280.0,1388.0,12.212852,1376.0,1390.0
16290.0,1388.0,11.5265875,1381.0,1405.0
16300.0,1390.0,9.823268,1388.0,1405.0
16310.0,1403.0,8.495362,1390.0,1403.0
16320.0,1403.0,9.367134,1394.0,1405.0
16330.0,1405.0,8.837488,1401.0,1418.0
16340.0,1408.0,9.649355,1405.0,1418.0
16350.0,1418.0,10.097582,1414.0,1420.0
16360.0,1420.0,9.491135,1414.0,1434.0
16370.0,1423.0,7.4241614,1420.0,1433.0
16380.0,1433.0,7.762062,1428.0,1435.0
16390.0,1435.0,8.739315,1428.0,1449.0
16400.0,1443.0,7.463215,1435.0,1449.0
16410.0,1449.0,8.266911,1443.0,1450.0
16420.0,1450.0,8.278651,1449.0,1465.0
16430.0,1458.0,8.245635,1450.0,1465.0
16440.0,1465.0,9.500606,1458.0,1466.0
16450.0,1466.0,8.586438,1463.0,1481.0
16460.0,1472.0,7.485278,1466.0,1481.0
16470.0,1478.0,6.773118,1472.0,1481.0
16480.0,1481.0,7.9627833,1478.0,1487.0
16490.0,1487.0,7.359258,1483.0,1497.0
16500.0,1497.0,7.064593,1487.0,1497.0
16510.0,1498.0,7.5136166,1494.5,1502.0
16520.0,1502.0,6.9681983,1498.0,1512.0
16530.0,1507.0,5.5981913,1502.0,1512.0
16540.0,1513.0,5.8283367,1509.5,1513.0
16550.0,1516.0,6.8502145,1513.0,1528.0
16560.0,1526.0,5.9217615,1516.0,1528.0
16570.0,1529.0,8.836584,1521.0,1531.0
16580.0,1531.0,13.015604,1524.75,1544.0
16590.0,1535.0,12.083638,1531.0,1545.0
16600.0,1544.0,10.794249,1535.0,1549.0
16610.0,1545.0,9.680143,1535.0,1558.0
16620.0,1549.0,11.0673485,1540.0,1558.5
16630.0,1553.0,10.468857,1547.0,1563.0
16640.0,1560.0,9.331817,1553.0,1563.0
16650.0,1563.0,8.568731,1554.0,1573.0
16660.0,1567.0,9.474968,1559.0,1574.0
16670.0,1572.0,9.2943945,1567.0,1577.0
16680.0,1577.0,8.2331915,1572.0,1588.0
16690.0,1580.0,7.3665543,1579.0,1588.0
16700.0,1585.0,6.9516263,1579.0,1590.0
16710.0,1591.0,7.333449,1585.0,1593.0
16720.0,1593.0,7.277894,1586.0,1603.0
16730.0,1598.0,8.766422,1593.0,1606.0
16740.0,1606.0,7.882215,1598.0,1610.0
16750.0,1610.0,6.6483912,1603.0,1616.5
16760.0,1610.0,5.701254,1607.0,1619.0
16770.0,1615.0,6.8935246,1610.0,1622.0
16780.0,1621.0,6.3651347,1617.0,1627.0
16790.0,1625.0,5.447148,1621.0,1628.0
16800.0,1628.0,4.888853,1625.0,1632.0
16810.0,1632.0,5.7979994,1628.0,1636.0
16820.0,1638.0,5.652751,1633.5,1639.0
16830.0,1644.0,4.7730803,1638.0,1646.0
16840.0,1644.0,4.1960635,1644.0,1650.0
16850.0,1650.0,4.4004383,1647.0,1650.0
16860.0,1654.0,4.514961,1650.0,1657.0
16870.0,1657.0,3.867134,1654.0,1660.0
16880.0,1663.0,3.6453133,1660.0,1664.0
16890.0,1664.0,3.7442577,1663.0,1667.0
16900.0,1670.0,3.965885,1667.0,1672.0
16910.0,1673.0,3.6072402,1672.0,1675.0
16920.0,1676.0,3.8209767,1673.0,1681.0
16930.0,1681.0,3.2220173,1680.0,1682.25
16940.0,1683.0,3.5069935,1682.0,1689.0
16950.0,1690.0,3.6599975,1685.0,1690.0
16960.0,1692.0,3.8337991,1690.0,1695.0
16970.0,1698.0,3.2468324,1695.0,1699.0
16980.0,1699.0,3.585734,1698.0,1701.0
16990.0,1703.0,3.5375109,1701.0,1707.0
17000.0,1707.0,4.471018,1706.0,1709.0
17010.0,1709.0,4.3083086,1707.0,1715.0
