distance,median,stdev,prc_25,prc_75
20.0,2.0,1.9663076,1.0,4.0
30.0,2.0,1.9340599,2.0,5.0
40.0,2.0,1.9023087,2.0,5.0
50.0,2.0,1.8755101,2.0,5.0
60.0,2.0,1.8674091,2.0,5.0
70.0,2.0,1.8997852,2.0,5.0
80.0,2.0,1.8332734,2.0,5.0
90.0,2.0,1.7114137,2.0,5.0
100.0,2.0,1.6482058,2.0,4.75
110.0,2.0,1.6511254,2.0,5.0
120.0,2.0,1.6634266,2.0,5.0
130.0,2.0,1.6311301,2.0,4.0
140.0,2.0,1.5714978,2.0,4.0
150.0,2.0,1.5628107,2.0,4.0
160.0,2.0,1.5802993,2.0,5.0
170.0,2.0,1.5987395,2.0,5.0
180.0,2.0,1.5955331,2.0,5.0
190.0,2.0,1.5932051,2.0,5.0
200.0,2.0,1.6001765,2.0,4.0
210.0,2.0,1.607732,2.0,4.0
220.0,2.0,1.5978453,2.0,4.0
230.0,2.0,1.5577836,2.0,5.0
240.0,2.0,1.4995264,2.0,4.0
250.0,2.0,1.446864,2.0,4.0
260.0,2.0,1.4016745,2.0,4.0
270.0,2.0,1.3128288,2.0,4.0
280.0,2.0,1.2889367,2.0,4.0
290.0,2.0,1.27823,2.0,4.0
300.0,2.0,1.2483116,2.0,4.0
310.0,2.0,1.2168386,2.0,3.75
320.0,2.0,1.1852596,2.0,4.0
330.0,2.0,1.1475531,2.0,4.0
340.0,2.0,1.1046535,2.0,3.0
350.0,2.0,1.0990406,2.0,3.0
360.0,2.0,1.1254591,2.0,3.0
370.0,2.0,1.1378624,2.0,3.0
380.0,2.0,1.1103297,2.0,3.0
390.0,2.0,1.1089951,2.0,3.0
400.0,2.0,1.149194,2.0,3.0
410.0,2.0,1.1951637,1.0,3.0
420.0,2.0,1.2132946,1.0,3.0
430.0,2.0,1.2591335,1.0,3.0
440.0,1.0,1.255273,1.0,3.0
450.0,1.0,1.2305235,1.0,3.0
460.0,1.0,1.1440922,1.0,3.0
470.0,1.0,1.1651509,1.0,3.0
480.0,1.0,1.1882608,1.0,3.0
490.0,1.0,1.1769661,1.0,2.0
500.0,1.0,1.0535654,1.0,2.0
510.0,1.0,1.0508733,1.0,2.0
520.0,1.0,1.1021553,1.0,2.0
530.0,1.0,1.1282369,1.0,2.0
540.0,1.0,0.9921946,1.0,2.0
550.0,1.0,0.9518169,1.0,2.0
560.0,1.0,1.2196932,1.0,3.0
570.0,1.0,1.321953,1.0,3.0
580.0,1.0,1.4262596,1.0,3.0
590.0,1.0,1.4630764,1.0,3.0
600.0,2.0,1.3441834,1.0,3.0
610.0,2.0,1.275831,1.0,3.0
620.0,2.0,1.2798959,1.0,4.0
630.0,3.0,1.3274564,1.0,4.0
640.0,2.0,1.1224926,1.0,3.0
650.0,2.0,1.036238,1.0,3.0
660.0,2.0,1.036238,1.0,3.0
670.0,2.0,1.036238,1.0,3.0
680.0,2.0,1.132903,1.0,3.0
690.0,2.0,1.132903,1.0,3.0
700.0,2.0,1.132903,1.0,3.0
710.0,2.0,0.7801111,1.0,3.0
720.0,1.0,0.49374205,1.0,2.0
730.0,1.0,0.4938507,1.0,2.0
740.0,1.0,0.49520138,1.0,2.0
750.0,1.0,0.4966785,1.0,2.0
760.0,1.0,0.49715194,1.0,2.0
770.0,1.0,0.49902546,1.0,2.0
780.0,2.0,0.49901387,1.0,2.0
790.0,2.0,0.49265298,1.0,2.0
800.0,2.0,0.49168757,1.0,2.0
810.0,2.0,0.4926434,1.0,2.0
820.0,2.0,0.49217755,1.0,2.0
830.0,2.0,0.51549596,1.0,2.0
840.0,2.0,0.551157,1.0,2.0
850.0,2.0,0.5817979,1.0,2.0
860.0,2.0,0.65489143,1.0,2.0
870.0,2.0,0.49644002,1.0,2.0
880.0,2.0,0.48729455,1.0,2.0
890.0,2.0,0.477703,1.0,2.0
900.0,2.0,0.46886826,1.0,2.0
910.0,2.0,0.4586927,1.0,2.0
920.0,2.0,0.4228894,2.0,2.0
930.0,2.0,0.3882976,2.0,2.0
940.0,2.0,0.33957472,2.0,2.0
950.0,2.0,0.29999986,2.0,2.0
960.0,2.0,0.34025723,2.0,2.0
970.0,2.0,0.40387377,2.0,2.0
980.0,2.0,0.4795404,2.0,2.0
990.0,2.0,0.5594962,2.0,2.0
1000.0,2.0,0.53547734,2.0,3.0
1010.0,2.0,0.61463404,2.0,3.0
1020.0,2.0,0.6286366,2.0,3.0
1030.0,2.0,0.6707302,2.0,3.0
1040.0,2.0,0.6880814,2.0,3.0
1050.0,3.0,0.79495347,2.0,3.0
1060.0,3.0,0.8019352,2.0,4.0
1070.0,3.0,0.8182909,2.0,4.0
1080.0,3.0,0.7695186,2.0,4.0
1090.0,3.0,0.879261,2.0,4.0
1100.0,3.0,0.95404613,3.0,4.0
1110.0,3.0,1.0544685,3.0,4.0
1120.0,4.0,1.0225458,3.0,4.0
1130.0,4.0,0.9697293,3.0,4.0
1140.0,4.0,0.98956096,3.0,4.0
1150.0,4.0,1.0180373,3.0,5.0
1160.0,4.0,1.0496837,3.0,5.0
1170.0,4.0,1.0400001,3.0,5.0
1180.0,4.0,1.0366243,3.0,5.0
1190.0,4.0,1.0415753,3.0,5.0
1200.0,4.0,0.9971238,4.0,5.0
1210.0,5.0,0.99555814,4.0,5.0
1220.0,5.0,1.013595,4.0,5.0
1230.0,5.0,1.00769,4.0,5.0
1240.0,5.0,0.98812497,4.0,5.0
1250.0,5.0,0.98719347,4.0,5.0
1260.0,5.0,0.9867923,4.0,5.0
1270.0,5.0,0.9818508,4.0,5.0
1280.0,5.0,0.91318136,4.0,5.0
1290.0,5.0,0.90852857,4.0,5.0
1300.0,5.0,0.90292364,4.0,5.0
1310.0,5.0,0.89835346,4.0,5.0
1320.0,5.0,0.9054496,5.0,5.0
1330.0,5.0,0.9727176,5.0,5.0
1340.0,5.0,0.97113335,5.0,5.0
1350.0,5.0,1.0551583,5.0,5.0
1360.0,5.0,0.99386233,5.0,5.0
1370.0,5.0,1.0049832,4.0,5.0
1380.0,5.0,1.0652999,4.0,5.0
1390.0,5.0,1.0312419,4.0,5.0
1400.0,5.0,1.0379668,4.0,5.0
1410.0,5.0,1.0403699,4.0,5.0
1420.0,5.0,1.004378,4.0,5.0
1430.0,5.0,1.0044919,4.0,5.0
1440.0,5.0,1.0336788,4.0,5.0
1450.0,5.0,1.0762337,4.0,5.0
1460.0,5.0,1.048646,5.0,5.0
1470.0,5.0,1.0541873,5.0,5.0
1480.0,5.0,1.0584391,5.0,6.0
1490.0,5.0,1.0968605,5.0,6.0
1500.0,5.0,1.0964652,5.0,6.0
1510.0,5.0,1.1208003,5.0,6.0
1520.0,5.0,1.0753604,5.0,6.0
1530.0,5.0,1.1941792,5.0,7.0
1540.0,5.0,1.2834933,5.0,7.0
1550.0,5.0,1.3360764,5.0,7.0
1560.0,5.0,1.3431636,5.0,7.0
1570.0,5.0,1.3051834,5.0,7.0
1580.0,5.0,1.2737347,5.0,7.0
1590.0,6.0,1.7301039,5.0,8.0
1600.0,7.0,1.8136,5.0,8.0
1610.0,7.0,1.850713,5.0,8.0
1620.0,7.0,1.8586406,5.0,8.0
1630.0,7.0,1.8686359,5.0,9.0
1640.0,7.0,1.8873969,5.0,9.0
1650.0,7.0,1.9052627,5.0,9.0
1660.0,7.0,1.9218891,5.0,9.0
1670.0,7.0,2.0252757,5.0,9.0
1680.0,7.0,1.8824017,5.0,9.0
1690.0,7.0,1.881988,5.0,9.0
1700.0,7.0,1.8114964,5.0,8.0
1710.0,7.0,1.8290063,5.0,8.0
1720.0,7.0,1.7756081,5.0,8.0
1730.0,7.0,1.7388628,5.0,8.0
1740.0,7.0,1.7639546,5.0,8.0
1750.0,6.0,1.3830581,5.0,7.0
1760.0,6.0,1.3344496,5.0,7.0
1770.0,6.0,1.328524,5.0,7.0
1780.0,5.0,1.3366232,5.0,7.0
1790.0,5.0,1.3514767,5.0,7.0
1800.0,5.0,1.2764478,5.0,7.0
1810.0,5.0,1.244154,5.0,7.0
1820.0,5.0,1.2139786,5.0,7.0
1830.0,5.0,1.2125962,5.0,7.0
1840.0,5.0,1.1675187,5.0,7.0
1850.0,5.0,1.0828741,5.0,6.0
1860.0,5.0,1.0147939,5.0,6.0
1870.0,5.0,0.98633903,5.0,6.0
1880.0,5.0,0.98210186,5.0,6.0
1890.0,5.0,0.945228,5.0,6.0
1900.0,5.0,0.9310805,5.0,6.0
1910.0,5.0,0.9605202,5.0,6.0
1920.0,5.0,0.94483566,5.0,6.0
1930.0,5.0,0.9384757,5.0,6.0
1940.0,5.0,0.897529,5.0,6.0
1950.0,5.0,0.83899885,5.0,6.0
1960.0,5.0,0.7523586,5.0,6.0
1970.0,5.0,0.71768445,5.0,6.0
1980.0,5.0,0.73776156,5.0,6.0
1990.0,5.0,0.7921227,5.0,5.0
2000.0,5.0,0.81614304,5.0,5.0
2010.0,5.0,0.8083094,5.0,5.0
2020.0,5.0,0.8001687,5.0,5.0
2030.0,5.0,0.7983927,5.0,5.0
2040.0,5.0,0.8005555,5.0,5.0
2050.0,5.0,0.60602313,5.0,5.0
2060.0,5.0,0.5320818,5.0,5.0
2070.0,5.0,0.463162,5.0,5.0
2080.0,5.0,0.4476204,5.0,5.0
2090.0,5.0,0.4234135,5.0,5.0
2100.0,5.0,0.38698706,5.0,5.0
2110.0,5.0,0.36474103,5.0,5.0
2120.0,5.0,0.60853183,4.0,5.0
2130.0,5.0,0.6775586,4.0,5.0
2140.0,5.0,0.6900608,4.0,5.0
2150.0,5.0,0.72346544,4.0,5.0
2160.0,5.0,0.7660241,4.0,5.0
2170.0,5.0,0.80794495,4.0,5.0
2180.0,5.0,0.8107935,4.0,5.0
2190.0,5.0,0.83407825,4.0,5.0
2200.0,5.0,0.84445816,4.0,5.0
2210.0,5.0,0.35021877,5.0,5.0
2220.0,5.0,0.41027611,5.0,5.0
2230.0,5.0,0.41439503,5.0,5.0
2240.0,5.0,0.41838726,5.0,5.0
2250.0,5.0,0.43697566,5.0,5.0
2260.0,5.0,0.46326992,5.0,5.0
2270.0,5.0,0.5096521,5.0,5.0
2280.0,5.0,0.5515361,5.0,5.0
2290.0,5.0,0.5832942,5.0,5.0
2300.0,5.0,0.56636995,5.0,5.0
2310.0,4.0,0.49403545,4.0,5.0
2320.0,4.0,0.49403545,4.0,5.0
2330.0,4.0,0.49403545,4.0,5.0
2340.0,4.0,0.6151422,4.0,5.0
2350.0,4.0,0.6151422,4.0,5.0
2360.0,4.0,0.6151422,4.0,5.0
2370.0,4.0,0.6798558,4.0,5.0
2380.0,4.0,0.678698,4.0,5.0
2390.0,4.0,0.678698,4.0,5.0
2400.0,4.0,0.9702041,3.0,5.0
2410.0,4.0,0.9702041,3.0,5.0
2420.0,4.0,0.9702041,3.0,5.0
2430.0,3.0,1.0276921,3.0,5.0
2440.0,3.0,1.0276921,3.0,5.0
2450.0,3.0,1.0276921,3.0,5.0
2460.0,3.0,1.0785156,3.0,5.0
2470.0,3.0,1.0785156,3.0,5.0
2480.0,3.0,1.0785156,3.0,5.0
2490.0,3.0,1.2236727,2.0,5.0
2500.0,3.0,1.2236727,2.0,5.0
2510.0,3.0,1.2236727,2.0,5.0
2520.0,3.0,1.355799,2.0,5.0
2530.0,3.0,1.1915637,2.0,4.0
2540.0,3.0,1.4366438,2.0,4.0
2550.0,3.0,1.4775382,2.0,4.0
2560.0,3.0,1.4986346,2.0,4.0
2570.0,3.0,1.511127,1.0,4.0
2580.0,2.0,1.5043164,1.0,4.0
2590.0,2.0,1.4757222,1.0,4.0
2600.0,2.0,1.449085,1.0,4.0
2610.0,2.0,1.5213727,1.0,4.0
2620.0,2.0,1.5872589,1.0,4.0
2630.0,2.0,1.5872422,1.0,4.0
2640.0,2.0,1.5740308,1.0,4.0
2650.0,2.0,1.5322546,1.0,4.0
2660.0,2.0,1.5315969,1.0,4.0
2670.0,2.0,1.5537155,1.0,4.0
2680.0,2.0,1.59244,1.0,4.0
2690.0,2.0,1.5929718,1.0,4.0
2700.0,2.0,1.5942832,1.0,4.0
2710.0,3.0,1.5161088,1.0,4.0
2720.0,3.0,1.5037163,1.0,4.0
2730.0,3.0,1.4787456,2.0,4.0
2740.0,3.0,1.4742761,2.0,4.0
2750.0,3.0,1.4808791,1.0,4.0
2760.0,3.0,1.4771231,1.0,4.0
2770.0,3.0,1.4856516,1.0,4.0
2780.0,3.0,1.4862192,1.0,4.0
2790.0,3.0,1.4916624,1.0,4.0
2800.0,3.0,1.5152851,1.0,4.0
2810.0,3.0,1.5223489,1.0,4.0
2820.0,3.0,1.5206335,1.0,4.0
2830.0,3.0,1.5021342,1.0,4.0
2840.0,3.0,1.4837561,1.0,4.0
2850.0,3.0,1.4743125,1.0,4.0
2860.0,3.0,1.4475956,1.0,4.0
2870.0,3.0,1.4352434,1.0,4.0
2880.0,3.0,1.4205534,1.0,4.0
2890.0,3.0,1.4344487,1.0,4.0
2900.0,3.0,1.4763038,1.0,4.0
2910.0,3.0,1.4973462,1.0,4.0
2920.0,3.0,1.4780742,1.0,4.0
2930.0,4.0,1.4542832,2.0,4.0
2940.0,4.0,1.4418572,2.0,4.0
2950.0,4.0,1.4526496,2.0,4.0
2960.0,4.0,1.3758359,2.0,4.0
2970.0,4.0,1.4163723,2.0,4.0
2980.0,4.0,1.3710835,2.0,4.0
2990.0,4.0,1.3506943,2.0,4.0
3000.0,4.0,1.3165541,3.0,4.0
3010.0,4.0,1.3627547,3.0,4.0
3020.0,4.0,1.3836875,2.75,5.0
3030.0,4.0,1.4488922,2.0,5.0
3040.0,5.0,1.4934826,2.0,5.0
3050.0,5.0,1.4889606,2.0,5.0
3060.0,5.0,1.4649422,3.0,5.0
3070.0,5.0,1.4561176,3.0,5.0
3080.0,5.0,1.4634314,3.0,5.0
3090.0,5.0,1.3595421,3.0,5.0
3100.0,5.0,1.2389992,3.0,5.0
3110.0,5.0,1.1700987,3.0,5.0
3120.0,5.0,1.1981945,4.0,5.0
3130.0,5.0,1.1959269,4.0,5.0
3140.0,5.0,1.2213016,4.0,5.0
3150.0,5.0,1.254226,4.0,5.0
3160.0,5.0,1.2672302,4.0,5.0
3170.0,5.0,1.2647297,4.0,5.0
3180.0,5.0,1.2347572,4.0,5.0
3190.0,5.0,1.2304107,4.0,5.0
3200.0,5.0,1.2473259,4.0,5.0
3210.0,5.0,1.2445587,4.0,5.0
3220.0,5.0,1.2623936,4.5,5.0
3230.0,5.0,1.2595712,5.0,5.0
3240.0,5.0,1.2560891,5.0,5.0
3250.0,5.0,1.3058664,4.0,5.0
3260.0,5.0,1.2600917,4.0,5.0
3270.0,5.0,1.2441849,4.0,5.0
3280.0,5.0,1.2071558,4.0,5.0
3290.0,5.0,1.1769774,4.0,5.0
3300.0,5.0,1.1898232,4.0,5.0
3310.0,5.0,1.1887189,4.0,5.0
3320.0,5.0,1.1235297,4.0,5.0
3330.0,5.0,1.0443181,4.0,5.0
3340.0,5.0,1.0243236,4.0,5.0
3350.0,5.0,1.0432215,4.0,5.0
3360.0,5.0,1.0698234,4.0,5.0
3370.0,5.0,1.1008071,4.0,5.0
3380.0,5.0,1.122764,4.0,5.0
3390.0,4.0,1.1240103,3.0,5.0
3400.0,4.0,1.1272223,3.0,5.0
3410.0,4.0,1.1337714,3.0,5.0
3420.0,4.0,1.1534172,3.0,5.0
3430.0,4.0,1.1582857,3.0,5.0
3440.0,4.0,1.1572965,3.0,5.0
3450.0,4.0,1.1441399,3.0,5.0
3460.0,4.0,1.1261363,3.0,5.0
3470.0,4.0,1.1301385,3.0,5.0
3480.0,4.0,1.1347625,3.0,5.0
3490.0,4.0,1.1439966,3.0,5.0
3500.0,4.0,1.1461282,3.0,5.0
3510.0,4.0,1.1711017,3.0,5.0
3520.0,4.0,1.1033907,3.0,5.0
3530.0,4.0,1.0834754,3.0,5.0
3540.0,4.0,1.1045434,3.0,5.0
3550.0,4.0,1.0964447,3.0,5.0
3560.0,4.0,1.0972693,3.0,5.0
3570.0,4.0,1.0976319,3.0,5.0
3580.0,4.0,1.0597694,3.0,5.0
3590.0,4.0,1.0915751,3.0,5.0
3600.0,4.0,1.0919483,3.0,5.0
3610.0,4.0,1.0912006,3.0,5.0
3620.0,4.0,1.0521553,3.0,5.0
3630.0,5.0,1.1738445,3.0,5.0
3640.0,4.0,1.3520918,3.0,5.0
3650.0,4.0,1.371226,3.0,5.0
3660.0,4.0,1.3914576,3.0,5.0
3670.0,4.0,1.4245443,3.0,5.0
3680.0,4.0,1.4600059,3.0,5.0
3690.0,4.0,1.4803008,3.0,5.0
3700.0,4.0,1.4834356,3.0,5.0
3710.0,4.0,1.4785845,3.0,6.0
3720.0,4.0,1.4832451,3.0,6.0
3730.0,4.0,1.4861202,3.0,6.0
3740.0,4.0,1.4968228,3.0,6.0
3750.0,5.0,1.577436,3.0,6.0
3760.0,5.0,1.6916959,3.0,6.0
3770.0,5.0,1.8670951,3.0,6.0
3780.0,5.0,1.980447,4.0,8.0
3790.0,5.0,1.9405291,4.0,7.0
3800.0,5.0,2.124017,4.0,7.0
3810.0,5.0,2.1764243,4.0,7.0
3820.0,5.0,2.068875,4.0,7.0
3830.0,5.0,2.1435935,3.0,7.0
3840.0,4.0,2.2332416,3.0,7.0
3850.0,4.0,2.1945307,3.0,7.0
3860.0,4.0,2.1961067,3.0,7.0
3870.0,4.0,2.2382548,3.0,7.0
3880.0,4.0,2.1822307,3.0,7.0
3890.0,4.0,2.1839368,3.0,7.0
3900.0,4.0,2.1015706,3.0,6.0
3910.0,4.0,1.8617302,3.0,6.0
3920.0,4.0,1.8683575,3.0,6.0
3930.0,4.0,1.8570998,3.0,6.0
3940.0,4.0,1.8620894,3.0,6.0
3950.0,4.0,1.8248168,3.0,6.0
3960.0,4.0,1.8382696,3.0,6.0
3970.0,3.0,1.8475919,3.0,6.0
3980.0,3.0,1.8346248,3.0,6.0
3990.0,3.0,1.8244083,3.0,6.0
4000.0,3.0,1.8486015,3.0,6.0
4010.0,3.0,1.8766031,3.0,6.0
4020.0,3.0,1.9013397,3.0,6.0
4030.0,3.0,1.8992047,3.0,5.0
4040.0,3.0,1.9379112,3.0,5.0
4050.0,3.0,1.981585,2.0,5.0
4060.0,3.0,2.0118685,2.0,5.0
4070.0,3.0,1.5277953,3.0,5.0
4080.0,3.0,1.1489125,3.0,4.0
4090.0,3.0,1.1209064,3.0,4.0
4100.0,3.0,1.1295575,3.0,4.0
4110.0,3.0,1.1372933,3.0,4.0
4120.0,3.0,1.205129,3.0,4.0
4130.0,3.0,1.2613882,3.0,4.0
4140.0,3.0,1.2652553,3.0,4.0
4150.0,3.0,1.237397,2.0,4.0
4160.0,3.0,1.2318052,2.0,4.0
4170.0,3.0,1.3043969,2.0,4.0
4180.0,3.0,1.3630481,2.0,4.0
4190.0,3.0,1.3903726,2.0,4.0
4200.0,3.0,1.4105872,2.0,4.0
4210.0,3.0,1.4014549,2.0,4.0
4220.0,3.0,1.383754,2.0,4.0
4230.0,3.0,1.4136252,2.0,4.0
4240.0,3.0,1.52339,2.0,4.0
4250.0,3.0,1.5286493,2.0,4.0
4260.0,3.0,1.632299,2.0,4.0
4270.0,3.0,1.7456315,2.0,4.0
4280.0,3.0,1.8010551,2.0,4.0
4290.0,3.0,1.8663663,2.0,4.0
4300.0,3.0,1.9477296,2.0,4.0
4310.0,3.0,2.032644,2.0,4.0
4320.0,3.0,2.0704,2.0,4.0
4330.0,3.0,2.1179729,2.0,4.0
4340.0,3.0,2.2050223,2.0,4.0
4350.0,3.0,2.3216574,2.0,4.0
4360.0,3.0,2.428955,2.0,4.0
4370.0,3.0,2.5330112,2.0,4.0
4380.0,3.0,2.6376777,2.0,4.0
4390.0,3.0,2.7311826,2.0,4.0
4400.0,3.0,2.827902,2.0,4.0
4410.0,3.0,2.9260316,2.0,4.0
4420.0,3.0,3.0574343,2.0,6.0
4430.0,3.0,3.1490076,2.0,6.0
4440.0,3.0,3.179205,2.0,6.0
4450.0,3.0,3.1714869,2.0,6.0
4460.0,3.0,3.160336,2.0,6.0
4470.0,3.0,3.1889348,2.0,6.0
4480.0,3.0,3.2332299,2.0,6.0
4490.0,3.0,3.2180736,2.0,7.0
4500.0,3.0,3.1315935,2.0,7.0
4510.0,3.0,3.1344748,2.0,6.0
4520.0,2.0,3.235613,2.0,6.0
4530.0,2.0,3.2919674,2.0,6.0
4540.0,2.0,3.324712,2.0,6.0
4550.0,2.0,3.327471,2.0,5.5
4560.0,2.0,3.3129742,2.0,7.0
4570.0,2.0,3.2624953,2.0,7.0
4580.0,2.0,3.2172034,2.0,6.0
4590.0,2.0,3.1393657,2.0,6.0
4600.0,2.0,3.0263505,2.0,6.0
4610.0,2.0,2.9726923,2.0,6.0
4620.0,2.0,2.902549,2.0,6.0
4630.0,2.0,2.7999253,2.0,6.0
4640.0,2.0,2.6875823,2.0,6.0
4650.0,2.0,2.6019492,2.0,5.0
4660.0,2.0,2.5001912,2.0,5.0
4670.0,2.0,2.3967175,2.0,5.0
4680.0,2.0,2.3259897,2.0,5.0
4690.0,2.0,2.257604,2.0,5.0
4700.0,2.0,2.1771648,2.0,5.0
4710.0,2.0,2.1103647,2.0,5.0
4720.0,2.0,2.0229876,2.0,4.0
4730.0,2.0,1.7901798,2.0,4.0
4740.0,2.0,1.7002444,2.0,4.0
4750.0,2.0,1.6037829,2.0,3.0
4760.0,2.0,1.4905128,2.0,3.0
4770.0,2.0,1.3991196,2.0,3.0
4780.0,2.0,1.3130022,1.0,2.0
4790.0,2.0,1.2102149,1.0,2.0
4800.0,2.0,1.1029011,1.0,2.0
4810.0,2.0,1.0374849,1.0,2.0
4820.0,2.0,0.9607414,1.0,2.0
4830.0,1.0,0.9012157,1.0,2.0
4840.0,1.0,0.7602394,1.0,2.0
4850.0,1.0,0.4758052,1.0,2.0
4860.0,1.0,0.39387307,1.0,1.0
4870.0,1.0,0.29731467,1.0,1.0
4880.0,1.0,0.077265345,1.0,1.0
4890.0,1.0,0.0,1.0,1.0
4900.0,1.0,0.0,1.0,1.0
4910.0,1.0,0.0,1.0,1.0
4920.0,1.0,0.0,1.0,1.0
4930.0,1.0,0.0,1.0,1.0
4940.0,1.0,0.0,1.0,1.0
4950.0,1.0,0.0,1.0,1.0
4960.0,1.0,0.0,1.0,1.0
4970.0,1.0,0.0,1.0,1.0
4980.0,1.0,0.0,1.0,1.0
4990.0,1.0,0.34594652,1.0,1.0
5000.0,1.0,0.3039589,1.0,1.0
5010.0,1.0,0.25002202,1.0,1.0
5020.0,1.0,0.176,1.0,1.0
5030.0,1.0,0.0,1.0,1.0
5040.0,1.0,0.0,1.0,1.0
5050.0,1.0,0.0,1.0,1.0
5060.0,1.0,0.17058724,1.0,1.0
5070.0,1.0,0.2517459,1.0,1.0
5080.0,1.0,0.46762273,1.0,2.0
5090.0,2.0,0.49662462,1.0,2.0
5100.0,2.0,0.49549067,1.0,2.0
5110.0,2.0,0.49403548,1.0,2.0
5120.0,2.0,0.49254847,1.0,2.0
5130.0,2.0,0.4906975,1.0,2.0
5140.0,2.0,0.48893544,1.0,2.0
5150.0,2.0,0.4865953,1.0,2.0
5160.0,2.0,0.4854803,1.0,2.0
5170.0,2.0,0.49638695,1.0,2.0
5180.0,2.0,0.49778616,1.0,2.0
5190.0,2.0,0.53056574,1.0,2.0
5200.0,2.0,0.5818969,1.0,2.0
5210.0,2.0,0.6401367,1.0,2.0
5220.0,2.0,0.6891125,1.0,2.0
5230.0,2.0,0.7103738,1.0,2.0
5240.0,2.0,0.7385797,1.0,2.0
5250.0,2.0,0.77407753,1.0,2.0
5260.0,2.0,0.79985934,1.0,3.0
5270.0,2.0,0.813329,1.0,3.0
5280.0,2.0,0.8065596,1.0,3.0
5290.0,2.0,0.7909593,1.0,3.0
5300.0,2.0,0.8058685,1.0,3.0
5310.0,2.0,0.82225263,1.0,3.0
5320.0,2.0,0.8216139,1.0,3.0
5330.0,2.0,0.8138132,1.0,3.0
5340.0,2.0,0.80555516,1.0,3.0
5350.0,2.0,0.79789513,1.0,3.0
5360.0,2.0,0.7549834,1.0,3.0
5370.0,2.0,0.7341499,1.0,3.0
5380.0,2.0,0.7345165,1.0,3.0
5390.0,2.0,0.7341499,1.0,3.0
5400.0,2.0,0.7345165,1.0,3.0
5410.0,2.0,0.7348734,1.0,3.0
5420.0,2.0,0.7345165,1.0,3.0
5430.0,2.0,0.7341499,1.0,3.0
5440.0,2.0,0.715194,1.0,3.0
5450.0,2.0,0.7127412,1.0,3.0
5460.0,2.0,0.7294159,1.0,3.0
5470.0,2.0,0.7341498,1.0,3.0
5480.0,2.0,0.7338777,1.0,3.0
5490.0,2.0,0.7341498,1.0,3.0
5500.0,2.0,0.7345165,1.0,3.0
5510.0,2.0,0.7348734,1.0,3.0
5520.0,2.0,0.7345165,1.0,3.0
5530.0,2.0,0.750708,1.0,3.0
5540.0,2.0,0.74565405,1.0,3.0
5550.0,2.0,0.74431175,1.0,3.0
5560.0,2.0,0.72325647,1.0,2.0
5570.0,2.0,0.7225226,1.0,2.0
5580.0,2.0,0.7092952,1.0,2.0
5590.0,2.0,0.615048,1.0,2.0
5600.0,2.0,0.61341995,1.0,2.0
5610.0,2.0,0.5803232,1.0,2.0
5620.0,2.0,0.49747762,1.0,2.0
5630.0,2.0,0.512124,1.0,2.0
5640.0,2.0,0.46166655,1.0,2.0
5650.0,2.0,0.46166655,1.0,2.0
5660.0,2.0,0.47314426,1.0,2.0
5670.0,2.0,0.46166655,1.0,2.0
5680.0,2.0,0.44751644,1.0,2.0
5690.0,2.0,0.44751644,1.0,2.0
5700.0,2.0,0.44765458,1.0,2.0
5710.0,2.0,0.44751644,1.0,2.0
5720.0,2.0,0.44751644,1.0,2.0
5730.0,2.0,0.44765458,1.0,2.0
5740.0,2.0,0.4594562,2.0,2.0
5750.0,2.0,0.4902234,1.0,2.0
5760.0,2.0,0.48876327,1.0,2.0
5770.0,2.0,0.5356109,1.0,2.0
5780.0,2.0,0.5483941,1.0,2.0
5790.0,2.0,0.547142,1.0,2.0
5800.0,2.0,0.5483941,1.0,2.0
5810.0,2.0,0.5762498,1.0,2.0
5820.0,1.0,0.6318987,1.0,2.0
5830.0,2.0,0.67156833,1.0,2.0
5840.0,1.0,0.67482764,1.0,2.0
5850.0,1.0,0.6760999,1.0,2.0
5860.0,1.0,0.7070143,1.0,2.0
5870.0,1.0,0.78842413,1.0,2.0
5880.0,1.0,0.7839505,1.0,2.0
5890.0,1.0,0.79825044,1.0,2.0
5900.0,1.0,0.8049554,1.0,2.0
5910.0,1.0,0.80510485,1.0,2.0
5920.0,1.5,0.86704963,1.0,2.0
5930.0,1.0,0.8612286,1.0,2.0
5940.0,1.0,0.85914695,1.0,2.0
5950.0,2.0,0.8803266,1.0,2.0
5960.0,2.0,0.86936927,1.0,2.0
5970.0,2.0,0.87899745,1.0,2.0
5980.0,2.0,0.87815577,1.0,2.0
5990.0,2.0,0.8574928,1.0,2.0
6000.0,2.0,0.6678136,1.0,2.0
6010.0,2.0,0.5515361,2.0,2.0
6020.0,2.0,0.5421946,2.0,2.0
6030.0,2.0,0.5413574,2.0,2.0
6040.0,2.0,0.54706126,2.0,2.0
6050.0,2.0,0.5150653,2.0,2.0
6060.0,2.0,0.5330723,2.0,2.0
6070.0,2.0,0.5286776,2.0,2.0
6080.0,2.0,0.5330723,2.0,2.0
6090.0,2.0,0.6818328,2.0,2.0
6100.0,2.0,0.4711515,2.0,2.0
6110.0,2.0,0.47637343,2.0,2.0
6120.0,2.0,0.47895983,2.0,2.0
6130.0,2.0,0.48408514,2.0,2.0
6140.0,2.0,0.49195123,2.0,2.25
6150.0,2.0,0.49415195,2.0,2.0
6160.0,2.0,0.48125774,2.0,2.0
6170.0,2.0,0.22808771,2.0,2.0
6180.0,2.0,0.083414085,2.0,2.0
6190.0,2.0,0.18876177,2.0,2.0
6200.0,2.0,0.21794495,2.0,2.0
6210.0,2.0,0.22808771,2.0,2.0
6220.0,2.0,0.23944229,2.0,2.0
6230.0,2.0,0.25013813,2.0,2.0
6240.0,2.0,0.0,2.0,2.0
6250.0,2.0,0.24839754,2.0,2.0
6260.0,2.0,0.08337265,2.0,2.0
6270.0,2.0,0.0,2.0,2.0
6280.0,2.0,0.0,2.0,2.0
6290.0,2.0,0.0,2.0,2.0
6300.0,2.0,0.0,2.0,2.0
6310.0,2.0,0.044698928,2.0,2.0
6320.0,2.0,0.21640472,2.0,2.0
6330.0,2.0,0.7052262,2.0,2.0
6340.0,2.0,0.7097655,2.0,2.0
6350.0,2.0,0.71971893,2.0,2.0
6360.0,2.0,0.65384144,2.0,2.0
6370.0,2.0,0.7126903,2.0,2.0
6380.0,2.0,0.7897054,2.0,2.0
6390.0,2.0,0.86115986,2.0,2.0
6400.0,2.0,0.7835376,2.0,2.0
6410.0,2.0,0.8878433,1.0,2.0
6420.0,2.0,0.75596565,1.0,2.0
6430.0,2.0,0.64739627,1.0,2.0
6440.0,2.0,0.65414065,1.0,2.0
6450.0,2.0,0.65223944,1.0,2.0
6460.0,2.0,0.5751304,1.0,2.0
6470.0,2.0,0.5768665,1.0,2.0
6480.0,2.0,0.5873457,1.0,2.0
6490.0,2.0,0.5343489,1.0,2.0
6500.0,1.0,0.538483,1.0,2.0
6510.0,1.0,0.47739246,1.0,2.0
6520.0,1.0,0.4783172,1.0,2.0
6530.0,1.0,0.48146144,1.0,2.0
6540.0,1.0,0.48582768,1.0,2.0
6550.0,1.0,0.48949978,1.0,2.0
6560.0,1.0,0.49084088,1.0,2.0
6570.0,1.0,0.49205047,1.0,2.0
6580.0,1.0,0.4861079,1.0,2.0
6590.0,1.0,0.46984997,1.0,2.0
6600.0,1.0,0.4753683,1.0,2.0
6610.0,1.0,0.48057878,1.0,2.0
6620.0,1.0,0.4848876,1.0,2.0
6630.0,1.0,0.48893547,1.0,2.0
6640.0,1.0,0.48872024,1.0,2.0
6650.0,1.0,0.46262062,1.0,2.0
6660.0,1.0,0.47911477,1.0,2.0
6670.0,1.0,0.4848876,1.0,2.0
6680.0,1.0,0.48498267,1.0,2.0
6690.0,1.0,0.48513815,1.0,2.0
6700.0,1.0,0.49050078,1.0,2.0
6710.0,1.0,0.49749374,1.0,2.0
6720.0,1.0,0.4992705,1.0,2.0
6730.0,1.0,0.49929586,1.0,2.0
6740.0,1.0,0.4992154,1.0,2.0
6750.0,1.0,0.49999103,1.0,2.0
6760.0,2.0,0.49997973,1.0,2.0
6770.0,2.0,0.49999595,1.0,2.0
6780.0,1.0,0.499964,1.0,2.0
6790.0,2.0,0.49999377,1.0,2.0
6800.0,2.0,0.49999377,1.0,2.0
6810.0,2.0,0.49990952,1.0,2.0
6820.0,2.0,0.49929586,1.0,2.0
6830.0,2.0,0.49929586,1.0,2.0
6840.0,2.0,0.49934804,1.0,2.0
6850.0,2.0,0.49934804,1.0,2.0
6860.0,2.0,0.49362645,1.0,2.0
6870.0,2.0,0.29043242,2.0,2.0
6880.0,2.0,0.16780645,2.0,2.0
6890.0,2.0,0.12155244,2.0,2.0
6900.0,2.0,0.12927102,2.0,2.0
6910.0,2.0,0.13652472,2.0,2.0
6920.0,2.0,0.14,2.0,2.0
6930.0,2.0,0.14668334,2.0,2.0
6940.0,2.0,0.15304902,2.0,2.0
6950.0,2.0,0.15612492,2.0,2.0
6960.0,2.0,0.0,2.0,2.0
6970.0,2.0,0.52989715,2.0,2.0
6980.0,2.0,0.5060029,2.0,2.0
6990.0,2.0,0.44211388,2.0,2.0
7000.0,2.0,0.4005484,2.0,2.0
7010.0,2.0,0.42147243,2.0,2.0
7020.0,2.0,0.42083248,2.0,2.0
7030.0,2.0,0.41954258,2.0,2.0
7040.0,2.0,0.41823918,2.0,2.0
7050.0,2.0,0.4364218,2.0,3.0
7060.0,2.0,0.4352976,2.0,3.0
7070.0,2.0,0.43416128,2.0,3.0
7080.0,2.0,0.4330127,2.0,2.25
7090.0,2.0,0.4318518,2.0,2.0
7100.0,2.0,0.5509664,2.0,2.0
7110.0,2.0,0.5674504,2.0,2.0
7120.0,2.0,0.5624803,2.0,2.0
7130.0,2.0,0.55743706,2.0,2.0
7140.0,2.0,0.55889535,2.0,3.0
7150.0,2.0,0.5738981,2.0,3.0
7160.0,2.0,0.5822127,2.0,3.0
7170.0,2.0,0.5826565,2.0,3.0
7180.0,2.0,0.5797291,2.0,3.0
7190.0,2.0,0.57586366,2.0,3.0
7200.0,2.0,0.57251304,2.0,3.0
7210.0,2.0,0.5691146,2.0,3.0
7220.0,2.0,0.5674166,2.0,3.0
7230.0,3.0,0.56258744,2.0,3.0
7240.0,2.0,0.559582,2.0,3.0
7250.0,2.0,0.55133927,2.0,3.0
7260.0,2.0,0.49999368,2.0,3.0
7270.0,2.0,0.499775,2.0,3.0
7280.0,2.0,0.4737088,2.0,3.0
7290.0,2.0,0.48125145,2.0,3.0
7300.0,2.0,0.49116215,2.0,3.0
7310.0,2.0,0.49953663,2.0,3.0
7320.0,3.0,0.49743807,2.0,3.0
7330.0,2.0,0.47104943,2.0,3.0
7340.0,2.0,0.47057304,2.0,3.0
7350.0,2.0,0.47981268,2.0,3.0
7360.0,2.0,0.48473054,2.0,3.0
7370.0,2.0,0.47911477,2.0,3.0
7380.0,2.0,0.5886669,2.0,3.0
7390.0,2.0,0.5876038,2.0,3.0
7400.0,2.0,0.58771086,2.0,3.0
7410.0,2.0,0.585138,2.0,3.0
7420.0,2.0,0.5894099,2.0,3.0
7430.0,2.0,0.55287886,2.0,3.0
7440.0,2.0,0.55435216,2.0,3.0
7450.0,2.0,0.60340357,2.0,3.0
7460.0,2.0,0.60586286,2.0,3.0
7470.0,2.0,0.61737823,2.0,3.0
7480.0,2.0,0.61876595,2.0,3.0
7490.0,3.0,0.6208369,2.0,3.0
7500.0,3.0,0.62448025,2.0,3.0
7510.0,3.0,0.6293566,2.0,3.0
7520.0,3.0,0.6309023,2.0,3.0
7530.0,3.0,0.63462204,2.0,3.0
7540.0,3.0,0.63468045,2.0,3.0
7550.0,3.0,0.6294434,2.0,3.0
7560.0,3.0,0.6276942,2.0,3.0
7570.0,3.0,0.6278527,2.0,3.0
7580.0,3.0,0.6278527,2.0,3.0
7590.0,3.0,0.6276942,2.0,3.0
7600.0,3.0,0.6185181,2.0,3.0
7610.0,3.0,0.5767833,2.0,3.0
7620.0,3.0,0.5700658,2.0,3.0
7630.0,3.0,0.56864667,2.0,3.0
7640.0,3.0,0.5686396,2.0,3.0
7650.0,3.0,0.56949013,2.0,3.0
7660.0,3.0,0.5982474,2.0,3.0
7670.0,3.0,0.6129405,2.0,3.0
7680.0,2.0,0.60663,2.0,3.0
7690.0,2.0,0.5863799,2.0,3.0
7700.0,2.0,0.58118504,2.0,3.0
7710.0,2.0,0.5716619,2.0,3.0
7720.0,2.0,0.5640204,2.0,3.0
7730.0,2.0,0.5564315,2.0,3.0
7740.0,2.0,0.5544425,2.0,3.0
7750.0,2.0,0.56470877,2.0,3.0
7760.0,2.0,0.5737404,2.0,3.0
7770.0,2.0,0.58627737,2.0,3.0
7780.0,2.0,0.59562993,2.0,3.0
7790.0,2.0,0.60214186,2.0,3.0
7800.0,2.0,0.61044484,2.0,3.0
7810.0,2.0,0.6253447,2.0,3.0
7820.0,2.0,0.75951374,2.0,3.0
7830.0,2.0,0.7622991,2.0,3.0
7840.0,2.0,0.7626655,2.0,3.0
7850.0,2.0,0.7644285,2.0,3.0
7860.0,2.0,0.7785716,2.0,3.0
7870.0,2.0,0.80910486,1.0,3.0
7880.0,2.0,0.8551672,1.0,3.0
7890.0,2.0,0.8781794,1.0,3.0
7900.0,2.0,0.8783771,1.0,3.0
7910.0,2.0,0.8792699,1.0,3.0
7920.0,2.0,0.8605487,1.0,3.0
7930.0,2.0,0.8579238,1.0,3.0
7940.0,2.0,0.85891134,1.0,3.0
7950.0,2.0,0.88163257,1.0,3.0
7960.0,2.0,0.88163257,1.0,3.0
7970.0,2.0,0.88121754,1.0,3.0
7980.0,2.0,0.88144433,1.0,3.0
7990.0,2.0,0.8951597,1.0,3.0
8000.0,2.0,0.8951597,1.0,3.0
8010.0,2.0,0.9095049,1.0,3.0
8020.0,2.0,0.8809449,1.0,3.0
8030.0,2.0,0.9064745,1.0,3.0
8040.0,2.0,0.9164694,1.0,3.0
8050.0,2.0,0.92325073,1.0,3.0
8060.0,2.0,0.9262289,1.0,3.0
8070.0,2.0,0.94129753,1.0,3.0
8080.0,3.0,0.940664,1.0,3.0
8090.0,2.0,0.8870423,1.0,3.0
8100.0,2.0,0.87939066,1.0,3.0
8110.0,2.0,0.89679205,1.0,3.0
8120.0,2.0,0.91285044,1.0,3.0
8130.0,2.0,0.91460496,1.0,3.0
8140.0,2.0,0.90972525,1.0,3.0
8150.0,2.0,0.89263254,1.0,3.0
8160.0,2.0,0.9284185,1.0,3.0
8170.0,2.0,0.9215851,1.0,3.0
8180.0,2.0,0.9142849,1.0,3.0
8190.0,2.0,0.91872954,1.0,3.0
8200.0,2.0,0.9312872,1.0,3.0
8210.0,2.0,0.88906634,1.0,3.0
8220.0,2.0,0.89258426,1.0,3.0
8230.0,2.0,0.8946878,1.0,3.0
8240.0,2.0,0.8912844,1.0,3.0
8250.0,2.0,0.88988376,1.0,3.0
8260.0,2.0,0.8968857,1.0,3.0
8270.0,2.0,0.89257413,1.0,3.0
8280.0,2.0,0.8774264,1.0,3.0
8290.0,2.0,0.88638544,1.0,3.0
8300.0,2.0,0.88782376,1.0,3.0
8310.0,2.0,0.8899686,1.0,3.0
8320.0,2.0,0.8665466,1.0,3.0
8330.0,3.0,0.8557891,1.0,3.0
8340.0,3.0,0.8570346,1.0,3.0
8350.0,3.0,0.8552421,1.0,3.0
8360.0,3.0,0.78857785,2.0,3.0
8370.0,3.0,0.736715,2.0,3.0
8380.0,3.0,0.709062,2.0,3.0
8390.0,3.0,0.62270147,2.0,3.0
8400.0,3.0,0.4920895,2.0,3.0
8410.0,3.0,0.48806164,2.0,3.0
8420.0,3.0,0.49782866,2.0,3.0
8430.0,3.0,0.4927935,2.0,3.0
8440.0,3.0,0.48596928,2.0,3.0
8450.0,3.0,0.48692086,2.0,3.0
8460.0,3.0,0.48850286,2.0,3.0
8470.0,3.0,0.4865953,2.0,3.0
8480.0,3.0,0.48263407,2.0,3.0
8490.0,3.0,0.4842197,2.0,3.0
8500.0,3.0,0.48181123,2.0,3.0
8510.0,3.0,0.47404534,2.0,3.0
8520.0,3.0,0.45968512,2.0,3.0
8530.0,3.0,0.45010996,2.0,3.0
8540.0,3.0,0.44147438,2.0,3.0
8550.0,3.0,0.4360046,2.0,3.0
8560.0,3.0,0.4319966,3.0,3.0
8570.0,3.0,0.4296382,3.0,3.0
8580.0,3.0,0.43315712,2.5,3.0
8590.0,3.0,0.43487474,2.0,3.0
8600.0,3.0,0.43487474,2.0,3.0
8610.0,3.0,0.42889512,3.0,3.0
8620.0,3.0,0.42414576,3.0,3.0
8630.0,3.0,0.4051555,3.0,3.0
8640.0,3.0,0.35707143,3.0,3.0
8650.0,3.0,0.35325268,3.0,3.0
8660.0,3.0,0.35916832,3.0,3.0
8670.0,3.0,0.33754373,3.0,3.0
8680.0,3.0,0.33863437,3.0,3.0
8690.0,3.0,0.35916835,3.0,3.0
8700.0,3.0,0.37925917,3.0,3.0
8710.0,3.0,0.3948032,3.0,3.0
8720.0,3.0,0.45617536,2.0,3.0
8730.0,3.0,0.46491286,2.0,3.0
8740.0,3.0,0.45737952,2.0,3.0
8750.0,3.0,0.4595552,2.0,3.0
8760.0,3.0,0.46124938,2.0,3.0
8770.0,3.0,0.4629028,2.0,3.0
8780.0,3.0,0.46464133,2.0,3.0
8790.0,3.0,0.466089,2.0,3.0
8800.0,3.0,0.46774498,2.0,3.0
8810.0,3.0,0.46911722,2.0,3.0
8820.0,3.0,0.47057304,2.0,3.0
8830.0,3.0,0.47210756,2.0,3.0
8840.0,3.0,0.47336984,2.0,3.0
8850.0,3.0,0.47633603,2.0,3.0
8860.0,3.0,0.46736568,2.0,3.0
8870.0,3.0,0.46762273,2.0,3.0
8880.0,3.0,0.46799996,2.0,3.0
8890.0,3.0,0.45559192,2.0,3.0
8900.0,3.0,0.45617536,2.0,3.0
8910.0,3.0,0.45693657,2.0,3.0
8920.0,3.0,0.42462218,3.0,3.0
8930.0,3.0,0.34489998,3.0,3.0
8940.0,3.0,0.27600777,3.0,3.0
8950.0,3.0,0.099498756,3.0,3.0
8960.0,3.0,0.0,3.0,3.0
8970.0,3.0,0.0,3.0,3.0
8980.0,3.0,0.0,3.0,3.0
8990.0,3.0,0.0,3.0,3.0
9000.0,3.0,0.0,3.0,3.0
9010.0,3.0,0.0,3.0,3.0
9020.0,3.0,0.0,3.0,3.0
9030.0,3.0,0.0,3.0,3.0
9040.0,3.0,0.29321495,3.0,3.0
9050.0,3.0,0.36845082,3.0,3.0
9060.0,3.0,0.3916588,3.0,3.0
9070.0,3.0,0.39542887,3.0,3.0
9080.0,3.0,0.4196905,3.0,3.0
9090.0,3.0,0.42399883,3.0,3.0
9100.0,3.0,0.42399883,3.0,3.0
9110.0,3.0,0.41692203,3.0,3.0
9120.0,3.0,0.39788246,3.0,3.0
9130.0,3.0,0.3756328,3.0,3.0
9140.0,3.0,0.37386632,3.0,3.0
9150.0,3.0,0.37386632,3.0,3.0
9160.0,3.0,0.34905013,3.0,3.0
9170.0,3.0,0.22403347,3.0,3.0
9180.0,3.0,0.031622764,3.0,3.0
9190.0,3.0,0.0,3.0,3.0
9200.0,3.0,0.0,3.0,3.0
9210.0,3.0,0.0,3.0,3.0
9220.0,3.0,0.49858895,3.0,4.0
9230.0,3.0,0.49862912,3.0,4.0
9240.0,4.0,0.49942368,3.0,4.0
9250.0,4.0,0.49947074,3.0,4.0
9260.0,4.0,0.49947077,3.0,4.0
9270.0,4.0,0.49951577,3.0,4.0
9280.0,4.0,0.49951577,3.0,4.0
9290.0,3.0,0.49991903,3.0,4.0
9300.0,3.0,0.49991903,3.0,4.0
9310.0,3.0,0.49989995,3.0,4.0
9320.0,3.0,0.48914853,3.0,4.0
9330.0,3.0,0.4605366,3.0,4.0
9340.0,3.0,0.4605366,3.0,4.0
9350.0,3.0,0.47245547,3.0,4.0
9360.0,3.0,0.47280106,3.0,4.0
9370.0,3.0,0.47280106,3.0,4.0
9380.0,3.0,0.47314426,3.0,4.0
9390.0,3.0,0.5437583,3.0,4.0
9400.0,3.0,0.736617,2.5,4.0
9410.0,3.0,0.69835734,2.0,3.0
9420.0,3.0,0.4038515,3.0,3.0
9430.0,3.0,0.3932393,3.0,3.0
9440.0,3.0,0.3916588,3.0,3.0
9450.0,3.0,0.39711872,3.0,3.0
9460.0,3.0,0.40164226,3.0,3.0
9470.0,3.0,0.255147,3.0,3.0
9480.0,3.0,0.10430244,3.0,3.0
9490.0,3.0,0.18131661,3.0,3.0
9500.0,3.0,0.24839753,3.0,3.0
9510.0,3.0,0.280364,3.0,3.0
9520.0,3.0,0.19359498,3.0,3.0
9530.0,3.0,0.2651198,3.0,3.0
9540.0,3.0,0.35210085,3.0,3.0
9550.0,3.0,0.40801838,3.0,3.0
9560.0,3.0,0.43656498,3.0,4.0
9570.0,3.0,0.4364218,3.0,4.0
9580.0,3.0,0.4391799,3.0,4.0
9590.0,3.0,0.48114863,3.0,4.0
9600.0,3.0,0.49030194,3.0,4.0
9610.0,3.0,0.49674034,3.0,4.0
9620.0,3.0,0.4988059,3.0,4.0
9630.0,3.0,0.499775,3.0,4.0
9640.0,3.0,0.49855393,3.0,4.0
9650.0,3.0,0.495757,3.0,4.0
9660.0,3.0,0.49873567,3.0,4.0
9670.0,4.0,0.49974397,3.0,4.0
9680.0,4.0,0.4991272,3.0,4.0
9690.0,4.0,0.4990992,3.0,4.0
9700.0,4.0,0.49906704,3.0,4.0
9710.0,4.0,0.49915826,3.0,4.0
9720.0,4.0,0.4979213,3.0,4.0
9730.0,4.0,0.4938785,3.0,4.0
9740.0,4.0,0.48170948,3.0,4.0
9750.0,4.0,0.4916493,3.0,4.0
9760.0,4.0,0.49394503,3.0,4.0
9770.0,4.0,0.48039496,3.0,4.0
9780.0,4.0,0.46659964,3.0,4.0
9790.0,4.0,0.4575111,3.0,4.0
9800.0,4.0,0.48587653,3.0,4.0
9810.0,4.0,0.5424243,3.0,4.0
9820.0,4.0,0.5424243,3.0,4.0
9830.0,4.0,0.5424243,3.0,4.0
9840.0,4.0,0.47801125,3.0,4.0
9850.0,4.0,0.47801125,3.0,4.0
9860.0,4.0,0.4772829,3.0,4.0
9870.0,4.0,0.47728294,3.0,4.0
9880.0,4.0,0.4772829,3.0,4.0
9890.0,4.0,0.47759396,3.0,4.0
9900.0,4.0,0.4772829,3.0,4.0
9910.0,4.0,0.43753403,3.0,4.0
9920.0,4.0,0.41904062,4.0,4.0
9930.0,4.0,0.41424626,4.0,4.0
9940.0,4.0,0.4051555,4.0,4.0
9950.0,4.0,0.38829756,4.0,4.0
9960.0,4.0,0.38910666,4.0,4.0
9970.0,4.0,0.40958026,4.0,4.0
9980.0,4.0,0.4233013,4.0,4.0
9990.0,4.0,0.46628743,4.0,4.0
10000.0,4.0,0.4766552,4.0,4.0
10010.0,4.0,0.5670979,4.0,5.0
10020.0,4.0,0.610553,4.0,5.0
10030.0,4.0,0.64466965,4.0,5.0
10040.0,4.0,0.6820785,4.0,5.0
10050.0,5.0,0.7080897,4.0,5.0
10060.0,5.0,0.72759265,4.0,5.0
10070.0,5.0,0.73102385,4.0,5.0
10080.0,5.0,0.73550624,4.0,5.0
10090.0,5.0,0.7311662,4.0,5.0
10100.0,5.0,0.7230602,4.0,5.0
10110.0,5.0,0.7145096,4.0,5.0
10120.0,5.0,0.70184827,4.0,5.0
10130.0,5.0,0.6917738,4.0,5.0
10140.0,5.0,0.70309025,4.0,5.0
10150.0,5.0,0.7227109,4.0,5.0
10160.0,5.0,0.74305046,4.0,5.0
10170.0,5.0,0.75340295,4.0,5.0
10180.0,5.0,0.7475125,4.0,5.0
10190.0,5.0,0.73999727,4.0,5.0
10200.0,5.0,0.75226325,4.0,5.0
10210.0,5.0,0.7670723,4.0,5.0
10220.0,5.0,0.78276366,4.0,5.0
10230.0,5.0,0.80089885,4.0,5.0
10240.0,5.0,0.81973106,4.0,5.0
10250.0,5.0,0.8173111,4.0,5.0
10260.0,5.0,0.811347,4.0,5.0
10270.0,5.0,0.8052056,4.0,5.0
10280.0,5.0,0.79976,4.0,5.0
10290.0,5.0,0.7898734,4.0,5.0
10300.0,5.0,0.7794913,4.0,5.0
10310.0,5.0,0.77778155,4.0,5.0
10320.0,5.0,0.7950998,4.0,5.0
10330.0,5.0,0.8014087,4.0,5.0
10340.0,5.0,0.79405534,4.0,5.0
10350.0,5.0,0.7597098,4.0,5.0
10360.0,5.0,0.6382601,4.0,5.0
10370.0,5.0,0.6187213,4.0,5.0
10380.0,5.0,0.594117,4.0,5.0
10390.0,5.0,0.5688585,4.0,5.0
10400.0,5.0,0.54153854,4.0,5.0
10410.0,5.0,0.5116405,4.0,5.0
10420.0,5.0,0.5047286,4.0,5.0
10430.0,5.0,0.30395886,5.0,5.0
10440.0,5.0,0.26339132,5.0,5.0
10450.0,5.0,0.25174588,5.0,5.0
10460.0,5.0,0.25682485,5.0,5.0
10470.0,5.0,0.26339132,5.0,5.0
10480.0,5.0,0.18876174,5.0,5.0
10490.0,5.0,0.0,5.0,5.0
10500.0,5.0,0.0,5.0,5.0
10510.0,5.0,0.0,5.0,5.0
10520.0,5.0,0.0,5.0,5.0
10530.0,5.0,0.0,5.0,5.0
10540.0,5.0,0.094487295,5.0,5.0
10550.0,5.0,0.1678064,5.0,5.0
10560.0,5.0,0.32510197,5.0,5.0
10570.0,5.0,0.37222973,5.0,5.0
10580.0,5.0,0.34609166,5.0,5.0
10590.0,5.0,0.31916082,5.0,5.0
10600.0,5.0,0.31302693,5.0,5.0
10610.0,5.0,0.31426972,5.0,5.0
10620.0,5.0,0.31302693,5.0,5.0
10630.0,5.0,0.31413212,5.0,5.0
10640.0,5.0,0.28773862,5.0,5.0
10650.0,5.0,0.2338532,5.0,5.0
10660.0,5.0,0.18637982,5.0,5.0
10670.0,5.0,0.18386836,5.0,5.0
10680.0,5.0,0.18386836,5.0,5.0
10690.0,5.0,0.18386835,5.0,5.0
10700.0,5.0,0.18386836,5.0,5.0
10710.0,5.0,0.23573522,5.0,5.0
10720.0,5.0,0.25526506,5.0,5.0
10730.0,5.0,0.2729596,5.0,5.0
10740.0,5.0,0.28474376,5.0,5.0
10750.0,5.0,0.3666061,5.0,5.0
10760.0,5.0,0.35721853,5.0,5.0
10770.0,5.0,0.34905013,5.0,5.0
10780.0,5.0,0.3284372,5.0,5.0
10790.0,5.0,0.29472297,5.0,5.0
10800.0,5.0,0.31902194,5.0,5.0
10810.0,5.0,0.35123587,5.0,5.0
10820.0,5.0,0.34594655,5.0,5.0
10830.0,5.0,0.34489998,5.0,5.0
10840.0,5.0,0.34278858,5.0,5.0
10850.0,5.0,0.32958156,5.0,5.0
10860.0,5.0,0.33849075,5.0,5.0
10870.0,5.0,0.34594655,5.0,5.0
10880.0,5.0,0.3406523,5.0,5.0
10890.0,5.0,0.32728583,5.0,5.0
10900.0,5.0,0.30526054,5.0,5.0
10910.0,5.0,0.28342298,5.0,5.0
10920.0,5.0,0.29321495,5.0,5.0
10930.0,5.0,0.30132872,5.0,5.0
10940.0,5.0,0.30797338,5.0,5.0
10950.0,5.0,0.31659278,5.0,5.0
10960.0,5.0,0.3105169,5.0,5.0
10970.0,5.0,0.2877386,5.0,5.0
10980.0,5.0,0.30395886,5.0,5.0
10990.0,5.0,0.26986215,5.0,5.0
11000.0,5.0,0.2743647,5.0,5.0
11010.0,5.0,0.28049114,5.0,5.0
11020.0,5.0,0.28902593,5.0,5.0
11030.0,5.0,0.29608998,5.0,5.0
11040.0,5.0,0.32958156,5.0,5.0
11050.0,5.0,0.36067167,5.0,5.0
11060.0,5.0,0.38775122,5.0,5.0
11070.0,5.0,0.40568587,5.0,5.0
11080.0,5.0,0.43238756,5.0,5.0
11090.0,5.0,0.45052746,5.0,5.0
11100.0,5.0,0.47864598,5.0,5.0
11110.0,5.0,0.5099233,5.0,5.0
11120.0,5.0,0.5608786,4.0,5.0
11130.0,5.0,0.73280555,4.0,5.0
11140.0,5.0,0.73772484,4.0,5.0
11150.0,5.0,0.7397811,4.0,5.0
11160.0,5.0,0.74214894,4.0,5.0
11170.0,5.0,0.77438796,4.0,5.0
11180.0,4.0,0.76056975,4.0,5.0
11190.0,4.0,0.8536538,3.0,5.0
11200.0,4.0,0.8686209,3.0,5.0
11210.0,4.0,0.86858445,3.0,5.0
11220.0,4.0,0.86783606,3.0,5.0
11230.0,4.0,0.8685712,3.0,5.0
11240.0,4.0,0.8678119,3.0,5.0
11250.0,4.0,0.9902353,3.0,5.0
11260.0,4.0,0.973484,3.0,5.0
11270.0,4.0,0.9863391,3.0,5.0
11280.0,4.0,1.0205036,3.0,5.0
11290.0,5.0,1.0456748,3.0,5.0
11300.0,4.0,0.86745733,3.0,5.0
11310.0,4.0,0.89092344,3.0,5.0
11320.0,4.0,0.88567716,3.0,5.0
11330.0,4.0,0.8738458,3.0,5.0
11340.0,4.0,0.8619026,3.0,5.0
11350.0,5.0,0.78171706,4.0,5.0
11360.0,5.0,0.49464226,4.0,5.0
11370.0,5.0,0.5037609,4.0,5.0
11380.0,5.0,0.51035935,4.0,5.0
11390.0,5.0,0.49380058,4.0,5.0
11400.0,5.0,0.495923,4.0,5.0
11410.0,5.0,0.46172085,4.0,5.0
11420.0,5.0,0.43889073,4.5,5.0
11430.0,5.0,0.4354619,5.0,5.0
11440.0,5.0,0.43199658,5.0,5.0
11450.0,5.0,0.43141165,5.0,5.0
11460.0,5.0,0.42722932,5.0,5.0
11470.0,5.0,0.42288944,5.0,5.0
11480.0,5.0,0.42147243,5.0,5.0
11490.0,5.0,0.4196905,5.0,5.0
11500.0,5.0,0.41823918,5.0,5.0
11510.0,5.0,0.4157397,5.0,5.0
11520.0,5.0,0.4142463,5.0,5.0
11530.0,5.0,0.41166344,5.0,5.0
11540.0,5.0,0.41356862,5.0,5.0
11550.0,5.0,0.41707042,5.0,5.0
11560.0,5.0,0.41758233,5.0,5.0
11570.0,5.0,0.41707042,5.0,5.0
11580.0,5.0,0.41692206,5.0,5.0
11590.0,5.0,0.41640678,5.0,5.0
11600.0,5.0,0.4358612,4.0,5.0
11610.0,5.0,0.43529758,4.0,5.0
11620.0,5.0,0.43529758,4.0,5.0
11630.0,5.0,0.4354412,4.0,5.0
11640.0,5.0,0.4364218,4.0,5.0
11650.0,5.0,0.437534,4.0,5.0
11660.0,5.0,0.46621293,4.0,5.0
11670.0,5.0,0.46686083,4.0,5.0
11680.0,5.0,0.46799996,4.0,5.0
11690.0,5.0,0.46911728,4.0,5.0
11700.0,5.0,0.46923783,4.0,5.0
11710.0,5.0,0.47021273,4.0,5.0
11720.0,5.0,0.4712865,4.0,5.0
11730.0,5.0,0.47199047,4.0,5.0
11740.0,5.0,0.42225632,5.0,5.0
11750.0,5.0,0.41692206,5.0,5.0
11760.0,5.0,0.42018923,5.0,5.0
11770.0,5.0,0.42337218,5.0,5.0
11780.0,5.0,0.42708316,5.0,5.0
11790.0,5.0,0.4296382,5.0,5.0
11800.0,5.0,0.43416125,4.0,5.0
11810.0,5.0,0.48916286,4.0,5.0
11820.0,5.0,0.48790765,4.0,5.0
11830.0,5.0,0.49653083,4.0,5.0
11840.0,5.0,0.5049353,4.0,5.0
11850.0,5.0,0.5135048,4.0,5.0
11860.0,5.0,0.521486,4.0,5.0
11870.0,5.0,0.5356768,4.0,5.0
11880.0,5.0,0.5202605,4.0,5.0
11890.0,5.0,0.44864503,4.0,5.0
11900.0,5.0,0.4572264,4.0,5.0
11910.0,5.0,0.4810447,4.0,5.0
11920.0,5.0,0.5045701,4.0,5.0
11930.0,5.0,0.51725334,4.0,5.0
11940.0,5.0,0.52958155,4.0,5.0
11950.0,5.0,0.6249152,4.0,5.0
11960.0,5.0,0.6736282,4.0,5.0
11970.0,5.0,0.68818605,4.0,5.0
11980.0,5.0,0.6716724,4.0,5.0
11990.0,5.0,0.6574983,4.0,5.0
12000.0,5.0,0.6609397,4.0,5.0
12010.0,5.0,0.7153383,4.0,5.0
12020.0,5.0,0.6649601,4.0,5.0
12030.0,5.0,0.624307,4.0,5.0
12040.0,5.0,0.495757,4.0,5.0
12050.0,5.0,0.495757,4.0,5.0
12060.0,5.0,0.40074804,5.0,5.0
12070.0,5.0,0.21794495,5.0,5.0
12080.0,5.0,0.09949875,5.0,5.0
12090.0,5.0,0.0,5.0,5.0
12100.0,5.0,0.0,5.0,5.0
12110.0,5.0,0.0,5.0,5.0
12120.0,5.0,0.0,5.0,5.0
12130.0,5.0,0.0,5.0,5.0
12140.0,5.0,0.0,5.0,5.0
12150.0,5.0,0.0,5.0,5.0
12160.0,5.0,0.20295404,5.0,5.0
12170.0,5.0,0.28342298,5.0,5.0
12180.0,5.0,0.31302696,5.0,5.0
12190.0,5.0,0.316731,5.0,5.0
12200.0,5.0,0.35530126,5.0,5.0
12210.0,5.0,0.32395646,5.0,5.0
12220.0,5.0,0.32791913,5.0,5.0
12230.0,5.0,0.27777374,5.0,5.0
12240.0,5.0,0.3103804,5.0,5.0
12250.0,5.0,0.3481671,5.0,5.0
12260.0,5.0,0.37738043,5.0,5.0
12270.0,5.0,0.38599458,5.0,5.0
12280.0,5.0,0.4637239,5.0,5.0
12290.0,5.0,0.46638486,5.0,5.0
12300.0,5.0,0.47136626,5.0,5.0
12310.0,5.0,0.37377435,5.0,5.0
12320.0,5.0,0.35108972,5.0,5.0
12330.0,5.0,0.36190465,5.0,5.0
12340.0,5.0,0.3818186,5.0,5.0
12350.0,5.0,0.38166872,5.0,5.0
12360.0,5.0,0.36582443,5.0,5.0
12370.0,5.0,0.44938812,5.0,5.0
12380.0,5.0,0.44879466,5.0,5.0
12390.0,5.0,0.42653957,5.0,5.0
12400.0,5.0,0.38538668,5.0,5.0
12410.0,5.0,0.13659172,5.0,5.0
12420.0,5.0,0.0,5.0,5.0
12430.0,5.0,0.20068508,5.0,5.0
12440.0,5.0,0.0,5.0,5.0
12450.0,5.0,0.0,5.0,5.0
12460.0,5.0,0.0,5.0,5.0
12470.0,5.0,0.0,5.0,5.0
12480.0,5.0,0.59548634,5.0,6.0
12490.0,5.0,0.59420687,5.0,6.0
12500.0,5.0,0.5367672,5.0,6.0
12510.0,5.0,0.4645159,5.0,6.0
12520.0,5.0,0.46053663,5.0,6.0
12530.0,5.0,0.4557249,5.0,6.0
12540.0,5.0,0.4496244,5.0,6.0
12550.0,5.0,0.43373266,5.0,6.0
12560.0,5.0,0.57713,5.0,6.0
12570.0,5.0,0.5631696,5.0,6.0
12580.0,5.0,0.49977493,5.0,6.0
12590.0,5.0,0.4461478,5.0,6.0
12600.0,5.0,0.44563997,5.0,6.0
12610.0,5.0,0.44512925,5.0,6.0
12620.0,5.0,0.44461575,5.0,6.0
12630.0,5.0,0.4440994,5.0,6.0
12640.0,5.0,0.4440994,5.0,6.0
12650.0,5.0,0.44358012,5.0,6.0
12660.0,5.0,0.41773054,5.0,5.0
12670.0,5.0,0.464117,5.0,5.0
12680.0,5.0,0.46113458,5.0,5.0
12690.0,5.0,0.465591,5.0,5.0
12700.0,5.0,0.45318317,5.0,5.0
12710.0,5.0,0.44812497,5.0,5.0
12720.0,5.0,0.48985612,5.0,5.0
12730.0,5.0,0.47616512,5.0,5.0
12740.0,5.0,0.4275219,5.0,5.0
12750.0,5.0,0.38649192,5.0,5.0
12760.0,5.0,0.3554498,5.0,5.0
12770.0,5.0,0.35518447,5.0,5.0
12780.0,5.0,0.3672383,5.0,5.0
12790.0,5.0,0.38204584,5.0,5.0
12800.0,5.0,0.36107978,5.0,5.0
12810.0,5.0,0.33039972,5.0,5.0
12820.0,5.0,0.36839828,5.0,5.0
12830.0,5.0,0.36947393,5.0,5.0
12840.0,5.0,0.3678185,5.0,5.0
12850.0,5.0,0.39606944,5.0,5.0
12860.0,5.0,0.4418691,5.0,5.0
12870.0,5.0,0.43505445,5.0,5.0
12880.0,5.0,0.44662598,5.0,5.0
12890.0,5.0,0.49474776,5.0,5.0
12900.0,5.0,0.5524837,5.0,6.0
12910.0,5.0,0.5774392,5.0,6.0
12920.0,5.0,0.31536645,5.0,5.0
12930.0,5.0,0.36660606,5.0,5.0
12940.0,5.0,0.40149218,5.0,5.0
12950.0,5.0,0.45590293,5.0,5.0
12960.0,5.0,0.5301432,5.0,5.0
12970.0,5.0,0.56979734,5.0,5.0
12980.0,5.0,0.6102163,5.0,6.0
12990.0,5.0,0.49362648,5.0,6.0
13000.0,6.0,0.4990381,5.0,6.0
13010.0,6.0,0.49810028,5.0,6.0
13020.0,6.0,0.49685413,5.0,6.0
13030.0,6.0,0.49535438,5.0,6.0
13040.0,6.0,0.49619573,5.0,6.0
13050.0,6.0,0.49712372,5.0,6.0
13060.0,6.0,0.49674037,5.0,6.0
13070.0,6.0,0.4987356,5.0,6.0
13080.0,6.0,0.5335852,5.0,6.0
13090.0,6.0,0.5675553,5.0,6.0
13100.0,6.0,0.6021163,5.0,6.0
13110.0,6.0,0.63215566,5.0,6.0
13120.0,6.0,0.6601615,5.0,6.0
13130.0,6.0,0.67481476,5.0,6.0
13140.0,6.0,0.6712919,5.0,6.0
13150.0,6.0,0.66749734,5.0,6.0
13160.0,6.0,0.83689904,5.0,7.0
13170.0,6.0,0.8320083,5.0,7.0
13180.0,6.0,0.8373387,5.0,7.0
13190.0,6.0,0.85003,5.0,7.0
13200.0,6.0,0.8551385,5.0,7.0
13210.0,6.0,0.8456359,5.0,7.0
13220.0,6.0,0.85119945,5.0,7.0
13230.0,6.0,0.8519601,5.0,7.0
13240.0,6.0,0.85516727,5.0,7.0
13250.0,6.0,0.8605977,5.0,7.0
13260.0,6.0,0.87585324,5.0,7.0
13270.0,6.0,0.87583756,5.0,7.0
13280.0,6.0,0.8692474,5.0,7.0
13290.0,6.0,0.8698981,5.0,7.0
13300.0,6.0,0.87495774,5.0,7.0
13310.0,6.0,0.86562747,5.0,7.0
13320.0,6.0,0.8520383,5.0,7.0
13330.0,6.0,0.84994113,5.0,7.0
13340.0,6.0,0.8532123,5.0,7.0
13350.0,6.0,0.8474899,5.0,7.0
13360.0,6.0,0.8236675,5.0,7.0
13370.0,6.0,0.8440758,5.0,6.0
13380.0,6.0,0.9091183,5.0,7.0
13390.0,6.0,0.95289826,5.0,7.0
13400.0,5.0,0.9820387,5.0,7.0
13410.0,5.0,1.0062773,5.0,6.0
13420.0,5.0,1.0548815,5.0,6.0
13430.0,5.0,1.0578166,5.0,6.0
13440.0,5.0,1.0412161,5.0,6.0
13450.0,5.0,1.0276498,5.0,6.0
13460.0,5.0,1.0557092,5.0,6.0
13470.0,5.0,1.057903,5.0,6.0
13480.0,5.0,1.0291245,5.0,6.0
13490.0,5.0,0.97950554,5.0,6.0
13500.0,5.0,0.9484641,5.0,6.0
13510.0,5.0,0.84727746,5.0,6.0
13520.0,5.0,0.7737286,5.0,6.0
13530.0,5.0,0.7600421,5.0,6.0
13540.0,5.0,0.7605261,5.0,6.0
13550.0,5.0,0.7888973,4.0,6.0
13560.0,5.0,0.78573215,4.0,6.0
13570.0,5.0,0.7753605,4.0,6.0
13580.0,5.0,0.7787111,4.0,6.0
13590.0,5.0,0.81041646,4.0,6.0
13600.0,5.0,0.8155367,4.0,6.0
13610.0,5.0,0.80850244,4.0,6.0
13620.0,5.0,0.8102832,4.0,6.0
13630.0,5.0,0.8139772,4.0,6.0
13640.0,5.0,0.83304507,4.0,6.0
13650.0,5.0,0.83468115,4.0,6.0
13660.0,5.0,0.83606166,4.0,6.0
13670.0,5.0,0.83725196,4.0,6.0
13680.0,5.0,0.8390376,4.0,6.0
13690.0,5.0,0.8519718,4.0,6.0
13700.0,5.0,0.8419496,4.0,6.0
13710.0,5.0,0.8437156,4.0,6.0
13720.0,5.0,0.8458665,4.0,6.0
13730.0,5.0,0.84658784,4.0,6.0
13740.0,5.0,0.8482923,4.0,6.0
13750.0,5.0,0.8493668,4.0,6.0
13760.0,5.0,0.8410226,4.0,6.0
13770.0,5.0,0.83210576,4.0,6.0
13780.0,5.0,0.82590896,4.0,6.0
13790.0,5.0,0.8272599,4.0,6.0
13800.0,5.0,0.80768245,4.0,6.0
13810.0,5.0,0.83630365,4.0,6.0
13820.0,5.0,0.8980862,4.0,6.0
13830.0,5.0,0.9713903,4.0,6.0
13840.0,5.0,1.0179666,5.0,6.0
13850.0,5.0,1.062537,5.0,6.0
13860.0,5.0,1.1,5.0,7.0
13870.0,5.0,1.1201357,5.0,7.0
13880.0,5.0,1.0795141,5.0,7.0
13890.0,6.0,1.0057753,5.0,7.0
13900.0,6.0,0.9375367,5.0,7.0
13910.0,6.0,0.8744821,5.0,7.0
13920.0,6.0,0.8544232,5.0,7.0
13930.0,6.0,0.84491664,5.0,7.0
13940.0,6.0,0.8342086,5.0,7.0
13950.0,6.0,0.81725824,5.0,7.0
13960.0,6.0,0.7924241,5.0,7.0
13970.0,6.0,0.76956874,5.0,7.0
13980.0,6.0,0.7543414,5.0,7.0
13990.0,6.0,0.76639557,5.5,7.0
14000.0,6.0,0.76354694,6.0,7.0
14010.0,6.0,0.73663014,6.0,7.0
14020.0,6.0,0.73663014,6.0,7.0
14030.0,6.0,0.73663014,6.0,7.0
14040.0,6.0,0.6766831,6.0,7.0
14050.0,6.0,0.5823229,6.0,7.0
14060.0,6.0,0.47404534,6.0,7.0
14070.0,6.0,0.47404534,6.0,7.0
14080.0,6.0,0.468,6.0,7.0
14090.0,6.0,0.44850752,6.0,7.0
14100.0,6.0,0.44850752,6.0,7.0
14110.0,6.0,0.46762273,6.0,7.0
14120.0,6.0,0.4833384,6.0,7.0
14130.0,6.0,0.4833384,6.0,7.0
14140.0,6.0,0.4833384,6.0,7.0
14150.0,6.0,0.4641164,6.0,7.0
14160.0,6.0,0.46290278,6.0,7.0
14170.0,6.0,0.44651425,6.0,7.0
14180.0,6.0,0.4318518,6.0,6.0
14190.0,6.0,0.43243384,6.0,6.0
14200.0,6.0,0.4318518,6.0,6.0
14210.0,6.0,0.4318518,6.0,6.0
14220.0,6.0,0.4318518,6.0,6.0
14230.0,6.0,0.41559112,6.0,6.0
14240.0,6.0,0.41220263,6.0,6.0
14250.0,6.0,0.41220263,6.0,6.0
14260.0,6.0,0.41220263,6.0,6.0
14270.0,6.0,0.4600772,6.0,6.0
14280.0,6.0,0.45814845,6.0,6.0
14290.0,6.0,0.51678914,6.0,6.0
14300.0,6.0,0.5247895,6.0,6.0
14310.0,6.0,0.5247895,6.0,6.0
14320.0,6.0,0.468,5.0,6.0
14330.0,6.0,0.49089202,5.0,6.0
14340.0,6.0,0.49980396,5.0,6.0
14350.0,5.0,0.495757,5.0,6.0
14360.0,5.0,0.49562484,5.0,6.0
14370.0,5.0,0.49323013,5.0,6.0
14380.0,5.0,0.48969275,5.0,6.0
14390.0,5.0,0.46569946,5.0,6.0
14400.0,5.0,0.4624932,5.0,6.0
14410.0,5.0,0.4624932,5.0,6.0
14420.0,5.0,0.54074025,5.0,6.0
14430.0,5.0,0.58432096,5.0,5.0
14440.0,5.0,0.4756427,5.0,5.0
14450.0,5.0,0.38433748,5.0,5.0
14460.0,5.0,0.41220263,5.0,5.0
14470.0,5.0,0.45010996,4.0,5.0
14480.0,5.0,0.4645159,4.0,5.0
14490.0,5.0,0.47601578,4.0,5.0
14500.0,5.0,0.48010495,4.0,5.0
14510.0,5.0,0.48863482,4.0,5.0
14520.0,5.0,0.493133,4.0,5.0
14530.0,5.0,0.4971831,4.0,5.0
14540.0,5.0,0.49696583,4.0,5.0
14550.0,5.0,0.49655905,4.0,5.0
14560.0,5.0,0.49626505,4.0,5.0
14570.0,5.0,0.49568254,4.0,5.0
14580.0,5.0,0.49674034,4.0,5.0
14590.0,5.0,0.4979709,4.0,5.0
14600.0,5.0,0.49818683,4.0,5.0
14610.0,5.0,0.4979709,4.0,5.0
14620.0,5.0,0.49862912,4.0,5.0
14630.0,5.0,0.49631885,4.0,5.0
14640.0,5.0,0.4925485,4.0,5.0
14650.0,5.0,0.49190825,4.0,5.0
14660.0,5.0,0.49127483,4.0,5.0
14670.0,5.0,0.48774993,4.0,5.0
14680.0,5.0,0.46996975,4.0,5.0
14690.0,5.0,0.4586927,4.0,5.0
14700.0,5.0,0.43082368,5.0,5.0
14710.0,5.0,0.3984922,5.0,5.0
14720.0,5.0,0.34905013,5.0,5.0
14730.0,5.0,0.3041034,5.0,5.0
14740.0,5.0,0.2542361,5.0,5.0
14750.0,5.0,0.23002993,5.0,5.0
14760.0,5.0,0.16216217,5.0,5.0
14770.0,5.0,0.03160696,5.0,5.0
14780.0,5.0,0.0,5.0,5.0
14790.0,5.0,0.14997655,5.0,5.0
14800.0,5.0,0.24652585,5.0,5.0
14810.0,5.0,0.32274792,5.0,5.0
14820.0,5.0,0.3749013,5.0,5.0
14830.0,5.0,0.41559112,5.0,5.0
14840.0,5.0,0.45093682,5.0,6.0
14850.0,5.0,0.47163966,5.0,6.0
14860.0,5.0,0.47801128,5.0,6.0
14870.0,5.0,0.4868306,5.0,6.0
14880.0,5.0,0.49769068,5.0,6.0
14890.0,5.0,0.4999797,5.0,6.0
14900.0,6.0,0.4993746,5.0,6.0
14910.0,6.0,0.49877352,5.0,6.0
14920.0,6.0,0.49614114,5.0,6.0
14930.0,6.0,0.4918333,5.0,6.0
14940.0,6.0,0.47851333,5.0,6.0
14950.0,6.0,0.47580516,5.0,6.0
14960.0,6.0,0.48226136,5.0,6.0
14970.0,6.0,0.4805788,5.0,6.0
14980.0,6.0,0.47412655,5.0,6.0
14990.0,6.0,0.49858895,5.0,6.0
15000.0,6.0,0.54750246,5.75,6.0
15010.0,6.0,0.5857474,6.0,6.0
15020.0,6.0,0.5995202,6.0,6.0
15030.0,6.0,0.6150514,6.0,6.0
15040.0,6.0,0.5985282,6.0,6.0
15050.0,6.0,0.58884054,6.0,6.0
15060.0,6.0,0.5868015,6.0,6.0
15070.0,6.0,0.61020565,6.0,6.0
15080.0,6.0,0.63796836,6.0,6.5
15090.0,6.0,0.66508347,6.0,7.0
15100.0,6.0,0.66338223,6.0,7.0
15110.0,6.0,0.6603299,6.0,7.0
15120.0,6.0,0.72188574,6.0,7.0
15130.0,6.0,0.82259107,6.0,7.0
15140.0,6.0,0.8951177,6.0,7.0
15150.0,6.0,0.9114673,6.0,7.0
15160.0,6.0,0.92878354,6.0,7.0
15170.0,6.0,0.9648414,6.0,7.0
15180.0,6.0,0.9758697,5.0,7.0
15190.0,6.0,0.99847686,5.0,7.0
15200.0,6.0,1.0226784,5.0,7.0
15210.0,6.0,1.051235,5.0,7.0
15220.0,6.0,1.0771216,5.0,7.0
15230.0,6.0,1.096912,5.0,7.0
15240.0,6.0,1.1405333,5.0,7.0
15250.0,6.0,1.1793278,5.0,7.0
15260.0,6.0,1.2105498,5.0,7.0
15270.0,6.0,1.2121052,5.0,7.0
15280.0,6.0,1.1867938,5.0,7.0
15290.0,6.0,1.188234,5.0,7.0
15300.0,6.0,1.206134,5.0,7.0
15310.0,6.0,1.2233526,5.0,7.0
15320.0,5.0,1.1947067,5.0,7.0
15330.0,5.0,1.183924,5.0,7.0
15340.0,6.0,1.1808772,5.0,7.0
15350.0,5.0,1.222553,5.0,7.0
15360.0,5.0,1.2118448,5.0,7.0
15370.0,5.0,1.2053115,5.0,7.0
15380.0,5.0,1.2137408,5.0,7.0
15390.0,6.0,1.2152565,5.0,7.0
15400.0,6.0,1.1979461,5.0,7.0
15410.0,6.0,1.1820089,5.0,7.0
15420.0,6.0,1.1883699,5.0,7.0
15430.0,6.0,1.1962494,5.0,7.0
15440.0,6.0,1.2145207,5.0,7.0
15450.0,6.0,1.2270917,5.0,7.0
15460.0,6.0,1.2152144,5.0,7.0
15470.0,6.0,1.1995258,5.0,7.0
15480.0,6.0,1.2057346,5.0,7.0
15490.0,6.0,1.2200104,5.0,7.0
15500.0,6.0,1.2244997,5.0,7.0
15510.0,5.0,1.2167388,5.0,7.0
15520.0,5.0,1.2190934,5.0,7.0
15530.0,5.0,1.2242639,5.0,7.0
15540.0,5.0,1.2144756,5.0,7.0
15550.0,5.0,1.1936928,5.0,7.0
15560.0,5.0,1.1745348,5.0,7.0
15570.0,5.0,1.1553174,5.0,7.0
15580.0,5.0,1.1424838,5.0,7.0
15590.0,5.0,1.1335008,5.0,7.0
15600.0,5.0,1.0873821,5.0,7.0
15610.0,5.0,0.98498297,5.0,7.0
15620.0,5.0,0.9014213,5.0,7.0
15630.0,5.0,0.90621054,5.0,7.0
15640.0,5.0,0.9043921,5.0,7.0
15650.0,5.0,0.8959121,5.0,7.0
15660.0,5.0,0.88788164,5.0,7.0
15670.0,5.0,0.878036,5.0,7.0
15680.0,5.0,0.88623136,5.0,7.0
15690.0,5.0,0.8771899,5.0,6.0
15700.0,5.0,0.8819711,5.0,6.0
15710.0,5.0,0.90990496,5.0,6.0
15720.0,5.0,0.94268256,5.0,6.0
15730.0,5.0,0.9598978,5.0,6.0
15740.0,5.0,0.9337692,5.0,6.0
15750.0,5.0,0.90699005,4.0,6.0
15760.0,5.0,0.8679259,4.0,6.0
15770.0,5.0,0.8009969,4.0,6.0
15780.0,5.0,0.7882387,4.0,5.0
15790.0,5.0,0.8783917,4.0,5.0
15800.0,5.0,0.93363756,4.0,5.0
15810.0,5.0,0.8737548,4.0,5.0
15820.0,4.0,0.7800155,4.0,5.0
15830.0,4.0,0.7850114,4.0,5.0
15840.0,4.0,0.80345106,4.0,5.0
15850.0,4.0,0.81270826,3.0,5.0
15860.0,4.0,0.8324195,3.0,5.0
15870.0,4.0,0.8663399,3.0,5.0
15880.0,4.0,0.8810969,3.0,5.0
15890.0,4.0,0.90690696,3.0,5.0
15900.0,4.0,1.0004363,3.0,5.0
15910.0,4.0,1.0986294,3.0,5.0
15920.0,4.0,1.1616218,3.0,5.0
15930.0,4.0,1.1837641,3.0,5.0
15940.0,4.0,1.159533,3.0,5.0
15950.0,4.0,1.1185464,3.0,5.0
15960.0,4.0,1.1348284,3.0,5.0
15970.0,4.0,1.1664827,3.0,5.0
15980.0,4.0,1.1795453,3.0,5.0
15990.0,4.0,1.1477695,3.0,5.0
16000.0,4.0,1.0924684,3.0,5.0
16010.0,4.0,1.0382996,3.0,5.0
16020.0,4.0,1.0040445,3.0,5.0
16030.0,4.0,0.9631066,3.0,5.0
16040.0,4.0,0.8979505,3.0,5.0
16050.0,4.0,1.1285297,3.0,5.0
16060.0,5.0,1.1233163,3.0,5.0
16070.0,5.0,1.1824646,3.0,5.0
16080.0,5.0,1.2034498,3.0,6.0
16090.0,5.0,1.1717596,3.25,6.0
16100.0,5.0,1.1567394,4.0,6.0
16110.0,5.0,1.169069,4.0,6.0
16120.0,5.0,1.147235,4.0,6.0
16130.0,5.0,1.055109,4.0,6.0
16140.0,5.0,0.9319177,4.0,6.0
16150.0,5.0,0.8516369,4.0,6.0
16160.0,5.0,0.84087247,4.0,6.0
16170.0,5.0,0.86306816,4.0,6.0
16180.0,5.0,0.88250244,4.0,6.0
16190.0,5.0,0.8683904,4.0,6.0
16200.0,5.0,0.8004074,4.0,6.0
16210.0,5.0,0.7305214,5.0,6.0
16220.0,6.0,0.6293458,5.0,6.0
16230.0,6.0,0.53793603,5.0,6.0
16240.0,5.0,0.5579681,5.0,6.0
16250.0,6.0,0.5801256,5.0,6.0
16260.0,6.0,0.54007506,5.0,6.0
16270.0,6.0,0.47005087,5.0,6.0
16280.0,6.0,0.45575687,6.0,6.0
16290.0,6.0,0.41484037,6.0,6.0
16300.0,6.0,0.3975864,6.0,6.0
16310.0,6.0,0.4319768,6.0,6.0
16320.0,6.0,0.46006334,6.0,7.0
16330.0,6.0,0.46854445,6.0,7.0
16340.0,6.0,0.472857,6.0,7.0
16350.0,6.0,0.4834834,6.0,7.0
16360.0,6.0,0.49545375,6.0,7.0
16370.0,7.0,0.49966195,6.0,7.0
16380.0,7.0,0.49609262,6.0,7.0
16390.0,7.0,0.49220902,6.0,7.0
16400.0,7.0,0.5269795,6.0,7.0
16410.0,7.0,0.49401894,7.0,7.0
16420.0,7.0,0.4147598,7.0,7.0
16430.0,7.0,0.4404735,7.0,7.0
16440.0,7.0,0.49745888,7.0,7.0
16450.0,7.0,0.4774028,7.0,7.0
16460.0,7.0,0.3762389,7.0,7.0
16470.0,7.0,0.2988164,7.0,7.0
16480.0,7.0,0.28794208,7.0,7.0
16490.0,7.0,0.33245447,7.0,7.0
16500.0,7.0,0.3491674,7.0,7.0
16510.0,7.0,0.3142697,7.0,7.0
16520.0,7.0,0.29636216,7.0,7.0
16530.0,7.0,0.37294257,7.0,7.0
16540.0,7.0,0.4108466,7.0,7.0
16550.0,7.0,0.40183675,7.0,7.0
16560.0,7.0,0.4175823,7.0,7.0
16570.0,7.0,0.45345184,7.0,8.0
16580.0,7.0,0.46494114,7.0,8.0
16590.0,7.0,0.48744404,7.0,8.0
16600.0,7.0,0.5658912,7.0,8.0
16610.0,7.0,0.61646163,7.0,8.0
16620.0,7.0,0.62478465,7.0,8.0
16630.0,8.0,0.60517496,7.0,8.0
16640.0,8.0,0.6453578,7.0,8.0
16650.0,8.0,0.6810243,7.0,8.0
16660.0,8.0,0.66738814,7.0,8.0
16670.0,8.0,0.6228169,7.0,8.0
16680.0,8.0,0.6140157,7.0,8.0
16690.0,8.0,0.651664,7.0,8.0
16700.0,8.0,0.6333709,7.0,8.0
16710.0,8.0,0.5710634,8.0,8.0
16720.0,8.0,0.57707185,8.0,8.0
16730.0,8.0,0.62821233,8.0,8.0
16740.0,8.0,0.62134695,8.0,8.0
16750.0,8.0,0.61332875,8.0,8.0
16760.0,8.0,0.63036436,8.0,8.0
16770.0,8.0,0.62615186,8.0,8.0
16780.0,8.0,0.5467986,8.0,8.0
16790.0,8.0,0.43830028,8.0,8.0
16800.0,8.0,0.39013034,8.0,8.0
16810.0,8.0,0.40807897,8.0,8.0
16820.0,8.0,0.5265844,8.0,8.0
16830.0,8.0,0.58059084,8.0,8.0
16840.0,8.0,0.58114,8.0,8.0
16850.0,8.0,0.574593,8.0,8.0
16860.0,8.0,0.55860597,8.0,8.0
16870.0,8.0,0.45930734,8.0,8.0
16880.0,8.0,0.43832234,8.0,8.0
16890.0,8.0,0.585398,8.0,8.0
16900.0,8.0,0.6569238,8.0,8.0
16910.0,8.0,0.60806924,8.0,8.0
16920.0,8.0,0.5602457,8.0,8.0
16930.0,8.0,0.71032745,8.0,8.0
16940.0,8.0,0.81556976,7.0,8.0
16950.0,8.0,0.8246192,7.0,8.0
16960.0,7.0,0.75289845,7.0,8.0
16970.0,7.0,0.79909354,7.0,8.0
16980.0,7.0,0.90849304,7.0,8.0
16990.0,7.0,0.9494843,7.0,8.0
17000.0,7.0,0.9589523,7.0,8.0
17010.0,7.0,0.982658,7.0,8.0
17020.0,7.0,0.98171896,7.0,8.0
17030.0,7.0,0.9019721,7.0,8.0
17040.0,7.0,0.8938771,7.0,8.0
17050.0,7.0,0.9643353,7.0,8.0
17060.0,7.0,1.0574561,7.0,8.0
17070.0,7.0,1.0668849,7.0,8.0
17080.0,8.0,0.9068222,7.0,8.0
17090.0,8.0,0.7917232,7.0,8.0
17100.0,8.0,0.7180898,7.0,8.0
17110.0,8.0,0.85382545,7.0,8.0
17120.0,7.0,0.9616794,7.0,8.0
17130.0,7.0,0.99675864,7.0,8.0
17140.0,7.0,0.9126895,7.0,8.0
17150.0,7.0,0.9136543,7.0,8.0
17160.0,7.0,0.96036494,7.0,8.0
17170.0,7.0,1.0113455,7.0,8.0
17180.0,7.0,0.9262461,7.0,8.0
17190.0,7.0,0.92174375,7.0,8.0
17200.0,7.0,1.0022397,7.0,7.0
17210.0,7.0,1.1535075,7.0,7.0
17220.0,7.0,1.1340437,7.0,7.0
17230.0,7.0,1.0827372,6.0,7.0
17240.0,7.0,1.088136,6.0,7.0
17250.0,7.0,1.2020934,6.0,7.0
17260.0,6.0,1.2238997,6.0,7.0
17270.0,7.0,1.0397305,7.0,8.0
17280.0,7.0,0.7706697,7.0,8.0
17290.0,7.0,0.606553,7.0,8.0
17300.0,7.0,0.57905376,7.0,8.0
17310.0,7.0,0.62077427,7.0,8.0
17320.0,7.0,0.5387218,7.0,8.0
17330.0,7.0,0.5370659,7.0,8.0
17340.0,7.0,0.6248328,7.0,8.0
17350.0,7.0,0.6676273,7.0,7.0
17360.0,7.0,0.6778795,7.0,7.0
17370.0,7.0,0.6810987,6.0,7.0
17380.0,7.0,0.671491,6.0,7.0
17390.0,7.0,0.706426,6.0,7.0
17400.0,6.0,0.66598654,6.0,7.0
17410.0,6.0,0.66919845,6.0,7.0
17420.0,6.0,0.66889185,6.0,7.0
17430.0,6.0,0.71419,6.0,7.0
17440.0,6.0,0.6678085,6.0,7.0
17450.0,6.0,0.67592186,6.0,7.0
17460.0,6.0,0.68979496,6.0,7.0
17470.0,6.0,0.69810224,6.0,7.0
17480.0,6.0,0.69493157,6.0,7.0
17490.0,6.0,0.6616137,6.0,7.0
17500.0,6.0,0.6499296,6.0,7.0
17510.0,6.0,0.69406873,6.0,7.0
17520.0,6.0,0.7322299,6.0,7.0
17530.0,6.0,0.75531656,6.0,7.0
17540.0,6.0,0.7743763,6.0,7.0
17550.0,6.0,0.8095527,6.0,6.0
17560.0,6.0,0.836281,6.0,6.75
17570.0,6.0,0.85213757,6.0,7.0
17580.0,6.0,0.87125087,6.0,7.0
17590.0,6.0,0.91827726,5.0,7.0
17600.0,6.0,0.9699567,5.0,7.0
17610.0,6.0,0.9815592,5.0,6.0
17620.0,6.0,0.97548306,5.0,6.0
17630.0,6.0,0.96373,5.0,6.0
17640.0,6.0,0.9831453,5.0,6.75
17650.0,6.0,0.99202687,5.0,6.0
17660.0,6.0,0.9958204,5.0,6.0
17670.0,6.0,0.99571884,5.0,6.0
17680.0,6.0,1.0030929,5.0,6.0
17690.0,6.0,0.9902924,5.0,6.0
17700.0,6.0,0.9866611,5.0,6.0
17710.0,5.0,0.99847734,5.0,6.0
17720.0,5.0,1.0158819,5.0,6.0
17730.0,5.0,1.010909,5.0,6.0
17740.0,5.0,1.0074998,5.0,6.0
17750.0,5.0,1.0149716,5.0,6.0
17760.0,5.0,1.0330906,5.0,6.0
17770.0,5.0,1.0680056,5.0,6.0
17780.0,5.0,1.1040193,5.0,6.0
17790.0,5.0,1.1392471,5.0,6.0
17800.0,5.0,1.1465373,5.0,6.0
17810.0,5.0,1.1738138,5.0,6.0
17820.0,5.0,1.1710436,5.0,6.0
17830.0,5.0,1.1108555,4.0,6.0
17840.0,5.0,1.0258654,4.75,6.0
17850.0,5.0,1.0014464,5.0,6.0
17860.0,5.0,1.014148,5.0,6.0
17870.0,5.0,1.1586542,4.0,6.0
17880.0,5.0,1.1551932,4.0,6.0
17890.0,5.0,1.1414765,5.0,6.0
17900.0,5.0,1.1423576,5.0,6.0
17910.0,5.0,1.1106385,5.0,6.0
17920.0,5.0,1.0328969,5.0,6.0
17930.0,5.0,0.94279414,5.0,6.0
17940.0,5.0,0.8764345,5.0,6.0
17950.0,5.0,0.822115,5.0,6.0
17960.0,5.0,0.78759,5.0,6.0
17970.0,5.0,0.7851618,5.0,6.0
17980.0,5.0,0.79637915,5.0,6.0
17990.0,5.0,0.80885094,5.0,6.0
18000.0,5.0,0.80426055,5.0,6.0
18010.0,5.0,0.79171646,5.0,6.0
18020.0,5.0,0.79233265,5.0,6.0
18030.0,5.0,0.8028077,5.0,6.0
18040.0,5.0,0.8080341,5.0,6.0
18050.0,5.0,0.7955495,5.0,6.0
18060.0,5.0,0.78659195,5.0,6.0
18070.0,5.0,0.7981072,5.0,6.0
18080.0,5.0,0.79769164,5.0,6.0
18090.0,6.0,0.75961137,5.0,6.0
18100.0,6.0,0.7072821,5.0,6.0
18110.0,6.0,0.64103776,6.0,6.0
18120.0,6.0,0.60292286,6.0,6.0
18130.0,6.0,0.6008925,6.0,6.0
18140.0,6.0,0.5991591,6.0,6.0
18150.0,6.0,0.58872306,6.0,6.0
18160.0,6.0,0.55964184,6.0,6.0
18170.0,6.0,0.52972156,6.0,6.0
18180.0,6.0,0.5175456,6.0,6.0
18190.0,6.0,0.51165354,6.0,6.0
18200.0,6.0,0.5027756,6.0,6.0
18210.0,6.0,0.4851711,6.0,6.0
18220.0,6.0,0.45602158,6.0,6.0
18230.0,6.0,0.44818246,6.0,6.0
18240.0,6.0,0.4638406,6.0,7.0
18250.0,6.0,0.4844762,6.0,7.0
18260.0,6.0,0.4933954,6.0,7.0
18270.0,6.0,0.49782866,6.0,7.0
18280.0,6.0,0.49924162,6.0,7.0
18290.0,6.0,0.49995768,6.0,7.0
18300.0,7.0,0.49981734,6.0,7.0
18310.0,7.0,0.50556904,6.0,7.0
18320.0,6.0,0.52825546,6.0,7.0
18330.0,6.0,0.49018195,6.0,7.0
18340.0,6.0,0.49568254,6.0,7.0
18350.0,6.0,0.49962085,6.0,7.0
18360.0,6.0,0.5146761,6.0,7.0
18370.0,6.0,0.52825165,6.0,7.0
18380.0,6.0,0.54025686,6.0,7.0
18390.0,6.0,0.51855713,6.0,7.0
18400.0,6.0,0.49679103,6.0,7.0
18410.0,6.0,0.50522095,6.0,7.0
18420.0,6.0,0.5156603,6.0,7.0
18430.0,6.0,0.4980118,6.0,7.0
18440.0,6.0,0.494851,6.0,7.0
18450.0,6.0,0.49541354,6.0,7.0
18460.0,6.0,0.49835378,6.0,7.0
18470.0,6.0,0.52280045,6.0,7.0
18480.0,6.0,0.58261526,6.0,7.0
18490.0,6.0,0.6646902,6.0,7.0
18500.0,6.0,0.71945584,6.0,7.0
18510.0,6.0,0.7665851,6.0,7.0
18520.0,6.0,0.78139013,6.0,7.0
18530.0,6.0,0.781767,6.0,7.0
18540.0,6.0,0.781767,6.0,7.0
18550.0,6.0,0.80075455,6.0,7.0
18560.0,6.0,0.82103205,6.0,7.0
18570.0,6.0,0.81461066,6.0,7.0
18580.0,6.0,0.8149133,6.0,7.0
18590.0,6.0,0.83670634,5.0,7.0
18600.0,6.0,0.8925988,5.0,7.0
18610.0,6.0,0.92552924,5.0,7.0
18620.0,6.0,0.96021926,5.0,7.0
18630.0,6.0,1.0035882,5.0,7.0
18640.0,6.0,1.0756452,5.0,7.0
18650.0,6.0,1.1250166,5.0,7.0
18660.0,6.0,1.1529185,5.0,7.0
18670.0,6.0,1.1416609,5.0,7.0
18680.0,6.0,1.1510223,5.0,7.0
18690.0,6.0,1.1530445,5.0,7.0
18700.0,6.0,1.1806076,5.0,8.0
18710.0,6.0,1.1881077,5.0,8.0
18720.0,6.0,1.210396,5.0,8.0
18730.0,6.0,1.2137343,5.0,8.0
18740.0,6.0,1.2103854,5.0,8.0
18750.0,6.0,1.2070353,5.0,8.0
18760.0,6.0,1.2202896,5.0,8.0
18770.0,7.0,1.1987587,5.0,8.0
18780.0,7.0,1.1917782,5.0,8.0
18790.0,7.0,1.1895379,5.0,8.0
18800.0,7.0,1.2040415,5.0,8.0
18810.0,7.0,1.185159,5.0,8.0
18820.0,7.0,1.183008,5.0,8.0
18830.0,6.0,1.2003884,5.0,8.0
18840.0,7.0,1.1965677,5.0,8.0
18850.0,7.0,1.170728,6.0,8.0
18860.0,7.0,1.1641827,6.0,8.0
18870.0,7.0,1.1556686,6.0,8.0
18880.0,7.0,1.1518229,6.0,8.0
18890.0,7.0,1.1541024,6.0,8.0
18900.0,7.0,1.1711258,6.0,8.0
18910.0,7.0,1.162647,6.0,8.0
18920.0,7.0,1.1340684,6.0,8.0
18930.0,7.0,1.1347122,6.0,8.0
18940.0,7.0,1.1415713,6.0,8.0
18950.0,7.0,1.1436654,6.0,8.0
18960.0,7.0,1.1421636,6.0,8.0
18970.0,7.0,1.1363341,6.0,8.0
18980.0,7.0,1.1318568,6.0,8.0
18990.0,7.0,1.1255109,6.0,8.0
19000.0,7.0,1.1250174,6.0,8.0
19010.0,7.0,1.1211138,6.0,8.0
19020.0,7.0,1.1226237,6.0,8.0
19030.0,7.0,1.1374198,6.0,8.0
19040.0,7.0,1.1318729,6.0,8.0
19050.0,7.0,1.1156774,6.0,8.0
19060.0,7.0,1.0906875,6.0,8.0
19070.0,7.0,1.08658,6.0,8.0
19080.0,7.0,1.0682248,6.0,8.0
19090.0,7.0,1.0545515,6.0,8.0
19100.0,7.0,1.0286297,6.0,8.0
19110.0,7.0,1.0494565,6.0,8.0
19120.0,6.0,1.0488236,6.0,8.0
19130.0,6.0,1.0377206,6.0,7.0
19140.0,7.0,1.036069,6.0,7.0
19150.0,7.0,1.0512375,6.0,7.0
19160.0,7.0,1.0531383,6.0,7.0
19170.0,6.0,1.0391915,6.0,7.0
19180.0,6.0,1.0388917,6.0,7.0
19190.0,6.0,1.0461339,6.0,7.0
19200.0,6.0,1.0487729,6.0,7.0
19210.0,6.0,1.0240698,6.0,7.0
19220.0,6.0,0.9923688,6.0,7.0
19230.0,6.0,0.986273,5.5,7.0
19240.0,6.0,0.9833814,5.0,7.0
19250.0,6.0,0.9469192,5.0,7.0
19260.0,6.0,0.91519994,5.0,7.0
19270.0,6.0,0.8751406,5.0,7.0
19280.0,6.0,0.7877197,5.0,7.0
19290.0,6.0,0.760221,5.0,7.0
19300.0,6.0,0.757284,5.0,7.0
19310.0,6.0,0.7778184,5.0,7.0
19320.0,6.0,0.8111129,5.0,7.0
19330.0,6.0,0.78648984,5.0,7.0
19340.0,6.0,0.76061374,5.0,7.0
19350.0,6.0,0.7650836,5.0,7.0
19360.0,6.0,0.8018605,5.0,7.0
19370.0,6.0,0.7814335,5.0,7.0
19380.0,6.0,0.7550181,5.0,7.0
19390.0,6.0,0.7579652,5.0,7.0
19400.0,6.0,0.7737643,5.0,7.0
19410.0,6.0,0.7737617,5.0,7.0
19420.0,6.0,0.7766296,5.0,7.0
19430.0,6.0,0.7988368,5.0,7.0
19440.0,6.0,0.8084239,5.0,7.0
19450.0,6.0,0.80930966,5.0,7.0
19460.0,6.0,0.80836153,5.0,7.0
19470.0,6.0,0.78245306,5.0,7.0
19480.0,6.0,0.7637013,5.0,7.0
19490.0,6.0,0.7600987,5.0,6.0
19500.0,6.0,0.75779027,5.0,6.0
19510.0,6.0,0.7191943,5.0,6.0
19520.0,6.0,0.7240529,5.0,6.0
19530.0,6.0,0.7599072,5.0,7.0
19540.0,6.0,0.7964806,5.0,7.0
19550.0,6.0,0.752869,5.0,7.0
19560.0,6.0,0.75223875,5.0,7.0
19570.0,6.0,0.77083325,5.0,6.75
19580.0,6.0,0.7994359,5.0,7.0
19590.0,6.0,0.7991488,5.0,7.0
19600.0,6.0,0.79862046,5.0,7.0
19610.0,6.0,0.7958218,5.0,7.0
19620.0,6.0,0.7949802,5.0,7.0
19630.0,6.0,0.7946185,5.0,7.0
19640.0,6.0,0.7939619,5.0,7.0
19650.0,6.0,0.7910113,5.0,7.0
19660.0,6.0,0.79008764,5.0,7.0
19670.0,6.0,0.8032728,5.0,7.0
19680.0,6.0,0.82434505,5.0,7.0
19690.0,6.0,0.82154644,5.0,7.0
19700.0,6.0,0.81060606,5.0,7.0
19710.0,6.0,0.7115392,5.0,6.0
19720.0,6.0,0.6616926,5.0,6.0
19730.0,6.0,0.6532548,5.0,6.0
19740.0,6.0,0.6556987,5.0,6.0
19750.0,6.0,0.6608156,5.0,6.0
19760.0,6.0,0.61141986,5.0,6.0
19770.0,6.0,0.6248101,5.0,6.0
19780.0,6.0,0.6656852,5.0,6.0
19790.0,6.0,0.68196106,5.0,6.0
19800.0,6.0,0.68427336,5.0,6.0
19810.0,6.0,0.6966896,5.0,6.0
19820.0,6.0,0.6987325,5.0,6.0
19830.0,6.0,0.70106953,5.0,6.0
19840.0,6.0,0.70337117,5.0,6.0
19850.0,6.0,0.7056383,5.0,6.0
19860.0,6.0,0.69847476,5.0,6.0
19870.0,6.0,0.70053875,5.0,6.0
19880.0,6.0,0.7022084,5.0,6.0
19890.0,6.0,0.70420974,5.0,6.0
19900.0,6.0,0.6963617,5.0,6.0
19910.0,6.0,0.49707595,5.0,6.0
19920.0,6.0,0.4964792,5.0,6.0
19930.0,6.0,0.5045978,5.0,6.0
19940.0,6.0,0.5345143,5.0,6.0
19950.0,6.0,0.56236994,5.0,6.0
19960.0,6.0,0.5906655,5.0,6.0
19970.0,6.0,0.61726403,5.0,6.0
19980.0,6.0,0.65447557,5.0,6.0
19990.0,6.0,0.68445307,5.0,6.0
20000.0,6.0,0.70416987,5.0,6.0
20010.0,6.0,0.7272822,5.0,6.0
20020.0,6.0,0.73934025,5.0,6.0
20030.0,6.0,0.74452806,5.0,6.0
20040.0,6.0,0.75765365,5.0,7.0
20050.0,6.0,0.77601653,5.0,7.0
20060.0,6.0,0.8042891,5.0,7.0
20070.0,6.0,0.8276321,5.0,7.0
20080.0,6.0,0.83069813,5.0,7.0
20090.0,6.0,0.8269069,5.0,7.0
20100.0,6.0,0.84011245,5.0,7.0
20110.0,6.0,0.86361396,5.0,7.0
20120.0,6.0,0.8697994,5.0,7.0
20130.0,6.0,0.85466963,5.0,7.0
20140.0,6.0,0.84522665,5.0,7.0
20150.0,6.0,0.85897386,5.0,7.0
20160.0,6.0,0.88817954,5.0,7.0
20170.0,6.0,0.9076294,5.0,7.0
20180.0,6.0,0.9455513,5.0,7.0
20190.0,7.0,0.9927407,5.0,7.0
20200.0,7.0,1.0217822,5.0,7.0
20210.0,7.0,1.0249263,5.0,7.0
20220.0,6.0,0.6471051,5.0,6.0
20230.0,6.0,0.6755968,5.0,6.0
20240.0,6.0,0.7349298,5.0,6.0
20250.0,6.0,0.76823884,5.0,7.0
20260.0,6.0,0.74752456,5.0,7.0
20270.0,6.0,0.7312995,5.0,6.0
20280.0,6.0,0.71579254,5.0,6.0
20290.0,6.0,0.7379095,5.0,6.0
20300.0,6.0,0.74970925,5.0,7.0
20310.0,6.0,0.7792058,5.0,7.0
20320.0,6.0,0.78156507,5.0,7.0
20330.0,6.0,0.79304415,5.0,7.0
20340.0,6.0,0.7939989,5.0,7.0
20350.0,6.0,0.79615074,5.0,7.0
20360.0,6.0,0.8529374,5.0,7.0
20370.0,6.0,0.95011526,5.0,7.0
20380.0,6.0,1.0181631,5.0,7.0
20390.0,6.0,1.0395201,5.0,7.0
20400.0,6.0,1.0406609,5.0,7.0
20410.0,6.0,1.0783703,5.0,7.0
20420.0,6.0,1.1107543,5.0,7.0
20430.0,6.0,1.1056564,5.0,7.0
20440.0,6.0,1.0967318,5.0,7.0
20450.0,6.0,1.0799588,5.0,7.0
20460.0,6.0,1.0883509,5.0,7.0
20470.0,6.0,1.0850065,5.0,7.0
20480.0,6.0,1.0811841,5.0,7.0
20490.0,7.0,1.095053,5.0,7.0
20500.0,7.0,1.1409781,5.0,7.0
20510.0,7.0,1.2371433,5.0,8.0
20520.0,7.0,1.2975531,5.0,8.0
20530.0,7.0,1.370684,5.0,8.0
20540.0,7.0,1.3871404,5.0,7.0
20550.0,7.0,1.3581915,5.0,7.0
20560.0,7.0,1.3455337,5.0,7.0
20570.0,7.0,1.3784789,5.0,8.0
20580.0,7.0,1.3933983,5.0,8.0
20590.0,7.0,1.3578563,6.0,8.0
20600.0,7.0,1.344678,6.0,8.0
20610.0,7.0,1.3542475,6.0,8.0
20620.0,7.0,1.3493687,6.0,8.0
20630.0,7.0,1.3123928,6.0,8.0
20640.0,7.0,1.3416632,6.0,8.0
20650.0,7.0,1.3762717,6.0,8.0
20660.0,7.0,1.4218324,6.0,8.0
20670.0,7.0,1.4579767,6.0,8.0
20680.0,7.0,1.4933717,6.0,8.0
20690.0,7.0,1.5572075,6.0,8.0
20700.0,7.0,1.5183936,6.0,8.0
20710.0,7.0,1.4807351,6.0,8.0
20720.0,7.0,1.5111343,6.0,8.0
20730.0,7.0,1.5286514,6.0,8.0
20740.0,7.0,1.47881,6.0,8.0
20750.0,7.0,1.4063741,6.0,8.0
20760.0,7.0,1.3979986,6.0,8.0
20770.0,7.0,1.3768245,6.0,8.0
20780.0,7.0,1.3324128,6.0,8.0
20790.0,7.0,1.3234788,6.0,8.0
20800.0,8.0,1.3852262,6.0,9.0
20810.0,8.0,1.4236963,6.0,9.0
20820.0,8.0,1.4022839,7.0,9.0
20830.0,8.0,1.3493508,7.0,9.0
20840.0,8.0,1.3531283,7.0,9.0
20850.0,8.0,1.3850021,7.0,9.0
20860.0,8.0,1.3580245,7.0,9.0
20870.0,8.0,1.3128133,7.0,9.0
20880.0,8.0,1.2250125,7.0,9.0
20890.0,8.0,1.1643779,7.0,9.0
20900.0,8.0,1.102034,7.0,9.0
20910.0,8.0,1.107356,7.0,9.0
20920.0,8.0,1.1464729,7.0,9.0
20930.0,8.0,1.167681,7.0,10.0
20940.0,8.0,1.153446,7.0,10.0
20950.0,8.0,1.1168845,7.0,10.0
20960.0,8.0,1.1056254,8.0,10.0
20970.0,8.0,1.1380755,8.0,10.0
20980.0,8.0,1.1452996,8.0,10.0
20990.0,8.0,1.1413289,8.0,10.0
21000.0,8.0,1.1117514,8.0,10.0
21010.0,8.0,1.1311569,8.0,10.0
21020.0,8.0,1.1350485,8.0,10.0
21030.0,8.0,1.1246617,8.0,10.0
21040.0,8.0,1.0851728,8.0,10.0
21050.0,8.0,1.0610204,8.0,10.0
21060.0,9.0,1.0328752,8.0,10.0
21070.0,9.0,1.0207716,8.0,10.0
21080.0,9.0,0.9713413,8.0,10.0
21090.0,9.0,0.97045094,8.0,10.0
21100.0,9.0,0.9678349,8.0,10.0
21110.0,9.0,0.9612056,8.0,10.0
21120.0,9.0,0.9494835,8.0,10.0
21130.0,9.0,0.9496994,8.0,10.0
21140.0,9.0,0.9474408,8.0,10.0
21150.0,9.0,0.91509116,8.0,10.0
21160.0,9.0,0.8663943,8.0,10.0
21170.0,9.0,0.8547274,8.0,10.0
21180.0,9.0,0.8364644,8.0,10.0
21190.0,9.0,0.83316964,8.0,10.0
21200.0,9.0,1.1808878,8.0,10.0
21210.0,9.0,1.1723071,8.0,10.0
21220.0,9.0,1.1662585,8.0,10.0
21230.0,9.0,1.1508588,8.0,10.0
21240.0,9.0,1.1495582,8.0,10.0
21250.0,9.0,1.1815408,8.0,10.0
21260.0,9.0,1.2325177,8.0,10.0
21270.0,9.0,1.2863032,8.0,10.0
21280.0,9.0,1.3202711,8.0,10.0
21290.0,9.0,1.3386846,8.0,10.0
21300.0,9.0,1.3574034,8.0,10.0
21310.0,9.0,1.389863,8.0,10.0
21320.0,9.0,1.3508912,8.0,10.0
21330.0,9.0,1.2937458,8.0,10.0
21340.0,9.0,1.2619985,8.0,10.0
21350.0,9.0,1.2463567,8.0,10.0
21360.0,9.0,1.1669127,8.0,10.0
21370.0,9.0,1.105179,8.0,10.0
21380.0,9.0,1.0982612,8.0,10.0
21390.0,9.0,1.1215161,8.0,10.0
21400.0,9.0,1.1319177,8.0,10.0
21410.0,10.0,1.119823,8.0,10.0
21420.0,10.0,1.057617,8.0,10.0
21430.0,10.0,1.062204,8.0,10.0
21440.0,10.0,1.1014032,8.0,10.0
21450.0,10.0,1.1553084,8.0,10.0
21460.0,10.0,1.1158844,8.0,10.0
21470.0,10.0,1.1499836,8.0,10.0
21480.0,10.0,1.249627,8.0,10.0
21490.0,10.0,1.3159407,8.0,10.0
21500.0,10.0,1.2804396,8.0,11.0
21510.0,10.0,1.2895653,8.0,11.0
21520.0,10.0,1.3450896,9.0,11.0
21530.0,10.0,1.3756715,9.0,11.0
21540.0,10.0,1.3434496,9.0,11.0
21550.0,10.0,1.2942344,9.0,11.0
21560.0,10.0,1.3235642,9.0,11.0
21570.0,10.0,1.326939,9.0,11.0
21580.0,10.0,1.2764438,9.0,11.0
21590.0,10.0,1.17608,9.0,11.0
21600.0,10.0,1.1555455,9.0,11.0
21610.0,10.0,1.1052909,9.0,11.0
21620.0,10.0,1.0405613,9.0,11.0
21630.0,10.0,0.9650003,9.0,11.0
21640.0,10.0,0.9138855,9.0,11.0
21650.0,10.0,0.86180127,9.0,11.0
21660.0,11.0,0.9231156,9.0,11.0
21670.0,11.0,0.99389875,9.0,11.0
21680.0,11.0,1.0603036,9.0,11.0
21690.0,11.0,1.103634,9.0,11.0
21700.0,11.0,1.1286317,9.0,11.0
21710.0,11.0,1.1137074,9.0,11.0
21720.0,11.0,1.0826712,10.0,11.0
21730.0,11.0,1.0605121,10.0,11.0
21740.0,11.0,1.0564202,10.0,11.0
21750.0,11.0,1.0521222,10.0,11.0
21760.0,11.0,0.971781,10.0,11.0
21770.0,11.0,0.990691,10.0,11.0
21780.0,11.0,0.99959517,10.0,11.0
21790.0,11.0,1.0155432,10.0,11.0
21800.0,11.0,0.97526044,10.0,11.0
21810.0,11.0,0.96301234,10.0,11.0
21820.0,11.0,0.9629079,10.0,11.0
21830.0,11.0,0.9777938,10.0,11.0
21840.0,11.0,0.92712224,10.0,11.0
21850.0,11.0,0.85645473,10.0,11.0
21860.0,11.0,0.814281,10.0,11.0
21870.0,11.0,0.8320081,10.0,11.0
21880.0,11.0,0.78665274,10.0,11.0
21890.0,11.0,0.65059733,10.0,11.0
21900.0,11.0,0.5704776,10.0,11.0
21910.0,11.0,0.5772239,10.0,11.0
21920.0,11.0,0.57419926,10.0,11.0
21930.0,11.0,0.6185995,10.0,11.0
21940.0,11.0,0.7054557,10.0,11.0
21950.0,11.0,0.73518693,10.0,11.0
21960.0,11.0,0.7050926,10.0,11.0
21970.0,11.0,0.6732219,10.0,11.0
21980.0,11.0,0.76027673,10.0,11.0
21990.0,11.0,0.7984172,10.0,11.0
22000.0,11.0,0.88967687,10.0,11.0
22010.0,11.0,1.0130314,10.0,11.0
22020.0,11.0,1.0581121,10.0,11.0
22030.0,11.0,0.95785445,10.0,11.0
22040.0,11.0,0.95033634,10.0,11.0
22050.0,10.0,1.0619582,10.0,11.0
22060.0,10.0,1.126593,10.0,11.0
22070.0,10.0,0.9821352,10.0,11.0
22080.0,10.0,0.9866441,10.0,11.0
22090.0,10.0,1.0620941,10.0,11.0
22100.0,10.0,1.1073318,10.0,11.0
22110.0,10.0,1.1305872,10.0,10.0
22120.0,10.0,1.195025,10.0,10.0
22130.0,10.0,1.2170064,10.0,10.0
22140.0,10.0,1.0101193,10.0,10.0
22150.0,10.0,1.1010296,10.0,10.0
22160.0,10.0,1.2224566,9.0,10.0
22170.0,10.0,1.2876015,9.0,10.0
22180.0,10.0,1.2923546,9.0,10.0
22190.0,10.0,1.3031002,9.0,10.0
22200.0,10.0,1.2975932,9.0,10.0
22210.0,10.0,1.045102,9.0,10.0
22220.0,10.0,1.1981858,9.0,10.0
22230.0,10.0,1.2863533,9.0,10.0
22240.0,10.0,1.294587,9.0,10.0
22250.0,10.0,1.30417,9.0,10.0
22260.0,10.0,1.3158062,9.0,10.0
22270.0,10.0,1.3130975,9.0,10.0
22280.0,10.0,1.073663,9.0,10.0
22290.0,9.0,1.0839604,9.0,10.0
22300.0,9.0,1.0969279,9.0,10.0
22310.0,9.0,1.1381687,9.0,10.0
22320.0,9.0,1.2625487,9.0,10.0
22330.0,9.0,1.2559539,9.0,10.0
22340.0,9.0,1.136743,9.0,9.0
22350.0,9.0,0.92464215,9.0,9.0
22360.0,9.0,1.0520798,9.0,9.0
22370.0,9.0,1.119404,9.0,9.0
22370.0,9.0,1.119404,9.0,9.0
22370.0,9.0,1.1187184,9.0,9.0
