distance,median,stdev,prc_25,prc_75
20.0,1807.0,0.24486703,1807.0,1807.0
30.0,1807.0,0.2501381,1807.0,1807.0
40.0,1807.0,0.25526506,1807.0,1807.0
50.0,1807.0,0.2617709,1807.0,1807.0
60.0,1807.0,0.2651198,1807.0,1807.0
70.0,1807.0,0.21804827,1807.0,1807.0
80.0,1807.0,0.22213204,1807.0,1807.0
90.0,1807.0,0.22808771,1807.0,1807.0
100.0,1807.0,0.20068508,1807.0,1807.0
110.0,1807.0,0.10959933,1807.0,1807.0
120.0,1807.0,0.22484663,1807.0,1807.0
130.0,1807.0,0.34173593,1807.0,1807.0
140.0,1807.0,0.3878591,1807.0,1807.0
150.0,1807.0,0.41303632,1807.0,1807.0
160.0,1807.0,0.43712237,1807.0,1808.0
170.0,1807.0,0.4626206,1807.0,1808.0
180.0,1807.0,0.48153245,1807.0,1808.0
190.0,1807.0,0.49339536,1807.0,1808.0
200.0,1808.0,0.49924162,1807.0,1808.0
210.0,1808.0,0.48447624,1807.0,1808.0
220.0,1808.0,0.46464133,1807.0,1808.0
230.0,1808.0,0.4622089,1807.0,1808.0
240.0,1808.0,0.4491361,1807.0,1808.0
250.0,1808.0,0.4491361,1807.0,1808.0
260.0,1808.0,0.44948748,1807.0,1808.0
270.0,1808.0,0.4398645,1807.0,1808.0
280.0,1808.0,0.41707036,1808.0,1808.0
290.0,1808.0,0.41773054,1808.0,1808.0
300.0,1808.0,0.4196905,1808.0,1808.0
310.0,1808.0,0.42161992,1808.0,1808.0
320.0,1808.0,0.42351922,1808.0,1808.0
330.0,1808.0,0.42476895,1808.0,1808.0
340.0,1808.0,0.42708313,1808.0,1808.0
350.0,1808.0,0.42844012,1808.0,1808.0
360.0,1808.0,0.43023252,1808.0,1808.0
370.0,1808.0,0.40745783,1808.0,1808.0
380.0,1808.0,0.37925914,1808.0,1808.0
390.0,1808.0,0.37312505,1808.0,1808.0
400.0,1808.0,0.37490126,1808.0,1808.0
410.0,1808.0,0.37650898,1808.0,1808.0
420.0,1808.0,0.33971858,1808.0,1808.0
430.0,1808.0,0.32510194,1808.0,1808.0
440.0,1808.0,0.3026483,1808.0,1808.0
450.0,1808.0,0.15913516,1808.0,1808.0
460.0,1808.0,0.15620103,1808.0,1808.0
470.0,1808.0,0.0,1808.0,1808.0
480.0,1808.0,0.0,1808.0,1808.0
490.0,1808.0,0.0,1808.0,1808.0
500.0,1808.0,0.0,1808.0,1808.0
510.0,1808.0,0.0,1808.0,1808.0
520.0,1808.0,0.34609163,1808.0,1808.0
530.0,1808.0,0.34609163,1808.0,1808.0
540.0,1808.0,0.35007283,1808.0,1808.0
550.0,1808.0,0.49296427,1808.0,1809.0
560.0,1808.0,0.49296427,1808.0,1809.0
570.0,1808.0,0.4928935,1808.0,1809.0
580.0,1808.0,0.49296427,1808.0,1809.0
590.0,1808.0,0.49296427,1808.0,1809.0
600.0,1808.0,0.49685416,1808.0,1809.0
610.0,1809.0,0.49924162,1808.0,1809.0
620.0,1809.0,0.49929583,1808.0,1809.0
630.0,1809.0,0.49701488,1808.0,1809.0
640.0,1809.0,0.48774996,1808.0,1809.0
650.0,1809.0,0.4876118,1808.0,1809.0
660.0,1809.0,0.480395,1808.0,1809.0
670.0,1809.0,0.48057878,1808.0,1809.0
680.0,1809.0,0.480395,1808.0,1809.0
690.0,1809.0,0.4717572,1808.0,1809.0
700.0,1809.0,0.47199047,1808.0,1809.0
710.0,1809.0,0.4717572,1808.0,1809.0
720.0,1809.0,0.46053663,1808.0,1809.0
730.0,1809.0,0.46124935,1808.0,1809.0
740.0,1809.0,0.46095848,1808.0,1809.0
750.0,1809.0,0.46095848,1808.0,1809.0
760.0,1809.0,0.46095848,1808.0,1809.0
770.0,1809.0,0.4331571,1808.5,1809.0
780.0,1809.0,0.4331571,1808.5,1809.0
790.0,1809.0,0.4331571,1808.5,1809.0
800.0,1809.0,0.34609163,1809.0,1809.0
810.0,1809.0,0.34609163,1809.0,1809.0
820.0,1809.0,0.34609163,1809.0,1809.0
830.0,1809.0,0.31302696,1809.0,1809.0
840.0,1809.0,0.31302696,1809.0,1809.0
850.0,1809.0,0.4387057,1809.0,1809.0
860.0,1809.0,0.3270594,1809.0,1809.0
870.0,1809.0,0.3270594,1809.0,1809.0
880.0,1809.0,0.3722297,1809.0,1809.0
890.0,1809.0,0.3722297,1809.0,1809.0
900.0,1809.0,0.3722297,1809.0,1809.0
910.0,1809.0,0.44765452,1809.0,1810.0
920.0,1809.0,0.44765452,1809.0,1810.0
930.0,1809.0,0.44765452,1809.0,1810.0
940.0,1809.0,0.48738366,1809.0,1810.0
950.0,1809.0,0.48738366,1809.0,1810.0
960.0,1809.0,0.48738366,1809.0,1810.0
970.0,1809.0,0.48738366,1809.0,1810.0
980.0,1809.0,0.48738366,1809.0,1810.0
990.0,1809.0,0.49296427,1809.0,1810.0
1000.0,1809.0,0.49296427,1809.0,1810.0
1010.0,1809.0,0.49296427,1809.0,1810.0
1020.0,1809.0,0.49999976,1809.0,1810.0
1030.0,1809.0,0.49999976,1809.0,1810.0
1040.0,1809.0,0.49999976,1809.0,1810.0
1050.0,1810.0,0.46095848,1809.0,1810.0
1060.0,1810.0,0.46095848,1809.0,1810.0
1070.0,1810.0,0.46095848,1809.0,1810.0
1080.0,1810.0,0.4481512,1809.0,1810.0
1090.0,1810.0,0.4481512,1809.0,1810.0
1100.0,1810.0,0.43257838,1810.0,1810.0
1110.0,1810.0,0.43257838,1810.0,1810.0
1120.0,1810.0,0.43257838,1810.0,1810.0
1130.0,1810.0,0.43257838,1810.0,1810.0
1140.0,1810.0,0.43257838,1810.0,1810.0
1150.0,1810.0,0.44239235,1809.0,1810.0
1160.0,1810.0,0.4391799,1809.0,1810.0
1170.0,1810.0,0.4335885,1809.0,1810.0
1180.0,1810.0,0.402969,1810.0,1810.0
1190.0,1810.0,0.402969,1810.0,1810.0
1200.0,1810.0,0.402969,1810.0,1810.0
1210.0,1810.0,0.38335234,1810.0,1810.0
1220.0,1810.0,0.35509998,1810.0,1810.0
1230.0,1810.0,0.38795745,1810.0,1810.0
1240.0,1810.0,0.34635818,1810.0,1810.0
1250.0,1810.0,0.3628099,1810.0,1810.0
1260.0,1810.0,0.3803104,1810.0,1810.0
1270.0,1810.0,0.43883488,1810.0,1810.0
1280.0,1810.0,0.3756328,1810.0,1810.0
1290.0,1810.0,0.3756328,1810.0,1810.0
1300.0,1810.0,0.42647275,1810.0,1810.0
1310.0,1810.0,0.47057304,1810.0,1811.0
1320.0,1810.0,0.4894854,1810.0,1811.0
1330.0,1810.0,0.4894854,1810.0,1811.0
1340.0,1810.0,0.4896928,1810.0,1811.0
1350.0,1810.0,0.4938785,1810.0,1811.0
1360.0,1810.0,0.49449366,1810.0,1811.0
1370.0,1810.0,0.49797085,1810.0,1811.0
1380.0,1810.0,0.4987023,1810.0,1811.0
1390.0,1811.0,0.49847668,1810.0,1811.0
1400.0,1811.0,0.4983974,1810.0,1811.0
1410.0,1811.0,0.4983974,1810.0,1811.0
1420.0,1811.0,0.4910845,1810.0,1811.0
1430.0,1811.0,0.46451586,1810.0,1811.0
1440.0,1811.0,0.4532979,1810.0,1811.0
1450.0,1811.0,0.45559192,1810.0,1811.0
1460.0,1811.0,0.45343244,1810.0,1811.0
1470.0,1811.0,0.4460647,1811.0,1811.0
1480.0,1811.0,0.47497368,1811.0,1811.0
1490.0,1811.0,0.45833823,1811.0,1811.0
1500.0,1811.0,0.50239426,1811.0,1811.0
1510.0,1811.0,0.5213149,1811.0,1811.0
1520.0,1811.0,0.5305006,1811.0,1811.0
1530.0,1811.0,0.39984196,1811.0,1811.0
1540.0,1811.0,0.41814053,1811.0,1811.0
1550.0,1811.0,0.4162583,1811.0,1811.0
1560.0,1811.0,0.4164068,1811.0,1811.0
1570.0,1811.0,0.4702127,1811.0,1812.0
1580.0,1811.0,0.4717572,1811.0,1812.0
1590.0,1811.0,0.48774996,1811.0,1812.0
1600.0,1811.0,0.4878378,1811.0,1812.0
1610.0,1811.0,0.48806164,1811.0,1812.0
1620.0,1811.0,0.48797438,1811.0,1812.0
1630.0,1811.0,0.49513638,1811.0,1812.0
1640.0,1812.0,0.49909917,1811.0,1812.0
1650.0,1812.0,0.49906698,1811.0,1812.0
1660.0,1812.0,0.49601513,1811.0,1812.0
1670.0,1812.0,0.48668626,1811.0,1812.0
1680.0,1812.0,0.48447624,1811.0,1812.0
1690.0,1812.0,0.47970718,1811.0,1812.0
1700.0,1812.0,0.4699697,1811.0,1812.0
1710.0,1812.0,0.4702127,1811.0,1812.0
1720.0,1812.0,0.4699697,1811.0,1812.0
1730.0,1812.0,0.4369794,1811.0,1812.0
1740.0,1812.0,0.420973,1812.0,1812.0
1750.0,1812.0,0.5296213,1812.0,1812.0
1760.0,1812.0,0.5490209,1812.0,1812.0
1770.0,1812.0,0.5479143,1812.0,1812.0
1780.0,1812.0,0.5494642,1812.0,1812.0
1790.0,1812.0,0.61027414,1812.0,1813.0
1800.0,1812.0,0.5252618,1812.0,1813.0
1810.0,1812.0,0.47597364,1812.0,1813.0
1820.0,1812.0,0.50848293,1812.0,1813.0
1830.0,1812.0,0.53091526,1812.0,1813.0
1840.0,1812.0,0.58850324,1812.0,1813.0
1850.0,1812.0,0.5793064,1812.0,1813.0
1860.0,1812.0,0.5505306,1812.0,1813.0
1870.0,1812.0,0.5522454,1812.0,1813.0
1880.0,1813.0,0.55664706,1812.0,1813.0
1890.0,1813.0,0.5579642,1812.0,1813.0
1900.0,1813.0,0.5597991,1812.0,1813.0
1910.0,1813.0,0.5516666,1812.0,1813.0
1920.0,1813.0,0.5536705,1812.0,1813.0
1930.0,1813.0,0.5418588,1812.0,1813.0
1940.0,1813.0,0.5441314,1812.0,1813.0
1950.0,1813.0,0.54626,1812.0,1813.0
1960.0,1813.0,0.54837847,1812.0,1813.0
1970.0,1813.0,0.55048704,1812.0,1813.0
1980.0,1813.0,0.5525857,1812.0,1813.0
1990.0,1813.0,0.5546746,1812.0,1813.0
2000.0,1813.0,0.54818887,1812.0,1813.0
2010.0,1813.0,0.54027766,1813.0,1813.0
2020.0,1813.0,0.6105039,1813.0,1813.0
2030.0,1813.0,0.67655295,1813.0,1813.0
2040.0,1813.0,0.7346938,1813.0,1813.0
2050.0,1813.0,0.7024073,1813.0,1813.0
2060.0,1813.0,0.7582817,1813.0,1814.0
2070.0,1813.0,0.7680208,1813.0,1814.0
2080.0,1813.0,0.770649,1813.0,1814.0
2090.0,1813.0,0.77065164,1813.0,1814.0
2100.0,1813.0,0.7734054,1813.0,1814.0
2110.0,1813.0,0.7346065,1813.0,1814.0
2120.0,1813.0,0.7377201,1813.0,1814.0
2130.0,1813.0,0.73854995,1813.0,1814.0
2140.0,1813.0,0.75344473,1813.0,1814.0
2150.0,1813.0,0.7542918,1813.0,1814.0
2160.0,1813.0,0.7551364,1813.0,1814.0
2170.0,1813.0,0.7559788,1813.0,1814.0
2180.0,1813.0,0.756336,1813.0,1814.0
2190.0,1813.0,0.77097344,1813.0,1814.0
2200.0,1813.0,0.74736506,1813.0,1814.0
2210.0,1813.0,0.5105673,1813.0,1814.0
2220.0,1813.0,0.53419006,1813.0,1814.0
2230.0,1813.0,0.5211516,1813.0,1814.0
2240.0,1814.0,0.5107715,1813.0,1814.0
2250.0,1814.0,0.5206832,1813.0,1814.0
2260.0,1814.0,0.5266412,1813.0,1814.0
2270.0,1814.0,0.492722,1813.0,1814.0
2280.0,1814.0,0.4802905,1813.0,1814.0
2290.0,1814.0,0.47881517,1813.0,1814.0
2300.0,1814.0,0.47504103,1813.0,1814.0
2310.0,1814.0,0.45236155,1813.0,1814.0
2320.0,1814.0,0.43008715,1814.0,1814.0
2330.0,1814.0,0.4295659,1814.0,1814.0
2340.0,1814.0,0.4533211,1814.0,1814.0
2350.0,1814.0,0.46470532,1814.0,1814.0
2360.0,1814.0,0.47538513,1814.0,1814.0
2370.0,1814.0,0.43759662,1814.0,1814.0
2380.0,1814.0,0.43928915,1814.0,1814.0
2390.0,1814.0,0.490835,1814.0,1814.0
2400.0,1814.0,0.5498946,1813.0,1814.0
2410.0,1814.0,0.56701326,1814.0,1814.0
2420.0,1814.0,0.6049587,1814.0,1814.0
2430.0,1814.0,0.65937465,1814.0,1814.0
2440.0,1814.0,0.69849837,1814.0,1814.0
2450.0,1814.0,0.72086334,1814.0,1815.0
2460.0,1814.0,0.7530711,1814.0,1815.0
2470.0,1814.0,0.790427,1814.0,1815.0
2480.0,1815.0,0.82238615,1814.0,1815.0
2490.0,1815.0,0.82164466,1814.0,1815.0
2500.0,1815.0,0.80746514,1814.0,1815.0
2510.0,1815.0,0.7925093,1814.0,1815.0
2520.0,1815.0,0.77672136,1814.0,1815.0
2530.0,1815.0,0.75893015,1814.0,1815.0
2540.0,1815.0,0.7406457,1814.0,1815.0
2550.0,1815.0,0.74919695,1814.0,1815.0
2560.0,1815.0,0.7573929,1814.0,1815.0
2570.0,1815.0,0.76770824,1814.0,1815.0
2580.0,1815.0,0.7773538,1814.0,1815.0
2590.0,1815.0,0.77194816,1814.0,1815.0
2600.0,1814.0,0.49607047,1814.0,1815.0
2610.0,1815.0,0.43586117,1814.0,1815.0
2620.0,1815.0,0.43586117,1814.0,1815.0
2630.0,1815.0,0.41904062,1815.0,1815.0
2640.0,1815.0,0.41889256,1815.0,1815.0
2650.0,1815.0,0.39924803,1815.0,1815.0
2660.0,1815.0,0.39924803,1815.0,1815.0
2670.0,1815.0,0.39939815,1815.0,1815.0
2680.0,1815.0,0.37650898,1815.0,1815.0
2690.0,1815.0,0.42102727,1815.0,1815.0
2700.0,1815.0,0.42102727,1815.0,1815.0
2710.0,1815.0,0.5287465,1815.0,1815.0
2720.0,1815.0,0.52848464,1815.0,1815.0
2730.0,1815.0,0.44676617,1815.0,1815.0
2740.0,1815.0,0.52400655,1815.0,1816.0
2750.0,1815.0,0.52191854,1815.0,1816.0
2760.0,1815.0,0.47792885,1815.0,1816.0
2770.0,1815.0,0.4929543,1815.0,1816.0
2780.0,1815.0,0.49281794,1815.0,1816.0
2790.0,1815.0,0.49842852,1815.0,1816.0
2800.0,1816.0,0.45706782,1815.0,1816.0
2810.0,1816.0,0.45706782,1815.0,1816.0
2820.0,1816.0,0.43430525,1815.0,1816.0
2830.0,1816.0,0.43416128,1815.0,1816.0
2840.0,1816.0,0.43416128,1815.0,1816.0
2850.0,1816.0,0.41707036,1816.0,1816.0
2860.0,1816.0,0.4164068,1816.0,1816.0
2870.0,1816.0,0.39620066,1816.0,1816.0
2880.0,1816.0,0.3963509,1816.0,1816.0
2890.0,1816.0,0.37839693,1816.0,1816.0
2900.0,1816.0,0.31413212,1816.0,1816.0
2910.0,1816.0,0.3142697,1816.0,1816.0
2920.0,1816.0,0.31302696,1816.0,1816.0
2930.0,1816.0,0.3639217,1816.0,1816.0
2940.0,1816.0,0.52347094,1816.0,1816.0
2950.0,1816.0,0.4917062,1816.0,1816.0
2960.0,1816.0,0.5495906,1816.0,1816.0
2970.0,1816.0,0.5797498,1816.0,1817.0
2980.0,1816.0,0.5795033,1816.0,1817.0
2990.0,1816.0,0.59099597,1816.0,1817.0
3000.0,1817.0,0.6404357,1816.0,1817.0
3010.0,1817.0,0.6372056,1816.0,1817.0
3020.0,1817.0,0.63570267,1816.0,1817.0
3030.0,1817.0,0.5861133,1816.0,1817.0
3040.0,1817.0,0.5808261,1816.0,1817.0
3050.0,1817.0,0.5809929,1816.0,1817.0
3060.0,1817.0,0.5790581,1816.0,1817.0
3070.0,1817.0,0.5722761,1816.0,1817.0
3080.0,1817.0,0.5721927,1816.0,1817.0
3090.0,1817.0,0.5619727,1816.0,1817.0
3100.0,1817.0,0.56178284,1816.0,1817.0
3110.0,1817.0,0.5619727,1816.0,1817.0
3120.0,1817.0,0.567879,1816.0,1817.0
3130.0,1817.0,0.5677006,1816.0,1817.0
3140.0,1817.0,0.5676072,1816.0,1817.0
3150.0,1817.0,0.5655664,1816.0,1817.0
3160.0,1817.0,0.5683626,1816.0,1817.0
3170.0,1817.0,0.73135304,1816.0,1817.0
3180.0,1817.0,0.5319037,1817.0,1817.0
3190.0,1817.0,0.40370163,1817.0,1817.0
3200.0,1817.0,0.39542887,1817.0,1817.0
3210.0,1817.0,0.3866665,1817.0,1817.0
3220.0,1817.0,0.43385595,1817.0,1817.0
3230.0,1817.0,0.5252466,1817.0,1817.0
3240.0,1817.0,0.58106023,1817.0,1817.0
3250.0,1817.0,0.59952563,1817.0,1817.0
3260.0,1817.0,0.6139674,1817.0,1818.0
3270.0,1817.0,0.635074,1817.0,1818.0
3280.0,1817.0,0.6383071,1817.0,1818.0
3290.0,1817.0,0.63204354,1817.0,1818.0
3300.0,1817.0,0.6244669,1817.0,1818.0
3310.0,1817.0,0.6160357,1817.0,1818.0
3320.0,1817.0,0.6035679,1817.0,1818.0
3330.0,1817.0,0.59433913,1817.0,1818.0
3340.0,1818.0,0.5796542,1817.0,1818.0
3350.0,1818.0,0.55788803,1817.0,1818.0
3360.0,1818.0,0.5210566,1817.0,1818.0
3370.0,1818.0,0.48685825,1817.0,1818.0
3380.0,1818.0,0.45376205,1817.0,1818.0
3390.0,1818.0,0.44651425,1817.0,1818.0
3400.0,1818.0,0.43863425,1817.0,1818.0
3410.0,1818.0,0.4201892,1818.0,1818.0
3420.0,1818.0,0.40149218,1818.0,1818.0
3430.0,1818.0,0.40003875,1818.0,1818.0
3440.0,1818.0,0.49516055,1818.0,1818.0
3450.0,1818.0,0.57528347,1818.0,1818.0
3460.0,1818.0,0.6117877,1818.0,1818.0
3470.0,1818.0,0.6135801,1818.0,1818.0
3480.0,1818.0,0.6277369,1818.0,1819.0
3490.0,1818.0,0.6457987,1818.0,1819.0
3500.0,1818.0,0.64174074,1818.0,1819.0
3510.0,1818.0,0.63866997,1818.0,1819.0
3520.0,1818.0,0.63921106,1818.0,1819.0
3530.0,1819.0,0.6276412,1818.0,1819.0
3540.0,1819.0,0.60399115,1818.0,1819.0
3550.0,1819.0,0.57651573,1818.0,1819.0
3560.0,1819.0,0.5487258,1818.0,1819.0
3570.0,1819.0,0.5124402,1818.0,1819.0
3580.0,1819.0,0.47342795,1818.0,1819.0
3590.0,1819.0,0.443058,1818.0,1819.0
3600.0,1819.0,0.47864595,1818.0,1819.0
3610.0,1819.0,0.55242926,1819.0,1819.0
3620.0,1819.0,0.6885592,1818.0,1819.0
3630.0,1819.0,0.9544585,1818.0,1820.0
3640.0,1819.0,0.95130175,1818.0,1820.0
3650.0,1819.0,0.90521604,1819.0,1820.0
3660.0,1819.0,0.9283512,1819.0,1820.0
3670.0,1819.0,0.9288049,1819.0,1820.0
3680.0,1819.0,0.94593656,1819.0,1820.0
3690.0,1819.0,0.94593656,1819.0,1820.0
3700.0,1819.0,0.8391207,1819.0,1820.0
3710.0,1819.0,0.836645,1819.0,1820.0
3720.0,1819.0,0.83702475,1819.0,1820.0
3730.0,1820.0,0.76347625,1819.0,1820.0
3740.0,1820.0,0.774281,1819.0,1820.0
3750.0,1820.0,0.7745471,1819.0,1820.0
3760.0,1820.0,0.73886335,1819.0,1820.0
3770.0,1820.0,0.6512772,1819.0,1820.0
3780.0,1820.0,0.6479407,1819.0,1820.0
3790.0,1820.0,0.64413005,1819.0,1820.0
3800.0,1820.0,0.6392205,1819.0,1820.0
3810.0,1820.0,0.6664413,1819.0,1820.0
3820.0,1820.0,0.68985164,1819.0,1820.0
3830.0,1820.0,0.6421155,1820.0,1820.0
3840.0,1820.0,0.6828177,1820.0,1821.0
3850.0,1820.0,0.7195185,1820.0,1821.0
3860.0,1820.0,0.7568216,1820.0,1821.0
3870.0,1820.0,0.726124,1820.0,1821.0
3880.0,1820.0,0.6682445,1820.0,1821.0
3890.0,1820.0,0.6580209,1820.0,1821.0
3900.0,1820.0,0.65042263,1820.0,1821.0
3910.0,1820.0,0.64888185,1820.0,1821.0
3920.0,1820.0,0.60591906,1820.0,1821.0
3930.0,1821.0,0.60666776,1820.0,1821.0
3940.0,1821.0,0.6061902,1820.0,1821.0
3950.0,1821.0,0.6033233,1820.0,1821.0
3960.0,1821.0,0.5616981,1820.0,1821.0
3970.0,1821.0,0.4706919,1820.0,1821.0
3980.0,1821.0,0.45706847,1820.0,1821.0
3990.0,1821.0,0.45011,1820.0,1821.0
4000.0,1821.0,0.42288944,1821.0,1821.0
4010.0,1821.0,0.37665847,1821.0,1821.0
4020.0,1821.0,0.4788825,1821.0,1821.0
4030.0,1821.0,0.549658,1821.0,1821.0
4040.0,1821.0,0.5984513,1821.0,1822.0
4050.0,1821.0,0.5446457,1821.0,1822.0
4060.0,1821.0,0.4991272,1821.0,1822.0
4070.0,1822.0,0.66186404,1821.0,1822.0
4080.0,1822.0,0.62484473,1821.0,1822.0
4090.0,1822.0,0.5803783,1821.0,1822.0
4100.0,1822.0,0.5628277,1821.0,1822.0
4110.0,1822.0,0.6015813,1821.0,1822.0
4120.0,1822.0,0.6768633,1822.0,1822.0
4130.0,1822.0,0.7193219,1822.0,1822.0
4140.0,1822.0,0.7258312,1822.0,1823.0
4150.0,1823.0,0.7374524,1822.0,1823.0
4160.0,1823.0,0.75189817,1822.0,1823.0
4170.0,1823.0,0.7302712,1822.0,1823.0
4180.0,1823.0,0.7027937,1822.0,1823.0
4190.0,1823.0,0.66990674,1822.0,1823.0
4200.0,1823.0,0.6323891,1822.0,1823.0
4210.0,1823.0,0.5891655,1822.0,1823.0
4220.0,1823.0,0.5410869,1822.0,1823.0
4230.0,1823.0,0.5088458,1822.0,1823.0
4240.0,1823.0,0.58102584,1822.0,1823.0
4250.0,1823.0,0.71811974,1823.0,1824.0
4260.0,1823.0,0.7783154,1823.0,1824.0
4270.0,1824.0,0.7797276,1823.0,1824.0
4280.0,1824.0,0.760904,1823.0,1824.0
4290.0,1824.0,0.73639596,1823.0,1824.0
4300.0,1824.0,0.70829093,1823.0,1824.0
4310.0,1824.0,0.63775474,1823.0,1824.0
4320.0,1824.0,0.4864494,1823.0,1824.0
4330.0,1824.0,0.44962442,1823.0,1824.0
4340.0,1824.0,0.38763434,1824.0,1824.0
4350.0,1824.0,0.3040935,1824.0,1824.0
4360.0,1824.0,0.25526506,1824.0,1824.0
4370.0,1824.0,0.1293346,1824.0,1824.0
4380.0,1824.0,0.054717336,1824.0,1824.0
4390.0,1824.0,0.0,1824.0,1824.0
4400.0,1824.0,0.0,1824.0,1824.0
4410.0,1824.0,0.19128813,1824.0,1824.0
4420.0,1824.0,0.3215598,1824.0,1824.0
4430.0,1824.0,0.37578222,1824.0,1824.0
4440.0,1824.0,0.3940233,1824.0,1824.0
4450.0,1824.0,0.41371745,1824.0,1824.0
4460.0,1824.0,0.45107287,1824.0,1825.0
4470.0,1824.0,0.46302977,1824.0,1825.0
4480.0,1824.0,0.46302977,1824.0,1825.0
4490.0,1824.0,0.4734851,1824.0,1825.0
4500.0,1824.0,0.49701488,1824.0,1825.0
4510.0,1825.0,0.49116212,1824.0,1825.0
4520.0,1825.0,0.44614783,1824.0,1825.0
4530.0,1825.0,0.34713238,1825.0,1825.0
4540.0,1825.0,0.29608995,1825.0,1825.0
4550.0,1825.0,0.29879504,1825.0,1825.0
4560.0,1825.0,0.29056287,1825.0,1825.0
4570.0,1825.0,0.21163884,1825.0,1825.0
4580.0,1825.0,0.21386778,1825.0,1825.0
4590.0,1825.0,0.21804827,1825.0,1825.0
4600.0,1825.0,0.29608992,1825.0,1825.0
4610.0,1825.0,0.41151425,1825.0,1825.0
4620.0,1825.0,0.41356862,1825.0,1825.0
4630.0,1825.0,0.44548705,1825.0,1825.0
4640.0,1825.0,0.5204604,1825.0,1825.0
4650.0,1825.0,0.53061384,1825.0,1825.0
4660.0,1825.0,0.5467138,1825.0,1825.0
4670.0,1825.0,0.5844921,1825.0,1826.0
4680.0,1825.0,0.6297548,1825.0,1826.0
4690.0,1826.0,0.5692065,1825.0,1826.0
4700.0,1826.0,0.5638257,1825.0,1826.0
4710.0,1826.0,0.56145436,1825.0,1826.0
4720.0,1826.0,0.52797633,1825.0,1826.0
4730.0,1826.0,0.43416128,1825.0,1826.0
4740.0,1826.0,0.4294927,1826.0,1826.0
4750.0,1826.0,0.43067855,1826.0,1826.0
4760.0,1826.0,0.43185183,1826.0,1826.0
4770.0,1826.0,0.4331571,1825.5,1826.0
4780.0,1826.0,0.43416128,1825.0,1826.0
4790.0,1826.0,0.42462218,1826.0,1826.0
4800.0,1826.0,0.39071214,1826.0,1826.0
4810.0,1826.0,0.42707846,1826.0,1826.0
4820.0,1826.0,0.48804814,1826.0,1826.0
4830.0,1826.0,0.5393988,1826.0,1826.0
4840.0,1826.0,0.56397325,1826.0,1826.0
4850.0,1826.0,0.54615384,1826.0,1826.0
4860.0,1826.0,0.6829927,1826.0,1827.0
4870.0,1826.0,0.71386886,1826.0,1827.0
4880.0,1827.0,0.7051425,1826.0,1827.0
4890.0,1827.0,0.6695663,1826.0,1827.0
4900.0,1827.0,0.6295069,1826.0,1827.0
4910.0,1827.0,0.5929586,1826.0,1827.0
4920.0,1827.0,0.58081317,1826.0,1827.0
4930.0,1827.0,0.644856,1826.0,1827.0
4940.0,1827.0,0.6795124,1826.0,1827.0
4950.0,1827.0,0.6314944,1826.0,1827.0
4960.0,1827.0,0.6348787,1826.0,1827.0
4970.0,1827.0,0.67386645,1826.0,1827.0
4980.0,1827.0,0.66483086,1826.0,1827.0
4990.0,1827.0,0.6380439,1827.0,1827.0
5000.0,1827.0,0.61191213,1827.0,1827.0
5010.0,1827.0,0.606851,1827.0,1827.0
5020.0,1827.0,0.60263914,1827.0,1827.0
5030.0,1827.0,0.61896604,1827.0,1828.0
5040.0,1827.0,0.6332532,1827.0,1828.0
5050.0,1827.0,0.6314611,1827.0,1828.0
5060.0,1827.0,0.5984973,1827.0,1828.0
5070.0,1827.0,0.5895224,1827.0,1828.0
5080.0,1827.0,0.61571735,1827.0,1828.0
5090.0,1828.0,0.63256454,1827.0,1828.0
5100.0,1828.0,0.63321316,1827.0,1828.0
5110.0,1828.0,0.63438195,1827.0,1828.0
5120.0,1828.0,0.6361123,1827.0,1828.0
5130.0,1828.0,0.6529004,1827.0,1828.0
5140.0,1828.0,0.6379385,1828.0,1828.0
5150.0,1828.0,0.6160053,1828.0,1828.0
5160.0,1828.0,0.4470341,1828.0,1828.0
5170.0,1828.0,0.47018188,1828.0,1828.0
5180.0,1828.0,0.5024649,1828.0,1828.0
5190.0,1828.0,0.5233889,1828.0,1828.0
5200.0,1828.0,0.5613377,1828.0,1828.0
5210.0,1828.0,0.5656634,1828.0,1828.0
5220.0,1828.0,0.57653356,1828.0,1828.0
5230.0,1828.0,0.58538795,1828.0,1828.0
5240.0,1828.0,0.62747425,1828.0,1829.0
5250.0,1828.0,0.69146204,1828.0,1829.0
5260.0,1829.0,0.71373945,1828.0,1829.0
5270.0,1829.0,0.659878,1828.0,1829.0
5280.0,1829.0,0.579914,1828.0,1829.0
5290.0,1829.0,0.49535346,1828.0,1829.0
5300.0,1829.0,0.50115764,1828.0,1829.0
5310.0,1829.0,0.50985646,1828.0,1829.0
5320.0,1829.0,0.4972635,1829.0,1829.0
5330.0,1829.0,0.5003589,1829.0,1829.0
5340.0,1829.0,0.54273283,1829.0,1829.0
5350.0,1829.0,0.5771482,1829.0,1829.0
5360.0,1829.0,0.63559026,1829.0,1830.0
5370.0,1829.0,0.6831222,1829.0,1830.0
5380.0,1829.0,0.71813023,1829.0,1830.0
5390.0,1829.0,0.733718,1829.0,1830.0
5400.0,1830.0,0.7252889,1829.0,1830.0
5410.0,1830.0,0.67597634,1829.0,1830.0
5420.0,1830.0,0.6498956,1829.0,1830.0
5430.0,1830.0,0.4859692,1829.0,1830.0
5440.0,1830.0,0.4717572,1829.0,1830.0
5450.0,1830.0,0.47140455,1829.0,1830.0
5460.0,1830.0,0.47140455,1829.0,1830.0
5470.0,1830.0,0.46659964,1829.0,1830.0
5480.0,1830.0,0.46659964,1829.0,1830.0
5490.0,1830.0,0.40674403,1830.0,1830.0
5500.0,1830.0,0.40674403,1830.0,1830.0
5510.0,1830.0,0.40745783,1830.0,1830.0
5520.0,1830.0,0.3066888,1830.0,1830.0
5530.0,1830.0,0.2586072,1830.0,1830.0
5540.0,1830.0,0.2586072,1830.0,1830.0
5550.0,1830.0,0.1621622,1830.0,1830.0
5560.0,1830.0,0.0,1830.0,1830.0
5570.0,1830.0,0.38078734,1830.0,1830.0
5580.0,1830.0,0.5627086,1830.0,1831.0
5590.0,1830.0,0.608462,1830.0,1831.0
5600.0,1830.0,0.5626002,1830.0,1831.0
5610.0,1830.0,0.4994463,1830.0,1831.0
5620.0,1830.0,0.4994463,1830.0,1831.0
5630.0,1831.0,0.49903804,1830.0,1831.0
5640.0,1831.0,0.49679103,1830.0,1831.0
5650.0,1831.0,0.4970754,1830.0,1831.0
5660.0,1831.0,0.42274225,1831.0,1831.0
5670.0,1831.0,0.31659278,1831.0,1831.0
5680.0,1831.0,0.31781128,1831.0,1831.0
5690.0,1831.0,0.31902194,1831.0,1831.0
5700.0,1831.0,0.29043245,1831.0,1831.0
5710.0,1831.0,0.18122914,1831.0,1831.0
5720.0,1831.0,0.18377976,1831.0,1831.0
5730.0,1831.0,0.18386838,1831.0,1831.0
5740.0,1831.0,0.19119622,1831.0,1831.0
5750.0,1831.0,0.19359493,1831.0,1831.0
5760.0,1831.0,0.3201109,1831.0,1831.0
5770.0,1831.0,0.6639618,1831.0,1832.0
5780.0,1831.0,0.9959272,1830.0,1832.0
5790.0,1831.0,0.98569775,1830.0,1832.0
5800.0,1831.0,0.97407967,1830.0,1832.0
5810.0,1831.0,0.9713696,1830.0,1832.0
5820.0,1831.0,0.96654236,1830.0,1832.0
5830.0,1832.0,0.9540854,1830.0,1832.0
5840.0,1831.5,0.9350314,1831.0,1832.0
5850.0,1831.0,0.9373238,1831.0,1832.0
5860.0,1831.5,0.9427533,1831.0,1832.0
5870.0,1832.0,0.94608873,1831.0,1832.0
5880.0,1832.0,0.94756466,1831.0,1832.0
5890.0,1832.0,0.94603163,1831.0,1832.0
5900.0,1832.0,0.944656,1831.0,1832.0
5910.0,1832.0,0.9185722,1831.0,1832.0
5920.0,1832.0,0.882043,1831.0,1832.0
5930.0,1832.0,0.8584864,1831.0,1832.0
5940.0,1832.0,0.6215709,1831.0,1832.0
5950.0,1832.0,0.16505288,1832.0,1832.0
5960.0,1832.0,0.16788788,1832.0,1832.0
5970.0,1832.0,0.23002997,1832.0,1832.0
5980.0,1832.0,0.2319516,1832.0,1832.0
5990.0,1832.0,0.2775139,1832.0,1832.0
6000.0,1832.0,0.2775139,1832.0,1832.0
6010.0,1832.0,0.2790083,1832.0,1832.0
6020.0,1832.0,0.2790083,1832.0,1832.0
6030.0,1832.0,0.2790083,1832.0,1832.0
6040.0,1832.0,0.2790083,1832.0,1832.0
6050.0,1832.0,0.45998257,1832.0,1833.0
6060.0,1832.0,0.5561691,1832.0,1833.0
6070.0,1833.0,0.597381,1832.0,1833.0
6080.0,1833.0,0.5907275,1832.0,1833.0
6090.0,1833.0,0.586344,1832.0,1833.0
6100.0,1833.0,0.57931,1832.0,1833.0
6110.0,1833.0,0.56233984,1832.0,1833.0
6120.0,1833.0,0.56938916,1832.0,1833.0
6130.0,1833.0,0.62762684,1832.0,1833.0
6140.0,1833.0,0.66591024,1832.0,1833.0
6150.0,1833.0,0.6644629,1832.0,1833.0
6160.0,1833.0,0.66242975,1832.0,1833.0
6170.0,1833.0,0.6746844,1832.0,1833.0
6180.0,1833.0,0.6951215,1832.5,1833.0
6190.0,1833.0,0.75678194,1833.0,1834.0
6200.0,1833.0,0.76469666,1833.0,1834.0
6210.0,1833.0,0.75371724,1833.0,1834.0
6220.0,1833.0,0.71245253,1833.0,1834.0
6230.0,1833.0,0.61906224,1833.0,1834.0
6240.0,1833.0,0.55486524,1833.0,1834.0
6250.0,1834.0,0.5754197,1833.0,1834.0
6260.0,1834.0,0.61218554,1833.0,1834.0
6270.0,1834.0,0.6054277,1833.0,1834.0
6280.0,1834.0,0.5977862,1833.0,1834.0
6290.0,1834.0,0.0,1834.0,1834.0
6300.0,1834.0,0.0,1834.0,1834.0
6310.0,1834.0,0.0,1834.0,1834.0
6320.0,1834.0,0.0,1834.0,1834.0
6330.0,1834.0,0.0,1834.0,1834.0
6340.0,1834.0,0.0,1834.0,1834.0
6350.0,1834.0,0.0,1834.0,1834.0
6360.0,1834.0,0.0,1834.0,1834.0
6370.0,1834.0,0.0,1834.0,1834.0
6380.0,1834.0,0.08552268,1834.0,1834.0
6390.0,1834.0,1.390057,1833.0,1835.0
6400.0,1834.0,1.4525748,1833.0,1835.0
6410.0,1834.0,1.4609479,1833.0,1835.0
6420.0,1834.0,1.4657575,1833.0,1835.0
6430.0,1834.0,1.4696182,1833.0,1835.0
6440.0,1834.0,1.4730504,1833.0,1835.0
6450.0,1835.0,1.4779602,1833.0,1835.0
6460.0,1835.0,1.4762534,1833.0,1836.0
6470.0,1835.0,1.444741,1833.0,1836.0
6480.0,1835.0,1.4292198,1833.0,1836.0
6490.0,1835.0,1.4263917,1833.0,1836.0
6500.0,1835.0,1.4274225,1833.0,1836.0
6510.0,1835.0,1.4518083,1833.0,1836.0
6520.0,1835.0,1.4616377,1833.0,1836.0
6530.0,1835.0,1.4749899,1833.0,1836.0
6540.0,1835.0,1.4713671,1833.0,1836.0
6550.0,1835.0,1.4386518,1833.0,1836.0
6560.0,1835.0,0.6776437,1834.0,1835.0
6570.0,1835.0,0.6978447,1834.0,1835.0
6580.0,1835.0,0.7126219,1834.0,1835.0
6590.0,1835.0,0.74045944,1834.0,1836.0
6600.0,1835.0,0.77310264,1834.0,1836.0
6610.0,1835.0,0.7853695,1835.0,1836.0
6620.0,1835.0,0.7227721,1835.0,1836.0
6630.0,1835.0,0.63413733,1835.0,1836.0
6640.0,1835.0,0.54064506,1835.0,1836.0
6650.0,1836.0,0.5021631,1835.0,1836.0
6660.0,1836.0,0.5449892,1835.0,1836.0
6670.0,1836.0,0.5848601,1835.0,1836.0
6680.0,1836.0,0.62183005,1835.0,1836.0
6690.0,1836.0,0.65307015,1835.0,1836.0
6700.0,1836.0,0.67705363,1835.0,1836.0
6710.0,1836.0,0.72803587,1835.0,1836.0
6720.0,1836.0,0.78896356,1835.0,1837.0
6730.0,1836.0,0.5886926,1835.0,1836.0
6740.0,1836.0,1.5305426,1835.0,1837.0
6750.0,1836.0,1.5312548,1835.0,1837.0
6760.0,1836.0,1.531449,1835.0,1837.0
6770.0,1836.0,1.5600408,1835.0,1837.0
6780.0,1836.0,1.5886091,1835.0,1837.0
6790.0,1836.0,1.6134988,1835.0,1837.0
6800.0,1836.0,1.6075352,1835.0,1837.0
6810.0,1836.0,1.6208119,1835.0,1837.0
6820.0,1836.0,1.6418369,1835.0,1838.0
6830.0,1836.0,1.6628883,1835.0,1838.0
6840.0,1836.0,1.6824739,1835.0,1838.0
6850.0,1836.0,1.7219074,1835.0,1838.0
6860.0,1836.0,1.7284936,1835.0,1838.0
6870.0,1836.0,1.2461123,1835.0,1837.0
6880.0,1836.0,1.2347789,1835.0,1837.0
6890.0,1836.0,1.2213595,1835.0,1837.0
6900.0,1836.0,1.2334403,1835.0,1837.0
6910.0,1837.0,0.62870455,1836.0,1837.0
6920.0,1837.0,0.49873722,1836.0,1837.0
6930.0,1837.0,0.413207,1837.0,1837.0
6940.0,1837.0,0.0,1837.0,1837.0
6950.0,1837.0,0.0,1837.0,1837.0
6960.0,1837.0,0.0,1837.0,1837.0
6970.0,1837.0,0.0,1837.0,1837.0
6980.0,1837.0,1.7708032,1835.0,1839.0
6990.0,1837.0,1.8011782,1835.0,1839.0
7000.0,1837.0,1.7843666,1835.0,1839.0
7010.0,1837.0,1.7851787,1835.0,1839.0
7020.0,1837.0,1.7884692,1835.0,1839.0
7030.0,1837.0,1.7908925,1835.75,1839.0
7040.0,1837.0,1.3781468,1836.0,1838.0
7050.0,1837.0,0.5734998,1837.0,1838.0
7060.0,1837.0,0.5169737,1837.0,1838.0
7070.0,1837.0,0.49916258,1837.0,1838.0
7080.0,1838.0,0.49986026,1837.0,1838.0
7090.0,1838.0,0.49970683,1837.0,1838.0
7100.0,1838.0,0.4968451,1837.0,1838.0
7110.0,1838.0,0.24985847,1838.0,1838.0
7120.0,1838.0,0.0,1838.0,1838.0
7130.0,1838.0,0.0,1838.0,1838.0
7140.0,1838.0,0.0,1838.0,1838.0
7150.0,1838.0,0.0,1838.0,1838.0
7160.0,1838.0,0.0,1838.0,1838.0
7170.0,1838.0,0.1831192,1838.0,1838.0
7180.0,1838.0,0.18322879,1838.0,1838.0
7190.0,1838.0,0.23665746,1838.0,1838.0
7200.0,1838.0,0.25426683,1838.0,1838.0
7210.0,1838.0,0.40367892,1838.0,1838.0
7220.0,1838.0,0.48560643,1838.0,1839.0
7230.0,1838.0,0.49832082,1838.0,1839.0
7240.0,1839.0,0.49270594,1838.0,1839.0
7250.0,1839.0,0.47912964,1839.0,1839.0
7260.0,1839.0,0.3266097,1839.0,1839.0
7270.0,1839.0,0.3307915,1839.0,1839.0
7280.0,1839.0,0.40584412,1839.0,1839.0
7290.0,1839.0,0.3087108,1839.0,1839.0
7300.0,1839.0,0.40968505,1839.0,1839.0
7310.0,1839.0,0.38856775,1839.0,1839.0
7320.0,1839.0,0.38856772,1839.0,1839.0
7330.0,1839.0,0.38836774,1839.0,1839.0
7340.0,1839.0,0.38856775,1839.0,1839.0
7350.0,1839.0,0.5170424,1839.0,1839.0
7360.0,1839.0,0.7490603,1839.0,1839.0
7370.0,1839.0,0.8347588,1839.0,1840.0
7380.0,1839.0,0.8320594,1839.0,1840.0
7390.0,1839.0,0.8767777,1839.0,1840.0
7400.0,1839.0,0.9542308,1839.0,1840.0
7410.0,1839.0,0.9446961,1839.0,1840.0
7420.0,1839.0,0.9352502,1839.0,1840.0
7430.0,1839.0,0.93468237,1839.0,1840.0
7440.0,1839.0,0.92785245,1839.0,1840.0
7450.0,1840.0,0.90605175,1839.0,1840.0
7460.0,1840.0,0.79925835,1840.0,1840.0
7470.0,1840.0,0.70853645,1840.0,1840.0
7480.0,1840.0,0.6106443,1840.0,1840.0
7490.0,1840.0,0.6754077,1840.0,1840.0
7500.0,1840.0,0.7068229,1840.0,1840.0
7510.0,1840.0,0.79264855,1840.0,1841.0
7520.0,1840.0,0.6163255,1840.0,1840.0
7530.0,1840.0,0.6924453,1840.0,1841.0
7540.0,1840.0,0.6993988,1840.0,1841.0
7550.0,1840.0,0.6993988,1840.0,1841.0
7560.0,1840.0,0.84641606,1840.0,1841.0
7570.0,1840.0,0.8356467,1840.0,1841.0
7580.0,1840.0,0.8359584,1840.0,1841.0
7590.0,1841.0,0.8344491,1840.0,1841.0
7600.0,1841.0,0.8505712,1840.0,1841.0
7610.0,1841.0,0.9269478,1840.0,1841.0
7620.0,1841.0,0.62569934,1841.0,1841.0
7630.0,1841.0,0.48558244,1841.0,1841.0
7640.0,1841.0,0.42429274,1841.0,1841.0
7650.0,1841.0,0.41002595,1841.0,1841.0
7660.0,1841.0,0.55284005,1841.0,1842.0
7670.0,1841.0,0.5737458,1841.0,1842.0
7680.0,1841.0,0.5772143,1841.0,1842.0
7690.0,1841.0,0.5744211,1841.0,1842.0
7700.0,1841.0,0.5913242,1841.0,1842.0
7710.0,1841.0,0.655663,1841.0,1842.0
7720.0,1842.0,0.70224214,1841.0,1842.0
7730.0,1841.0,0.8540881,1841.0,1842.0
7740.0,1842.0,0.88362885,1841.0,1842.0
7750.0,1842.0,0.9467285,1841.0,1842.0
7760.0,1842.0,0.6710387,1842.0,1842.0
7770.0,1842.0,0.69790596,1842.0,1842.0
7780.0,1842.0,0.7093437,1842.0,1842.0
7790.0,1842.0,0.7102808,1842.0,1842.0
7800.0,1842.0,0.89132994,1842.0,1843.0
7810.0,1842.0,0.8918711,1842.0,1843.0
7820.0,1842.0,0.89456975,1842.0,1843.0
7830.0,1842.0,1.0151831,1842.0,1843.0
7840.0,1842.0,1.0189711,1842.0,1843.0
7850.0,1842.0,1.0362923,1842.0,1843.0
7860.0,1842.0,1.0945666,1842.0,1843.0
7870.0,1842.0,1.094066,1842.0,1843.0
7880.0,1843.0,0.75148076,1842.0,1843.0
7890.0,1843.0,0.7946818,1842.0,1843.0
7900.0,1843.0,0.85617703,1842.0,1843.0
7910.0,1843.0,0.81714684,1842.0,1843.0
7920.0,1843.0,0.7629718,1843.0,1843.0
7930.0,1843.0,0.7327886,1843.0,1844.0
7940.0,1843.0,0.7191775,1843.0,1844.0
7950.0,1843.0,0.77939606,1843.0,1844.0
7960.0,1843.0,0.78309953,1843.0,1844.0
7970.0,1843.0,0.8921936,1843.0,1844.0
7980.0,1843.0,0.97297907,1843.0,1844.0
7990.0,1843.0,0.9525607,1843.0,1844.0
8000.0,1843.0,0.9782378,1843.0,1844.0
8010.0,1843.0,1.1225382,1843.0,1845.0
8020.0,1843.0,1.1977847,1843.0,1845.0
8030.0,1844.0,1.1660608,1843.0,1845.0
8040.0,1844.0,1.1549438,1843.0,1845.0
8050.0,1844.0,1.206744,1843.0,1845.0
8060.0,1844.0,1.2704214,1844.0,1845.0
8070.0,1844.0,1.3463506,1844.0,1845.0
8080.0,1844.0,1.468463,1844.0,1845.0
8090.0,1844.0,1.4291693,1844.0,1846.0
8100.0,1844.0,1.3784816,1844.0,1846.0
8110.0,1844.0,1.2288113,1844.0,1845.0
8120.0,1844.0,1.3744274,1844.0,1845.0
8130.0,1844.0,1.4585243,1844.0,1845.0
8140.0,1844.0,1.4502463,1844.0,1845.0
8150.0,1845.0,1.4243491,1844.0,1845.0
8160.0,1845.0,1.5176517,1844.0,1846.0
8170.0,1844.0,1.831132,1843.0,1845.0
8180.0,1844.0,1.9047515,1843.0,1846.0
8190.0,1844.0,2.0132086,1843.0,1846.0
8200.0,1844.0,2.048112,1843.0,1846.0
8210.0,1844.0,1.8489687,1843.0,1845.0
8220.0,1844.0,1.8716143,1843.0,1846.0
8230.0,1844.0,1.8684298,1843.0,1846.0
8240.0,1844.0,1.8491645,1843.0,1846.0
8250.0,1844.0,1.8112739,1843.0,1846.0
8260.0,1844.0,1.7351371,1844.0,1846.0
8270.0,1844.0,1.7762278,1844.0,1846.0
8280.0,1844.0,1.8447015,1844.0,1846.0
8290.0,1844.0,1.733005,1844.0,1846.0
8300.0,1844.0,1.5518714,1844.0,1846.0
8310.0,1844.0,1.5550629,1844.0,1846.0
8320.0,1844.0,1.5875448,1844.0,1846.0
8330.0,1844.0,1.7271576,1844.0,1847.0
8340.0,1844.0,1.8329542,1844.0,1847.0
8350.0,1844.0,1.8929183,1844.0,1847.0
8360.0,1845.0,1.9133478,1844.0,1847.0
8370.0,1845.0,1.913348,1844.0,1847.0
8380.0,1845.0,1.6992979,1844.0,1847.0
8390.0,1845.0,1.714608,1844.0,1847.0
8400.0,1845.0,1.8255788,1844.0,1847.0
8410.0,1845.0,1.8900899,1844.0,1847.0
8420.0,1845.0,1.857277,1844.0,1847.0
8430.0,1845.0,1.789071,1845.0,1847.0
8440.0,1845.0,1.70999,1845.0,1847.0
8450.0,1845.0,1.6393107,1845.0,1847.0
8460.0,1845.0,1.5659623,1845.0,1847.0
8470.0,1845.0,1.4630321,1845.0,1847.0
8480.0,1845.5,1.6393087,1845.0,1847.25
8490.0,1845.5,1.751277,1845.0,1847.25
8500.0,1846.0,1.8276676,1845.0,1847.0
8510.0,1846.0,1.9101969,1845.0,1847.0
8520.0,1846.0,1.9899882,1845.0,1847.0
8530.0,1846.0,1.9648316,1846.0,1848.0
8540.0,1846.0,1.914713,1846.0,1848.0
8550.0,1846.0,1.9494138,1846.0,1849.0
8560.0,1846.0,2.085384,1846.0,1849.0
8570.0,1846.0,2.1912525,1846.0,1849.0
8580.0,1846.0,2.000738,1846.0,1849.0
8590.0,1847.0,2.008871,1846.0,1848.5
8600.0,1847.0,2.0905862,1846.0,1848.5
8610.0,1847.0,2.1498406,1846.0,1849.0
8620.0,1847.0,2.1907692,1846.0,1849.0
8630.0,1847.0,1.9058357,1847.0,1849.0
8640.0,1847.0,1.7721785,1847.0,1849.0
8650.0,1847.0,1.5703244,1847.0,1849.0
8660.0,1847.0,1.8479226,1847.0,1849.0
8670.0,1847.0,1.893381,1847.0,1849.0
8680.0,1847.0,1.8802874,1847.0,1849.0
8690.0,1848.0,1.816432,1847.0,1849.0
8700.0,1848.0,1.7415636,1847.0,1850.0
8710.0,1848.0,1.8827295,1847.0,1850.0
8720.0,1848.0,2.0223176,1848.0,1850.0
8730.0,1848.0,1.9822048,1848.0,1850.0
8740.0,1848.0,1.6869369,1848.0,1850.0
8750.0,1848.0,1.9026647,1848.0,1850.0
8760.0,1848.0,2.008802,1848.0,1851.0
8770.0,1849.0,2.0570843,1848.0,1851.0
8780.0,1849.0,2.1532032,1848.0,1850.0
8790.0,1849.0,2.1721778,1848.0,1851.0
8800.0,1849.0,2.3928876,1848.0,1851.0
8810.0,1848.0,2.554981,1848.0,1851.0
8820.0,1849.0,2.8865848,1848.0,1852.0
8830.0,1849.0,2.9259896,1848.0,1852.0
8840.0,1849.0,2.968585,1848.0,1853.0
8850.0,1849.0,3.176639,1848.0,1853.0
8860.0,1849.0,3.3439622,1848.0,1852.5
8870.0,1849.0,3.2269206,1848.0,1852.0
8880.0,1849.0,3.1111083,1848.0,1852.0
8890.0,1849.0,3.3518515,1848.0,1852.0
8900.0,1849.0,3.5496454,1848.0,1854.0
8910.0,1849.0,3.4291804,1848.0,1854.0
8920.0,1849.0,3.3397877,1848.0,1854.0
8930.0,1849.0,3.3641157,1848.0,1854.0
8940.0,1849.0,3.3346589,1848.0,1854.0
8950.0,1849.0,3.0893183,1849.0,1854.0
8960.0,1849.0,2.9266176,1849.0,1854.0
8970.0,1850.0,2.9632816,1849.0,1854.0
8980.0,1850.0,3.005681,1849.0,1854.0
8990.0,1849.0,2.8631568,1849.0,1853.0
9000.0,1849.0,2.7645817,1849.0,1853.0
9010.0,1850.0,2.7666025,1849.0,1853.0
9020.0,1850.0,2.7872877,1849.0,1854.0
9030.0,1849.0,2.6629949,1849.0,1853.0
9040.0,1849.0,2.827777,1849.0,1853.0
9050.0,1850.0,2.5186212,1849.0,1852.0
9060.0,1850.0,2.4305599,1849.0,1852.0
9070.0,1850.0,2.5164442,1849.0,1852.0
9080.0,1850.0,2.480449,1849.0,1852.0
9090.0,1850.0,2.3026743,1849.0,1852.0
9100.0,1850.0,2.2938669,1849.0,1852.0
9110.0,1850.0,2.406483,1849.0,1852.0
9120.0,1850.0,2.265472,1849.0,1852.0
9130.0,1850.0,1.9088781,1849.0,1851.0
9140.0,1850.0,1.8400267,1850.0,1852.0
9150.0,1850.0,1.8589329,1850.0,1852.0
9160.0,1850.0,1.7629532,1850.0,1852.0
9170.0,1850.0,1.5610883,1850.0,1851.0
9180.0,1850.0,1.6021641,1850.0,1852.0
9190.0,1850.0,1.6530136,1850.0,1852.0
9200.0,1850.0,1.5109105,1850.0,1852.0
9210.0,1850.0,1.2924179,1850.0,1851.0
9220.0,1850.0,1.3681079,1850.0,1851.0
9230.0,1850.0,1.4742658,1850.0,1851.0
9240.0,1850.0,1.4149791,1850.0,1851.0
9250.0,1850.0,1.3195915,1850.0,1851.0
9260.0,1850.0,1.3690647,1850.0,1851.0
9270.0,1850.0,1.3482078,1850.0,1851.0
9280.0,1850.0,1.219841,1850.0,1851.0
9290.0,1850.0,1.1589324,1850.0,1851.0
9300.0,1851.0,1.3383886,1850.0,1851.0
9310.0,1851.0,1.4101605,1850.0,1851.0
9320.0,1851.0,1.2526066,1850.0,1851.0
9330.0,1851.0,1.1965859,1850.0,1851.0
9340.0,1851.0,1.4191132,1850.0,1851.0
9350.0,1851.0,1.5458795,1850.0,1852.0
9360.0,1851.0,1.6779604,1851.0,1852.0
9370.0,1851.0,1.7655866,1851.0,1852.0
9380.0,1851.0,1.5775056,1851.0,1852.0
9390.0,1851.0,1.3259332,1851.0,1852.0
9400.0,1851.0,1.4002757,1851.0,1852.0
9410.0,1851.0,1.4481609,1851.0,1852.0
9420.0,1851.0,1.2834138,1851.0,1852.0
9430.0,1851.0,1.1632587,1851.0,1852.0
9440.0,1851.0,1.2254944,1851.0,1852.0
9450.0,1851.0,1.2133377,1851.0,1852.0
9460.0,1851.0,1.0509281,1851.0,1852.0
9470.0,1851.0,1.0182596,1851.0,1852.0
9480.0,1851.5,1.171844,1851.0,1852.0
9490.0,1851.0,1.1813202,1851.0,1852.0
9500.0,1851.0,0.95789677,1851.0,1852.0
9510.0,1852.0,1.0557709,1851.0,1852.0
9520.0,1852.0,0.96499103,1851.0,1852.0
9530.0,1852.0,0.983355,1851.0,1852.0
9540.0,1852.0,1.1157533,1851.0,1852.0
9550.0,1852.0,1.116158,1851.0,1852.0
9560.0,1852.0,0.9778169,1851.0,1852.0
9570.0,1852.0,0.95177877,1851.0,1852.0
9580.0,1852.0,1.0682278,1851.0,1852.0
9590.0,1852.0,1.0742145,1851.0,1852.0
9600.0,1852.0,0.97369576,1851.0,1852.0
9610.0,1851.0,2.3912258,1851.0,1853.0
9620.0,1851.0,1.2612629,1850.0,1852.0
9630.0,1851.0,1.205852,1850.0,1852.0
9640.0,1851.0,1.1868745,1850.0,1852.0
9650.0,1851.0,1.161626,1850.0,1852.0
9660.0,1851.0,1.128539,1850.0,1852.0
9670.0,1851.0,1.1242665,1850.0,1852.0
9680.0,1851.0,1.087323,1850.0,1852.0
9690.0,1852.0,1.1863279,1851.0,1852.0
9700.0,1852.0,1.0797019,1851.0,1852.0
9710.0,1852.0,1.0630974,1852.0,1853.0
9720.0,1852.0,1.0715345,1852.0,1853.0
9730.0,1852.0,1.1368264,1851.0,1853.0
9740.0,1852.0,1.1733209,1851.0,1853.0
9750.0,1852.0,1.0759916,1852.0,1853.0
9760.0,1852.0,1.0424781,1852.0,1853.0
9770.0,1852.0,1.1135398,1852.0,1853.0
9780.0,1852.0,0.9485721,1852.0,1853.0
9790.0,1852.0,1.0579705,1851.0,1853.0
9800.0,1852.0,1.0552298,1851.0,1853.0
9810.0,1852.0,1.0629481,1851.0,1853.0
9820.0,1851.0,0.9941356,1851.0,1853.0
9830.0,1851.0,0.8835377,1851.0,1853.0
9840.0,1851.0,0.84001225,1851.0,1853.0
9850.0,1852.0,0.82921803,1851.0,1853.0
9860.0,1851.0,0.8375464,1851.0,1853.0
9870.0,1851.0,0.86829895,1851.0,1853.0
9880.0,1851.0,0.8975313,1851.0,1853.0
9890.0,1852.0,0.90982133,1851.0,1853.0
9900.0,1852.0,0.88416284,1851.0,1853.0
9910.0,1852.0,0.8276904,1852.0,1853.0
9920.0,1852.0,0.8996544,1852.0,1853.0
9930.0,1852.0,0.8818795,1852.0,1853.0
9940.0,1852.0,0.9229497,1852.0,1853.0
9950.0,1852.0,0.89777976,1852.0,1853.0
9960.0,1852.0,0.85840607,1852.0,1853.0
9970.0,1852.0,1.0690554,1852.0,1853.0
9980.0,1852.0,1.2331617,1852.0,1853.0
9990.0,1852.0,1.1938945,1852.0,1853.0
10000.0,1852.0,1.1498721,1852.0,1853.0
10010.0,1852.0,1.2510067,1852.0,1853.0
10020.0,1852.0,1.3173995,1852.0,1853.0
10030.0,1853.0,1.4530255,1852.0,1853.0
10040.0,1853.0,1.5505428,1852.0,1853.0
10050.0,1853.0,1.4100002,1852.0,1853.0
10060.0,1853.0,1.3395439,1852.0,1853.25
10070.0,1853.0,1.7385873,1852.0,1854.0
10080.0,1853.0,1.7861563,1852.0,1854.0
10090.0,1853.0,1.6921647,1852.0,1854.0
10100.0,1853.0,1.6597569,1852.0,1854.0
10110.0,1853.0,1.902147,1852.0,1854.0
10120.0,1853.0,1.7980167,1853.0,1854.0
10130.0,1853.0,1.6183676,1853.0,1854.0
10140.0,1853.0,1.7824092,1853.0,1854.0
10150.0,1853.0,1.7212837,1853.0,1854.0
10160.0,1853.0,0.74914473,1853.0,1854.0
10170.0,1853.0,0.6811571,1853.0,1854.0
10180.0,1853.0,0.6632461,1853.0,1854.0
10190.0,1853.0,0.66506165,1853.0,1854.0
10200.0,1854.0,0.6676915,1853.0,1854.0
10210.0,1854.0,0.58447295,1853.0,1854.0
10220.0,1854.0,0.47073,1854.0,1854.0
10230.0,1854.0,0.38901195,1854.0,1854.0
10240.0,1854.0,0.44296414,1854.0,1854.0
10250.0,1854.0,0.53763497,1854.0,1855.0
10260.0,1854.0,0.66556126,1854.0,1855.0
10270.0,1854.0,0.74213016,1854.0,1855.0
10280.0,1855.0,0.7579708,1854.0,1855.0
10290.0,1855.0,0.783875,1854.0,1855.0
10300.0,1855.0,0.8679818,1854.0,1856.0
10310.0,1855.0,0.9121644,1855.0,1856.0
10320.0,1854.0,1.1526672,1854.0,1855.0
10330.0,1854.0,1.5200467,1854.0,1855.0
10340.0,1854.0,1.4629334,1854.0,1855.0
10350.0,1854.0,1.4099329,1854.0,1855.0
10360.0,1854.0,1.3950428,1854.0,1855.0
10370.0,1854.0,1.452216,1854.0,1856.0
10380.0,1854.0,1.372637,1853.0,1855.0
10390.0,1853.0,1.6907436,1853.0,1855.0
10400.0,1854.0,1.8173559,1853.0,1855.0
10410.0,1854.0,1.9056766,1853.0,1855.5
10420.0,1854.0,1.971389,1853.0,1855.5
10430.0,1853.0,2.4315548,1852.0,1856.0
10440.0,1855.0,1.38084,1855.0,1857.0
10450.0,1855.0,1.3245816,1855.0,1857.0
10460.0,1855.0,1.1575009,1855.0,1857.0
10470.0,1855.0,0.9980474,1855.0,1857.0
10480.0,1855.0,0.8202461,1855.0,1856.0
10490.0,1855.0,0.8133441,1855.0,1856.0
10500.0,1855.0,0.81975174,1855.0,1856.0
10510.0,1855.0,0.78760225,1855.0,1856.0
10520.0,1855.0,0.72357464,1854.75,1855.0
10530.0,1855.0,0.7146291,1854.0,1855.0
10540.0,1855.0,1.9773495,1852.0,1856.0
10550.0,1854.0,2.1362324,1852.0,1856.0
10560.0,1854.0,2.0078201,1852.0,1856.0
10570.0,1854.0,2.0111291,1852.0,1856.0
10580.0,1854.0,1.9205395,1852.0,1856.0
10590.0,1854.0,1.8511963,1852.0,1856.0
10600.0,1854.0,1.794282,1852.0,1856.0
10610.0,1854.0,1.775281,1852.0,1856.0
10620.0,1854.0,1.741542,1852.0,1856.0
10630.0,1853.0,1.7417371,1853.0,1855.0
10640.0,1853.0,1.91747,1853.0,1856.0
10650.0,1853.0,1.9315381,1853.0,1855.0
10660.0,1853.0,1.7972019,1853.0,1855.0
10670.0,1853.5,1.6745223,1853.0,1855.0
10680.0,1854.0,1.7395756,1853.0,1855.0
10690.0,1854.0,1.8727379,1853.0,1856.0
10700.0,1854.0,1.7885723,1853.0,1855.0
10710.0,1854.0,1.9111686,1853.0,1855.0
10720.0,1854.0,1.6732048,1854.0,1856.0
10730.0,1854.0,1.701162,1854.0,1856.0
10740.0,1854.0,1.522517,1854.0,1855.0
10750.0,1854.0,1.5380694,1854.0,1856.0
10760.0,1854.0,1.7388322,1854.0,1855.0
10770.0,1854.0,1.4542089,1853.0,1856.0
10780.0,1854.0,1.3674502,1853.0,1856.0
10790.0,1854.0,1.3632739,1853.0,1856.0
10800.0,1854.0,1.3632739,1853.0,1856.0
10810.0,1854.0,1.2896299,1853.0,1855.0
10820.0,1854.0,1.2840602,1853.0,1856.0
10830.0,1854.0,1.2840602,1853.0,1856.0
10840.0,1854.0,1.1998705,1853.0,1855.0
10850.0,1854.0,1.1828356,1853.0,1855.0
10860.0,1854.0,1.1692519,1853.0,1855.0
10870.0,1854.0,1.2847658,1854.0,1856.0
10880.0,1854.0,1.2918937,1854.0,1856.0
10890.0,1855.0,1.2819401,1854.0,1856.0
10900.0,1855.0,1.1539602,1854.0,1856.0
10910.0,1855.0,0.9933028,1854.0,1855.5
10920.0,1855.0,0.9540155,1854.0,1856.0
10930.0,1855.0,0.87161535,1854.0,1856.0
10940.0,1855.0,0.80635804,1855.0,1856.0
10950.0,1855.0,0.7483885,1855.0,1855.75
10960.0,1855.0,0.65700376,1855.0,1855.0
10970.0,1855.0,1.0788273,1855.0,1855.0
10980.0,1855.0,1.1397184,1855.0,1855.0
10990.0,1855.0,1.1397545,1855.0,1856.0
11000.0,1855.0,1.1755292,1855.0,1856.0
11010.0,1855.0,1.444409,1855.0,1856.0
11020.0,1855.0,1.4349468,1855.0,1856.0
11030.0,1855.0,1.0907483,1855.0,1856.0
11040.0,1855.0,1.0907483,1855.0,1856.0
11050.0,1855.0,1.0844669,1855.0,1856.0
11060.0,1855.0,0.79436654,1855.0,1856.0
11070.0,1855.0,0.8486349,1855.0,1856.0
11080.0,1855.0,0.81977665,1855.0,1856.0
11090.0,1855.0,0.72748744,1855.0,1856.0
11100.0,1855.0,0.7069117,1855.0,1856.0
11110.0,1855.0,0.6451747,1855.0,1856.0
11120.0,1855.0,0.62106925,1855.0,1856.0
11130.0,1855.0,0.6249261,1855.0,1856.0
11140.0,1855.0,0.6263326,1855.0,1856.0
11150.0,1855.0,0.64068156,1855.0,1856.0
11160.0,1855.0,0.7040623,1855.0,1856.0
11170.0,1855.0,0.6600397,1855.0,1856.0
11180.0,1855.0,0.663014,1855.0,1856.0
11190.0,1855.0,0.70946133,1855.0,1856.0
11200.0,1856.0,0.701838,1855.0,1856.0
11210.0,1856.0,0.6924109,1855.0,1856.0
11220.0,1856.0,0.7227929,1855.0,1856.0
11230.0,1856.0,0.8112911,1855.0,1856.0
11240.0,1856.0,0.8560858,1855.0,1856.0
11250.0,1856.0,0.8245344,1855.0,1856.0
11260.0,1856.0,0.70824194,1856.0,1856.75
11270.0,1856.0,0.77068746,1856.0,1857.0
11280.0,1856.0,0.5426831,1855.0,1856.0
11290.0,1856.0,0.99805534,1855.0,1857.0
11300.0,1856.0,1.0040911,1855.0,1857.0
11310.0,1856.0,1.0110707,1855.0,1857.0
11320.0,1856.0,1.034611,1855.0,1857.0
11330.0,1856.0,1.1872646,1855.0,1857.0
11340.0,1856.0,1.1698279,1855.0,1857.0
11350.0,1856.0,1.1406212,1855.0,1857.0
11360.0,1856.0,1.0792336,1856.0,1857.0
11370.0,1856.0,1.0627894,1856.0,1857.0
11380.0,1856.0,1.0068635,1856.0,1857.0
11390.0,1856.0,0.97316283,1856.0,1857.0
11400.0,1856.0,0.9331621,1856.0,1857.0
11410.0,1856.0,0.5745962,1856.0,1857.0
11420.0,1856.0,1.2816015,1855.0,1857.0
11430.0,1856.0,1.2800044,1855.0,1857.0
11440.0,1856.0,1.2806773,1855.0,1857.0
11450.0,1856.0,1.2795954,1855.0,1857.0
11460.0,1856.0,1.2795954,1855.0,1857.0
11470.0,1856.0,1.3073895,1855.0,1857.0
11480.0,1856.0,0.57334507,1856.0,1857.0
11490.0,1856.0,0.7110295,1856.0,1857.0
11500.0,1856.0,0.71308285,1856.0,1857.0
11510.0,1856.0,0.8507195,1856.0,1857.0
11520.0,1856.0,0.8571643,1856.0,1857.0
11530.0,1857.0,0.8455687,1856.0,1857.0
11540.0,1857.0,0.8162266,1856.0,1857.0
11550.0,1857.0,0.813617,1856.0,1857.0
11560.0,1857.0,0.79731464,1856.0,1857.0
11570.0,1857.0,0.78572905,1856.0,1857.0
11580.0,1857.0,0.78234804,1856.0,1857.0
11590.0,1857.0,0.6277503,1857.0,1857.0
11600.0,1857.0,0.63292885,1857.0,1857.0
11610.0,1857.0,0.6297749,1857.0,1857.0
11620.0,1857.0,0.63292885,1857.0,1857.0
11630.0,1857.0,0.6568295,1857.0,1858.0
11640.0,1857.0,0.65410775,1857.0,1858.0
11650.0,1857.0,0.71995246,1857.0,1858.0
11660.0,1857.0,1.2191238,1856.0,1858.0
11670.0,1857.0,1.4647812,1856.0,1859.0
11680.0,1857.0,1.4648818,1856.0,1859.0
11690.0,1857.0,1.4228084,1856.0,1859.0
11700.0,1857.0,1.3689847,1856.0,1859.0
11710.0,1857.0,1.3590453,1856.0,1859.0
11720.0,1857.0,1.3537961,1856.0,1859.0
11730.0,1857.0,1.3484476,1856.0,1858.0
11740.0,1857.0,1.3500164,1856.0,1858.0
11750.0,1857.0,0.9998778,1857.0,1859.0
11760.0,1857.0,0.46416697,1857.0,1858.0
11770.0,1857.0,0.4758124,1857.0,1858.0
11780.0,1857.0,0.4844219,1857.0,1858.0
11790.0,1857.0,0.48394206,1857.0,1858.0
11800.0,1857.0,0.5095083,1857.0,1858.0
11810.0,1858.0,0.588393,1857.0,1858.0
11820.0,1858.0,0.5762651,1857.0,1858.0
11830.0,1857.0,0.89082974,1856.0,1857.0
11840.0,1857.0,1.5633038,1856.0,1859.0
11850.0,1857.0,1.5460193,1856.0,1859.0
11860.0,1857.0,1.5438123,1856.0,1859.0
11870.0,1857.0,1.5919498,1856.0,1859.0
11880.0,1857.0,1.7441045,1856.0,1859.0
11890.0,1858.0,0.56782436,1858.0,1858.0
11900.0,1858.0,0.54741454,1858.0,1858.0
11910.0,1858.0,0.50355905,1858.0,1858.0
11920.0,1858.0,0.40806276,1858.0,1858.0
11930.0,1858.0,0.39857417,1858.0,1858.0
11940.0,1858.0,0.5399889,1858.0,1858.0
11950.0,1858.0,0.45210192,1858.0,1859.0
11960.0,1858.0,0.33099607,1858.0,1858.0
11970.0,1858.0,0.72691655,1857.0,1858.0
11980.0,1858.0,0.7570566,1857.0,1858.0
11990.0,1858.0,0.7450104,1857.0,1858.0
12000.0,1858.0,0.74564564,1857.0,1858.0
12010.0,1858.0,0.77876467,1857.0,1858.0
12020.0,1858.0,0.82672477,1857.75,1859.0
12030.0,1858.0,0.43587422,1858.0,1859.0
12040.0,1858.0,0.4851706,1858.0,1859.0
12050.0,1858.0,0.49770743,1858.0,1859.0
12060.0,1859.0,0.4999191,1858.0,1859.0
12070.0,1859.0,0.4982092,1858.0,1859.0
12080.0,1859.0,0.5326178,1858.0,1859.0
12230.0,1859.0,0.65979654,1859.0,1860.0
12240.0,1859.0,0.6582001,1859.0,1860.0
12250.0,1859.0,0.6560516,1859.0,1860.0
12260.0,1859.0,0.71315616,1859.0,1860.0
12270.0,1860.0,0.74339795,1859.0,1860.0
12280.0,1860.0,0.7428881,1859.0,1860.0
12300.0,1860.0,0.75120306,1859.0,1861.0
