distance,median,stdev,prc_25,prc_75
20.0,227.0,0.0,227.0,227.0
30.0,227.0,0.0,227.0,227.0
40.0,227.0,0.0,227.0,227.0
50.0,227.0,0.0,227.0,227.0
60.0,227.0,0.0,227.0,227.0
70.0,227.0,0.0,227.0,227.0
80.0,227.0,0.0,227.0,227.0
90.0,227.0,0.0,227.0,227.0
100.0,227.0,0.0,227.0,227.0
110.0,227.0,0.0,227.0,227.0
120.0,227.0,0.0,227.0,227.0
130.0,227.0,0.0,227.0,227.0
140.0,227.0,0.0,227.0,227.0
150.0,227.0,0.0,227.0,227.0
160.0,227.0,0.0,227.0,227.0
170.0,227.0,0.0,227.0,227.0
180.0,227.0,0.0,227.0,227.0
190.0,227.0,0.0,227.0,227.0
200.0,227.0,0.0,227.0,227.0
210.0,227.0,0.0,227.0,227.0
220.0,227.0,0.0,227.0,227.0
230.0,227.0,0.0,227.0,227.0
240.0,227.0,0.0,227.0,227.0
250.0,227.0,0.0,227.0,227.0
260.0,227.0,0.0,227.0,227.0
270.0,227.0,0.0,227.0,227.0
280.0,227.0,0.0,227.0,227.0
290.0,227.0,0.0,227.0,227.0
300.0,227.0,0.0,227.0,227.0
310.0,227.0,0.0,227.0,227.0
320.0,227.0,0.0,227.0,227.0
330.0,227.0,0.0,227.0,227.0
340.0,227.0,0.0,227.0,227.0
350.0,227.0,0.0,227.0,227.0
360.0,227.0,0.0,227.0,227.0
370.0,227.0,0.0,227.0,227.0
380.0,227.0,0.0,227.0,227.0
390.0,227.0,0.0,227.0,227.0
400.0,227.0,0.15853755,227.0,227.0
410.0,227.0,0.7381355,227.0,228.0
420.0,227.0,0.78510135,227.0,228.0
430.0,227.0,0.78153634,227.0,228.0
440.0,227.0,0.7799152,227.0,228.0
450.0,227.0,0.77610564,227.0,228.0
460.0,227.0,0.77207875,227.0,228.0
470.0,227.0,0.76941496,227.0,228.0
480.0,227.0,0.7656068,227.0,228.0
490.0,227.0,0.7626103,227.0,228.0
500.0,227.0,0.787529,227.0,228.0
510.0,227.0,0.78546757,227.0,228.0
520.0,227.0,0.7832805,227.0,228.0
530.0,227.0,0.8278248,227.0,228.0
540.0,227.0,0.8334631,227.0,228.0
550.0,227.0,0.83169633,227.0,228.0
560.0,227.0,0.8288071,227.0,228.0
570.0,227.0,0.82685107,227.0,228.0
580.0,227.0,0.86009705,227.0,228.0
590.0,227.0,0.8527342,227.0,228.0
600.0,227.0,0.84416974,227.0,228.0
610.0,227.0,0.83663803,227.0,228.0
620.0,227.0,0.8276638,227.0,228.0
630.0,227.0,0.8832993,227.0,228.0
640.0,227.0,0.97015846,227.0,228.0
650.0,227.0,0.98694026,227.0,228.0
660.0,227.0,0.97971225,227.0,228.0
670.0,227.0,0.97000253,227.0,228.0
680.0,227.0,1.0475566,227.0,228.0
690.0,227.0,1.0296588,227.0,228.0
700.0,227.0,1.0058402,227.0,228.0
710.0,227.0,1.0092305,227.0,228.0
720.0,227.0,1.0092305,227.0,228.0
730.0,227.0,0.9890822,227.0,228.0
740.0,227.0,1.0091946,227.0,228.0
750.0,227.0,1.0292199,227.0,228.0
760.0,227.0,0.99356395,227.0,228.0
770.0,227.0,0.9786565,227.0,228.0
780.0,227.0,0.9803853,227.0,228.0
790.0,227.0,0.99985945,227.0,228.0
800.0,227.0,1.0207335,227.0,228.0
810.0,227.0,0.9978811,227.0,228.0
820.0,227.0,0.97042185,227.0,228.0
830.0,227.0,0.9494884,227.0,228.0
840.0,227.0,0.9270848,227.0,228.0
850.0,227.0,0.9624837,227.0,228.0
860.0,227.0,0.6324358,227.0,228.0
870.0,227.0,0.632658,227.0,228.0
880.0,227.0,0.63450056,227.0,228.0
890.0,227.0,0.63450056,227.0,228.0
900.0,227.0,0.6781379,227.0,228.0
910.0,227.0,0.684184,227.0,228.0
920.0,227.0,0.6839583,227.0,228.0
930.0,227.0,0.68571055,227.0,228.0
940.0,227.0,0.72924006,227.0,228.0
950.0,227.0,0.76143086,227.0,228.0
960.0,227.0,0.7615766,227.0,228.0
970.0,227.0,0.793266,227.0,228.0
980.0,227.0,0.84063727,227.0,228.0
990.0,227.0,0.86763513,227.0,228.0
1000.0,227.0,0.86948264,227.0,228.0
1010.0,227.0,0.87257725,227.0,228.0
1020.0,227.0,0.9729291,227.0,228.0
1030.0,227.0,0.9707935,227.0,228.0
1040.0,227.0,1.0122446,227.0,229.0
1050.0,227.0,1.0399923,227.0,229.0
1060.0,227.0,1.0419937,227.0,229.0
1070.0,227.0,1.0737638,227.0,229.0
1080.0,227.0,1.0881525,227.0,229.0
1090.0,227.0,1.1245973,227.0,229.0
1100.0,227.0,1.1201053,227.0,229.0
1110.0,227.0,1.1654756,227.0,229.0
1120.0,228.0,1.1379561,227.0,229.0
1130.0,228.0,1.1474663,227.0,229.0
1140.0,228.0,1.1635102,227.0,229.0
1150.0,228.0,1.170466,227.0,229.0
1160.0,228.0,1.192741,227.0,229.25
1170.0,228.0,1.2502145,227.0,229.25
1180.0,228.0,1.2468697,227.0,230.0
1190.0,228.0,1.236633,227.0,230.0
1200.0,228.0,1.2399985,227.0,230.0
1210.0,228.0,1.2410474,227.0,230.0
1220.0,228.0,1.3577095,227.0,230.0
1230.0,228.0,0.97868484,227.0,229.0
1240.0,228.0,0.8424885,227.0,229.0
1250.0,228.0,0.8408277,227.0,229.0
1260.0,228.0,0.84971726,227.0,229.0
1270.0,228.0,0.90178245,227.0,229.0
1280.0,228.0,0.9757219,227.0,229.0
1290.0,228.0,1.0328157,227.0,229.0
1300.0,228.0,1.1019597,227.0,229.0
1310.0,228.0,1.158303,227.0,230.0
1320.0,228.0,1.185268,227.0,230.0
1330.0,228.0,1.1957233,227.0,230.0
1340.0,228.0,1.1971638,227.0,230.0
1350.0,228.0,1.2025901,227.0,230.0
1360.0,228.0,1.2205795,227.0,230.0
1370.0,228.0,1.2205557,227.0,230.0
1380.0,228.0,1.2213755,227.0,230.0
1390.0,228.0,1.2374859,227.0,230.0
1400.0,228.0,1.2540629,227.0,230.0
1410.0,228.0,1.2769281,227.0,230.0
1420.0,228.0,1.3321612,227.0,230.0
1430.0,228.0,1.3796896,227.0,230.0
1440.0,228.0,1.4316281,227.0,230.0
1450.0,228.0,1.4901097,227.0,230.0
1460.0,228.0,1.5126141,227.0,230.0
1470.0,228.0,1.5176632,227.0,230.0
1480.0,228.0,1.4975985,227.0,230.0
1490.0,228.0,1.4626266,227.0,230.0
1500.0,228.0,1.4258928,228.0,230.0
1510.0,228.0,1.4065157,228.0,230.0
1520.0,228.0,1.3655584,228.0,230.0
1530.0,228.0,1.3081654,228.0,230.0
1540.0,228.0,1.2290622,228.0,230.0
1550.0,228.0,1.183946,228.0,230.0
1560.0,228.0,1.1822767,228.0,230.0
1570.0,228.0,1.1764755,228.0,230.0
1580.0,228.0,1.180465,228.0,230.0
1590.0,228.0,1.1625404,228.0,230.0
1600.0,229.0,1.113995,228.0,230.0
1610.0,229.0,1.072164,228.0,230.0
1620.0,229.0,1.0155656,228.0,230.0
1630.0,229.0,0.9068152,229.0,230.0
1640.0,229.0,0.85842943,229.0,230.0
1650.0,229.0,0.8401089,229.0,230.0
1660.0,229.0,0.7779896,229.0,230.0
1670.0,229.0,0.70125675,229.0,230.0
1680.0,229.0,0.6617759,229.0,230.0
1690.0,229.0,0.65292734,229.0,229.5
1700.0,229.0,0.6658545,229.0,230.0
1710.0,229.0,0.6544219,229.0,230.0
1720.0,229.0,0.55648094,229.0,230.0
1730.0,229.0,0.5912284,229.0,229.0
1740.0,229.0,0.5744345,229.0,229.0
1750.0,229.0,0.55069405,229.0,229.0
1760.0,229.0,0.5698903,229.0,230.0
1770.0,229.0,0.60191697,229.0,230.0
1780.0,229.0,0.61783814,229.0,230.0
1790.0,229.0,0.58363,229.0,230.0
1800.0,229.0,0.576922,229.0,230.0
1810.0,229.0,0.5776704,229.0,230.0
1820.0,229.0,0.57714814,229.0,230.0
1830.0,229.0,0.57414633,229.0,230.0
1840.0,229.0,0.5687888,229.0,230.0
1850.0,230.0,0.5673623,229.0,230.0
1860.0,230.0,0.55881923,229.0,230.0
1870.0,230.0,0.55025,229.0,230.0
1880.0,230.0,0.54797715,229.0,230.0
1890.0,230.0,0.5407689,229.0,230.0
1900.0,230.0,0.48437998,229.0,230.0
1910.0,230.0,0.48989794,229.0,230.0
1920.0,230.0,0.48307246,229.0,230.0
1930.0,230.0,0.48226136,229.0,230.0
1940.0,230.0,0.48226136,229.0,230.0
1950.0,230.0,0.5387711,229.0,230.0
1960.0,230.0,0.54048496,229.0,230.0
1970.0,230.0,0.515534,229.0,230.0
1980.0,230.0,0.4941458,230.0,230.0
1990.0,230.0,0.46945074,230.0,230.0
2000.0,230.0,0.46343645,230.0,230.0
2010.0,230.0,0.48111433,230.0,230.0
2020.0,230.0,0.4774953,230.0,230.0
2030.0,230.0,0.3986423,230.0,230.0
2040.0,230.0,0.41625834,230.0,230.0
2050.0,230.0,0.41573972,230.0,230.0
2060.0,230.0,0.41506913,230.0,230.0
2070.0,230.0,0.4961411,229.0,230.0
2080.0,230.0,0.51287407,229.0,230.0
2090.0,230.0,0.5166232,229.0,230.0
2100.0,230.0,0.51759785,229.0,230.0
2110.0,230.0,0.5239358,229.0,230.0
2120.0,230.0,0.53322446,229.0,230.0
2130.0,230.0,0.5401363,229.0,230.0
2140.0,230.0,0.54602015,229.0,230.0
2150.0,230.0,0.5537427,229.0,230.0
2160.0,230.0,0.5605087,229.0,230.0
2170.0,230.0,0.5686607,229.0,230.0
2180.0,230.0,0.5368707,229.0,230.0
2190.0,230.0,0.49607047,229.0,230.0
2200.0,230.0,0.49607047,229.0,230.0
2210.0,230.0,0.49655905,229.0,230.0
2220.0,229.0,0.49990958,229.0,230.0
2230.0,229.0,0.4943952,229.0,230.0
2240.0,229.0,0.48967886,229.0,230.0
2250.0,229.0,0.48831406,229.0,230.0
2260.0,229.0,0.48343685,229.0,230.0
2270.0,229.0,0.47182733,229.0,230.0
2280.0,229.0,0.45676807,229.0,229.0
2290.0,229.0,0.40164223,229.0,229.0
2300.0,229.0,0.0,229.0,229.0
2310.0,229.0,0.4419491,229.0,229.0
2320.0,229.0,0.48070678,229.0,229.0
2330.0,229.0,0.50679284,229.0,229.0
2340.0,229.0,0.46850827,229.0,229.0
2350.0,229.0,0.40500736,229.0,229.0
2360.0,229.0,0.40942764,229.0,229.0
2370.0,229.0,0.40942764,229.0,229.0
2380.0,229.0,0.40730822,229.0,229.0
2390.0,229.0,0.40587685,229.0,229.0
2400.0,229.0,0.4037016,229.0,229.0
2410.0,229.0,0.40149224,229.0,229.0
2420.0,229.0,0.3992481,229.0,229.0
2430.0,229.0,0.39773235,229.0,229.0
2440.0,229.0,0.3954289,229.0,229.0
2450.0,229.0,0.39308906,229.0,229.0
2460.0,229.0,0.39150864,229.0,229.0
2470.0,229.0,0.3891067,229.0,229.0
2480.0,229.0,0.39150864,229.0,229.0
2490.0,229.0,0.4188926,229.0,229.0
2500.0,229.0,0.43529764,228.0,229.0
2510.0,229.0,0.43358853,228.0,229.0
2520.0,229.0,0.4324338,229.0,229.0
2530.0,229.0,0.43697938,228.0,229.0
2540.0,229.0,0.52115256,228.0,229.0
2550.0,229.0,0.48885065,228.0,229.0
2560.0,229.0,0.49485102,228.0,229.0
2570.0,229.0,0.52763623,228.0,229.0
2580.0,229.0,0.51681715,228.0,229.0
2590.0,229.0,0.505569,228.0,229.0
2600.0,229.0,0.49404347,228.0,229.0
2610.0,229.0,0.49449366,228.0,229.0
2620.0,229.0,0.49707547,228.0,229.0
2630.0,229.0,0.4988427,228.0,229.0
2640.0,229.0,0.49980396,228.0,229.0
2650.0,228.0,0.499964,228.0,229.0
2660.0,228.0,0.49974397,228.0,229.0
2670.0,228.0,0.49987903,228.0,229.0
2680.0,228.0,0.499964,228.0,229.0
2690.0,228.0,0.49999896,228.0,229.0
2700.0,229.0,0.499991,228.0,229.0
2710.0,228.0,0.49971092,228.0,229.0
2720.0,228.0,0.49862912,228.0,229.0
2730.0,228.0,0.5659674,228.0,229.0
2740.0,228.0,0.6110355,228.0,229.0
2750.0,228.0,0.5943391,228.0,229.0
2760.0,228.0,0.61153495,228.0,229.0
2770.0,228.0,0.682184,228.0,229.0
2780.0,228.0,0.7573632,228.0,229.0
2790.0,228.0,0.7816387,228.0,229.0
2800.0,228.0,0.7876547,228.0,229.0
2810.0,228.0,0.8157059,228.0,229.0
2820.0,228.0,0.8168175,228.0,229.0
2830.0,228.0,0.81765276,228.0,229.0
2840.0,228.0,0.8437862,228.0,229.0
2850.0,228.0,0.87112796,228.0,229.0
2860.0,228.0,0.89972836,228.0,229.0
2870.0,228.0,0.9100984,228.0,229.0
2880.0,228.0,0.9100984,228.0,229.0
2890.0,228.0,0.90465117,228.0,229.0
2900.0,228.0,0.9037362,228.0,229.0
2910.0,228.0,0.76531297,228.0,229.0
2920.0,228.0,0.73300517,228.0,229.0
2930.0,228.0,0.7325277,228.0,229.0
2940.0,228.0,0.7322891,228.0,229.0
2950.0,228.0,0.7334474,228.0,229.0
2960.0,228.0,0.7332093,228.0,229.0
2970.0,228.0,0.7332093,228.0,229.0
2980.0,228.0,0.73273313,228.0,229.0
2990.0,228.0,0.7314046,228.0,229.0
3000.0,228.0,0.7311457,228.0,229.0
3010.0,228.0,0.6970801,228.0,229.0
3020.0,228.0,0.76502204,228.0,229.0
3030.0,228.0,0.7730855,228.0,229.0
3040.0,228.0,0.84978193,228.0,229.0
3050.0,228.0,0.88953066,228.0,229.0
3060.0,228.0,0.9718489,227.0,229.0
3070.0,228.0,1.0258017,227.0,229.0
3080.0,228.0,1.0224698,227.0,229.0
3090.0,228.0,1.0732557,227.0,229.0
3100.0,228.0,1.080418,227.0,229.0
3110.0,228.0,1.080292,227.0,229.0
3120.0,228.0,1.1197987,227.0,229.0
3130.0,227.0,1.1316824,227.0,229.0
3140.0,227.0,1.1134185,227.0,229.0
3150.0,227.0,1.0881784,227.0,229.0
3160.0,228.0,1.0774051,227.0,229.0
3170.0,228.0,1.0615132,227.0,229.0
3180.0,228.0,1.0039363,227.0,229.0
3190.0,228.0,0.9881424,227.0,229.0
3200.0,228.0,0.98753,227.0,229.0
3210.0,228.0,0.9678621,227.0,229.0
3220.0,228.0,0.9375463,227.0,229.0
3230.0,228.0,0.93638945,227.0,229.0
3240.0,228.0,0.9351934,227.0,229.0
3250.0,228.0,0.91950434,227.0,229.0
3260.0,229.0,0.71152383,228.0,229.0
3270.0,229.0,0.7171226,228.0,229.0
3280.0,229.0,0.73400795,228.0,229.0
3290.0,229.0,0.72700924,228.0,229.0
3300.0,229.0,0.70063525,228.0,229.0
3310.0,229.0,0.7026435,228.0,229.0
3320.0,229.0,0.6970867,228.0,229.0
3330.0,229.0,0.69912034,228.0,229.0
3340.0,229.0,0.7183577,228.0,230.0
3350.0,229.0,0.7159148,229.0,230.0
3360.0,229.0,0.691198,229.0,230.0
3370.0,229.0,0.6920827,229.0,230.0
3380.0,229.0,0.6736746,229.0,230.0
3390.0,229.0,0.6364781,229.0,230.0
3400.0,229.0,0.5722741,229.0,230.0
3410.0,229.0,0.5031765,229.0,230.0
3420.0,229.0,0.50618863,229.0,230.0
3430.0,229.0,0.5652203,229.0,230.0
3440.0,229.0,0.60927767,229.0,230.0
3450.0,229.0,0.61674076,229.0,230.0
3460.0,229.0,0.6959413,229.0,230.0
3470.0,230.0,0.75989753,229.0,230.0
3480.0,230.0,0.7619392,229.0,230.0
3490.0,230.0,0.781411,229.0,230.0
3500.0,230.0,0.7992415,229.0,230.0
3510.0,230.0,0.7944161,229.0,231.0
3520.0,230.0,0.7734589,229.0,230.0
3530.0,230.0,0.745152,229.0,230.0
3540.0,230.0,0.7243972,229.0,230.0
3550.0,230.0,0.6910128,229.0,230.0
3560.0,230.0,0.48380968,229.0,230.0
3570.0,230.0,0.47694784,229.0,230.0
3580.0,230.0,0.4554239,229.0,230.0
3590.0,230.0,0.450743,230.0,230.0
3600.0,230.0,0.39182588,230.0,230.0
3610.0,230.0,0.31184536,230.0,230.0
3620.0,230.0,0.1997392,230.0,230.0
3630.0,230.0,0.3314835,230.0,230.0
3640.0,230.0,0.4477165,230.0,231.0
3650.0,230.0,0.5053614,230.0,231.0
3660.0,230.0,0.5733715,230.0,231.0
3670.0,230.0,0.5731259,230.0,231.0
3680.0,230.0,0.5731259,230.0,231.0
3690.0,230.0,0.5664309,230.0,231.0
3700.0,230.0,0.56611633,230.0,231.0
3710.0,230.0,0.5682617,230.0,231.0
3720.0,230.0,0.5575827,230.0,231.0
3730.0,230.0,0.55909264,230.0,231.0
3740.0,230.0,0.5572783,230.0,231.0
3750.0,230.0,0.54964375,230.0,231.0
3760.0,230.0,0.55006325,230.0,231.0
3770.0,230.0,0.55328655,230.0,231.0
3780.0,230.0,0.5493105,230.0,231.0
3790.0,230.0,0.507287,230.0,230.0
3800.0,230.0,0.45323044,230.0,230.0
3810.0,230.0,0.38533732,230.0,230.0
3820.0,230.0,0.40416792,230.0,230.0
3830.0,230.0,0.3925405,230.0,230.0
3840.0,230.0,0.36948833,230.0,230.0
3850.0,230.0,0.40824482,230.0,230.0
3860.0,230.0,0.40877137,230.0,230.0
3870.0,230.0,0.45194933,230.0,230.0
3880.0,230.0,0.49503946,230.0,230.0
3890.0,230.0,0.5382738,230.0,230.0
3900.0,230.0,0.5675864,230.0,230.0
3910.0,230.0,0.5491771,230.0,230.0
3920.0,230.0,0.5108128,230.0,230.0
3930.0,230.0,0.47449893,230.0,230.0
3940.0,230.0,0.4572795,230.0,230.0
3950.0,230.0,0.499702,230.0,230.0
3960.0,230.0,0.48212954,230.0,230.0
3970.0,230.0,0.3604653,230.0,230.0
3980.0,230.0,0.37753475,230.0,230.0
3990.0,230.0,0.38761336,230.0,230.0
4000.0,230.0,0.34962562,230.0,230.0
4010.0,230.0,0.29856092,230.0,230.0
4020.0,230.0,0.29253066,230.0,230.0
4030.0,230.0,0.38122,230.0,230.0
4040.0,230.0,0.4097991,230.0,230.0
4050.0,230.0,0.41769132,230.0,230.0
4060.0,230.0,0.4398428,230.0,231.0
4070.0,230.0,0.4620352,230.0,231.0
4080.0,230.0,0.46025953,230.0,231.0
4090.0,230.0,0.4517539,230.0,231.0
4100.0,230.0,0.48015842,230.0,231.0
4110.0,230.0,0.4905381,230.0,231.0
4120.0,230.0,0.4939469,230.0,231.0
4130.0,230.0,0.5878794,230.0,231.0
4140.0,230.0,0.65258956,230.0,231.0
4150.0,230.0,0.66429025,230.0,231.0
4160.0,230.0,0.7084817,230.0,231.0
4170.0,230.0,0.7506579,230.0,231.0
4180.0,231.0,0.75823015,230.0,231.0
4190.0,231.0,0.740756,230.0,231.0
4200.0,231.0,0.7289048,230.0,231.0
4210.0,231.0,0.72749156,230.0,231.0
4220.0,231.0,0.70257246,230.0,231.0
4230.0,231.0,0.6848836,231.0,231.0
4240.0,231.0,0.630368,231.0,232.0
4250.0,231.0,0.6412104,231.0,232.0
4260.0,231.0,0.6056929,231.0,231.0
4270.0,231.0,0.607599,231.0,231.0
4280.0,231.0,0.64068013,231.0,232.0
4290.0,231.0,0.6412104,231.0,232.0
4300.0,231.0,0.7064711,231.0,232.0
4310.0,231.0,0.77360076,231.0,232.0
4320.0,231.0,0.78227293,231.0,232.0
4330.0,231.0,0.744806,231.0,232.0
4340.0,231.0,0.73885614,231.0,232.0
4350.0,231.0,0.76858515,231.0,232.0
4360.0,231.0,0.77837485,231.0,232.0
4370.0,231.0,0.78227293,231.0,232.0
4380.0,231.0,0.7911537,231.0,232.0
4390.0,231.0,0.8868083,231.0,232.0
4400.0,231.0,0.8942453,231.0,232.0
4410.0,231.0,0.91980106,231.0,232.0
4420.0,231.0,0.93086785,231.0,232.0
4430.0,231.0,0.9327711,231.0,232.0
4440.0,232.0,1.0192227,231.0,232.0
4450.0,231.0,1.0134275,231.0,232.0
4460.0,232.0,1.0158749,231.0,232.0
4470.0,232.0,1.1319069,231.0,233.0
4480.0,231.0,1.058061,231.0,233.0
4490.0,231.0,0.9443698,231.0,233.0
4500.0,231.0,0.9321872,231.0,232.0
4510.0,231.0,0.93086785,231.0,232.0
4520.0,231.0,0.91542447,231.0,232.0
4530.0,231.0,0.88107836,231.0,232.0
4540.0,231.0,0.8679222,231.0,232.0
4550.0,231.0,0.90586483,231.0,232.0
4560.0,232.0,0.86871564,231.0,232.0
4570.0,231.5,0.8370317,231.0,232.0
4580.0,231.0,0.7587362,231.0,232.0
4590.0,231.0,0.76118153,231.0,232.0
4600.0,231.0,0.8438692,231.0,232.0
4610.0,231.0,0.8935451,231.0,232.0
4620.0,231.0,0.8898234,231.0,232.0
4630.0,231.0,0.7968004,231.0,232.0
4640.0,231.0,0.75735474,231.0,232.0
4650.0,231.0,0.68682474,231.0,232.0
4660.0,231.0,0.7387666,231.0,232.0
4670.0,231.0,0.76065814,231.0,232.0
4680.0,231.0,0.761343,231.0,232.0
4690.0,231.0,0.7639217,231.0,232.0
4700.0,231.0,0.76134294,231.0,232.0
4710.0,231.0,0.770761,231.0,232.0
4720.0,232.0,0.75293404,231.0,232.0
4730.0,232.0,0.71569705,231.0,232.0
4740.0,232.0,0.70486075,231.0,232.0
4750.0,232.0,0.7766321,231.0,232.0
4760.0,232.0,0.7997234,232.0,232.0
4770.0,232.0,0.69546115,232.0,232.0
4780.0,232.0,0.6569519,232.0,232.0
4790.0,232.0,0.694354,232.0,232.0
4800.0,232.0,0.60761017,232.0,233.0
4810.0,232.0,0.41511434,232.0,232.0
4820.0,232.0,0.37401557,232.0,232.0
4830.0,232.0,0.5931064,232.0,232.0
4840.0,232.0,0.62612534,232.0,233.0
4850.0,232.0,0.5200299,232.0,233.0
4860.0,232.0,0.48263407,232.0,233.0
4870.0,233.0,0.49994358,232.0,233.0
4880.0,233.0,0.48491904,232.0,233.0
4890.0,233.0,0.48113003,232.0,233.0
4900.0,233.0,0.53419125,232.0,233.0
4910.0,233.0,0.5870737,232.0,233.0
4920.0,233.0,0.51672053,233.0,233.0
4930.0,233.0,0.5080937,233.0,233.0
4940.0,233.0,0.6227765,233.0,233.0
4950.0,233.0,0.51681525,233.0,233.0
4960.0,233.0,0.3741474,233.0,233.0
4970.0,233.0,0.37967393,233.0,233.0
4980.0,233.0,0.39880458,233.0,233.0
4990.0,233.0,0.39880458,233.0,233.0
5000.0,233.0,0.5844933,233.0,233.75
5010.0,233.0,0.66164017,233.0,234.0
5020.0,233.0,0.64126706,233.0,234.0
5030.0,233.0,0.45894703,233.0,234.0
5040.0,233.0,0.47035587,233.0,234.0
5050.0,233.0,0.47140455,233.0,234.0
5060.0,233.0,0.4719211,233.0,234.0
5070.0,233.0,0.4846056,233.0,234.0
5080.0,233.5,0.5,233.0,234.0
5090.0,233.5,0.5,233.0,234.0
5100.0,233.0,0.4865043,233.0,234.0
5110.0,233.0,0.6590447,233.0,234.0
5120.0,233.0,0.66138923,233.0,234.0
5130.0,233.0,0.61612356,233.0,234.0
5140.0,233.0,0.5760621,233.0,234.0
5150.0,234.0,0.5706922,233.0,234.0
5160.0,234.0,0.59911025,233.0,234.0
5170.0,234.0,0.56628543,233.0,234.0
5180.0,234.0,0.48111722,233.0,234.0
5190.0,234.0,0.57348835,233.0,234.0
5200.0,234.0,0.58716613,233.0,234.0
5210.0,234.0,0.55705976,233.0,234.0
5220.0,233.0,0.4976445,233.0,234.0
5230.0,233.0,0.4797413,233.0,234.0
5240.0,233.0,0.4792163,233.0,234.0
5250.0,233.0,0.4952077,233.0,234.0
5260.0,234.0,0.6076348,233.0,234.0
5270.0,234.0,0.6472224,233.0,234.0
5280.0,234.0,0.512674,233.0,234.0
5290.0,234.0,0.60869455,233.0,234.0
5300.0,234.0,0.6104012,233.0,234.0
5310.0,234.0,0.56585383,233.0,234.0
5320.0,234.0,0.60138345,233.0,234.0
5330.0,234.0,0.58025765,233.0,234.0
5340.0,234.0,0.61914825,233.0,234.0
5350.0,234.0,0.6583163,233.0,234.0
5360.0,234.0,0.64050096,233.0,234.0
5370.0,234.0,0.6025614,233.0,234.0
5380.0,234.0,0.49751097,233.0,234.0
5390.0,234.0,0.57088494,233.0,234.0
5400.0,234.0,0.65624225,233.0,234.0
5410.0,234.0,0.7279523,233.0,234.0
5420.0,233.0,0.6531018,233.0,234.0
5430.0,233.0,0.5191847,233.0,234.0
5440.0,233.0,0.49784315,233.0,234.0
5450.0,233.0,0.49699703,233.0,234.0
5460.0,234.0,0.49999642,233.0,234.0
5470.0,233.0,0.49998564,233.0,234.0
5480.0,233.5,0.6454861,233.0,234.0
5490.0,233.5,0.6612643,233.0,234.0
5500.0,233.0,0.5815116,233.0,234.0
5510.0,234.0,0.4965278,233.0,234.0
5520.0,233.0,0.499736,233.0,234.0
5530.0,233.0,0.63778263,233.0,234.0
5540.0,234.0,0.76601756,233.0,234.0
5550.0,234.0,0.6658201,233.0,234.0
5560.0,234.0,0.49557045,233.0,234.0
5570.0,234.0,0.4840148,233.0,234.0
5580.0,234.0,0.48824668,233.0,234.0
5590.0,234.0,0.4773282,233.0,234.0
5600.0,234.0,0.5643824,233.0,234.0
5610.0,234.0,0.636546,233.0,234.0
5620.0,234.0,0.60977983,234.0,234.0
5630.0,234.0,0.54695565,234.0,234.0
5640.0,234.0,0.49279252,234.0,234.0
5650.0,234.0,0.43153736,234.0,234.0
5660.0,234.0,0.4560117,234.0,235.0
5670.0,234.0,0.42854956,234.0,234.0
5680.0,234.0,0.41731793,234.0,234.0
5690.0,234.0,0.47140455,234.0,235.0
5700.0,234.0,0.48506275,234.0,235.0
5710.0,234.0,0.58743435,234.0,235.0
5720.0,234.0,0.6353218,234.0,235.0
5730.0,234.0,0.49607837,234.0,235.0
5740.0,235.0,0.49300668,234.0,235.0
5750.0,235.0,0.3942999,235.0,235.0
5760.0,235.0,0.23368862,235.0,235.0
5770.0,235.0,0.3717258,235.0,235.0
5780.0,235.0,0.37267798,235.0,235.0
5790.0,235.0,0.16717914,235.0,235.0
5800.0,235.0,0.4,235.0,235.0
5810.0,235.0,0.4316293,235.0,235.0
5820.0,235.0,0.4330127,235.0,235.25
5830.0,235.0,0.48989794,235.0,236.0
5840.0,235.0,0.48989794,235.0,236.0
5850.0,235.0,0.48926473,235.0,236.0
5860.0,236.0,0.499987,235.0,236.0
5870.0,235.0,0.45825756,235.0,236.0
5880.0,235.0,0.40450814,235.0,235.0
5890.0,235.0,0.47307286,235.0,236.0
5900.0,235.0,0.47318634,235.0,236.0
5910.0,235.0,0.3,235.0,235.0
5920.0,235.0,0.32763445,235.0,235.0
5930.0,235.0,0.4,235.0,235.0
5940.0,235.0,0.34538376,235.0,235.0
5950.0,235.0,0.291167,235.0,235.0
5960.0,235.0,0.39885038,235.0,235.0
5970.0,235.0,0.37495562,235.0,235.0
5980.0,235.0,0.24608102,235.0,235.0
5990.0,235.0,0.39999998,235.0,235.0
6000.0,235.0,0.3886896,235.0,235.0
6010.0,235.0,0.38375974,235.0,235.0
6020.0,235.0,0.41456524,235.0,235.0
6030.0,235.0,0.2429488,235.0,235.0
6040.0,235.0,0.29023215,235.0,235.0
6050.0,235.0,0.40866885,235.0,235.0
6060.0,235.0,0.32852548,235.0,235.0
6070.0,235.0,0.17205234,235.0,235.0
6080.0,235.0,0.3656205,235.0,235.0
6090.0,235.0,0.38406757,235.0,235.0
6100.0,235.0,0.19447385,235.0,235.0
6110.0,235.0,0.0,235.0,235.0
6120.0,235.0,0.0,235.0,235.0
6130.0,235.0,0.0,235.0,235.0
6140.0,235.0,0.0,235.0,235.0
6150.0,235.0,0.0,235.0,235.0
6160.0,235.0,0.0,235.0,235.0
6170.0,235.0,0.0,235.0,235.0
6180.0,235.0,0.0,235.0,235.0
6190.0,235.0,0.24867529,235.0,235.0
6200.0,235.0,0.37168783,235.0,235.0
6210.0,235.0,0.34754696,235.0,235.0
6220.0,235.0,0.0,235.0,235.0
6230.0,235.0,0.0,235.0,235.0
6240.0,235.0,0.0,235.0,235.0
6250.0,235.0,0.0,235.0,235.0
6260.0,235.0,0.0,235.0,235.0
6270.0,235.0,0.0,235.0,235.0
6280.0,235.0,0.0,235.0,235.0
6290.0,235.0,0.0,235.0,235.0
6300.0,235.0,0.0,235.0,235.0
6310.0,235.0,0.0,235.0,235.0
6320.0,235.0,0.34029028,235.0,235.0
6330.0,235.0,0.4344324,235.0,235.75
6340.0,235.0,0.39679015,235.0,235.0
6350.0,235.0,0.4600454,235.0,236.0
6360.0,235.0,0.4719211,235.0,236.0
6370.0,235.0,0.37815833,235.0,235.0
6380.0,235.0,0.33523563,235.0,235.0
6390.0,235.0,0.48254684,235.0,236.0
6400.0,235.0,0.4905328,235.0,236.0
6410.0,235.0,0.48923922,235.0,236.0
6420.0,236.0,0.49909702,235.0,236.0
6430.0,236.0,0.49780846,235.0,236.0
6440.0,236.0,0.49780843,235.0,236.0
6450.0,236.0,0.4849107,235.0,236.0
6460.0,236.0,0.49451977,235.0,236.0
6470.0,236.0,0.49286643,235.0,236.0
6480.0,236.0,0.49976322,235.0,236.0
6490.0,235.0,0.47574297,235.0,236.0
6500.0,235.0,0.47026458,235.0,236.0
6510.0,235.0,0.48368955,235.0,236.0
6520.0,235.0,0.49196348,235.0,236.0
6530.0,236.0,0.49919364,235.0,236.0
6540.0,236.0,0.47508356,235.0,236.0
6550.0,236.0,0.44740963,235.0,236.0
6560.0,236.0,0.45786682,235.0,236.0
6570.0,236.0,0.60751915,235.0,236.0
6580.0,236.0,0.6502611,235.0,236.0
6590.0,236.0,0.5307827,235.0,236.0
6600.0,236.0,0.43177205,236.0,236.0
6610.0,236.0,0.41339865,236.0,236.0
6620.0,236.0,0.40926346,236.0,236.0
6630.0,236.0,0.32789654,236.0,236.0
6640.0,236.0,0.28256637,236.0,236.0
6650.0,236.0,0.31125697,236.0,236.0
6660.0,236.0,0.28432423,236.0,236.0
6670.0,236.0,0.29946807,236.0,236.0
6680.0,236.0,0.26451302,236.0,236.0
6690.0,236.0,0.28223428,236.0,236.0
6700.0,236.0,0.29034385,236.0,236.0
6710.0,236.0,0.25128043,236.0,236.0
6720.0,236.0,0.0,236.0,236.0
6730.0,236.0,0.0,236.0,236.0
6740.0,236.0,0.3131009,236.0,236.0
6750.0,236.0,0.29946807,236.0,236.0
6760.0,236.0,0.19558465,236.0,236.0
6770.0,236.0,0.0,236.0,236.0
6780.0,236.0,0.0,236.0,236.0
6790.0,236.0,0.0,236.0,236.0
6800.0,236.0,0.29946807,236.0,236.0
6810.0,236.0,0.29946807,236.0,236.0
6820.0,236.0,0.28513205,236.0,236.0
6830.0,236.0,0.3994011,236.0,236.0
6840.0,236.0,0.41508105,236.0,236.0
6850.0,236.0,0.3994011,236.0,236.0
6860.0,236.0,0.3994011,236.0,236.0
6870.0,236.0,0.0,236.0,236.0
6880.0,236.0,0.0,236.0,236.0
6890.0,236.0,0.34442335,236.0,236.0
6900.0,236.0,0.61935806,235.0,236.0
6910.0,236.0,0.5937978,235.0,236.0
6920.0,236.0,0.59725606,235.0,236.0
6930.0,236.0,0.598098,235.0,236.0
6940.0,236.0,0.59236413,235.0,236.0
6950.0,236.0,0.59725606,235.0,236.0
6960.0,236.0,0.6622092,235.0,236.0
6970.0,236.0,0.7119152,235.0,236.0
6980.0,236.0,0.7290783,235.0,236.0
6990.0,236.0,0.7677658,235.0,236.0
7000.0,236.0,0.74272436,235.0,236.0
7010.0,236.0,0.7194504,235.0,236.0
7020.0,236.0,0.72206634,235.0,236.0
7030.0,236.0,0.72122353,235.0,236.0
7040.0,236.0,0.71945035,235.0,236.0
7050.0,236.0,0.6274511,235.0,236.0
7060.0,236.0,0.6224191,235.0,236.0
7070.0,236.0,0.7220662,235.0,236.0
7080.0,236.0,0.7220662,235.0,236.0
7090.0,236.0,0.72122353,235.0,236.0
7100.0,236.0,0.6274511,235.0,236.0
7110.0,236.0,0.6229988,235.0,236.0
7120.0,236.0,0.6268598,235.0,236.0
7130.0,235.0,0.63703114,235.0,236.0
7140.0,235.0,0.6320754,235.0,236.0
7150.0,235.0,0.63683707,235.0,236.0
7160.0,235.0,0.63703114,235.0,236.0
7170.0,235.0,0.6320754,235.0,236.0
7180.0,235.0,0.6372097,235.0,236.0
7190.0,235.0,0.63703114,235.0,236.0
7200.0,235.0,0.6247738,235.0,236.0
7210.0,236.0,0.6246964,235.0,236.0
7220.0,235.5,0.62518424,235.0,236.0
7230.0,235.5,0.62082714,235.0,236.0
7240.0,236.0,0.6246964,235.0,236.0
7250.0,235.0,0.62943643,235.0,236.0
7260.0,235.0,0.6247738,235.0,236.0
7270.0,235.0,0.6291029,235.0,236.0
7280.0,235.0,0.62478065,235.0,236.0
7290.0,235.0,0.7291263,235.0,236.0
7300.0,235.0,0.7319236,235.0,236.0
7310.0,235.0,0.73249555,235.0,236.0
7320.0,235.0,0.7291263,235.0,236.0
7330.0,236.0,0.6998542,235.0,236.0
7340.0,236.0,0.88039154,235.0,236.0
7350.0,236.0,0.91367674,235.0,236.0
7360.0,236.0,0.8330038,235.0,236.0
7370.0,236.0,0.9152781,235.0,237.0
7380.0,236.0,0.94573265,235.0,236.0
7390.0,236.0,0.9042097,235.0,236.0
7400.0,236.0,0.9108015,235.0,236.0
7410.0,236.0,0.9198541,235.0,236.0
7420.0,236.0,0.92028296,235.0,236.0
7430.0,236.0,0.8954651,235.0,236.0
7440.0,236.0,0.7989386,235.0,236.0
7450.0,235.0,0.8387031,235.0,236.0
7460.0,235.0,0.9415934,235.0,236.0
7470.0,236.0,0.8553971,235.0,236.0
7480.0,235.5,0.7561741,235.0,236.0
7490.0,236.0,0.7745755,235.0,236.0
7500.0,236.0,0.74251086,235.0,236.0
7510.0,236.0,0.69376725,235.0,236.0
7520.0,236.0,0.65373844,235.0,236.0
7530.0,236.0,0.6317697,235.0,236.0
7540.0,236.0,0.6153559,235.0,236.0
7550.0,236.0,0.5519289,236.0,236.0
7560.0,236.0,0.4381045,236.0,236.0
7570.0,236.0,0.4154505,236.0,236.0
7580.0,236.0,0.39757007,236.0,236.0
7590.0,236.0,0.4070281,236.0,236.0
7600.0,236.0,0.46251118,236.0,237.0
7610.0,236.0,0.4842635,236.0,237.0
7620.0,236.0,0.46215498,236.0,237.0
7630.0,236.0,0.43532813,236.0,237.0
7640.0,236.0,0.46929598,236.0,237.0
7650.0,236.0,0.47071484,236.0,237.0
7660.0,236.0,0.44049948,236.0,237.0
7670.0,236.0,0.4485419,236.0,237.0
7680.0,236.0,0.49275726,236.0,237.0
7690.0,236.0,0.49999145,236.0,237.0
7700.0,236.0,0.4940072,236.0,237.0
7710.0,236.0,0.47223952,236.0,237.0
7720.0,236.0,0.489029,236.0,237.0
7730.0,236.0,0.4910067,236.0,237.0
7740.0,236.0,0.47547367,236.0,237.0
7750.0,236.0,0.46756014,236.0,237.0
7760.0,236.0,0.42724118,236.0,236.0
7770.0,236.0,0.46233833,236.0,237.0
7780.0,236.0,0.45057046,236.0,237.0
7790.0,236.0,0.451359,236.0,237.0
7800.0,236.0,0.39737514,236.0,236.0
7810.0,236.0,0.46496397,236.0,237.0
7820.0,236.0,0.47297293,236.0,237.0
7830.0,236.0,0.47060218,236.0,237.0
7840.0,236.0,0.4905454,236.0,237.0
7850.0,236.0,0.48956323,236.0,237.0
7860.0,236.0,0.49989298,236.0,237.0
7870.0,236.5,0.5,236.0,237.0
7880.0,236.0,0.47060215,236.0,237.0
7890.0,236.0,0.47297296,236.0,237.0
7900.0,236.0,0.47060215,236.0,237.0
7910.0,236.0,0.47060218,236.0,237.0
7920.0,236.0,0.48956323,236.0,237.0
7930.0,236.0,0.48956323,236.0,237.0
7940.0,236.5,0.5,236.0,237.0
7950.0,236.5,0.5,236.0,237.0
7960.0,236.5,0.5,236.0,237.0
7970.0,236.5,0.5,236.0,237.0
7980.0,236.0,0.47060215,236.0,237.0
7990.0,236.0,0.49973294,236.0,237.0
8000.0,236.5,0.5,236.0,237.0
8010.0,236.5,0.5,236.0,237.0
8020.0,236.5,0.5,236.0,237.0
8030.0,236.5,0.5,236.0,237.0
8040.0,237.0,0.49510857,236.0,237.0
8050.0,237.0,0.4955615,236.0,237.0
8060.0,236.0,0.49510854,236.0,237.0
8070.0,236.5,0.5,236.0,237.0
8080.0,236.0,0.48662725,236.0,237.0
8090.0,236.0,0.48472574,236.0,237.0
8100.0,236.0,0.49475178,236.0,237.0
8110.0,236.0,0.49475178,236.0,237.0
8120.0,236.0,0.49475178,236.0,237.0
8130.0,236.0,0.49475178,236.0,237.0
8140.0,236.0,0.49705186,236.0,237.0
8150.0,236.5,0.5,236.0,237.0
8160.0,236.5,0.5,236.0,237.0
8170.0,237.0,0.46172455,236.0,237.0
8180.0,237.0,0.43112192,237.0,237.0
8190.0,237.0,0.3225815,237.0,237.0
8200.0,237.0,0.0,237.0,237.0
8210.0,237.0,0.0,237.0,237.0
8220.0,237.0,0.0,237.0,237.0
8230.0,237.0,0.0,237.0,237.0
8240.0,237.0,0.0,237.0,237.0
8250.0,237.0,0.0,237.0,237.0
8260.0,237.0,0.0,237.0,237.0
8270.0,237.0,0.0,237.0,237.0
8280.0,237.0,0.0,237.0,237.0
8290.0,237.0,0.0,237.0,237.0
8300.0,237.0,0.12872404,237.0,237.0
8310.0,237.0,0.34745273,237.0,237.0
8320.0,237.0,0.36122242,237.0,237.0
8330.0,237.0,0.17779702,237.0,237.0
8340.0,237.0,0.309599,237.0,237.0
8350.0,237.0,0.38388792,237.0,237.0
8360.0,237.0,0.28098288,237.0,237.0
8370.0,237.0,0.22612433,237.0,237.0
8380.0,237.0,0.39591628,237.0,237.0
8390.0,237.0,0.36288223,237.0,237.0
8400.0,237.0,0.08770316,237.0,237.0
8410.0,237.0,0.34795922,237.0,237.0
8420.0,237.0,0.4499148,237.0,238.0
8430.0,237.0,0.47231716,237.0,238.0
8440.0,237.0,0.49856797,237.0,238.0
8450.0,238.0,0.49993053,237.0,238.0
8460.0,238.0,0.49817887,237.0,238.0
8470.0,237.0,0.49998295,237.0,238.0
8480.0,238.0,0.499937,237.0,238.0
8490.0,238.0,0.4714045,237.0,238.0
8500.0,238.0,0.35377333,238.0,238.0
8510.0,238.0,0.11743256,238.0,238.0
8520.0,238.0,0.0,238.0,238.0
8530.0,238.0,0.0,238.0,238.0
8540.0,238.0,0.0,238.0,238.0
8550.0,238.0,0.12261357,238.0,238.0
8560.0,238.0,0.38045603,238.0,238.0
8570.0,238.0,0.45040572,237.0,238.0
8580.0,238.0,0.49780843,237.0,238.0
8590.0,238.0,0.499984,237.0,238.0
8600.0,238.0,0.4979296,237.0,238.0
8610.0,237.0,0.499269,237.0,238.0
8620.0,237.0,0.4997558,237.0,238.0
8630.0,238.0,0.49888766,237.0,238.0
8640.0,238.0,0.49117073,237.0,238.0
8650.0,238.0,0.46498272,237.0,238.0
8660.0,238.0,0.499748,237.0,238.0
8670.0,238.0,0.70741755,237.0,238.0
8680.0,238.0,0.7342267,237.0,238.0
8690.0,238.0,0.59464663,237.0,238.0
8700.0,237.5,0.6308161,237.0,238.0
8710.0,238.0,0.7464468,237.0,238.0
8720.0,238.0,0.6509293,237.0,238.0
8730.0,238.0,0.51733726,237.0,238.0
8740.0,238.0,0.62400484,238.0,238.0
8750.0,238.0,0.53088224,238.0,238.0
8760.0,238.0,0.6255124,238.0,238.0
8770.0,238.0,0.58091503,238.0,238.0
8780.0,238.0,0.45227468,238.0,238.0
8790.0,238.0,0.5758002,238.0,238.0
8800.0,238.0,0.66937315,238.0,238.0
8810.0,238.0,0.7399006,237.0,238.0
8820.0,238.0,0.7522765,237.0,238.0
8830.0,238.0,0.7202291,237.0,238.0
8840.0,238.0,0.709444,237.0,238.0
8850.0,238.0,0.7135268,238.0,239.0
8860.0,238.0,0.6982538,238.0,239.0
8870.0,238.0,0.5587812,238.0,239.0
8880.0,238.0,0.4986356,238.0,239.0
8890.0,238.0,0.48862168,238.0,239.0
8900.0,238.0,0.47680023,238.0,239.0
8910.0,238.0,0.43787673,238.0,239.0
8920.0,238.0,0.5517013,238.0,239.0
8930.0,238.0,0.7460078,238.0,239.0
8940.0,238.0,0.6988505,238.0,239.0
8950.0,238.0,0.39903525,238.0,238.0
8960.0,238.0,0.36960757,238.0,238.0
8970.0,238.0,0.36960757,238.0,238.0
8980.0,238.0,0.36960757,238.0,238.0
8990.0,238.0,0.37569258,238.0,238.0
9000.0,238.0,0.4024185,238.0,238.0
9010.0,238.0,0.47140455,238.0,239.0
9020.0,238.0,0.49022973,238.0,239.0
9030.0,238.0,0.49022973,238.0,239.0
9040.0,238.0,0.4024185,238.0,238.0
9050.0,238.0,0.4024185,238.0,238.0
9060.0,238.0,0.4024185,238.0,238.0
9070.0,238.0,0.39751983,238.0,238.0
9080.0,238.0,0.34630543,238.0,238.0
9090.0,238.0,0.0,238.0,238.0
9100.0,238.0,0.0,238.0,238.0
9110.0,238.0,0.39885038,238.0,238.0
9120.0,238.0,0.35524675,238.0,238.0
9130.0,238.0,0.0,238.0,238.0
9140.0,238.0,0.0,238.0,238.0
9150.0,238.0,0.0,238.0,238.0
9160.0,238.0,0.0,238.0,238.0
9170.0,238.0,0.0,238.0,238.0
9180.0,238.0,0.0,238.0,238.0
9190.0,238.0,0.0,238.0,238.0
9200.0,238.0,0.0,238.0,238.0
9210.0,238.0,0.0,238.0,238.0
9220.0,238.0,0.0,238.0,238.0
9230.0,238.0,0.0,238.0,238.0
9240.0,238.0,0.0,238.0,238.0
9250.0,238.0,0.0,238.0,238.0
9260.0,238.0,0.0,238.0,238.0
9270.0,238.0,0.0,238.0,238.0
9280.0,238.0,0.0,238.0,238.0
9290.0,238.0,0.0,238.0,238.0
9300.0,238.0,0.0,238.0,238.0
9310.0,238.0,0.0,238.0,238.0
9320.0,238.0,0.0,238.0,238.0
9330.0,238.0,0.0,238.0,238.0
9340.0,238.0,0.0,238.0,238.0
9350.0,238.0,0.0,238.0,238.0
9360.0,238.0,0.0,238.0,238.0
9370.0,238.0,0.0,238.0,238.0
9380.0,238.0,0.0,238.0,238.0
9390.0,238.0,0.0,238.0,238.0
9400.0,238.0,0.39751983,238.0,238.0
9410.0,238.0,0.39751983,238.0,238.0
9420.0,238.0,0.39751983,238.0,238.0
9430.0,238.0,0.40364173,238.0,238.0
9440.0,238.0,0.40364173,238.0,238.0
9450.0,238.0,0.0,238.0,238.0
9460.0,238.0,0.0,238.0,238.0
9470.0,238.0,0.0,238.0,238.0
9480.0,238.0,0.0,238.0,238.0
9490.0,238.0,0.0,238.0,238.0
9500.0,238.0,0.0,238.0,238.0
9510.0,238.0,0.0,238.0,238.0
9520.0,238.0,0.0,238.0,238.0
9530.0,238.0,0.0,238.0,238.0
9540.0,238.0,0.0,238.0,238.0
9550.0,238.0,0.0,238.0,238.0
9560.0,238.0,0.0,238.0,238.0
9570.0,238.0,0.0,238.0,238.0
9580.0,238.0,0.0,238.0,238.0
9590.0,238.0,0.0,238.0,238.0
9600.0,238.0,0.0,238.0,238.0
9610.0,238.0,0.0,238.0,238.0
9620.0,238.0,0.37671235,238.0,238.0
9630.0,238.0,0.37671235,238.0,238.0
9640.0,238.0,0.37671235,238.0,238.0
9650.0,238.0,0.49998844,237.0,238.0
9660.0,238.0,0.49998844,237.0,238.0
9670.0,237.0,0.4689439,237.0,238.0
9680.0,237.0,0.46976516,237.0,238.0
9690.0,237.0,0.0,237.0,237.0
9700.0,237.0,0.0,237.0,237.0
9710.0,237.0,0.0,237.0,237.0
9720.0,237.0,0.0,237.0,237.0
9730.0,237.0,0.0,237.0,237.0
9740.0,237.0,0.0,237.0,237.0
9750.0,237.0,0.0,237.0,237.0
9760.0,237.0,0.0,237.0,237.0
9770.0,237.0,0.0,237.0,237.0
9780.0,237.0,0.0,237.0,237.0
9790.0,237.0,0.49462762,236.0,237.0
9800.0,237.0,0.49462762,236.0,237.0
9810.0,237.0,0.49499223,236.0,237.0
9820.0,236.0,0.49499223,236.0,237.0
9830.0,236.0,0.4954566,236.0,237.0
9840.0,236.0,0.0,236.0,236.0
9850.0,236.0,0.0,236.0,236.0
9860.0,236.0,0.0,236.0,236.0
9870.0,236.0,0.0,236.0,236.0
9880.0,236.0,0.0,236.0,236.0
9890.0,236.0,0.0,236.0,236.0
9900.0,236.0,0.0,236.0,236.0
9910.0,236.0,0.0,236.0,236.0
9920.0,236.0,0.0,236.0,236.0
9930.0,236.0,0.0,236.0,236.0
9940.0,236.0,0.0,236.0,236.0
9950.0,236.0,0.0,236.0,236.0
9960.0,236.0,0.0,236.0,236.0
9970.0,236.0,0.0,236.0,236.0
9980.0,236.0,0.0,236.0,236.0
9990.0,236.0,0.0,236.0,236.0
10000.0,236.0,0.0,236.0,236.0
10010.0,237.0,0.6913041,236.0,237.0
10020.0,236.0,0.0,236.0,236.0
10030.0,236.0,0.0,236.0,236.0
10040.0,236.0,0.0,236.0,236.0
10050.0,236.0,0.0,236.0,236.0
10060.0,236.0,0.0,236.0,236.0
10070.0,236.0,0.0,236.0,236.0
10080.0,236.0,0.0,236.0,236.0
10090.0,236.0,0.0,236.0,236.0
10100.0,236.0,0.0,236.0,236.0
10110.0,236.0,0.0,236.0,236.0
10120.0,236.0,0.0,236.0,236.0
10130.0,236.0,0.0,236.0,236.0
10140.0,236.0,0.0,236.0,236.0
10150.0,236.0,0.0,236.0,236.0
10160.0,236.0,0.0,236.0,236.0
10170.0,236.0,0.0,236.0,236.0
10180.0,236.0,0.0,236.0,236.0
10190.0,236.0,0.0,236.0,236.0
10200.0,236.0,0.0,236.0,236.0
10210.0,236.0,0.0,236.0,236.0
10220.0,236.0,0.0,236.0,236.0
10230.0,236.0,0.30161265,236.0,236.0
10240.0,236.0,0.38660654,236.0,236.0
10250.0,236.0,0.40181038,236.0,236.0
10260.0,236.0,0.48125374,236.0,237.0
10270.0,237.0,0.49495476,236.0,237.0
10280.0,237.0,0.41871038,237.0,237.0
10290.0,237.0,0.0,237.0,237.0
10300.0,237.0,0.0,237.0,237.0
10310.0,237.0,0.0,237.0,237.0
10320.0,237.0,0.0,237.0,237.0
10330.0,237.0,0.0,237.0,237.0
10340.0,237.0,0.0,237.0,237.0
10350.0,237.0,0.0,237.0,237.0
10360.0,237.0,0.0,237.0,237.0
10370.0,237.0,0.0,237.0,237.0
10380.0,237.0,0.0,237.0,237.0
10390.0,237.0,0.0,237.0,237.0
10400.0,237.0,0.0,237.0,237.0
10410.0,237.0,0.0,237.0,237.0
10420.0,237.0,0.0,237.0,237.0
10430.0,237.0,0.0,237.0,237.0
10440.0,237.0,0.0,237.0,237.0
10450.0,237.0,0.0,237.0,237.0
10460.0,237.0,0.0,237.0,237.0
10470.0,237.0,0.0,237.0,237.0
10480.0,237.0,0.0,237.0,237.0
10490.0,237.0,0.0,237.0,237.0
10500.0,237.0,0.0,237.0,237.0
10510.0,237.0,0.0,237.0,237.0
10520.0,237.0,0.0,237.0,237.0
10530.0,237.0,0.0,237.0,237.0
10540.0,237.0,0.0,237.0,237.0
10550.0,237.0,0.0,237.0,237.0
10560.0,237.0,0.0,237.0,237.0
10570.0,237.0,0.0,237.0,237.0
10580.0,237.0,0.0,237.0,237.0
10590.0,237.0,0.0,237.0,237.0
10600.0,237.0,0.0,237.0,237.0
10610.0,237.0,0.0,237.0,237.0
10620.0,237.0,0.0,237.0,237.0
10630.0,237.0,0.057638727,237.0,237.0
10640.0,237.0,0.4,237.0,237.0
10650.0,237.0,0.49019912,236.0,237.0
10660.0,236.0,0.498871,236.0,237.0
10670.0,236.0,0.44536176,236.0,237.0
10680.0,236.0,0.4330127,236.0,236.25
10690.0,236.0,0.37267804,236.0,236.0
10700.0,236.0,0.24944381,236.0,236.0
10710.0,236.0,0.0,236.0,236.0
10720.0,236.0,0.3891442,236.0,236.0
10730.0,236.0,0.4280933,236.0,236.0
10740.0,236.0,0.3393369,236.0,236.0
10750.0,236.0,0.14282614,236.0,236.0
10760.0,236.0,0.0,236.0,236.0
10770.0,236.0,0.0,236.0,236.0
10780.0,236.0,0.0,236.0,236.0
10790.0,236.0,0.0,236.0,236.0
10800.0,236.0,0.0,236.0,236.0
10810.0,236.0,0.0,236.0,236.0
10820.0,236.0,0.0,236.0,236.0
10830.0,236.0,0.0,236.0,236.0
10840.0,236.0,0.0,236.0,236.0
10850.0,236.0,0.0,236.0,236.0
10860.0,236.0,0.0,236.0,236.0
10870.0,236.0,0.0,236.0,236.0
10880.0,236.0,0.0,236.0,236.0
10890.0,236.0,0.0,236.0,236.0
10900.0,236.0,0.21392879,236.0,236.0
10910.0,236.0,0.27755594,236.0,236.0
10920.0,236.0,0.27755594,236.0,236.0
10930.0,236.0,0.27755594,236.0,236.0
10940.0,236.0,0.2775559,236.0,236.0
10950.0,236.0,0.2748472,236.0,236.0
10960.0,236.0,0.2675193,236.0,236.0
10970.0,236.0,0.2675193,236.0,236.0
10980.0,236.0,0.3257663,236.0,236.0
10990.0,236.0,0.35255855,236.0,236.0
11000.0,236.0,0.4378471,236.0,237.0
11010.0,236.0,0.47343147,236.0,237.0
11020.0,236.0,0.49169028,236.0,237.0
11030.0,236.5,0.5,236.0,237.0
11040.0,237.0,0.4792762,236.0,237.0
11050.0,237.0,0.4513745,236.0,237.0
11060.0,237.0,0.45137453,236.0,237.0
11070.0,237.0,0.44203278,236.0,237.0
11080.0,237.0,0.44203278,236.0,237.0
11090.0,237.0,0.44203278,236.0,237.0
11100.0,237.0,0.43336678,236.5,237.0
11110.0,237.0,0.43406624,236.0,237.0
11120.0,237.0,0.43265924,237.0,237.0
11130.0,237.0,0.4078745,237.0,237.0
11140.0,237.0,0.3397468,237.0,237.0
11150.0,237.0,0.29553804,237.0,237.0
11160.0,237.0,0.24398482,237.0,237.0
11170.0,237.0,0.0,237.0,237.0
11180.0,237.0,0.0,237.0,237.0
11190.0,237.0,0.0,237.0,237.0
11200.0,237.0,0.0,237.0,237.0
11210.0,237.0,0.0,237.0,237.0
11220.0,237.0,0.0,237.0,237.0
11230.0,237.0,0.0,237.0,237.0
11240.0,237.0,0.0,237.0,237.0
11250.0,237.0,0.0,237.0,237.0
11260.0,237.0,0.0,237.0,237.0
11270.0,237.0,0.0,237.0,237.0
11280.0,237.0,0.0,237.0,237.0
11290.0,237.0,0.0,237.0,237.0
11300.0,237.0,0.0,237.0,237.0
11310.0,237.0,0.0,237.0,237.0
11320.0,237.0,0.0,237.0,237.0
11330.0,237.0,0.0,237.0,237.0
11340.0,237.0,0.0,237.0,237.0
11350.0,237.0,0.0,237.0,237.0
11360.0,237.0,0.0,237.0,237.0
11370.0,237.0,0.0,237.0,237.0
11380.0,237.0,0.0,237.0,237.0
11390.0,237.0,0.0,237.0,237.0
11400.0,237.0,0.0,237.0,237.0
11410.0,237.0,0.0,237.0,237.0
11420.0,237.0,0.0,237.0,237.0
11430.0,237.0,0.0,237.0,237.0
11440.0,237.0,0.0,237.0,237.0
11450.0,237.0,0.0,237.0,237.0
11460.0,237.0,0.0,237.0,237.0
11470.0,237.0,0.0,237.0,237.0
11480.0,237.0,0.0,237.0,237.0
11490.0,237.0,0.0,237.0,237.0
11500.0,237.0,0.0,237.0,237.0
11510.0,237.0,0.0,237.0,237.0
11520.0,237.0,0.0,237.0,237.0
11530.0,237.0,0.0,237.0,237.0
11540.0,237.0,0.0,237.0,237.0
11550.0,237.0,0.0,237.0,237.0
11560.0,237.0,0.0,237.0,237.0
11570.0,237.0,0.0,237.0,237.0
11580.0,237.0,0.0,237.0,237.0
11590.0,237.0,0.0,237.0,237.0
11600.0,237.0,0.0,237.0,237.0
11610.0,237.0,0.0,237.0,237.0
11620.0,237.0,0.1054026,237.0,237.0
11630.0,237.0,0.28177133,237.0,237.0
11640.0,237.0,0.37137666,237.0,237.0
11650.0,237.0,0.41541654,237.0,237.0
11660.0,237.0,0.41541654,237.0,237.0
11670.0,237.0,0.41686445,237.0,237.0
11680.0,237.0,0.41573972,237.0,237.0
11690.0,237.0,0.4240132,237.0,237.0
11700.0,237.0,0.4441301,237.0,238.0
11710.0,237.0,0.4481426,237.0,238.0
11720.0,237.0,0.4481426,237.0,238.0
11730.0,237.0,0.4473611,237.0,238.0
11740.0,237.0,0.4473611,237.0,238.0
11750.0,237.0,0.4473611,237.0,238.0
11760.0,237.0,0.4430708,237.0,238.0
11770.0,237.0,0.4240132,237.0,237.0
11780.0,237.0,0.41573972,237.0,237.0
11790.0,237.0,0.41573972,237.0,237.0
11800.0,237.0,0.41573972,237.0,237.0
11810.0,237.0,0.41686445,237.0,237.0
11820.0,237.0,0.41686445,237.0,237.0
11830.0,237.0,0.41541654,237.0,237.0
11840.0,237.0,0.41541654,237.0,237.0
11850.0,237.0,0.41348985,237.0,237.0
11860.0,237.0,0.40970013,237.0,237.0
11870.0,237.0,0.41541657,237.0,237.0
11880.0,237.0,0.41541657,237.0,237.0
11890.0,237.0,0.41541657,237.0,237.0
11900.0,237.0,0.41541657,237.0,237.0
11910.0,237.0,0.38987666,237.0,237.0
11920.0,237.0,0.31125697,237.0,237.0
11930.0,237.0,0.177797,237.0,237.0
11940.0,237.0,0.0,237.0,237.0
11950.0,237.0,0.0,237.0,237.0
11960.0,237.0,0.0,237.0,237.0
11970.0,237.0,0.0,237.0,237.0
11980.0,237.0,0.0,237.0,237.0
11990.0,237.0,0.0,237.0,237.0
12000.0,237.0,0.0,237.0,237.0
12010.0,237.0,0.0,237.0,237.0
12020.0,237.0,0.0,237.0,237.0
12030.0,237.0,0.0,237.0,237.0
12040.0,237.0,0.0,237.0,237.0
12050.0,237.0,0.0,237.0,237.0
12060.0,237.0,0.0,237.0,237.0
12070.0,237.0,0.0,237.0,237.0
12080.0,237.0,0.0,237.0,237.0
12090.0,237.0,0.0,237.0,237.0
12100.0,237.0,0.0,237.0,237.0
12110.0,237.0,0.0,237.0,237.0
12120.0,237.0,0.0,237.0,237.0
12130.0,237.0,0.0,237.0,237.0
12140.0,237.0,0.0,237.0,237.0
12150.0,237.0,0.40061343,237.0,237.0
12160.0,237.0,0.40816483,237.0,237.0
12170.0,237.0,0.40816483,237.0,237.0
12180.0,237.0,0.40695408,237.0,237.0
12190.0,237.0,0.40695408,237.0,237.0
12200.0,237.0,0.40695408,237.0,237.0
12210.0,237.0,0.4587922,237.0,238.0
12220.0,237.0,0.4587922,237.0,238.0
12230.0,237.0,0.4587922,237.0,238.0
12240.0,237.0,0.4587922,237.0,238.0
12250.0,237.0,0.4587922,237.0,238.0
12260.0,237.0,0.4652328,237.0,238.0
12270.0,237.0,0.46464908,237.0,238.0
12280.0,237.0,0.49374616,237.0,238.0
12290.0,237.0,0.49757537,237.0,238.0
12300.0,237.0,0.49757537,237.0,238.0
12310.0,237.0,0.48981413,237.0,238.0
12320.0,237.0,0.48981413,237.0,238.0
12330.0,237.0,0.48240733,237.0,238.0
12340.0,237.0,0.48240733,237.0,238.0
12350.0,237.0,0.48240733,237.0,238.0
12360.0,237.0,0.48240733,237.0,238.0
12370.0,237.0,0.4921771,237.0,238.0
12380.0,237.0,0.4922842,237.0,238.0
12390.0,237.0,0.49213102,237.0,238.0
12400.0,237.0,0.4901509,237.0,238.0
12410.0,237.0,0.47803485,237.0,238.0
12420.0,237.0,0.47803485,237.0,238.0
12430.0,237.0,0.4824697,237.0,238.0
12440.0,237.0,0.48440716,237.0,238.0
12450.0,237.0,0.48972383,237.0,238.0
12460.0,237.0,0.49213102,237.0,238.0
12470.0,237.0,0.49213102,237.0,238.0
12480.0,237.0,0.49213102,237.0,238.0
12490.0,237.0,0.49213102,237.0,238.0
12500.0,237.0,0.49333033,237.0,238.0
12510.0,237.0,0.49614772,237.0,238.0
12520.0,237.0,0.49614772,237.0,238.0
12530.0,237.0,0.49602607,237.0,238.0
12540.0,237.0,0.49372798,237.0,238.0
12550.0,237.0,0.49168363,237.0,238.0
12560.0,237.0,0.49213102,237.0,238.0
12570.0,237.0,0.49190938,237.0,238.0
12580.0,237.0,0.48467427,237.0,238.0
12590.0,237.0,0.48419407,237.0,238.0
12600.0,237.0,0.48419407,237.0,238.0
12610.0,237.0,0.48419407,237.0,238.0
12620.0,237.0,0.48863578,237.0,238.0
12630.0,237.0,0.4861984,237.0,238.0
12640.0,237.0,0.47803485,237.0,238.0
12650.0,237.0,0.4791574,237.0,238.0
12660.0,237.0,0.48419407,237.0,238.0
12670.0,237.0,0.48419407,237.0,238.0
12680.0,237.0,0.48419407,237.0,238.0
12690.0,237.0,0.49515888,237.0,238.0
12700.0,237.0,0.59426475,237.0,238.0
12710.0,237.0,0.6081996,237.0,238.0
12720.0,238.0,0.52658296,237.0,238.0
12730.0,238.0,0.49801219,237.0,238.0
12740.0,238.0,0.4737424,238.0,238.0
12750.0,238.0,0.4051199,238.0,238.0
12760.0,238.0,0.3316921,238.0,238.0
12770.0,238.0,0.3715201,238.0,238.0
12780.0,238.0,0.39022586,238.0,238.0
12790.0,238.0,0.3496569,238.0,238.0
12800.0,238.0,0.3575205,238.0,238.0
12810.0,238.0,0.32410133,238.0,238.0
12820.0,238.0,0.3309723,238.0,238.0
12830.0,238.0,0.3703686,238.0,238.0
12840.0,238.0,0.37116536,238.0,238.0
12850.0,238.0,0.3489028,238.0,238.0
12860.0,238.0,0.35926223,238.0,238.0
12870.0,238.0,0.38581976,238.0,238.0
12880.0,238.0,0.38581976,238.0,238.0
12890.0,238.0,0.38581976,238.0,238.0
12900.0,238.0,0.41064435,238.0,238.0
12910.0,238.0,0.4300826,238.0,238.0
12920.0,238.0,0.41781402,238.0,238.0
12930.0,238.0,0.4126139,238.0,238.0
12940.0,238.0,0.43743667,238.0,239.0
12950.0,238.0,0.43887013,238.0,239.0
12960.0,238.0,0.45686096,238.0,239.0
12970.0,238.0,0.4473454,238.0,239.0
12980.0,238.0,0.43769827,238.0,239.0
12990.0,238.0,0.45213005,238.0,239.0
13000.0,238.0,0.45147073,238.0,239.0
13010.0,238.0,0.45147076,238.0,239.0
13020.0,238.0,0.46455038,238.0,239.0
13030.0,238.0,0.47031644,238.0,239.0
13040.0,238.0,0.4570685,238.0,239.0
13050.0,238.0,0.63792706,238.0,238.0
13060.0,238.0,0.6554968,238.0,238.0
13070.0,238.0,0.6809376,238.0,238.0
13080.0,238.0,0.7098282,238.0,239.0
13090.0,238.0,0.71402603,238.0,239.0
13100.0,238.0,0.6976418,238.0,239.0
13110.0,238.0,0.6794821,238.0,239.0
13120.0,238.0,0.66145223,238.0,238.25
13130.0,238.0,0.64472556,238.0,238.0
13140.0,238.0,0.6399617,238.0,239.0
13150.0,238.0,0.62956357,238.0,239.0
13160.0,238.0,0.5773595,238.0,239.0
13170.0,238.0,0.49417,238.0,239.0
13180.0,238.0,0.4582576,238.0,239.0
13190.0,238.0,0.45869273,238.0,239.0
13200.0,238.0,0.4528311,238.0,239.0
13210.0,238.0,0.42394274,238.0,238.0
13220.0,238.0,0.43371677,238.0,239.0
13230.0,238.0,0.44620138,238.0,239.0
13240.0,238.0,0.4480416,238.0,239.0
13250.0,238.0,0.45481136,238.0,239.0
13260.0,238.0,0.46720308,238.0,239.0
13270.0,238.0,0.47887805,238.0,239.0
13280.0,238.0,0.4859269,238.0,239.0
13290.0,238.0,0.48890004,238.0,239.0
13300.0,238.0,0.49346262,238.0,239.0
13310.0,238.0,0.49788627,238.0,239.0
13320.0,238.0,0.49932668,238.0,239.0
13330.0,238.0,0.49994516,238.0,239.0
13340.0,239.0,0.49963674,238.0,239.0
13350.0,239.0,0.49870938,238.0,239.0
13360.0,239.0,0.49575815,238.0,239.0
13370.0,239.0,0.49169597,238.0,239.0
13380.0,239.0,0.4858568,238.0,239.0
13390.0,239.0,0.4664761,238.0,239.0
13400.0,239.0,0.45435986,238.0,239.0
13410.0,239.0,0.42597094,239.0,239.0
13420.0,239.0,0.372678,239.0,239.0
13430.0,239.0,0.3307189,239.0,239.0
13440.0,239.0,0.31598067,239.0,239.0
13450.0,239.0,0.26759472,239.0,239.0
13460.0,239.0,0.23708363,239.0,239.0
13470.0,239.0,0.23316069,239.0,239.0
13480.0,239.0,0.17399263,239.0,239.0
13490.0,239.0,0.0,239.0,239.0
13500.0,239.0,0.0,239.0,239.0
13510.0,239.0,0.0,239.0,239.0
13520.0,239.0,0.0,239.0,239.0
13530.0,239.0,0.0,239.0,239.0
13540.0,239.0,0.0,239.0,239.0
13550.0,239.0,0.0,239.0,239.0
13560.0,239.0,0.0,239.0,239.0
13570.0,239.0,0.0,239.0,239.0
13580.0,239.0,0.0,239.0,239.0
13590.0,239.0,0.0,239.0,239.0
13600.0,239.0,0.0,239.0,239.0
13610.0,239.0,0.0,239.0,239.0
13620.0,239.0,0.0,239.0,239.0
13630.0,239.0,0.0,239.0,239.0
13640.0,239.0,0.0,239.0,239.0
13650.0,239.0,0.0,239.0,239.0
13660.0,239.0,0.0,239.0,239.0
13670.0,239.0,0.0,239.0,239.0
13680.0,239.0,0.0,239.0,239.0
13690.0,239.0,0.0,239.0,239.0
13700.0,239.0,0.0,239.0,239.0
13710.0,239.0,0.0,239.0,239.0
13720.0,239.0,0.0,239.0,239.0
13730.0,239.0,0.0,239.0,239.0
13740.0,239.0,0.0,239.0,239.0
13750.0,239.0,0.0,239.0,239.0
13760.0,239.0,0.0,239.0,239.0
13770.0,239.0,0.0,239.0,239.0
13780.0,239.0,0.0,239.0,239.0
13790.0,239.0,0.0,239.0,239.0
13800.0,239.0,0.0,239.0,239.0
13810.0,239.0,0.0,239.0,239.0
13820.0,239.0,0.0,239.0,239.0
13830.0,239.0,0.0,239.0,239.0
13840.0,239.0,0.0,239.0,239.0
13850.0,239.0,0.0,239.0,239.0
13860.0,239.0,0.0,239.0,239.0
13870.0,239.0,0.03922318,239.0,239.0
13880.0,239.0,0.17116877,239.0,239.0
13890.0,239.0,0.22741576,239.0,239.0
13900.0,239.0,0.22889528,239.0,239.0
13910.0,239.0,0.2595072,239.0,239.0
13920.0,239.0,0.3130213,239.0,239.0
13930.0,239.0,0.3610285,239.0,239.0
13940.0,239.0,0.40318996,239.0,239.0
13950.0,239.0,0.4269729,239.0,239.0
13960.0,239.0,0.4266741,239.0,239.0
13970.0,239.0,0.43969092,239.0,240.0
13980.0,239.0,0.4805762,239.0,240.0
13990.0,240.0,0.49985394,239.0,240.0
14000.0,240.0,0.48549375,239.0,240.0
14010.0,240.0,0.4721486,239.0,240.0
14020.0,240.0,0.46327424,239.0,240.0
14030.0,240.0,0.4604433,239.0,240.0
14040.0,240.0,0.46082702,239.0,240.0
14050.0,239.0,0.4328177,239.0,239.0
14060.0,239.0,0.44912776,239.0,240.0
14070.0,239.0,0.44988522,239.0,240.0
14080.0,239.0,0.46434757,239.0,240.0
14090.0,239.0,0.4748505,239.0,240.0
14100.0,239.0,0.49721858,239.0,240.0
14110.0,239.0,0.4997843,239.0,240.0
14120.0,239.0,0.49999958,239.0,240.0
14130.0,240.0,0.49983042,239.0,240.0
14140.0,240.0,0.48866358,239.0,240.0
14150.0,240.0,0.4469931,239.0,240.0
14160.0,240.0,0.34744516,240.0,240.0
14170.0,240.0,0.26786625,240.0,240.0
14180.0,240.0,0.2500516,240.0,240.0
14190.0,240.0,0.24899088,240.0,240.0
14200.0,240.0,0.2392299,240.0,240.0
14210.0,240.0,0.11851446,240.0,240.0
14220.0,240.0,0.0,240.0,240.0
14230.0,240.0,0.0,240.0,240.0
14240.0,240.0,0.0,240.0,240.0
14250.0,240.0,0.0,240.0,240.0
14260.0,240.0,0.0,240.0,240.0
14270.0,240.0,0.0,240.0,240.0
14280.0,240.0,0.0,240.0,240.0
14290.0,240.0,0.0,240.0,240.0
14300.0,240.0,0.15196584,240.0,240.0
14310.0,240.0,0.26513723,240.0,240.0
14320.0,240.0,0.33053055,240.0,240.0
14330.0,240.0,0.35982612,240.0,240.0
14340.0,240.0,0.42318082,240.0,240.0
14350.0,240.0,0.47250748,240.0,241.0
14360.0,240.0,0.49447513,240.0,241.0
14370.0,240.0,0.49919087,240.0,241.0
14380.0,240.0,0.49995837,240.0,241.0
14390.0,240.0,0.48274487,240.0,240.0
14400.0,240.0,0.67203814,239.0,240.0
14410.0,240.0,0.7149082,240.0,241.0
14420.0,240.0,0.7321927,240.0,241.0
14430.0,240.0,0.7401358,240.0,241.0
14440.0,240.0,0.7394083,240.0,241.0
14450.0,240.0,0.7396492,240.0,241.0
14460.0,240.0,0.7410942,240.0,241.0
14470.0,240.0,0.75569177,240.0,241.0
14480.0,240.0,0.7297624,240.0,241.0
14490.0,240.0,0.6985218,240.0,241.0
14500.0,240.0,0.6986308,240.0,241.0
14510.0,240.0,0.66793424,240.0,241.0
14520.0,240.0,0.67101806,240.0,241.0
14530.0,240.0,0.54610765,240.0,241.0
14540.0,240.0,0.5577485,240.0,241.0
14550.0,240.0,0.5599825,240.0,241.0
14560.0,240.0,0.49972725,240.0,241.0
14570.0,241.0,0.49905717,240.0,241.0
14580.0,241.0,0.4989769,240.0,241.0
14590.0,241.0,0.49766976,240.0,241.0
14600.0,241.0,0.49761167,240.0,241.0
14610.0,241.0,0.49560264,240.0,241.0
14620.0,241.0,0.54081845,240.0,241.0
14630.0,241.0,0.53877944,240.0,241.0
14640.0,241.0,0.57903993,240.0,241.0
14650.0,241.0,0.5768783,240.0,241.0
14660.0,241.0,0.5735461,240.0,241.0
14670.0,241.0,0.5741008,240.0,241.0
14680.0,241.0,0.5667782,240.0,241.0
14690.0,241.0,0.55907226,240.0,241.0
14700.0,241.0,0.54964375,240.0,241.0
14710.0,241.0,0.505594,240.0,241.0
14720.0,241.0,0.48877442,240.75,241.0
14730.0,241.0,0.490906,240.75,241.0
14740.0,241.0,0.5716987,241.0,241.0
14750.0,241.0,0.5705026,241.0,241.0
14760.0,241.0,0.5435584,241.0,241.0
14770.0,241.0,0.46358398,241.0,241.0
14780.0,241.0,0.49018213,241.0,241.0
14790.0,241.0,0.47093165,241.0,241.0
14800.0,241.0,0.4580179,241.0,241.0
14810.0,241.0,0.48051465,241.0,241.0
14820.0,241.0,0.4404129,241.0,241.0
14830.0,241.0,0.4413631,241.0,241.0
14840.0,241.0,0.38817462,241.0,241.0
14850.0,241.0,0.39977628,241.0,241.0
14860.0,241.0,0.42983913,241.0,241.0
14870.0,241.0,0.42961425,241.0,241.0
14880.0,241.0,0.429141,241.0,241.0
14890.0,241.0,0.43393993,241.0,242.0
14900.0,241.0,0.37857547,241.0,241.0
14910.0,241.0,0.0,241.0,241.0
14920.0,241.0,0.0,241.0,241.0
14930.0,241.0,0.0,241.0,241.0
14940.0,241.0,0.0,241.0,241.0
14950.0,241.0,0.0,241.0,241.0
14960.0,241.0,0.0,241.0,241.0
14970.0,241.0,0.0,241.0,241.0
14980.0,241.0,0.0,241.0,241.0
14990.0,241.0,0.0,241.0,241.0
15000.0,241.0,0.0,241.0,241.0
15010.0,241.0,0.0,241.0,241.0
15020.0,241.0,0.0,241.0,241.0
15030.0,241.0,0.0,241.0,241.0
15040.0,241.0,0.09604318,241.0,241.0
15050.0,241.0,0.21513242,241.0,241.0
15060.0,241.0,0.2710683,241.0,241.0
15070.0,241.0,0.27826533,241.0,241.0
15080.0,241.0,0.30689222,241.0,241.0
15090.0,241.0,0.30391556,241.0,241.0
15100.0,241.0,0.26775965,241.0,241.0
15110.0,241.0,0.27265435,241.0,241.0
15120.0,241.0,0.22642295,241.0,241.0
15130.0,241.0,0.25560194,241.0,241.0
15140.0,241.0,0.3461973,241.0,241.0
15150.0,241.0,0.3732375,241.0,241.0
15160.0,241.0,0.37323746,241.0,241.0
15170.0,241.0,0.38935807,241.0,241.0
15180.0,241.0,0.43888357,241.0,242.0
15190.0,241.0,0.46844503,241.0,242.0
15200.0,241.0,0.47273415,241.0,242.0
15210.0,241.0,0.47755945,241.0,242.0
15220.0,241.0,0.48580593,241.0,242.0
15230.0,241.0,0.49139163,241.0,242.0
15240.0,241.0,0.4990791,241.0,242.0
15250.0,242.0,0.4984582,241.0,242.0
15260.0,242.0,0.49510854,241.0,242.0
15270.0,242.0,0.48509973,241.0,242.0
15280.0,242.0,0.462179,241.0,242.0
15290.0,242.0,0.4333087,241.5,242.0
15300.0,242.0,0.39507902,242.0,242.0
15310.0,242.0,0.311202,242.0,242.0
15320.0,242.0,0.15929027,242.0,242.0
15330.0,242.0,0.0,242.0,242.0
15340.0,242.0,0.0,242.0,242.0
15350.0,242.0,0.0,242.0,242.0
15360.0,242.0,0.0,242.0,242.0
15370.0,242.0,0.0,242.0,242.0
15380.0,242.0,0.46885258,241.0,242.0
15390.0,242.0,0.4684873,241.0,242.0
15400.0,242.0,0.46716842,241.0,242.0
15410.0,242.0,0.4267911,242.0,242.0
15420.0,242.0,0.30019918,242.0,242.0
15430.0,242.0,0.23951885,242.0,242.0
15440.0,242.0,0.18898723,242.0,242.0
15450.0,242.0,0.12698306,242.0,242.0
15460.0,242.0,0.0,242.0,242.0
15470.0,242.0,0.0,242.0,242.0
15480.0,242.0,0.0,242.0,242.0
15490.0,242.0,0.0,242.0,242.0
15500.0,242.0,0.0,242.0,242.0
15510.0,242.0,0.0,242.0,242.0
15520.0,242.0,0.0,242.0,242.0
15530.0,242.0,0.0,242.0,242.0
15540.0,242.0,0.0,242.0,242.0
15550.0,242.0,0.0,242.0,242.0
15560.0,242.0,0.0,242.0,242.0
15570.0,242.0,0.0,242.0,242.0
15580.0,242.0,0.0,242.0,242.0
15590.0,242.0,0.0,242.0,242.0
15600.0,242.0,0.0,242.0,242.0
15610.0,242.0,0.0,242.0,242.0
15620.0,242.0,0.0,242.0,242.0
15630.0,242.0,0.0,242.0,242.0
15640.0,242.0,0.0,242.0,242.0
15650.0,242.0,0.0,242.0,242.0
15660.0,242.0,0.0,242.0,242.0
15670.0,242.0,0.0,242.0,242.0
15680.0,242.0,0.0,242.0,242.0
15690.0,242.0,0.0,242.0,242.0
15700.0,242.0,0.0,242.0,242.0
15710.0,242.0,0.0,242.0,242.0
15720.0,242.0,0.0,242.0,242.0
15730.0,242.0,0.0,242.0,242.0
15740.0,242.0,0.0,242.0,242.0
15750.0,242.0,0.0,242.0,242.0
15760.0,242.0,0.0,242.0,242.0
15770.0,242.0,0.107204005,242.0,242.0
15780.0,242.0,0.34452224,242.0,242.0
15790.0,242.0,0.3303579,242.0,242.0
15800.0,242.0,0.32696027,242.0,242.0
15810.0,242.0,0.37301415,242.0,242.0
15820.0,242.0,0.3598839,242.0,242.0
15830.0,242.0,0.30645683,242.0,242.0
15840.0,242.0,0.35707143,242.0,242.0
15850.0,242.0,0.3851391,242.0,242.0
15860.0,242.0,0.4066314,242.0,242.0
15870.0,242.0,0.44383234,241.0,242.0
15880.0,242.0,0.4111807,242.0,242.0
15890.0,242.0,0.40960732,242.0,242.0
15900.0,242.0,0.44079927,241.0,242.0
15910.0,242.0,0.43264854,242.0,242.0
15920.0,242.0,0.43264857,242.0,242.0
15930.0,242.0,0.48173538,241.0,242.0
15940.0,242.0,0.47140452,241.0,242.0
15950.0,242.0,0.4708734,241.0,242.0
15960.0,242.0,0.45551902,241.0,242.0
15970.0,242.0,0.4410091,241.0,242.0
15980.0,242.0,0.4468432,241.0,242.0
15990.0,242.0,0.47700122,241.0,242.0
16000.0,242.0,0.47611383,241.0,242.0
16010.0,242.0,0.46573806,241.0,242.0
16020.0,242.0,0.49140278,241.0,242.0
16030.0,242.0,0.4870861,241.0,242.0
16040.0,242.0,0.48180813,241.0,242.0
16050.0,242.0,0.46800837,241.0,242.0
16060.0,242.0,0.4675545,241.0,242.0
16070.0,242.0,0.47140455,241.0,242.0
16080.0,242.0,0.47118497,241.0,242.0
16090.0,242.0,0.4716227,241.0,242.0
16100.0,242.0,0.46271306,241.0,242.0
16110.0,242.0,0.4716264,241.0,242.0
16120.0,242.0,0.47271198,241.0,242.0
16130.0,242.0,0.4720588,241.0,242.0
16140.0,242.0,0.4707457,241.0,242.0
16150.0,242.0,0.46919313,241.0,242.0
16160.0,242.0,0.44974804,241.0,242.0
16170.0,242.0,0.44899884,241.0,242.0
16180.0,242.0,0.4330127,241.75,242.0
16190.0,242.0,0.42772338,242.0,242.0
16200.0,242.0,0.42690057,242.0,242.0
16210.0,242.0,0.40868682,242.0,242.0
16220.0,242.0,0.4,242.0,242.0
16230.0,242.0,0.4420807,241.0,242.0
16240.0,242.0,0.48393056,241.0,242.0
16250.0,242.0,0.49803331,241.0,242.0
16260.0,242.0,0.49865222,241.0,242.0
16270.0,242.0,0.49525088,241.0,242.0
16280.0,241.0,0.49911192,241.0,242.0
16290.0,242.0,0.49982613,241.0,242.0
16300.0,242.0,0.49825373,241.0,242.0
16310.0,242.0,0.48240736,241.0,242.0
16320.0,242.0,0.4510376,241.0,242.0
16330.0,242.0,0.3044487,242.0,242.0
16340.0,242.0,0.045883045,242.0,242.0
16350.0,242.0,0.0,242.0,242.0
16360.0,242.0,0.0,242.0,242.0
16370.0,242.0,0.0,242.0,242.0
16380.0,242.0,0.0,242.0,242.0
16390.0,242.0,0.0,242.0,242.0
16400.0,242.0,0.0,242.0,242.0
16410.0,242.0,0.0,242.0,242.0
16420.0,242.0,0.0,242.0,242.0
16430.0,242.0,0.0,242.0,242.0
16440.0,242.0,0.0,242.0,242.0
16450.0,242.0,0.0,242.0,242.0
16460.0,242.0,0.0,242.0,242.0
16470.0,242.0,0.3685016,242.0,242.0
16480.0,242.0,0.40973485,242.0,242.0
16490.0,242.0,0.44712177,241.0,242.0
16500.0,242.0,0.47885633,241.0,242.0
16510.0,242.0,0.49351454,241.0,242.0
16520.0,242.0,0.49967742,241.0,242.0
16530.0,241.0,0.4957173,241.0,242.0
16540.0,241.0,0.47687683,241.0,242.0
16550.0,241.0,0.46982175,241.0,242.0
16560.0,241.0,0.4684278,241.0,242.0
16570.0,241.0,0.4675097,241.0,242.0
16580.0,241.0,0.44644588,241.0,242.0
16590.0,241.0,0.42628777,241.0,241.0
16600.0,241.0,0.42978162,241.0,241.0
16610.0,241.0,0.42978162,241.0,241.0
16620.0,241.0,0.41991252,241.0,241.0
16630.0,241.0,0.4061688,241.0,241.0
16640.0,241.0,0.39789048,241.0,241.0
16650.0,241.0,0.41294554,241.0,241.0
16660.0,241.0,0.41429392,241.0,241.0
16670.0,241.0,0.4002588,241.0,241.0
16680.0,241.0,0.40768245,241.0,241.0
16690.0,241.0,0.42227995,241.0,241.0
16700.0,241.0,0.4312412,241.0,241.0
16710.0,241.0,0.43152472,241.0,241.0
16720.0,241.0,0.4194166,241.0,241.0
16730.0,241.0,0.5592325,241.0,242.0
16740.0,241.0,0.65998465,241.0,242.0
16750.0,241.0,0.66234636,241.0,242.0
16760.0,241.0,0.5980424,241.0,242.0
16770.0,241.0,0.5980424,241.0,242.0
16780.0,242.0,0.5935554,241.0,242.0
16790.0,242.0,0.5962673,241.0,242.0
16800.0,241.0,0.43247077,241.0,241.0
16810.0,241.0,0.39834216,241.0,241.0
16820.0,241.0,0.3911188,241.0,241.0
16830.0,241.0,0.40210092,241.0,241.0
16840.0,241.0,0.41693154,241.0,241.0
16850.0,241.0,0.4309005,241.0,241.0
16860.0,241.0,0.43851736,241.0,242.0
16870.0,241.0,0.44755983,241.0,242.0
16880.0,241.0,0.45833647,241.0,242.0
16890.0,241.0,0.47203434,241.0,242.0
16900.0,241.0,0.485456,241.0,242.0
16910.0,241.0,0.48982716,241.0,242.0
16920.0,241.0,0.4947648,241.0,242.0
16930.0,242.0,0.49645424,241.0,242.0
16940.0,242.0,0.47420052,241.0,242.0
16950.0,242.0,0.45959046,241.0,242.0
16960.0,242.0,0.44600716,241.0,242.0
16970.0,242.0,0.43091586,242.0,242.0
16980.0,242.0,0.4036312,242.0,242.0
16990.0,242.0,0.35954583,242.0,242.0
17000.0,242.0,0.28101367,242.0,242.0
17010.0,242.0,0.22286554,242.0,242.0
17020.0,242.0,0.22391182,242.0,242.0
17030.0,242.0,0.27549866,242.0,242.0
17040.0,242.0,0.3189288,242.0,242.0
17050.0,242.0,0.32742882,242.0,242.0
17060.0,242.0,0.33993465,242.0,242.0
17070.0,242.0,0.37321335,242.0,242.0
17080.0,242.0,0.38609236,242.0,242.0
17090.0,242.0,0.3813912,242.0,242.0
17100.0,242.0,0.38674733,242.0,242.0
17110.0,242.0,0.39022216,242.0,242.0
17120.0,242.0,0.3902222,242.0,242.0
17130.0,242.0,0.400273,242.0,242.0
17140.0,242.0,0.4251149,242.0,242.0
17150.0,242.0,0.41891018,242.0,242.0
17160.0,242.0,0.393082,242.0,242.0
17170.0,242.0,0.3916588,242.0,242.0
17180.0,242.0,0.39639723,242.0,242.0
17190.0,242.0,0.42195132,242.0,242.0
17200.0,242.0,0.4212364,242.0,242.0
17210.0,242.0,0.3958883,242.0,242.0
17220.0,242.0,0.37239912,242.0,242.0
17230.0,242.0,0.35297918,242.0,242.0
17240.0,242.0,0.3807571,242.0,242.0
17250.0,242.0,0.40503582,242.0,242.0
17260.0,242.0,0.4290408,242.0,242.0
17270.0,242.0,0.42465916,242.0,242.0
17280.0,242.0,0.40674677,242.0,242.0
17290.0,242.0,0.4022174,242.0,242.0
17300.0,242.0,0.39067718,242.0,242.0
17310.0,242.0,0.396259,242.0,242.0
17320.0,242.0,0.41630954,242.0,242.0
17330.0,242.0,0.44023865,242.0,243.0
17340.0,242.0,0.44214818,242.0,243.0
17350.0,242.0,0.4428247,242.0,243.0
17360.0,242.0,0.44228414,242.0,243.0
17370.0,242.0,0.45030805,242.0,243.0
17380.0,242.0,0.46741673,242.0,243.0
17390.0,242.0,0.461164,242.0,243.0
17400.0,242.0,0.4439091,242.0,243.0
17410.0,242.0,0.44228414,242.0,243.0
17420.0,242.0,0.43687332,242.0,243.0
17430.0,242.0,0.41768247,242.0,242.0
17440.0,242.0,0.42320862,242.0,242.0
17450.0,242.0,0.44062343,242.0,243.0
17460.0,242.0,0.4274215,242.0,242.0
17470.0,242.0,0.43606344,242.0,242.0
17480.0,242.0,0.5419809,242.0,242.0
17490.0,242.0,0.5944698,242.0,242.0
17500.0,242.0,0.59830844,242.0,243.0
17510.0,242.0,0.5316463,242.0,242.0
17520.0,242.0,0.41012105,242.0,242.0
17530.0,242.0,0.41124192,242.0,242.0
17540.0,242.0,0.41053298,242.0,242.0
17550.0,242.0,0.41053298,242.0,242.0
17560.0,242.0,0.4752908,242.0,242.0
17570.0,242.0,0.5728781,242.0,242.0
17580.0,242.0,0.6005941,242.0,242.0
17590.0,242.0,0.5994566,242.0,243.0
17600.0,242.0,0.4955356,242.0,242.0
17610.0,242.0,0.46671548,242.0,242.0
17620.0,242.0,0.57847846,242.0,243.0
17630.0,242.0,0.54971546,242.0,243.0
17640.0,242.0,0.4285518,242.0,242.0
17650.0,242.0,0.45806918,242.0,243.0
17660.0,242.0,0.47761977,242.0,243.0
17670.0,242.0,0.46743727,242.0,243.0
17680.0,242.0,0.46044332,242.0,243.0
17690.0,242.0,0.6034347,242.0,243.0
17700.0,242.0,0.5659697,242.0,243.0
17710.0,242.0,0.45709488,242.0,243.0
17720.0,242.0,0.4560476,242.0,243.0
17730.0,242.0,0.45465443,242.0,243.0
17740.0,242.0,0.43756968,242.0,243.0
17750.0,242.0,0.4632198,242.0,243.0
17760.0,242.0,0.46058926,242.0,243.0
17770.0,242.0,0.5567278,242.0,243.0
17780.0,242.0,0.59782547,242.0,243.0
17790.0,242.0,0.5276642,242.0,243.0
17800.0,242.0,0.4632198,242.0,243.0
17810.0,242.0,0.48980343,242.0,243.0
17820.0,242.0,0.49768114,242.0,243.0
17830.0,242.0,0.4996601,242.0,243.0
17840.0,243.0,0.4969326,242.0,243.0
17850.0,243.0,0.49109071,242.0,243.0
17860.0,243.0,0.49780512,242.0,243.0
17870.0,243.0,0.48325956,242.0,243.0
17880.0,243.0,0.42664254,243.0,243.0
17890.0,243.0,0.373001,243.0,243.0
17900.0,243.0,0.23884822,243.0,243.0
17910.0,243.0,0.08155727,243.0,243.0
17920.0,243.0,0.21772084,243.0,243.0
17930.0,243.0,0.2980739,243.0,243.0
17940.0,243.0,0.36141643,243.0,243.0
17950.0,243.0,0.4121475,243.0,243.0
17960.0,243.0,0.42264637,243.0,243.0
17970.0,243.0,0.4157397,243.0,243.0
17980.0,243.0,0.40061343,243.0,243.0
17990.0,243.0,0.35666925,243.0,243.0
18000.0,243.0,0.29459128,243.0,243.0
18010.0,243.0,0.20037156,243.0,243.0
18020.0,243.0,0.0,243.0,243.0
18030.0,243.0,0.0,243.0,243.0
18040.0,243.0,0.0,243.0,243.0
18050.0,243.0,0.0,243.0,243.0
18060.0,243.0,0.0,243.0,243.0
18070.0,243.0,0.0,243.0,243.0
18080.0,243.0,0.0,243.0,243.0
18090.0,243.0,0.1258609,243.0,243.0
18100.0,243.0,0.24577557,243.0,243.0
18110.0,243.0,0.30437773,243.0,243.0
18120.0,243.0,0.29612425,243.0,243.0
18130.0,243.0,0.28770193,243.0,243.0
18140.0,243.0,0.2821986,243.0,243.0
18150.0,243.0,0.2908024,243.0,243.0
18160.0,243.0,0.33867973,243.0,243.0
18170.0,243.0,0.34148347,243.0,243.0
18180.0,243.0,0.33863968,243.0,243.0
18190.0,243.0,0.34268874,243.0,243.0
18200.0,243.0,0.32590097,243.0,243.0
18210.0,243.0,0.26425052,243.0,243.0
18220.0,243.0,0.18512265,243.0,243.0
18230.0,243.0,0.0,243.0,243.0
18240.0,243.0,0.0,243.0,243.0
18250.0,243.0,0.0,243.0,243.0
18260.0,243.0,0.0,243.0,243.0
18270.0,243.0,0.0,243.0,243.0
18280.0,243.0,0.0,243.0,243.0
18290.0,243.0,0.0,243.0,243.0
18300.0,243.0,0.0,243.0,243.0
18310.0,243.0,0.0,243.0,243.0
18320.0,243.0,0.0,243.0,243.0
18330.0,243.0,0.0,243.0,243.0
18340.0,243.0,0.0,243.0,243.0
18350.0,243.0,0.0,243.0,243.0
18360.0,243.0,0.0,243.0,243.0
18370.0,243.0,0.0,243.0,243.0
18380.0,243.0,0.0,243.0,243.0
18390.0,243.0,0.0,243.0,243.0
18400.0,243.0,0.0,243.0,243.0
18410.0,243.0,0.1795055,243.0,243.0
18420.0,243.0,0.21924692,243.0,243.0
18430.0,243.0,0.22153401,243.0,243.0
18440.0,243.0,0.31771898,243.0,243.0
18450.0,243.0,0.35646746,243.0,243.0
18460.0,243.0,0.35646746,243.0,243.0
18470.0,243.0,0.35828802,243.0,243.0
18480.0,243.0,0.35761714,243.0,243.0
18490.0,243.0,0.3788377,243.0,243.0
18500.0,243.0,0.37910038,243.0,243.0
18510.0,243.0,0.37910038,243.0,243.0
18520.0,243.0,0.4064184,243.0,243.0
18530.0,243.0,0.4061667,243.0,243.0
18540.0,243.0,0.41257548,243.0,243.0
18550.0,243.0,0.41283694,243.0,243.0
18560.0,243.0,0.4116307,243.0,243.0
18570.0,243.0,0.43252566,243.0,243.0
18580.0,243.0,0.37392595,243.0,243.0
18590.0,243.0,0.37500298,243.0,243.0
18600.0,243.0,0.33636144,243.0,243.0
18610.0,243.0,0.21992956,243.0,243.0
18620.0,243.0,0.0,243.0,243.0
18630.0,243.0,0.0,243.0,243.0
18640.0,243.0,0.0,243.0,243.0
18650.0,243.0,0.0,243.0,243.0
18660.0,243.0,0.0,243.0,243.0
18670.0,243.0,0.0,243.0,243.0
18680.0,243.0,0.0,243.0,243.0
18690.0,243.0,0.0,243.0,243.0
18700.0,243.0,0.0,243.0,243.0
18710.0,243.0,0.0,243.0,243.0
18720.0,243.0,0.0,243.0,243.0
18730.0,243.0,0.0,243.0,243.0
18740.0,243.0,0.0,243.0,243.0
18750.0,243.0,0.16531424,243.0,243.0
18760.0,243.0,0.20495439,243.0,243.0
18770.0,243.0,0.3366639,243.0,243.0
18780.0,243.0,0.37350154,243.0,243.0
18790.0,243.0,0.42620182,243.0,243.0
18800.0,243.0,0.39478526,243.0,243.0
18810.0,243.0,0.24021381,243.0,243.0
18820.0,243.0,0.2402138,243.0,243.0
18830.0,243.0,0.2402138,243.0,243.0
18840.0,243.0,0.24021381,243.0,243.0
18850.0,243.0,0.32739395,243.0,243.0
18860.0,243.0,0.3944452,243.0,243.0
18870.0,243.0,0.49910975,242.0,243.0
