distance,median,stdev,prc_25,prc_75
20.0,nan,nan,nan,nan
30.0,nan,nan,nan,nan
40.0,nan,nan,nan,nan
50.0,nan,nan,nan,nan
60.0,nan,nan,nan,nan
70.0,nan,nan,nan,nan
80.0,nan,nan,nan,nan
90.0,nan,nan,nan,nan
100.0,nan,nan,nan,nan
110.0,nan,nan,nan,nan
120.0,nan,nan,nan,nan
130.0,nan,nan,nan,nan
140.0,nan,nan,nan,nan
150.0,nan,nan,nan,nan
160.0,nan,nan,nan,nan
170.0,nan,nan,nan,nan
180.0,nan,nan,nan,nan
190.0,nan,nan,nan,nan
200.0,nan,nan,nan,nan
210.0,nan,nan,nan,nan
220.0,nan,nan,nan,nan
230.0,nan,nan,nan,nan
240.0,nan,nan,nan,nan
250.0,nan,nan,nan,nan
260.0,nan,nan,nan,nan
270.0,nan,nan,nan,nan
280.0,nan,nan,nan,nan
290.0,nan,nan,nan,nan
300.0,nan,nan,nan,nan
310.0,nan,nan,nan,nan
320.0,nan,nan,nan,nan
330.0,nan,nan,nan,nan
340.0,nan,nan,nan,nan
350.0,nan,nan,nan,nan
360.0,nan,nan,nan,nan
370.0,nan,nan,nan,nan
380.0,nan,nan,nan,nan
390.0,nan,nan,nan,nan
400.0,nan,nan,nan,nan
410.0,nan,nan,nan,nan
420.0,nan,nan,nan,nan
430.0,nan,nan,nan,nan
440.0,nan,nan,nan,nan
450.0,nan,nan,nan,nan
460.0,nan,nan,nan,nan
470.0,nan,nan,nan,nan
480.0,nan,nan,nan,nan
490.0,nan,nan,nan,nan
500.0,nan,nan,nan,nan
510.0,nan,nan,nan,nan
520.0,nan,nan,nan,nan
530.0,nan,nan,nan,nan
540.0,nan,nan,nan,nan
550.0,nan,nan,nan,nan
560.0,nan,nan,nan,nan
570.0,nan,nan,nan,nan
580.0,nan,nan,nan,nan
590.0,nan,nan,nan,nan
600.0,nan,nan,nan,nan
610.0,nan,nan,nan,nan
620.0,nan,nan,nan,nan
630.0,nan,nan,nan,nan
640.0,nan,nan,nan,nan
650.0,nan,nan,nan,nan
660.0,nan,nan,nan,nan
670.0,nan,nan,nan,nan
680.0,nan,nan,nan,nan
690.0,nan,nan,nan,nan
700.0,nan,nan,nan,nan
710.0,nan,nan,nan,nan
720.0,nan,nan,nan,nan
730.0,nan,nan,nan,nan
740.0,nan,nan,nan,nan
750.0,nan,nan,nan,nan
760.0,nan,nan,nan,nan
770.0,nan,nan,nan,nan
780.0,nan,nan,nan,nan
790.0,nan,nan,nan,nan
800.0,nan,nan,nan,nan
810.0,nan,nan,nan,nan
820.0,nan,nan,nan,nan
830.0,nan,nan,nan,nan
840.0,nan,nan,nan,nan
850.0,nan,nan,nan,nan
860.0,nan,nan,nan,nan
870.0,nan,nan,nan,nan
880.0,nan,nan,nan,nan
890.0,nan,nan,nan,nan
900.0,nan,nan,nan,nan
910.0,nan,nan,nan,nan
920.0,nan,nan,nan,nan
930.0,nan,nan,nan,nan
940.0,nan,nan,nan,nan
950.0,nan,nan,nan,nan
960.0,nan,nan,nan,nan
970.0,nan,nan,nan,nan
980.0,nan,nan,nan,nan
990.0,nan,nan,nan,nan
1000.0,nan,nan,nan,nan
1010.0,nan,nan,nan,nan
1020.0,nan,nan,nan,nan
1030.0,nan,nan,nan,nan
1040.0,nan,nan,nan,nan
1050.0,nan,nan,nan,nan
1060.0,nan,nan,nan,nan
1070.0,nan,nan,nan,nan
1080.0,nan,nan,nan,nan
1090.0,nan,nan,nan,nan
1100.0,nan,nan,nan,nan
1110.0,nan,nan,nan,nan
1120.0,nan,nan,nan,nan
1130.0,nan,nan,nan,nan
1140.0,nan,nan,nan,nan
1150.0,nan,nan,nan,nan
1160.0,nan,nan,nan,nan
1170.0,nan,nan,nan,nan
1180.0,nan,nan,nan,nan
1190.0,nan,nan,nan,nan
1200.0,nan,nan,nan,nan
1210.0,nan,nan,nan,nan
1220.0,nan,nan,nan,nan
1230.0,nan,nan,nan,nan
1240.0,nan,nan,nan,nan
1250.0,nan,nan,nan,nan
1260.0,nan,nan,nan,nan
1270.0,nan,nan,nan,nan
1280.0,nan,nan,nan,nan
1290.0,nan,nan,nan,nan
1300.0,nan,nan,nan,nan
1310.0,nan,nan,nan,nan
1320.0,nan,nan,nan,nan
1330.0,nan,nan,nan,nan
1340.0,nan,nan,nan,nan
1350.0,nan,nan,nan,nan
1360.0,nan,nan,nan,nan
1370.0,nan,nan,nan,nan
1380.0,nan,nan,nan,nan
1390.0,nan,nan,nan,nan
1400.0,nan,nan,nan,nan
1410.0,nan,nan,nan,nan
1420.0,nan,nan,nan,nan
1430.0,nan,nan,nan,nan
1440.0,nan,nan,nan,nan
1450.0,nan,nan,nan,nan
1460.0,nan,nan,nan,nan
1470.0,nan,nan,nan,nan
1480.0,nan,nan,nan,nan
1490.0,nan,nan,nan,nan
1500.0,nan,nan,nan,nan
1510.0,nan,nan,nan,nan
1520.0,nan,nan,nan,nan
1530.0,nan,nan,nan,nan
1540.0,nan,nan,nan,nan
1550.0,nan,nan,nan,nan
1560.0,nan,nan,nan,nan
1570.0,nan,nan,nan,nan
1580.0,nan,nan,nan,nan
1590.0,nan,nan,nan,nan
1600.0,nan,nan,nan,nan
1610.0,nan,nan,nan,nan
1620.0,nan,nan,nan,nan
1630.0,nan,nan,nan,nan
1640.0,nan,nan,nan,nan
1650.0,nan,nan,nan,nan
1660.0,nan,nan,nan,nan
1670.0,nan,nan,nan,nan
1680.0,nan,nan,nan,nan
1690.0,nan,nan,nan,nan
1700.0,nan,nan,nan,nan
1710.0,nan,nan,nan,nan
1720.0,nan,nan,nan,nan
1730.0,nan,nan,nan,nan
1740.0,nan,nan,nan,nan
1750.0,nan,nan,nan,nan
1760.0,nan,nan,nan,nan
1770.0,nan,nan,nan,nan
1780.0,nan,nan,nan,nan
1790.0,nan,nan,nan,nan
1800.0,nan,nan,nan,nan
1810.0,nan,nan,nan,nan
1820.0,nan,nan,nan,nan
1830.0,nan,nan,nan,nan
1840.0,nan,nan,nan,nan
1850.0,nan,nan,nan,nan
1860.0,nan,nan,nan,nan
1870.0,nan,nan,nan,nan
1880.0,nan,nan,nan,nan
1890.0,nan,nan,nan,nan
1900.0,nan,nan,nan,nan
1910.0,nan,nan,nan,nan
1920.0,nan,nan,nan,nan
1930.0,nan,nan,nan,nan
1940.0,nan,nan,nan,nan
1950.0,nan,nan,nan,nan
1960.0,nan,nan,nan,nan
1970.0,nan,nan,nan,nan
1980.0,nan,nan,nan,nan
1990.0,nan,nan,nan,nan
2000.0,nan,nan,nan,nan
2010.0,nan,nan,nan,nan
2020.0,nan,nan,nan,nan
2030.0,nan,nan,nan,nan
2040.0,nan,nan,nan,nan
2050.0,nan,nan,nan,nan
2060.0,nan,nan,nan,nan
2070.0,nan,nan,nan,nan
2080.0,nan,nan,nan,nan
2090.0,nan,nan,nan,nan
2100.0,nan,nan,nan,nan
2110.0,nan,nan,nan,nan
2120.0,nan,nan,nan,nan
2130.0,nan,nan,nan,nan
2140.0,nan,nan,nan,nan
2150.0,nan,nan,nan,nan
2160.0,nan,nan,nan,nan
2170.0,nan,nan,nan,nan
2180.0,nan,nan,nan,nan
2190.0,nan,nan,nan,nan
2200.0,nan,nan,nan,nan
2210.0,nan,nan,nan,nan
2220.0,nan,nan,nan,nan
2230.0,nan,nan,nan,nan
2240.0,nan,nan,nan,nan
2250.0,nan,nan,nan,nan
2260.0,nan,nan,nan,nan
2270.0,nan,nan,nan,nan
2280.0,nan,nan,nan,nan
2290.0,nan,nan,nan,nan
2300.0,nan,nan,nan,nan
2310.0,nan,nan,nan,nan
2320.0,nan,nan,nan,nan
2330.0,nan,nan,nan,nan
2340.0,nan,nan,nan,nan
2350.0,nan,nan,nan,nan
2360.0,nan,nan,nan,nan
2370.0,nan,nan,nan,nan
2380.0,nan,nan,nan,nan
2390.0,nan,nan,nan,nan
2400.0,nan,nan,nan,nan
2410.0,nan,nan,nan,nan
2420.0,nan,nan,nan,nan
2430.0,nan,nan,nan,nan
2440.0,nan,nan,nan,nan
2450.0,nan,nan,nan,nan
2460.0,nan,nan,nan,nan
2470.0,nan,nan,nan,nan
2480.0,nan,nan,nan,nan
2490.0,nan,nan,nan,nan
2500.0,nan,nan,nan,nan
2510.0,nan,nan,nan,nan
2520.0,nan,nan,nan,nan
2530.0,nan,nan,nan,nan
2540.0,nan,nan,nan,nan
2550.0,nan,nan,nan,nan
2560.0,nan,nan,nan,nan
2570.0,nan,nan,nan,nan
2580.0,nan,nan,nan,nan
2590.0,nan,nan,nan,nan
2600.0,nan,nan,nan,nan
2610.0,nan,nan,nan,nan
2620.0,nan,nan,nan,nan
2630.0,nan,nan,nan,nan
2640.0,nan,nan,nan,nan
2650.0,nan,nan,nan,nan
2660.0,nan,nan,nan,nan
2670.0,nan,nan,nan,nan
2680.0,nan,nan,nan,nan
2690.0,nan,nan,nan,nan
2700.0,nan,nan,nan,nan
2710.0,nan,nan,nan,nan
2720.0,nan,nan,nan,nan
2730.0,nan,nan,nan,nan
2740.0,nan,nan,nan,nan
2750.0,nan,nan,nan,nan
2760.0,nan,nan,nan,nan
2770.0,nan,nan,nan,nan
2780.0,nan,nan,nan,nan
2790.0,nan,nan,nan,nan
2800.0,nan,nan,nan,nan
2810.0,nan,nan,nan,nan
2820.0,nan,nan,nan,nan
2830.0,nan,nan,nan,nan
2840.0,nan,nan,nan,nan
2850.0,nan,nan,nan,nan
2860.0,nan,nan,nan,nan
2870.0,nan,nan,nan,nan
2880.0,nan,nan,nan,nan
2890.0,nan,nan,nan,nan
2900.0,nan,nan,nan,nan
2910.0,nan,nan,nan,nan
2920.0,nan,nan,nan,nan
2930.0,nan,nan,nan,nan
2940.0,nan,nan,nan,nan
2950.0,nan,nan,nan,nan
2960.0,nan,nan,nan,nan
2970.0,nan,nan,nan,nan
2980.0,nan,nan,nan,nan
2990.0,nan,nan,nan,nan
3000.0,nan,nan,nan,nan
3010.0,nan,nan,nan,nan
3020.0,nan,nan,nan,nan
3030.0,nan,nan,nan,nan
3040.0,nan,nan,nan,nan
3050.0,nan,nan,nan,nan
3060.0,nan,nan,nan,nan
3070.0,nan,nan,nan,nan
3080.0,nan,nan,nan,nan
3090.0,1.0,0.0,1.0,1.0
3100.0,1.0,0.0,1.0,1.0
3110.0,1.0,0.0,1.0,1.0
3120.0,1.0,0.0,1.0,1.0
3130.0,1.0,0.0,1.0,1.0
3140.0,1.0,0.0,1.0,1.0
3150.0,1.0,0.0,1.0,1.0
3160.0,1.0,0.33553153,1.0,1.0
3170.0,1.0,0.6137844,1.0,1.0
3180.0,1.0,0.69561833,1.0,1.0
3190.0,1.0,0.5176447,1.0,1.0
3200.0,1.0,0.0,1.0,1.0
3210.0,1.0,0.0,1.0,1.0
3220.0,1.0,0.11197795,1.0,1.0
3230.0,1.0,0.48278368,1.0,1.0
3240.0,1.0,0.62388945,1.0,1.0
3250.0,1.0,0.5197117,1.0,1.0
3260.0,1.0,0.26219624,1.0,1.0
3270.0,1.0,0.41187,1.0,1.0
3280.0,1.0,0.6093525,1.0,1.0
3290.0,1.0,0.59834015,1.0,1.0
3300.0,1.0,0.38111338,1.0,1.0
3310.0,1.0,0.0,1.0,1.0
3320.0,1.0,0.0,1.0,1.0
3330.0,1.0,0.0,1.0,1.0
3340.0,1.0,0.0,1.0,1.0
3350.0,1.0,0.33277804,1.0,1.0
3360.0,1.0,0.542267,1.0,1.0
3370.0,1.0,0.57430726,1.0,1.0
3380.0,1.0,0.39333445,1.0,1.0
3390.0,1.0,0.1987517,1.0,1.0
3400.0,1.0,0.4726781,1.0,1.0
3410.0,1.0,0.5815372,1.0,1.0
3420.0,1.0,0.46127948,1.0,1.0
3430.0,1.0,0.14177443,1.0,1.0
3440.0,1.0,0.0,1.0,1.0
3450.0,1.0,0.0,1.0,1.0
3460.0,1.0,0.0,1.0,1.0
3470.0,1.0,0.0,1.0,1.0
3480.0,1.0,0.0,1.0,1.0
3490.0,1.0,0.0,1.0,1.0
3500.0,1.0,0.33108518,1.0,1.0
3510.0,1.0,0.5267827,1.0,1.0
3520.0,1.0,0.5362854,1.0,1.0
3530.0,1.0,0.35258493,1.0,1.0
3540.0,1.0,0.0,1.0,1.0
3550.0,1.0,0.0,1.0,1.0
3560.0,1.0,0.26603287,1.0,1.0
3570.0,1.0,0.47624928,1.0,1.0
3580.0,1.0,0.5485245,1.0,1.0
3590.0,1.0,0.39152357,1.0,1.0
3600.0,1.0,0.0,1.0,1.0
3610.0,1.0,0.0,1.0,1.0
3620.0,1.0,0.0,1.0,1.0
3630.0,1.0,0.0,1.0,1.0
3640.0,1.0,0.0,1.0,1.0
3650.0,1.0,0.0,1.0,1.0
3660.0,1.0,0.0,1.0,1.0
3670.0,1.0,0.36046404,1.0,1.0
3680.0,1.0,0.5354959,1.0,1.0
3690.0,1.0,0.0,1.0,1.0
3700.0,1.0,0.0,1.0,1.0
3710.0,1.0,0.0,1.0,1.0
3720.0,1.0,0.0,1.0,1.0
3730.0,1.0,0.0,1.0,1.0
3740.0,1.0,0.0,1.0,1.0
3750.0,1.0,0.0,1.0,1.0
3760.0,1.0,0.0,1.0,1.0
3770.0,1.0,0.0,1.0,1.0
3780.0,1.0,0.34798527,1.0,1.0
3790.0,1.0,0.41233563,1.0,1.0
3800.0,1.0,0.4047248,1.0,1.0
3810.0,1.0,0.23608898,1.0,1.0
3820.0,1.0,0.0,1.0,1.0
3830.0,1.0,0.0,1.0,1.0
3840.0,1.0,0.091666564,1.0,1.0
3850.0,1.0,0.21741289,1.0,1.0
3860.0,1.0,0.33046967,1.0,1.0
3870.0,1.0,0.39789045,1.0,1.0
3880.0,1.0,0.4287062,1.0,1.0
3890.0,1.0,0.43686962,1.0,2.0
3900.0,1.0,0.43517402,1.0,2.0
3910.0,1.0,0.4493563,1.0,2.0
3920.0,1.0,0.47531202,1.0,2.0
3930.0,1.0,0.48178962,1.0,2.0
3940.0,1.0,0.48108694,1.0,2.0
3950.0,1.0,0.484276,1.0,2.0
3960.0,1.0,0.49077335,1.0,2.0
3970.0,1.0,0.49112308,1.0,2.0
3980.0,1.0,0.4904526,1.0,2.0
3990.0,1.0,0.4951185,1.0,2.0
4000.0,1.0,0.4980401,1.0,2.0
4010.0,1.0,0.49968296,1.0,2.0
4020.0,2.0,0.49993476,1.0,2.0
4030.0,2.0,0.4989324,1.0,2.0
4040.0,2.0,0.4998679,1.0,2.0
4050.0,1.0,0.4996838,1.0,2.0
4060.0,1.0,0.499611,1.0,2.0
4070.0,2.0,0.49998254,1.0,2.0
4080.0,1.0,0.49999952,1.0,2.0
4090.0,1.0,0.49873683,1.0,2.0
4100.0,1.0,0.49840394,1.0,2.0
4110.0,1.0,0.4994805,1.0,2.0
4120.0,1.0,0.49999824,1.0,2.0
4130.0,2.0,0.49998915,1.0,2.0
4140.0,2.0,0.49993896,1.0,2.0
4150.0,2.0,0.4995465,1.0,2.0
4160.0,2.0,0.49502867,1.0,2.0
4170.0,2.0,0.4805861,1.0,2.0
4180.0,2.0,0.4654804,1.0,2.0
4190.0,2.0,0.43588963,1.0,2.0
4200.0,2.0,0.38501924,2.0,2.0
4210.0,2.0,0.3543521,2.0,2.0
4220.0,2.0,0.35048133,2.0,2.0
4230.0,2.0,0.2768417,2.0,2.0
4240.0,2.0,0.32097673,2.0,2.0
4250.0,2.0,0.32355356,2.0,2.0
4260.0,2.0,0.2951384,2.0,2.0
4270.0,2.0,0.28087682,2.0,2.0
4280.0,2.0,0.3128469,2.0,2.0
4290.0,2.0,0.32713318,2.0,2.0
4300.0,2.0,0.34569743,2.0,2.0
4310.0,2.0,0.3393525,2.0,2.0
4320.0,2.0,0.34317428,2.0,2.0
4330.0,2.0,0.331672,2.0,2.0
4340.0,2.0,0.30090287,2.0,2.0
4350.0,2.0,0.27437165,2.0,2.0
4360.0,2.0,0.28705254,2.0,2.0
4370.0,2.0,0.33409363,2.0,2.0
4380.0,2.0,0.3556511,2.0,2.0
4390.0,2.0,0.36814943,2.0,2.0
4400.0,2.0,0.38467363,2.0,2.0
4410.0,2.0,0.37030658,2.0,2.0
4420.0,2.0,0.3166446,2.0,2.0
4430.0,2.0,0.26136646,2.0,2.0
4440.0,2.0,0.2702525,2.0,2.0
4450.0,2.0,0.2710841,2.0,2.0
4460.0,2.0,0.27192333,2.0,2.0
4470.0,2.0,0.29515618,2.0,2.0
4480.0,2.0,0.3237211,2.0,2.0
4490.0,2.0,0.33481064,2.0,2.0
4500.0,2.0,0.32023007,2.0,2.0
4510.0,2.0,0.32113022,2.0,2.0
4520.0,2.0,0.32203776,2.0,2.0
4530.0,2.0,0.32295278,2.0,2.0
4540.0,2.0,0.32387543,2.0,2.0
4550.0,2.0,0.33040577,2.0,2.0
4560.0,2.0,0.33511958,2.0,2.0
4570.0,2.0,0.319986,2.0,2.0
4580.0,2.0,0.32089257,2.0,2.0
4590.0,2.0,0.3218066,2.0,2.0
4600.0,2.0,0.30636844,2.0,2.0
4610.0,2.0,0.2712932,2.0,2.0
4620.0,2.0,0.28415623,2.0,2.0
4630.0,2.0,0.31531295,2.0,2.0
4640.0,2.0,0.33297417,2.0,2.0
4650.0,2.0,0.32402173,2.0,2.0
4660.0,2.0,0.3185987,2.0,2.0
4670.0,2.0,0.31948555,2.0,2.0
4680.0,2.0,0.3192362,2.0,2.0
4690.0,2.0,0.333916,2.0,2.0
4700.0,2.0,0.35087755,2.0,2.0
4710.0,2.0,0.3641658,2.0,2.0
4720.0,2.0,0.36996287,2.0,2.0
4730.0,2.0,0.36501157,2.0,2.0
4740.0,2.0,0.33892557,2.0,2.0
4750.0,2.0,0.32013655,2.0,2.0
4760.0,2.0,0.33118203,2.0,2.0
4770.0,2.0,0.35572723,2.0,2.0
4780.0,2.0,0.39052698,2.0,2.0
4790.0,2.0,0.4057371,2.0,2.0
4800.0,2.0,0.41488978,2.0,2.0
4810.0,2.0,0.41370898,2.0,2.0
4820.0,2.0,0.42548633,2.0,2.0
4830.0,2.0,0.43316376,1.5,2.0
4840.0,2.0,0.4404638,1.0,2.0
4850.0,2.0,0.4396445,1.0,2.0
4860.0,2.0,0.44853,1.0,2.0
4870.0,2.0,0.45384896,1.0,2.0
4880.0,2.0,0.4497369,1.0,2.0
4890.0,2.0,0.43749422,1.0,2.0
4900.0,2.0,0.44406962,1.0,2.0
4910.0,2.0,0.46485186,1.0,2.0
4920.0,2.0,0.4829895,1.0,2.0
4930.0,2.0,0.49059364,1.0,2.0
4940.0,2.0,0.4959745,1.0,2.0
4950.0,2.0,0.4997633,1.0,2.0
4960.0,1.0,0.4995103,1.0,2.0
4970.0,1.0,0.4997569,1.0,2.0
4980.0,2.0,0.49998054,1.0,2.0
4990.0,1.0,0.49998128,1.0,2.0
5000.0,1.0,0.49865398,1.0,2.0
5010.0,1.0,0.49787652,1.0,2.0
5020.0,1.0,0.49813625,1.0,2.0
5030.0,1.0,0.49838188,1.0,2.0
5040.0,1.0,0.49935699,1.0,2.0
5050.0,2.0,0.49999732,1.0,2.0
5060.0,2.0,0.49932197,1.0,2.0
5070.0,2.0,0.4988348,1.0,2.0
5080.0,2.0,0.4993941,1.0,2.0
5090.0,2.0,0.49974507,1.0,2.0
5100.0,2.0,0.49963006,1.0,2.0
5110.0,2.0,0.49924162,1.0,2.0
5120.0,2.0,0.49953663,1.0,2.0
5130.0,2.0,0.49975926,1.0,2.0
5140.0,2.0,0.49990952,1.0,2.0
5150.0,2.0,0.49998766,1.0,2.0
5160.0,1.0,0.49999377,1.0,2.0
5170.0,1.0,0.49992755,1.0,2.0
5180.0,1.0,0.49978927,1.0,2.0
5190.0,1.0,0.49975926,1.0,2.0
5200.0,2.0,0.5326266,1.0,2.0
5210.0,2.0,0.59866726,1.0,2.0
5220.0,2.0,0.67411155,1.0,2.0
5230.0,2.0,0.7205344,1.0,2.0
5240.0,2.0,0.74349654,1.0,2.0
5250.0,2.0,0.76747864,1.0,2.0
5260.0,2.0,0.7922592,1.0,2.0
5270.0,2.0,0.8068316,1.0,2.0
5280.0,2.0,0.8254357,1.0,3.0
5290.0,2.0,0.8518584,1.0,3.0
5300.0,2.0,0.86026585,1.0,3.0
5310.0,2.0,0.8647235,1.0,3.0
5320.0,2.0,0.8520571,1.0,3.0
5330.0,2.0,0.8460632,1.0,3.0
5340.0,2.0,0.8328449,1.0,3.0
5350.0,2.0,0.80481356,1.0,3.0
5360.0,2.0,0.7631069,2.0,3.0
5370.0,2.0,0.7380154,2.0,3.0
5380.0,2.0,0.63298255,2.0,3.0
5390.0,2.0,0.54004073,2.0,3.0
5400.0,2.0,0.49890986,2.0,3.0
5410.0,2.0,0.499775,2.0,3.0
5420.0,3.0,0.51160926,2.0,3.0
5430.0,3.0,0.5956643,2.0,3.0
5440.0,3.0,0.6939049,2.0,3.0
5450.0,3.0,0.7574794,2.0,3.0
5460.0,3.0,0.7741931,2.0,3.0
5470.0,3.0,0.7690799,2.0,3.0
5480.0,3.0,0.77876574,2.0,3.0
5490.0,3.0,0.79270107,2.0,3.0
5500.0,3.0,0.8053421,2.0,4.0
5510.0,3.0,0.828297,2.0,4.0
5520.0,3.0,0.8487615,2.0,4.0
5530.0,3.0,0.8658355,2.0,4.0
5540.0,3.0,0.86086243,2.0,4.0
5550.0,3.0,0.86086243,2.0,4.0
5560.0,3.0,0.84587234,2.0,4.0
5570.0,3.0,0.83397603,2.0,4.0
5580.0,3.0,0.8337962,2.0,4.0
5590.0,3.0,0.8425462,2.0,4.0
5600.0,3.0,0.8286127,2.0,4.0
5610.0,3.0,0.79556197,2.0,4.0
5620.0,3.0,0.7924241,2.0,4.0
5630.0,3.0,0.82278484,2.0,4.0
5640.0,3.0,0.8409227,2.0,4.0
5650.0,3.0,0.83548725,2.0,4.0
5660.0,3.0,0.82824147,2.0,4.0
5670.0,3.0,0.82269734,2.0,4.0
5680.0,3.0,0.8159683,2.0,4.0
5690.0,3.0,0.78600514,2.0,4.0
5700.0,3.0,0.75417167,2.0,4.0
5710.0,3.0,0.7508689,2.0,4.0
5720.0,3.0,0.7653594,2.0,4.0
5730.0,3.0,0.7616817,2.0,4.0
5740.0,3.0,0.7401379,2.0,4.0
5750.0,3.0,0.74404293,2.0,4.0
5760.0,3.0,0.7427274,2.0,3.0
5770.0,3.0,0.7294594,2.0,3.0
5780.0,3.0,0.730911,2.0,3.0
5790.0,3.0,0.75102866,2.0,3.0
5800.0,3.0,0.7278571,2.0,3.0
5810.0,3.0,0.681615,2.0,3.0
5820.0,3.0,0.6097335,2.0,3.0
5830.0,3.0,0.5297537,2.0,3.0
5840.0,3.0,0.48290375,2.0,3.0
5850.0,3.0,0.5010349,2.0,3.0
5860.0,3.0,0.5484296,2.0,3.0
5870.0,3.0,0.58367026,2.0,3.0
5880.0,3.0,0.57410806,2.0,3.0
5890.0,3.0,0.5600705,2.0,3.0
5900.0,3.0,0.543852,2.0,3.0
5910.0,3.0,0.53723735,2.0,3.0
5920.0,3.0,0.5321503,2.0,3.0
5930.0,3.0,0.5622731,2.0,3.0
5940.0,3.0,0.5963858,2.0,3.0
5950.0,3.0,0.6291891,2.0,3.0
5960.0,3.0,0.65790886,2.0,3.0
5970.0,3.0,0.6674661,2.0,3.0
5980.0,3.0,0.6577264,2.0,3.0
5990.0,2.0,0.6411708,2.0,3.0
6000.0,2.0,0.6474071,2.0,3.0
6010.0,2.0,0.64496124,2.0,3.0
6020.0,2.0,0.6252392,2.0,3.0
6030.0,2.0,0.60645777,2.0,3.0
6040.0,2.0,0.6075121,2.0,3.0
6050.0,2.0,0.6118823,2.0,3.0
6060.0,2.0,0.60064554,2.0,3.0
6070.0,2.0,0.5983101,2.0,3.0
6080.0,2.0,0.6093144,2.0,3.0
6090.0,2.0,0.64971066,2.0,3.0
6100.0,2.0,0.6320601,2.0,3.0
6110.0,2.0,0.642965,2.0,3.0
6120.0,2.0,0.65011996,2.0,3.0
6130.0,2.0,0.6641054,2.0,3.0
6140.0,2.0,0.65329856,2.0,3.0
6150.0,2.0,0.650937,2.0,3.0
6160.0,2.0,0.66011816,2.0,3.0
6170.0,2.0,0.67586905,2.0,3.0
6180.0,2.0,0.6763197,2.0,3.0
6190.0,2.0,0.67214286,2.0,3.0
6200.0,2.0,0.6752952,2.0,3.0
6210.0,2.0,0.7174783,2.0,3.0
6220.0,2.0,0.78922683,2.0,3.0
6230.0,2.0,0.85790443,2.0,3.0
6240.0,2.0,0.9068165,2.0,3.0
6250.0,2.0,0.9140229,2.0,3.0
6260.0,2.0,0.9878137,2.0,3.0
6270.0,2.0,0.9701585,2.0,3.0
6280.0,2.0,0.9459592,2.0,3.0
6290.0,2.0,0.9198191,2.0,3.0
6300.0,2.0,0.9434214,2.0,3.0
6310.0,2.0,0.95569545,2.0,3.0
6320.0,2.0,0.9596895,2.0,3.0
6330.0,2.0,1.0230465,2.0,3.0
6340.0,2.0,1.0170989,2.0,3.0
6350.0,2.0,1.0035517,2.0,3.0
6360.0,2.0,0.99232876,2.0,3.0
6370.0,2.0,0.967458,2.0,3.0
6380.0,2.0,0.96550584,2.0,3.0
6390.0,2.0,0.9854055,2.0,3.0
6400.0,2.0,0.9879671,2.0,3.0
6410.0,2.0,0.9897161,2.0,3.0
6420.0,2.0,1.0031949,2.0,3.0
6430.0,2.0,1.0206097,2.0,3.0
6440.0,2.0,0.9919174,2.0,3.0
6450.0,2.0,0.9828015,2.0,3.0
6460.0,2.0,0.98645824,2.0,3.0
6470.0,2.0,0.98755234,2.0,3.0
6480.0,2.0,0.96035355,2.0,3.0
6490.0,2.0,0.9473748,2.0,3.0
6500.0,2.0,0.9485878,2.0,3.0
6510.0,2.0,0.9518818,2.0,3.0
6520.0,2.0,0.92664045,2.0,3.0
6530.0,2.0,0.8968746,2.0,3.0
6540.0,2.0,0.8676837,2.0,3.0
6550.0,2.0,0.86833173,2.0,3.0
6560.0,2.0,0.86543816,2.0,3.0
6570.0,2.0,0.86090124,2.0,3.0
6580.0,2.0,0.84772575,2.0,3.0
6590.0,2.0,0.8735591,2.0,3.0
6600.0,2.0,0.9113281,2.0,3.0
6610.0,2.0,0.9229316,2.0,3.0
6620.0,2.0,0.88324624,2.0,2.0
6630.0,2.0,0.8792709,2.0,2.0
6640.0,2.0,0.8936308,2.0,2.25
6650.0,2.0,0.90811926,2.0,2.0
6660.0,2.0,0.98745686,1.0,3.0
6670.0,2.0,1.0068,1.0,3.0
6680.0,2.0,1.0067195,1.0,3.0
6690.0,2.0,1.0122801,1.0,3.0
6700.0,2.0,1.0292879,1.0,3.0
6710.0,2.0,1.0377797,1.0,3.0
6720.0,2.0,1.0301919,1.0,2.0
6730.0,2.0,1.0398,1.0,3.0
6740.0,1.0,1.0781724,1.0,3.0
6750.0,1.0,1.1040683,1.0,3.0
6760.0,1.0,1.0866224,1.0,3.0
6770.0,1.0,1.073825,1.0,3.0
6780.0,1.0,1.0818567,1.0,3.0
6790.0,1.0,1.1039302,1.0,3.0
6800.0,1.0,1.1119097,1.0,3.0
6810.0,1.0,1.100259,1.0,3.0
6820.0,1.0,1.073629,1.0,3.0
6830.0,2.0,1.0412681,1.0,3.0
6840.0,2.0,1.0183452,1.0,3.0
6850.0,2.0,1.0280801,1.0,3.0
6860.0,2.0,1.0562533,1.0,3.0
6870.0,2.0,1.0538995,1.0,3.0
6880.0,2.0,1.0374322,1.0,3.0
6890.0,2.0,1.0186108,1.0,3.0
6900.0,2.0,1.0130938,1.0,3.0
6910.0,1.0,1.0119897,1.0,3.0
6920.0,1.0,0.9997018,1.0,3.0
6930.0,2.0,0.9739827,1.0,3.0
6940.0,2.0,0.9850196,1.0,3.0
6950.0,2.0,1.0136819,1.0,3.0
6960.0,2.0,1.0058651,1.0,3.0
6970.0,2.0,0.997883,1.0,3.0
6980.0,2.0,0.9851681,1.0,3.0
6990.0,2.0,0.976102,1.0,3.0
7000.0,1.0,0.9598603,1.0,3.0
7010.0,1.0,1.0336146,1.0,3.0
7020.0,1.0,1.0136291,1.0,3.0
7030.0,1.0,1.018685,1.0,3.0
7040.0,1.0,1.0335526,1.0,3.0
7050.0,1.0,1.0358063,1.0,3.0
7060.0,1.0,1.0372018,1.0,3.0
7070.0,2.0,1.030023,1.0,3.0
7080.0,2.0,1.0094758,1.0,3.0
7090.0,2.0,0.9901475,1.0,3.0
7100.0,2.0,1.0284917,1.0,3.0
7110.0,2.0,1.0255846,1.0,3.0
7120.0,2.0,1.0071088,1.0,3.0
7130.0,2.0,0.972477,1.0,3.0
7140.0,2.0,0.9624708,2.0,3.0
7150.0,2.0,0.96034455,2.0,3.0
7160.0,2.0,0.9550303,2.0,3.0
7170.0,2.0,0.9503211,2.0,3.0
7180.0,2.0,0.95362574,2.0,3.0
7190.0,3.0,0.953148,2.0,3.0
7200.0,3.0,0.9518273,2.0,3.0
7210.0,3.0,0.9589094,1.0,3.0
7220.0,2.0,0.97667176,1.0,3.0
7230.0,2.0,1.0265362,1.0,3.0
7240.0,2.0,1.0594186,1.0,3.0
7250.0,2.0,1.0563296,1.0,3.0
7260.0,2.0,1.0531578,1.0,3.0
7270.0,2.0,1.0481869,1.0,3.0
7280.0,2.0,1.0564845,1.0,3.0
7290.0,2.0,1.0545733,1.0,3.0
7300.0,2.0,1.0475018,1.0,3.0
7310.0,2.0,1.0118476,1.0,3.0
7320.0,2.0,1.0187936,1.0,3.0
7330.0,2.0,1.0458661,1.0,3.0
7340.0,2.0,1.0942489,1.0,3.0
7350.0,2.0,1.1095167,1.0,3.0
7360.0,2.0,1.1129328,1.0,3.0
7370.0,2.0,1.1024603,1.0,3.0
7380.0,2.0,1.0661042,1.0,3.0
7390.0,2.0,1.0414662,1.0,3.0
7400.0,2.0,0.874369,1.0,3.0
7410.0,2.0,0.81373185,1.0,2.0
7420.0,2.0,0.816246,1.0,3.0
7430.0,2.0,0.8165681,1.0,3.0
7440.0,2.0,0.8288103,1.0,3.0
7450.0,2.0,0.83314717,1.0,3.0
7460.0,2.0,0.8036948,1.0,3.0
7470.0,2.0,0.799364,1.0,3.0
7480.0,2.0,0.7930599,1.0,3.0
7490.0,2.0,0.79336137,1.0,3.0
7500.0,2.0,0.7939181,1.0,3.0
7510.0,2.0,0.8449335,1.0,3.0
7520.0,2.0,0.8575732,1.0,3.0
7530.0,2.0,0.8463049,1.0,3.0
7540.0,2.0,0.83388716,1.0,3.0
7550.0,2.0,0.82433444,1.0,3.0
7560.0,2.0,0.8115465,2.0,3.0
7570.0,2.0,0.81059325,2.0,3.0
7580.0,2.0,0.81036204,2.0,3.0
7590.0,2.5,0.7899798,2.0,3.0
7600.0,3.0,0.7787998,2.0,3.0
7610.0,3.0,0.77840024,2.0,3.0
7620.0,3.0,0.77785325,2.0,3.0
7630.0,3.0,0.76487553,2.0,3.0
7640.0,3.0,0.7948444,2.0,3.0
7650.0,3.0,0.79405636,2.0,3.0
7660.0,3.0,0.7936576,2.0,3.0
7670.0,3.0,0.8269178,2.0,3.0
7680.0,3.0,0.83808136,2.0,3.0
7690.0,3.0,0.831719,1.0,3.0
7700.0,3.0,0.7993873,2.0,3.0
7710.0,3.0,0.79525614,2.0,3.0
7720.0,3.0,0.78855044,2.0,3.0
7730.0,2.0,0.7601025,2.0,3.0
7740.0,2.0,0.7824082,2.0,3.0
7750.0,2.0,0.83207273,1.0,3.0
7760.0,2.0,0.83332103,1.0,3.0
7770.0,2.0,0.81309426,1.0,3.0
7780.0,2.0,0.80109674,1.0,3.0
7790.0,2.0,0.8402155,1.0,3.0
7800.0,2.0,0.8469487,1.0,3.0
7810.0,2.0,0.721303,1.0,2.0
7820.0,2.0,0.6507956,1.0,2.0
7830.0,2.0,0.5563758,1.0,2.0
7840.0,2.0,0.48814535,1.0,2.0
7850.0,2.0,0.4929205,1.0,2.0
7860.0,2.0,0.49548078,1.0,2.0
7870.0,2.0,0.498095,1.0,2.0
7880.0,2.0,0.49789318,1.0,2.0
7890.0,2.0,0.49761653,1.0,2.0
7900.0,2.0,0.49968448,1.0,2.0
7910.0,1.0,0.49985278,1.0,2.0
7920.0,1.0,0.4928565,1.0,2.0
7930.0,1.0,0.48728955,1.0,2.0
7940.0,1.0,0.48268703,1.0,2.0
7950.0,1.0,0.477703,1.0,2.0
7960.0,1.0,0.46011215,1.0,2.0
7970.0,1.0,0.443058,1.0,2.0
7980.0,1.0,0.44447607,1.0,2.0
7990.0,1.0,0.44550085,1.0,2.0
8000.0,1.0,0.43972263,1.0,2.0
8010.0,1.0,0.42949274,1.0,1.0
8020.0,1.0,0.42904076,1.0,1.0
8030.0,1.0,0.42844012,1.0,1.0
8040.0,1.0,0.4150691,1.0,1.0
8050.0,1.0,0.38910663,1.0,1.0
8060.0,1.0,0.49961886,1.0,2.0
8070.0,2.0,0.5222557,1.0,2.0
8080.0,2.0,0.5023136,1.0,2.0
8090.0,2.0,0.51124847,1.0,2.0
8100.0,2.0,0.49998397,1.0,2.0
8110.0,2.0,0.49942362,1.0,2.0
8120.0,2.0,0.49806026,1.0,2.0
8130.0,2.0,0.5074446,1.0,2.0
8140.0,2.0,0.52752155,1.0,2.0
8150.0,2.0,0.54871124,1.0,2.0
8160.0,2.0,0.569188,1.0,2.0
8170.0,1.0,0.5879591,1.0,2.0
8180.0,1.0,0.60540813,1.0,2.0
8190.0,1.0,0.6263218,1.0,2.0
8200.0,1.0,0.57270503,1.0,2.0
8210.0,1.0,0.6174626,1.0,2.0
8220.0,1.0,0.6141327,1.0,2.0
8230.0,1.0,0.6095249,1.0,2.0
8240.0,1.0,0.60780257,1.0,2.0
8250.0,1.0,0.6029585,1.0,2.0
8260.0,1.0,0.5978767,1.0,2.0
8270.0,1.0,0.5947639,1.0,2.0
8280.0,1.0,0.32260814,1.0,1.0
8290.0,1.0,0.03219112,1.0,1.0
8300.0,1.0,0.1013725,1.0,1.0
8310.0,1.0,0.13155317,1.0,1.0
8320.0,1.0,0.15093854,1.0,1.0
8330.0,1.0,0.18386838,1.0,1.0
8340.0,1.0,0.255147,1.0,1.0
8350.0,1.0,0.32612726,1.0,1.0
8360.0,1.0,0.3940233,1.0,1.0
8370.0,1.0,0.43529758,1.0,2.0
8380.0,1.0,0.44461575,1.0,2.0
8390.0,1.0,0.44751644,1.0,2.0
8400.0,1.0,0.4504564,1.0,2.0
8410.0,1.0,0.45296595,1.0,2.0
8420.0,1.0,0.4578198,1.0,2.0
8430.0,1.0,0.4694848,1.0,2.0
8440.0,1.0,0.47415972,1.0,2.0
8450.0,1.0,0.47633606,1.0,2.0
8460.0,1.0,0.5147501,1.0,2.0
8470.0,1.0,0.56568545,1.0,2.0
8480.0,1.0,0.5781488,1.0,2.0
8490.0,1.0,0.59011877,1.0,2.0
8500.0,1.0,0.64056146,1.0,2.0
8510.0,1.0,0.6691121,1.0,2.0
8520.0,1.0,0.6768795,1.0,2.0
8530.0,1.0,0.69699645,1.0,2.0
8540.0,1.0,0.73493254,1.0,2.0
8550.0,1.0,0.74951655,1.0,2.0
8560.0,1.0,0.7553834,1.0,2.0
8570.0,1.0,0.7578047,1.0,2.0
8580.0,1.0,0.7636956,1.0,2.0
8590.0,1.0,0.7692847,1.0,2.0
8600.0,1.0,0.77324975,1.0,2.0
8610.0,2.0,0.77356255,1.0,2.0
8620.0,2.0,0.7708657,1.0,2.0
8630.0,2.0,0.7685773,1.0,2.0
8640.0,2.0,0.7711783,1.0,2.0
8650.0,2.0,0.7739725,1.0,2.0
8660.0,2.0,0.7851598,1.0,2.0
8670.0,2.0,0.7932818,1.0,2.0
8680.0,2.0,0.7974333,1.0,2.0
8690.0,2.0,0.801995,1.0,2.0
8700.0,2.0,0.81836224,1.0,2.0
8710.0,2.0,0.83124906,1.0,3.0
8720.0,2.0,0.8350114,1.0,3.0
8730.0,2.0,0.8378086,1.0,3.0
8740.0,2.0,0.91420734,1.0,3.0
8750.0,2.0,1.0627152,1.0,3.0
8760.0,2.0,1.1196983,1.0,3.0
8770.0,2.0,1.1198056,1.0,3.0
8780.0,2.0,1.1212302,1.0,3.0
8790.0,2.0,1.1341347,1.0,3.0
8800.0,2.0,1.1529028,1.0,3.0
8810.0,2.0,1.1663445,1.0,3.0
8820.0,2.0,1.1701732,1.0,3.0
8830.0,2.0,1.1730945,1.0,3.0
8840.0,1.0,1.1837809,1.0,3.0
8850.0,1.0,1.1943305,1.0,3.0
8860.0,1.0,1.1939118,1.0,3.0
8870.0,1.0,1.1504598,1.0,3.0
8880.0,1.0,1.1600612,1.0,3.0
8890.0,1.0,1.1674238,1.0,3.0
8900.0,1.0,1.1712251,1.0,3.0
8910.0,1.0,1.1754215,1.0,3.0
8920.0,1.0,1.1795342,1.0,3.0
8930.0,1.0,1.1718597,1.0,3.0
8940.0,1.0,1.1183355,1.0,3.0
8950.0,1.0,1.088837,1.0,3.0
8960.0,1.0,1.0937786,1.0,3.0
8970.0,1.0,1.0971783,1.0,3.0
8980.0,1.0,1.1137089,1.0,3.0
8990.0,1.0,1.1334037,1.0,3.0
9000.0,1.0,0.48396096,1.0,2.0
9010.0,1.0,0.4646413,1.0,2.0
9020.0,1.0,0.44563997,1.0,2.0
9030.0,1.0,0.4228894,1.0,1.0
9040.0,1.0,0.4023825,1.0,1.0
9050.0,1.0,0.38681662,1.0,1.0
9060.0,1.0,0.36013508,1.0,1.0
9070.0,1.0,0.316731,1.0,1.0
9080.0,1.0,0.2729596,1.0,1.0
9090.0,1.0,0.23944227,1.0,1.0
9100.0,1.0,0.19605315,1.0,1.0
9110.0,1.0,0.14006862,1.0,1.0
9120.0,1.0,0.0,1.0,1.0
9130.0,1.0,0.0,1.0,1.0
9140.0,1.0,0.0,1.0,1.0
9150.0,1.0,0.0,1.0,1.0
9160.0,1.0,0.0,1.0,1.0
9170.0,1.0,0.4144378,1.0,1.0
9180.0,1.0,0.385613,1.0,1.0
9190.0,1.0,0.3268313,1.0,1.0
9200.0,1.0,0.32917526,1.0,1.0
9210.0,1.0,0.30229503,1.0,1.0
9220.0,1.0,0.2991341,1.0,1.0
9230.0,1.0,0.2483305,1.0,1.0
9240.0,1.0,0.2456701,1.0,1.0
9250.0,1.0,0.29832956,1.0,1.0
9260.0,1.0,0.33743015,1.0,1.0
9270.0,1.0,0.36600986,1.0,1.0
9280.0,1.0,0.340165,1.0,1.0
9290.0,1.0,0.2546302,1.0,1.0
9300.0,1.0,0.08459961,1.0,1.0
9310.0,1.0,0.0,1.0,1.0
9320.0,1.0,0.0,1.0,1.0
9330.0,1.0,0.0,1.0,1.0
9340.0,1.0,0.0,1.0,1.0
9350.0,1.0,0.0,1.0,1.0
9360.0,1.0,0.0,1.0,1.0
9370.0,1.0,0.0,1.0,1.0
9380.0,1.0,0.0,1.0,1.0
9390.0,1.0,0.0,1.0,1.0
9400.0,1.0,0.0,1.0,1.0
9410.0,1.0,0.0,1.0,1.0
9420.0,1.0,0.0,1.0,1.0
9430.0,1.0,0.0,1.0,1.0
9440.0,1.0,0.0,1.0,1.0
9450.0,1.0,0.0,1.0,1.0
9460.0,1.0,0.0,1.0,1.0
9470.0,1.0,0.0,1.0,1.0
9480.0,1.0,0.0,1.0,1.0
9490.0,1.0,0.0,1.0,1.0
9500.0,1.0,0.0,1.0,1.0
9510.0,1.0,0.0,1.0,1.0
9520.0,1.0,0.0,1.0,1.0
9530.0,1.0,0.0,1.0,1.0
9540.0,1.0,0.0,1.0,1.0
9550.0,1.0,0.0,1.0,1.0
9560.0,1.0,0.0,1.0,1.0
9570.0,1.0,0.0,1.0,1.0
9580.0,1.0,0.0,1.0,1.0
9590.0,1.0,0.0,1.0,1.0
9600.0,1.0,0.0,1.0,1.0
9610.0,1.0,0.0,1.0,1.0
9620.0,1.0,0.0,1.0,1.0
9630.0,1.0,0.0,1.0,1.0
9640.0,1.0,0.0,1.0,1.0
9650.0,1.0,0.0,1.0,1.0
9660.0,1.0,0.0,1.0,1.0
9670.0,1.0,0.0,1.0,1.0
9680.0,1.0,0.0,1.0,1.0
9690.0,1.0,0.0,1.0,1.0
9700.0,1.0,0.0,1.0,1.0
9710.0,1.0,0.0,1.0,1.0
9720.0,1.0,0.0,1.0,1.0
9730.0,1.0,0.0,1.0,1.0
9740.0,1.0,0.0,1.0,1.0
9750.0,1.0,0.0,1.0,1.0
9760.0,1.0,0.0,1.0,1.0
9770.0,1.0,0.1734016,1.0,1.0
9780.0,1.0,0.1734016,1.0,1.0
9790.0,1.0,0.17066993,1.0,1.0
9800.0,1.0,0.27141714,1.0,1.0
9810.0,1.0,0.27141714,1.0,1.0
9820.0,1.0,0.26986215,1.0,1.0
9830.0,1.0,0.3142697,1.0,1.0
9840.0,1.0,0.3142697,1.0,1.0
9850.0,1.0,0.37753,1.0,1.0
9860.0,1.0,0.3783969,1.0,1.0
9870.0,1.0,0.3783969,1.0,1.0
9880.0,1.0,0.37753,1.0,1.0
9890.0,1.0,0.3481671,1.0,1.0
9900.0,1.0,0.372678,1.0,1.0
9910.0,1.0,0.3377947,1.0,1.0
9920.0,1.0,0.37355563,1.0,1.0
9930.0,1.0,0.3621774,1.0,1.0
9940.0,1.0,0.3621774,1.0,1.0
9950.0,1.0,0.36128873,1.0,1.0
9960.0,1.0,0.34802157,1.0,1.0
9970.0,1.0,0.34802157,1.0,1.0
9980.0,1.0,0.33519995,1.0,1.0
9990.0,1.0,0.3027825,1.0,1.0
10000.0,1.0,0.26973876,1.0,1.0
10010.0,1.0,0.26986215,1.0,1.0
10020.0,1.0,0.1667766,1.0,1.0
10030.0,1.0,0.29448235,1.0,1.0
10040.0,1.0,0.29427332,1.0,1.0
10050.0,1.0,0.29739785,1.0,1.0
10060.0,1.0,0.3735257,1.0,1.0
10070.0,1.0,0.37250793,1.0,1.0
10080.0,1.0,0.35656542,1.0,1.0
10090.0,1.0,0.356717,1.0,1.0
10100.0,1.0,0.35585207,1.0,1.0
10110.0,1.0,0.35554907,1.0,1.0
10120.0,1.0,0.3740568,1.0,1.0
10130.0,1.0,0.38280752,1.0,1.0
10140.0,1.0,0.39793283,1.0,1.0
10150.0,1.0,0.39723402,1.0,1.0
10160.0,1.0,0.42087635,1.0,1.0
10170.0,1.0,0.40620902,1.0,1.0
10180.0,1.0,0.66524017,1.0,1.0
10190.0,1.0,0.6774568,1.0,2.0
10200.0,1.0,0.6699544,1.0,2.0
10210.0,1.0,0.66826344,1.0,2.0
10220.0,1.0,0.6682984,1.0,2.0
10230.0,1.0,0.6663663,1.0,2.0
10240.0,1.0,0.6829165,1.0,2.0
10250.0,1.0,0.7188261,1.0,2.0
10260.0,1.0,0.7169875,1.0,2.0
10270.0,1.0,0.71548307,1.0,2.0
10280.0,1.0,0.7600632,1.0,2.0
10290.0,1.0,0.76025355,1.0,2.0
10300.0,1.0,0.9262576,1.0,2.0
10310.0,1.0,0.98472285,1.0,2.0
10320.0,2.0,0.6555906,1.0,2.0
10330.0,1.0,0.54040337,1.0,2.0
10340.0,2.0,0.5762811,1.0,2.0
10350.0,1.0,0.60912865,1.0,2.0
10360.0,1.0,0.6429653,1.0,2.0
10370.0,1.0,0.6624056,1.0,2.0
10380.0,2.0,0.6523885,1.0,2.0
10390.0,2.0,0.6505937,1.0,2.0
10400.0,2.0,0.681606,1.0,2.0
10410.0,2.0,0.7247759,1.0,2.0
10420.0,2.0,0.74758494,1.0,2.0
10430.0,2.0,0.75314933,1.0,2.0
10440.0,2.0,0.76205826,1.0,2.0
10450.0,2.0,0.79156834,1.0,3.0
10460.0,2.0,0.82986665,1.0,3.0
10470.0,2.0,0.8549205,1.0,3.0
10480.0,2.0,0.8564136,1.0,3.0
10490.0,2.0,0.8767924,1.0,3.0
10500.0,2.0,0.89353114,1.0,3.0
10510.0,2.0,0.8925787,1.0,3.0
10520.0,2.0,1.1482438,1.0,3.0
10530.0,2.0,1.4293207,1.0,4.0
10540.0,2.0,1.4374001,1.0,4.0
10550.0,2.0,1.4990336,1.0,4.0
10560.0,2.0,1.5224441,1.0,4.0
10570.0,2.0,1.6341194,1.0,4.0
10580.0,2.0,1.6401565,1.0,4.0
10590.0,2.0,1.7314731,1.0,4.0
10600.0,2.0,1.7506816,1.0,4.0
10610.0,2.0,1.7455862,1.0,4.0
10620.0,2.0,1.777103,1.0,4.0
10630.0,3.0,1.800782,1.0,5.0
10640.0,3.0,1.9060315,1.0,5.0
10650.0,3.0,1.9505332,1.0,5.0
10660.0,2.0,2.0735054,1.0,5.0
10670.0,2.0,2.1024785,1.0,5.0
10680.0,2.0,2.1767387,1.0,5.0
10690.0,2.0,2.2209144,1.0,5.0
10700.0,2.0,2.2165952,1.0,5.0
10710.0,2.0,2.266959,1.0,5.0
10720.0,2.0,2.2933784,1.0,5.0
10730.0,2.0,2.377999,1.0,5.0
10740.0,2.0,2.4202714,1.0,5.0
10750.0,2.0,2.5344822,1.0,6.0
10760.0,2.0,2.5930717,1.0,6.0
10770.0,2.0,2.6714103,1.0,6.0
10780.0,3.0,2.751386,1.0,6.0
10790.0,3.0,2.8926928,1.0,7.0
10800.0,3.0,3.259332,1.0,8.0
10810.0,3.0,3.2945373,1.0,8.0
10820.0,3.0,3.4092813,1.0,8.0
10830.0,2.0,3.4959288,1.0,8.0
10840.0,3.0,3.5395136,1.0,8.0
10850.0,3.0,3.6056678,1.0,8.25
10860.0,3.0,3.6351163,1.0,8.0
10870.0,3.0,3.658275,1.0,8.0
10880.0,3.0,3.6437218,1.0,8.0
10890.0,3.0,3.8166418,1.0,9.0
10900.0,3.0,3.2467115,1.0,8.0
10910.0,3.0,3.2382495,1.0,8.0
10920.0,3.0,3.1566677,1.0,8.0
10930.0,3.0,3.063033,1.0,8.0
10940.0,3.0,2.9461968,1.0,7.0
10950.0,2.0,2.94173,1.0,7.0
10960.0,2.0,2.838672,1.0,7.0
10970.0,2.0,2.7548146,1.0,7.0
10980.0,2.0,2.64529,1.0,7.0
10990.0,2.0,2.6027315,1.0,7.0
11000.0,2.0,2.5418797,1.0,6.0
11010.0,2.0,2.4633667,1.0,6.0
11020.0,2.0,2.3404171,1.0,6.0
11030.0,2.0,2.2217956,1.0,6.0
11040.0,2.0,2.1368446,1.0,5.0
11050.0,2.0,2.0787265,1.0,5.0
11060.0,2.0,1.9893225,1.0,5.0
11070.0,2.0,1.915287,1.0,5.0
11080.0,2.0,1.8279604,1.0,5.0
11090.0,2.0,1.7481419,1.0,5.0
11100.0,2.0,1.6433536,1.0,5.0
11110.0,2.0,1.5697377,1.0,4.0
11120.0,2.0,1.5043906,1.0,4.0
11130.0,2.0,1.4497225,1.0,4.0
11140.0,2.0,1.368441,1.0,4.0
11150.0,2.0,1.2825397,1.0,4.0
11160.0,2.0,1.1902454,1.0,4.0
11170.0,2.0,1.1566222,1.0,4.0
11180.0,2.0,1.1153891,1.0,3.0
11190.0,2.0,1.0950781,1.0,3.0
11200.0,2.0,1.0876838,1.0,3.0
11210.0,2.0,0.8053251,1.0,3.0
11220.0,2.0,0.78407454,1.0,3.0
11230.0,2.0,0.75791174,1.0,3.0
11240.0,2.0,0.7824396,1.0,3.0
11250.0,2.0,0.7844681,1.0,3.0
11260.0,2.0,0.800344,1.0,3.0
11270.0,2.0,0.8091457,1.0,3.0
11280.0,2.0,0.8202041,1.0,3.0
11290.0,2.0,0.8244433,1.0,3.0
11300.0,2.0,0.82205653,1.0,3.0
11310.0,2.0,0.84240526,1.0,3.0
11320.0,2.0,0.8202041,1.0,3.0
11330.0,2.0,0.805784,1.0,3.0
11340.0,2.0,0.8207611,1.0,3.0
11350.0,2.0,0.8483151,1.0,3.0
11360.0,2.0,0.8459945,1.0,3.0
11370.0,2.0,0.8304605,1.0,3.0
11380.0,2.0,0.8236639,1.0,3.0
11390.0,2.0,0.7999582,1.0,3.0
11400.0,2.0,0.7922466,1.0,3.0
11410.0,2.0,0.7717945,1.0,3.0
11420.0,2.0,0.781635,1.0,2.0
11430.0,2.0,0.77920836,1.0,2.0
11440.0,2.0,0.75867426,1.0,2.0
11450.0,2.0,0.75735366,1.0,2.0
11460.0,2.0,0.75867426,1.0,2.0
11470.0,2.0,0.7538554,1.0,2.0
11480.0,2.0,0.7300791,1.0,2.0
11490.0,2.0,0.6829013,1.0,2.0
11500.0,2.0,0.6854014,1.0,2.0
11510.0,2.0,0.6350213,1.0,2.0
11520.0,2.0,0.59967995,1.0,2.0
11530.0,2.0,0.5295801,1.0,2.0
11540.0,2.0,0.48589104,1.0,2.0
11550.0,2.0,0.47756806,1.0,2.0
11560.0,2.0,0.47251362,1.0,2.0
11570.0,2.0,0.47227022,1.0,2.0
11580.0,2.0,0.47689205,1.0,2.0
11590.0,2.0,0.4766387,1.0,2.0
11600.0,2.0,0.48223433,1.0,2.0
11610.0,2.0,0.4867057,1.0,2.0
11620.0,2.0,0.49194345,1.0,2.0
11630.0,2.0,0.4962607,1.0,2.0
11640.0,2.0,0.49945217,1.0,2.0
11650.0,1.0,0.4979703,1.0,2.0
11660.0,1.0,0.49762216,1.0,2.0
11670.0,1.0,0.4979703,1.0,2.0
11680.0,1.0,0.49343398,1.0,2.0
11690.0,1.0,0.48623288,1.0,2.0
11700.0,1.0,0.47841617,1.0,2.0
11710.0,1.0,0.48166874,1.0,2.0
11720.0,1.0,0.4777684,1.0,2.0
11730.0,1.0,0.470027,1.0,2.0
11740.0,1.0,0.46431872,1.0,2.0
11750.0,1.0,0.45672926,1.0,2.0
11760.0,1.0,0.45250255,1.0,2.0
11770.0,1.0,0.45365354,1.0,2.0
11780.0,1.0,0.4546237,1.0,2.0
11790.0,1.0,0.45646012,1.0,2.0
11800.0,1.0,0.45755464,1.0,2.0
11810.0,1.0,0.45847228,1.0,2.0
11820.0,1.0,0.45783365,1.0,2.0
11830.0,1.0,0.45636773,1.0,2.0
11840.0,1.0,0.4326864,1.0,1.0
11850.0,1.0,0.43010685,1.0,1.0
11860.0,1.0,0.4225389,1.0,1.0
11870.0,1.0,0.42368853,1.0,1.0
11880.0,1.0,0.42107752,1.0,1.0
11890.0,1.0,0.44701678,1.0,2.0
11900.0,1.0,0.45706847,1.0,2.0
11910.0,1.0,0.4578198,1.0,2.0
11920.0,1.0,0.45912528,1.0,2.0
11930.0,1.0,0.46984997,1.0,2.0
11940.0,1.0,0.4726849,1.0,2.0
11950.0,1.0,0.47370878,1.0,2.0
11960.0,1.0,0.48,1.0,2.0
11970.0,1.0,0.48438004,1.0,2.0
11980.0,1.0,0.4862104,1.0,2.0
11990.0,1.0,0.4921951,1.0,2.0
12000.0,1.0,0.49707547,1.0,2.0
12010.0,1.0,0.49728864,1.0,2.0
12020.0,1.0,0.49749374,1.0,2.0
12030.0,1.0,0.49870232,1.0,2.0
12040.0,2.0,0.6128939,1.0,2.0
12050.0,1.0,0.7382438,1.0,2.0
12060.0,1.0,0.7424716,1.0,2.0
12070.0,1.0,0.7481069,1.0,2.0
12080.0,1.0,0.75571424,1.0,2.0
12090.0,1.0,0.7618504,1.0,2.0
12100.0,2.0,0.76393646,1.0,2.0
12110.0,2.0,0.7639103,1.0,2.0
12120.0,2.0,0.7638298,1.0,2.0
12130.0,2.0,0.7617112,1.0,2.0
12140.0,2.0,0.77552843,1.0,2.0
12150.0,2.0,0.8542576,1.0,2.0
12160.0,2.0,0.9508543,1.0,2.0
12170.0,2.0,1.0062425,1.0,2.0
12180.0,2.0,1.013264,1.0,2.0
12190.0,2.0,1.017349,1.0,2.0
12200.0,2.0,1.0487969,1.0,3.0
12210.0,2.0,1.0676961,1.0,3.0
12220.0,2.0,1.0647438,1.0,3.0
12230.0,2.0,1.0944862,1.0,3.0
12240.0,2.0,1.1476023,1.0,3.0
12250.0,2.0,1.2231562,1.75,3.0
12260.0,2.0,1.2494013,2.0,3.0
12270.0,2.0,1.2473565,2.0,3.0
12280.0,2.0,1.2695035,2.0,3.0
12290.0,2.0,1.3173169,2.0,3.0
12300.0,2.0,1.3301877,2.0,3.0
12310.0,2.0,1.3190143,2.0,3.0
12320.0,2.0,1.3058326,2.0,4.0
12330.0,2.0,1.3378714,2.0,4.0
12340.0,2.0,1.4223189,2.0,4.0
12350.0,2.0,1.464505,2.0,4.0
12360.0,2.0,1.5005386,2.0,4.0
12370.0,2.0,1.524336,2.0,4.0
12380.0,2.0,1.532265,2.0,4.0
12390.0,2.0,1.5154376,2.0,4.0
12400.0,2.0,1.539203,2.0,4.0
12410.0,2.0,1.5789099,2.0,4.0
12420.0,2.0,1.5807542,2.0,4.0
12430.0,2.0,1.5630417,2.0,4.0
12440.0,2.0,1.5702686,2.0,4.0
12450.0,2.0,1.5979108,2.0,4.0
12460.0,2.0,1.6179976,2.0,4.0
12470.0,2.0,0.937153,2.0,3.0
12480.0,2.0,0.9633416,2.0,3.0
12490.0,2.0,0.9972211,2.0,3.0
12500.0,2.0,1.0494719,2.0,3.0
12510.0,2.0,1.0849041,2.0,4.0
12520.0,2.0,1.1507403,2.0,4.0
12530.0,2.0,1.2510294,2.0,4.0
12540.0,2.0,1.3605566,2.0,4.0
12550.0,2.0,1.4299506,2.0,4.0
12560.0,2.0,1.439438,2.0,4.0
12570.0,2.0,1.4242413,2.0,4.0
12580.0,2.0,1.4161125,2.0,4.0
12590.0,2.0,1.4252476,2.0,4.0
12600.0,2.0,1.4836584,2.0,4.5
12610.0,2.0,1.6034069,2.0,5.0
12620.0,2.0,1.6768271,2.0,5.0
12630.0,2.0,1.7130183,2.0,5.0
12640.0,2.0,1.7279757,2.0,5.0
12650.0,2.0,1.8045914,2.0,5.0
12660.0,2.0,1.838195,2.0,5.0
12670.0,2.0,1.8271414,2.0,5.0
12680.0,2.0,1.8079779,2.0,5.0
12690.0,2.0,1.8358169,2.0,5.0
12700.0,2.0,1.863723,2.0,5.0
12710.0,2.0,1.8737798,2.0,5.0
12720.0,2.0,1.8839577,2.0,5.0
12730.0,2.0,1.8544043,2.0,5.0
12740.0,3.0,1.6959292,2.0,5.0
12750.0,3.0,1.7547363,2.0,5.0
12760.0,3.0,1.7068616,2.0,5.0
12770.0,3.0,1.6904247,2.0,5.0
12780.0,3.0,1.6655567,2.0,5.0
12790.0,3.0,1.6373626,2.0,5.0
12800.0,3.0,1.5914661,2.0,5.0
12810.0,3.0,1.5202968,2.0,5.0
12820.0,3.0,1.520225,2.0,5.0
12830.0,3.0,1.5174053,2.0,5.0
12840.0,3.0,1.4316113,2.0,5.0
12850.0,3.0,1.3239199,2.0,5.0
12860.0,3.0,1.2879592,2.0,5.0
12870.0,3.0,1.2638794,2.0,5.0
12880.0,3.0,1.2636312,2.0,5.0
12890.0,3.0,1.1935248,2.0,5.0
12900.0,3.0,1.1702837,2.0,5.0
12910.0,3.0,1.1697516,2.0,5.0
12920.0,3.0,1.1673177,2.0,5.0
12930.0,3.0,1.1434177,2.0,5.0
12940.0,3.0,1.1072664,2.0,4.0
12950.0,3.0,1.0870069,2.0,4.0
12960.0,3.0,1.0429338,2.0,4.0
12970.0,3.0,1.0262364,2.0,4.0
12980.0,3.0,0.96655625,2.0,4.0
12990.0,3.0,0.9050768,2.0,4.0
13000.0,3.0,0.7994373,2.0,4.0
13010.0,3.0,0.70779586,3.0,4.0
13020.0,3.0,0.72747236,2.0,4.0
13030.0,3.0,0.7266629,2.0,3.0
13040.0,3.0,0.7252854,2.0,3.0
13050.0,3.0,0.7427274,2.0,3.0
13060.0,3.0,0.6896076,2.0,3.0
13070.0,3.0,0.6869054,2.0,3.0
13080.0,3.0,0.6247912,2.0,3.0
13090.0,3.0,0.6225624,2.0,3.0
13100.0,3.0,0.6853255,2.0,3.0
13110.0,3.0,0.74,2.0,3.0
13120.0,3.0,0.7890728,2.0,4.0
13130.0,3.0,0.77528775,2.0,4.0
13140.0,3.0,0.77138025,2.0,4.0
13150.0,3.0,0.7715413,2.0,4.0
13160.0,3.0,0.84899706,2.0,3.0
13170.0,3.0,0.8601743,2.0,3.0
13180.0,3.0,0.8920622,2.0,3.0
13190.0,3.0,0.90468997,2.0,3.0
13200.0,3.0,0.94330484,2.0,3.0
13210.0,3.0,0.87785196,2.0,3.0
13220.0,3.0,0.84735787,2.0,3.0
13230.0,3.0,0.7970722,2.0,3.0
13240.0,3.0,0.82224023,2.0,3.0
13250.0,2.0,1.0336944,2.0,3.0
13260.0,2.0,1.0175775,2.0,3.0
13270.0,2.0,1.0129166,2.0,3.0
13280.0,2.0,1.015246,2.0,3.0
13290.0,2.0,1.0010589,2.0,3.0
13300.0,2.0,0.9537107,2.0,3.0
13310.0,2.0,0.8874211,1.0,3.0
13320.0,2.0,0.8284926,1.0,3.0
13330.0,2.0,0.83112216,1.0,3.0
13340.0,2.0,0.8424849,1.0,3.0
13350.0,2.0,0.8542078,1.0,3.0
13360.0,2.0,0.8542078,1.0,3.0
13370.0,2.0,0.8541314,1.0,3.0
13380.0,2.0,0.8542078,1.0,3.0
13390.0,2.0,0.8541314,1.0,3.0
13400.0,2.0,0.8542078,1.0,3.0
13410.0,2.0,0.85320514,1.0,3.0
13420.0,2.0,0.8390598,1.0,3.0
13430.0,2.0,0.8226633,1.0,3.0
13440.0,2.0,0.82,1.0,3.0
13450.0,2.0,0.826508,1.0,3.0
13460.0,2.0,0.83971363,1.0,3.0
13470.0,2.0,0.84742194,1.0,3.0
13480.0,2.0,0.83500165,1.0,3.0
13490.0,2.0,0.80844975,1.0,3.0
13500.0,2.0,0.78801346,1.0,2.0
13510.0,2.0,0.7728803,1.0,2.0
13520.0,2.0,0.7542088,1.0,2.0
13530.0,2.0,0.7344551,1.0,2.0
13540.0,2.0,0.70992965,1.0,2.0
13550.0,2.0,0.68231297,1.0,2.0
13560.0,2.0,0.79408604,1.0,2.0
13570.0,2.0,0.7949686,1.0,2.0
13580.0,2.0,0.78767776,1.0,2.0
13590.0,1.0,0.77805847,1.0,2.0
13600.0,1.0,0.7620859,1.0,2.0
13610.0,2.0,0.7421988,1.0,2.0
13620.0,2.0,0.725313,1.0,2.0
13630.0,2.0,0.7087954,1.0,2.0
13640.0,2.0,0.69297326,1.0,2.0
13650.0,1.0,0.67952853,1.0,2.0
13660.0,1.0,0.6624009,1.0,2.0
13670.0,1.0,0.6658822,1.0,2.0
13680.0,1.0,0.67393756,1.0,2.0
13690.0,1.0,0.67509925,1.0,2.0
13700.0,1.0,0.65731573,1.0,2.0
13710.0,1.0,0.637181,1.0,2.0
13720.0,1.0,0.59833103,1.0,2.0
13730.0,1.0,0.54210603,1.0,2.0
13740.0,1.0,0.5012967,1.0,2.0
13750.0,1.0,0.507416,1.0,2.0
13760.0,1.0,0.52335453,1.0,2.0
13770.0,1.0,0.53635436,1.0,2.0
13780.0,2.0,0.5477022,1.0,2.0
13790.0,2.0,0.53289306,1.0,2.0
13800.0,2.0,0.50705034,1.0,2.0
13810.0,2.0,0.4998434,1.0,2.0
13820.0,1.0,0.4982329,1.0,2.0
13830.0,1.0,0.49626502,1.0,2.0
13840.0,1.0,0.4970149,1.0,2.0
13850.0,1.0,0.49696577,1.0,2.0
13860.0,1.0,0.49521613,1.0,2.0
13870.0,1.0,0.4951364,1.0,2.0
13880.0,1.0,0.4960151,1.0,2.0
13890.0,1.0,0.4967404,1.0,2.0
13900.0,1.0,0.49254847,1.0,2.0
13910.0,1.0,0.48668623,1.0,2.0
13920.0,1.0,0.48307246,1.0,2.0
13930.0,1.0,0.4791148,1.0,2.0
13940.0,1.0,0.4688683,1.0,2.0
13950.0,1.0,0.45045647,1.0,2.0
13960.0,1.0,0.43185183,1.0,1.0
13970.0,1.0,0.42538893,1.0,1.0
13980.0,1.0,0.4294927,1.0,1.0
13990.0,1.0,0.4335885,1.0,2.0
14000.0,1.0,0.49650678,1.0,2.0
14010.0,1.0,0.4688683,1.0,2.0
14020.0,1.0,0.4731443,1.0,2.0
14030.0,1.0,0.4852326,1.0,2.0
14040.0,1.0,0.49208948,1.0,2.0
14050.0,1.0,0.49190825,1.0,2.0
14060.0,1.0,0.49208948,1.0,2.0
14070.0,1.0,0.49201524,1.0,2.0
14080.0,1.0,0.49208948,1.0,2.0
14090.0,1.0,0.49190825,1.0,2.0
14100.0,1.0,0.49208948,1.0,2.0
14110.0,1.0,0.49190825,1.0,2.0
14120.0,1.0,0.49208948,1.0,2.0
14130.0,1.0,0.49190825,1.0,2.0
14140.0,1.0,0.49208948,1.0,2.0
14150.0,1.0,0.49201524,1.0,2.0
14160.0,1.0,0.49208948,1.0,2.0
14170.0,1.0,0.48523262,1.0,2.0
14180.0,1.0,0.48548034,1.0,2.0
14190.0,1.0,0.48523262,1.0,2.0
14200.0,1.0,0.47644702,1.0,2.0
14210.0,1.0,0.4913518,1.0,2.0
14220.0,1.0,0.35721853,1.0,1.0
14230.0,1.0,0.3656761,1.0,1.0
14240.0,1.0,0.37839687,1.0,1.0
14250.0,1.0,0.3866665,1.0,1.0
14260.0,1.0,0.39480323,1.0,1.0
14270.0,1.0,0.41288742,1.0,1.0
14280.0,1.0,0.43199658,1.0,1.0
14290.0,1.0,0.45795113,1.0,2.0
14300.0,1.0,0.4825339,1.0,2.0
14310.0,1.0,0.4937868,1.0,2.0
14320.0,1.0,0.49718308,1.0,2.0
14330.0,1.0,0.49894053,1.0,2.0
14340.0,1.0,0.499831,1.0,2.0
14350.0,1.0,0.49999377,1.0,2.0
14360.0,2.0,0.49924162,1.0,2.0
14370.0,2.0,0.49870232,1.0,2.0
14380.0,2.0,0.49866334,1.0,2.0
14390.0,2.0,0.49814752,1.0,2.0
14400.0,2.0,0.49607047,1.0,2.0
14410.0,2.0,0.49387854,1.0,2.0
14420.0,2.0,0.5320657,1.0,2.0
14430.0,2.0,0.58255166,1.0,2.0
14440.0,1.0,0.610806,1.0,2.0
14450.0,1.0,0.6278072,1.0,2.0
14460.0,1.0,0.62600243,1.0,2.0
14470.0,1.0,0.60973704,1.0,2.0
14480.0,1.0,0.6043311,1.0,2.0
14490.0,1.0,0.6209531,1.0,2.0
14500.0,1.0,0.63562703,1.0,2.0
14510.0,1.0,0.6511153,1.0,2.0
14520.0,1.0,0.66477025,1.0,2.0
14530.0,1.0,0.6795175,1.0,2.0
14540.0,1.0,0.69605744,1.0,2.0
14550.0,1.0,0.6955951,1.0,2.0
14560.0,1.0,0.68645567,1.0,2.0
14570.0,1.0,0.6770104,1.0,2.0
14580.0,1.0,0.66333383,1.0,2.0
14590.0,1.0,0.64799684,1.0,2.0
14600.0,1.0,0.6281998,1.0,2.0
14610.0,1.0,0.57926655,1.0,2.0
14620.0,1.0,0.526485,1.0,2.0
14630.0,1.0,0.5241602,1.0,1.0
14640.0,1.0,0.4737736,1.0,1.0
14650.0,1.0,0.50993544,1.0,1.0
14660.0,1.0,0.50337696,1.0,1.0
14670.0,1.0,0.48925748,1.0,1.0
14680.0,1.0,0.3494651,1.0,1.0
14690.0,1.0,0.4001501,1.0,1.0
14700.0,1.0,0.44186422,1.0,2.0
14710.0,1.0,0.47644702,1.0,2.0
14720.0,1.0,0.47665396,1.0,2.0
14730.0,1.0,0.48421964,1.0,2.0
14740.0,1.0,0.48538643,1.0,2.0
14750.0,1.0,0.48538643,1.0,2.0
14760.0,1.0,0.49858895,1.0,2.0
14770.0,1.0,0.4992705,1.0,2.0
14780.0,1.0,0.49924162,1.0,2.0
14790.0,1.0,0.4992705,1.0,2.0
14800.0,1.0,0.49924162,1.0,2.0
14810.0,1.0,0.4992705,1.0,2.0
14820.0,1.0,0.49924162,1.0,2.0
14830.0,1.0,0.4992154,1.0,2.0
14840.0,1.0,0.49989995,1.0,2.0
14850.0,2.0,0.4999877,1.0,2.0
14860.0,2.0,0.49707547,1.0,2.0
14870.0,2.0,0.49568254,1.0,2.0
14880.0,2.0,0.5484378,1.0,2.0
14890.0,2.0,0.5981934,1.0,2.0
14900.0,2.0,0.6760407,1.0,2.0
14910.0,2.0,0.7206721,1.0,2.0
14920.0,2.0,0.75622684,1.0,2.0
14930.0,2.0,0.7692587,1.0,2.0
14940.0,2.0,0.77433366,1.0,2.0
14950.0,2.0,0.7748387,1.0,2.0
14960.0,2.0,0.7769457,1.0,2.0
14970.0,2.0,0.7636222,1.0,2.0
14980.0,2.0,0.76566696,1.0,2.0
14990.0,2.0,0.7669622,1.0,2.0
15000.0,2.0,0.7681638,1.0,2.0
15010.0,2.0,0.7694439,1.0,2.0
15020.0,2.0,0.7437096,1.0,2.0
15030.0,2.0,0.74584585,1.0,2.0
15040.0,2.0,0.7463773,1.0,2.0
15050.0,2.0,0.7485011,1.0,2.0
15060.0,2.0,0.7633191,1.0,2.0
15070.0,2.0,0.76457876,1.0,2.0
15080.0,2.0,0.751398,1.0,2.0
15090.0,2.0,0.7070525,1.0,2.0
15100.0,2.0,0.7088469,1.0,2.0
15110.0,2.0,0.7098951,1.0,2.0
15120.0,2.0,0.7140962,1.0,2.0
15130.0,2.0,0.73293316,1.0,2.0
15140.0,2.0,0.73515326,1.0,2.0
15150.0,2.0,0.719308,1.0,2.0
15160.0,2.0,0.70509565,1.0,2.0
15170.0,2.0,0.7142397,1.0,2.0
15180.0,1.0,0.7553028,1.0,2.0
15190.0,1.0,0.7917203,1.0,2.0
15200.0,1.0,0.8054822,1.0,2.0
15210.0,1.0,0.8163868,1.0,2.0
15220.0,1.0,0.82993805,1.0,2.0
15230.0,1.0,0.83200496,1.0,2.0
15240.0,1.0,0.81816256,1.0,2.0
15250.0,1.0,0.8000057,1.0,2.0
15260.0,1.0,0.78189456,1.0,2.0
15270.0,1.0,0.78633094,1.0,2.0
15280.0,1.0,0.79673165,1.0,2.0
15290.0,1.0,0.812081,1.0,2.0
15300.0,1.0,0.8271808,1.0,2.0
15310.0,1.0,0.83682513,1.0,2.0
15320.0,1.0,0.82118213,1.0,2.0
15330.0,1.0,0.80396044,1.0,2.0
15340.0,1.0,0.8203638,1.0,2.0
15350.0,1.0,0.83690906,1.0,2.0
15360.0,1.0,0.8289065,1.0,2.0
15370.0,1.0,0.8104864,1.0,2.0
15380.0,1.0,0.7932012,1.0,2.0
15390.0,1.0,0.7773622,1.0,2.0
15400.0,1.0,0.7592106,1.0,2.0
15410.0,1.0,0.27789307,1.0,1.0
15420.0,1.0,0.40329507,1.0,1.0
15430.0,1.0,0.43074575,1.0,1.0
15440.0,1.0,0.4557249,1.0,2.0
15450.0,1.0,0.4529918,1.0,2.0
15460.0,1.0,0.41551387,1.0,1.0
15470.0,1.0,0.42013487,1.0,1.0
15480.0,1.0,0.42451075,1.0,1.0
15490.0,1.0,0.40307325,1.0,1.0
15500.0,1.0,0.36187682,1.0,1.0
15510.0,1.0,0.36874303,1.0,1.0
15520.0,1.0,0.3752284,1.0,1.0
15530.0,1.0,0.32787058,1.0,1.0
15540.0,1.0,0.29074097,1.0,1.0
15550.0,1.0,0.3011172,1.0,1.0
15560.0,1.0,0.3142697,1.0,1.0
15570.0,1.0,0.21708967,1.0,1.0
15580.0,1.0,0.0,1.0,1.0
15590.0,1.0,0.0,1.0,1.0
15600.0,1.0,0.0,1.0,1.0
15610.0,1.0,0.0,1.0,1.0
15620.0,1.0,0.0,1.0,1.0
15630.0,1.0,0.0,1.0,1.0
15640.0,1.0,0.0,1.0,1.0
15650.0,1.0,0.0,1.0,1.0
15660.0,1.0,0.0,1.0,1.0
15670.0,1.0,0.0,1.0,1.0
15680.0,1.0,0.0,1.0,1.0
15690.0,1.0,0.0,1.0,1.0
15700.0,1.0,0.0,1.0,1.0
15710.0,1.0,0.0,1.0,1.0
15720.0,1.0,0.0,1.0,1.0
15730.0,1.0,0.0,1.0,1.0
15740.0,1.0,0.0,1.0,1.0
15750.0,1.0,0.0,1.0,1.0
15760.0,1.0,0.0,1.0,1.0
15770.0,1.0,0.0,1.0,1.0
15780.0,1.0,0.0,1.0,1.0
15790.0,1.0,0.0,1.0,1.0
15800.0,1.0,0.0,1.0,1.0
15810.0,1.0,0.0,1.0,1.0
15820.0,1.0,0.075591646,1.0,1.0
15830.0,1.0,0.121589884,1.0,1.0
15840.0,1.0,0.104156636,1.0,1.0
15850.0,1.0,0.0,1.0,1.0
15860.0,1.0,0.0,1.0,1.0
15870.0,1.0,0.0,1.0,1.0
15880.0,1.0,0.0,1.0,1.0
15890.0,1.0,0.0,1.0,1.0
15900.0,1.0,0.0,1.0,1.0
15910.0,1.0,0.0,1.0,1.0
15920.0,1.0,0.0,1.0,1.0
15930.0,1.0,0.0,1.0,1.0
15940.0,1.0,0.0,1.0,1.0
15950.0,1.0,0.078420825,1.0,1.0
15960.0,1.0,0.16493398,1.0,1.0
15970.0,1.0,0.21306609,1.0,1.0
15980.0,1.0,0.07930357,1.0,1.0
15990.0,1.0,0.0,1.0,1.0
16000.0,1.0,0.0,1.0,1.0
16010.0,1.0,0.062016908,1.0,1.0
16020.0,1.0,0.0,1.0,1.0
16030.0,1.0,0.26180908,1.0,1.0
16040.0,1.0,0.0,1.0,1.0
16050.0,1.0,0.0,1.0,1.0
16060.0,1.0,0.0,1.0,1.0
16070.0,1.0,0.0,1.0,1.0
16080.0,1.0,0.0,1.0,1.0
16090.0,1.0,0.0,1.0,1.0
16100.0,1.0,0.0,1.0,1.0
16110.0,1.0,0.0,1.0,1.0
16120.0,1.0,0.0,1.0,1.0
16130.0,1.0,0.0,1.0,1.0
16140.0,1.0,0.10430244,1.0,1.0
16150.0,1.0,0.20730413,1.0,1.0
16160.0,1.0,0.27900824,1.0,1.0
16170.0,1.0,0.3580489,1.0,1.0
16180.0,1.0,0.4162583,1.0,1.0
16190.0,1.0,0.44665292,1.0,2.0
16200.0,1.0,0.4595552,1.0,2.0
16210.0,1.0,0.4608297,1.0,2.0
16220.0,1.0,0.46302974,1.0,2.0
16230.0,1.0,0.468,1.0,2.0
16240.0,1.0,0.468,1.0,2.0
16250.0,1.0,0.46166655,1.0,2.0
16260.0,1.0,0.45693654,1.0,2.0
16270.0,1.0,0.4570685,1.0,2.0
16280.0,1.0,0.45693654,1.0,2.0
16290.0,1.0,0.4570685,1.0,2.0
16300.0,1.0,0.45751113,1.0,2.0
16310.0,1.0,0.4573795,1.0,2.0
16320.0,1.0,0.45751113,1.0,2.0
16330.0,1.0,0.4573795,1.0,2.0
16340.0,1.0,0.45795113,1.0,2.0
16350.0,1.0,0.4578198,1.0,2.0
16360.0,1.0,0.45795113,1.0,2.0
16370.0,1.0,0.4687473,1.0,2.0
16380.0,1.0,0.44094065,1.0,2.0
16390.0,1.0,0.44079927,1.0,2.0
16400.0,1.0,0.45572487,1.0,2.0
16410.0,1.0,0.4548159,1.0,2.0
16420.0,1.0,0.42399883,1.0,1.0
16430.0,1.0,0.46849626,1.0,2.0
16440.0,1.0,0.4687473,1.0,2.0
16450.0,1.0,0.44358012,1.0,2.0
16460.0,1.0,0.45825756,1.0,2.0
16470.0,1.0,0.4623277,1.0,2.0
16480.0,1.0,0.41114378,1.0,1.0
16490.0,1.0,0.41357422,1.0,1.0
16500.0,1.0,0.4435801,1.0,2.0
16510.0,1.0,0.42585912,1.0,1.0
16520.0,1.0,0.42538893,1.0,1.0
16530.0,1.0,0.44343996,1.0,2.0
16540.0,1.0,0.44253296,1.0,2.0
16550.0,1.0,0.6828697,1.0,2.0
16560.0,1.0,0.70751554,1.0,2.0
16570.0,1.0,0.7220947,1.0,2.0
16580.0,1.0,0.72062635,1.0,2.0
16590.0,1.0,0.8404021,1.0,2.0
16600.0,1.0,0.8665797,1.0,3.0
16610.0,2.0,1.4608146,1.0,4.0
16620.0,2.0,1.5416735,1.0,4.0
16630.0,1.5,1.5440574,1.0,4.0
16640.0,1.0,1.5494787,1.0,4.0
16650.0,1.0,1.6095831,1.0,4.0
16660.0,1.0,1.6792476,1.0,4.0
16670.0,1.0,1.7245113,1.0,5.0
16680.0,2.0,1.7228516,1.0,5.0
16690.0,2.0,1.7226254,1.0,5.0
16700.0,2.0,1.7358898,1.0,5.0
16710.0,2.0,1.7807016,1.0,5.0
16720.0,2.0,1.7836859,1.0,5.0
16730.0,2.0,1.8086054,1.0,5.0
16740.0,2.0,1.5305122,1.0,4.0
16750.0,2.0,1.5036525,1.0,4.0
16760.0,2.0,1.4889868,1.0,4.0
16770.0,2.0,1.4806839,1.0,4.0
16780.0,2.0,1.4294152,1.0,4.0
16790.0,2.0,1.328126,1.0,4.0
16800.0,2.0,1.2145196,1.0,4.0
16810.0,2.0,1.135666,1.0,3.0
16820.0,2.0,1.1142578,1.0,3.0
16830.0,2.0,1.1086373,1.0,3.0
16840.0,2.0,1.0989032,1.0,3.0
16850.0,2.0,1.0819364,1.0,3.0
16860.0,2.0,0.7750678,1.0,3.0
16870.0,1.0,0.49629435,1.0,2.0
16880.0,1.0,0.4920878,1.0,2.0
16890.0,1.0,0.4924935,1.0,2.0
16900.0,1.0,0.49883157,1.0,2.0
16910.0,1.0,0.49888068,1.0,2.0
16920.0,1.0,0.48833522,1.0,2.0
16930.0,1.0,0.4489684,1.0,2.0
16940.0,1.0,0.40947235,1.0,1.0
16950.0,1.0,0.39308417,1.0,1.0
16960.0,1.0,0.3962638,1.0,1.0
16970.0,1.0,0.41512975,1.0,1.0
16980.0,1.0,0.42543745,1.0,1.0
16990.0,1.0,0.42229295,1.0,1.0
17000.0,1.0,0.41014227,1.0,1.0
17010.0,1.0,0.40876582,1.0,1.0
17020.0,1.0,0.39160326,1.0,1.0
17030.0,1.0,0.39810684,1.0,1.0
17040.0,1.0,0.42055762,1.0,1.0
17050.0,1.0,0.0,1.0,1.0
17060.0,1.0,0.0,1.0,1.0
17070.0,1.0,0.0,1.0,1.0
17080.0,1.0,0.0,1.0,1.0
17090.0,1.0,0.0,1.0,1.0
17100.0,1.0,0.0,1.0,1.0
17110.0,1.0,0.0,1.0,1.0
17120.0,1.0,0.0,1.0,1.0
17130.0,1.0,0.0,1.0,1.0
17140.0,1.0,0.0,1.0,1.0
17150.0,1.0,0.0,1.0,1.0
17160.0,1.0,0.0,1.0,1.0
17170.0,1.0,0.0,1.0,1.0
17180.0,1.0,0.0,1.0,1.0
17190.0,1.0,0.0,1.0,1.0
17200.0,1.0,0.0,1.0,1.0
17210.0,1.0,0.0,1.0,1.0
17220.0,1.0,0.0,1.0,1.0
17230.0,1.0,0.1502667,1.0,1.0
17240.0,1.0,0.20920652,1.0,1.0
17250.0,1.0,0.2735605,1.0,1.0
17260.0,1.0,0.34863213,1.0,1.0
17270.0,1.0,0.41987234,1.0,1.0
17280.0,1.0,0.44810626,1.0,2.0
17290.0,1.0,0.4595143,1.0,2.0
17300.0,1.0,0.4634611,1.0,2.0
17310.0,1.0,0.47104946,1.0,2.0
17320.0,1.0,0.48548034,1.0,2.0
17330.0,1.0,0.4905486,1.0,2.0
17340.0,1.0,0.48515436,1.0,2.0
17350.0,1.0,0.48073295,1.0,2.0
17360.0,1.0,0.48153242,1.0,2.0
17370.0,1.0,0.48412293,1.0,2.0
17380.0,1.0,0.48343685,1.0,2.0
17390.0,1.0,0.48010492,1.0,2.0
17400.0,1.0,0.4797072,1.0,2.0
17410.0,1.0,0.482362,1.0,2.0
17420.0,1.0,0.48421967,1.0,2.0
17430.0,1.0,0.48948544,1.0,2.0
17440.0,1.0,0.4947052,1.0,2.0
17450.0,1.0,0.4954136,1.0,2.0
17460.0,1.0,0.4923728,1.0,2.0
17470.0,1.0,0.48850286,1.0,2.0
17480.0,1.0,0.49208948,1.0,2.0
17490.0,1.0,0.4952161,1.0,2.0
17500.0,1.0,0.49346408,1.0,2.0
17510.0,1.0,0.49190825,1.0,2.0
17520.0,1.0,0.49549067,1.0,2.0
17530.0,1.0,0.49631882,1.0,2.0
17540.0,1.0,0.49201524,1.0,2.0
17550.0,1.0,0.4921951,1.0,2.0
17560.0,1.0,0.49272206,1.0,2.0
17570.0,1.0,0.4846349,1.0,2.0
17580.0,1.0,0.47851333,1.0,2.0
17590.0,1.0,0.4791148,1.0,2.0
17600.0,1.0,0.48,1.0,2.0
17610.0,1.0,0.4802905,1.0,2.0
17620.0,1.0,0.48841685,1.0,2.0
17630.0,1.0,0.48885065,1.0,2.0
17640.0,1.0,0.48948544,1.0,2.0
17650.0,1.0,0.48969275,1.0,2.0
17660.0,1.0,0.4825339,1.0,2.0
17670.0,1.0,0.48307243,1.0,2.0
17680.0,1.0,0.48386362,1.0,2.0
17690.0,1.0,0.48412293,1.0,2.0
17700.0,1.0,0.48447624,1.0,2.0
17710.0,1.0,0.4848876,1.0,2.0
17720.0,1.0,0.4856326,1.0,2.0
17730.0,1.0,0.48587656,1.0,2.0
17740.0,1.0,0.4861183,1.0,2.0
17750.0,1.0,0.4929643,1.0,2.0
17760.0,2.0,0.6661945,1.0,2.0
17770.0,2.0,0.6583284,1.0,2.0
17780.0,2.0,0.6493357,1.0,2.0
17790.0,2.0,0.6421669,1.0,2.0
17800.0,2.0,0.636665,1.0,2.0
17810.0,1.0,0.6300409,1.0,2.0
17820.0,1.0,0.6199405,1.0,2.0
17830.0,1.0,0.6112781,1.0,2.0
17840.0,1.0,0.60168236,1.0,2.0
17850.0,1.0,0.59169066,1.0,2.0
17860.0,1.0,0.5795217,1.0,2.0
17870.0,1.0,0.56855977,1.0,2.0
17880.0,1.0,0.5572241,1.0,2.0
17890.0,1.0,0.545337,1.0,2.0
17900.0,1.0,0.5307892,1.0,2.0
17910.0,1.0,0.516757,1.0,2.0
17920.0,1.0,0.5286896,1.0,2.0
17930.0,1.0,0.558345,1.0,2.0
17940.0,1.0,0.58650124,1.0,2.0
17950.0,1.0,0.59441257,1.0,2.0
17960.0,1.0,0.51568186,1.0,2.0
17970.0,1.0,0.45372316,1.0,2.0
17980.0,1.0,0.45372316,1.0,2.0
17990.0,1.0,0.45685235,1.0,2.0
18000.0,1.0,0.45994678,1.0,2.0
18010.0,1.0,0.6034867,1.0,2.0
18020.0,1.0,0.599229,1.0,2.0
18030.0,1.0,0.5966364,1.0,2.0
18040.0,1.0,0.5988246,1.0,2.0
18050.0,1.0,0.60099834,1.0,2.0
18060.0,1.0,0.6031576,1.0,2.0
18070.0,1.0,0.6053024,1.0,2.0
18080.0,1.0,0.6055444,1.0,2.0
18090.0,1.0,0.6088341,1.0,2.0
18100.0,1.0,0.616,1.0,2.0
18110.0,1.0,0.6179806,1.0,2.0
18120.0,1.0,0.62443256,1.0,2.0
18130.0,1.0,0.6276018,1.0,2.0
18140.0,1.0,0.6292654,1.0,2.0
18150.0,1.0,0.6323219,1.0,2.0
18160.0,1.0,0.6337192,1.0,2.0
18170.0,1.0,0.63519377,1.0,2.0
18180.0,2.0,0.63135093,1.0,2.0
18190.0,2.0,0.63135093,1.0,2.0
18200.0,2.0,0.63279617,1.0,2.0
18210.0,2.0,0.63710284,1.0,2.0
18220.0,2.0,0.7123419,1.0,2.0
18230.0,2.0,0.70913744,1.0,2.0
18240.0,2.0,0.71028936,1.0,2.0
18250.0,2.0,0.71143794,1.0,2.0
18260.0,2.0,0.70269126,1.0,2.0
18270.0,2.0,0.7038068,1.0,2.0
18280.0,2.0,0.70491916,1.0,2.0
18290.0,2.0,0.6960575,1.0,2.0
18300.0,2.0,0.6964187,1.0,2.0
18310.0,2.0,0.6571356,1.0,2.0
18320.0,2.0,0.6071267,1.0,2.0
18330.0,2.0,0.6054757,1.0,2.0
18340.0,2.0,0.6026201,1.0,2.0
18350.0,2.0,0.6015308,1.0,2.0
18360.0,2.0,0.60020673,1.0,2.0
18370.0,2.0,0.5540376,1.0,2.0
18380.0,2.0,0.55222785,1.0,2.0
18390.0,2.0,0.53516346,1.0,2.0
18400.0,2.0,0.48317146,1.0,2.0
18410.0,2.0,0.475154,1.0,2.0
18420.0,2.0,0.47415972,1.0,2.0
18430.0,2.0,0.4622089,1.0,2.0
18440.0,2.0,0.46208113,1.0,2.0
18450.0,2.0,0.44815117,1.0,2.0
18460.0,2.0,0.44815117,1.0,2.0
18470.0,2.0,0.47698513,1.0,2.0
18480.0,2.0,0.5522387,2.0,2.0
18490.0,2.0,0.553587,2.0,2.0
18500.0,2.0,0.5533136,2.0,2.0
18510.0,2.0,0.5527937,2.0,2.0
18520.0,2.0,0.5513435,2.0,2.0
18530.0,2.0,0.58058405,2.0,3.0
18540.0,2.0,0.5442059,2.0,3.0
18550.0,2.0,0.49918544,2.0,3.0
18560.0,2.0,0.51432943,2.0,3.0
18570.0,2.0,0.49470517,2.0,3.0
18580.0,2.0,0.49981734,2.0,3.0
18590.0,3.0,0.52205247,2.0,3.0
18600.0,3.0,0.60069233,2.0,3.0
18610.0,3.0,0.63315356,2.0,3.0
18620.0,3.0,0.69558835,2.0,3.0
18630.0,3.0,0.6767463,2.0,3.0
18640.0,3.0,0.6829102,2.0,3.0
18650.0,3.0,0.66569203,3.0,3.0
18660.0,3.0,0.6880876,3.0,4.0
18670.0,3.0,0.7589555,3.0,4.0
18680.0,3.0,0.6960766,3.0,4.0
18690.0,4.0,0.6711128,3.0,4.0
18700.0,4.0,0.64183915,3.0,4.0
18710.0,4.0,0.6863087,3.0,4.0
18720.0,4.0,0.7205886,3.0,4.0
18730.0,4.0,0.71474135,3.0,4.0
18740.0,4.0,0.7847491,3.0,5.0
18750.0,4.0,0.8094763,3.0,5.0
18760.0,4.0,0.8639886,3.0,5.0
18770.0,4.0,0.8763945,3.0,5.0
18780.0,5.0,0.89198905,4.0,5.0
18790.0,5.0,0.9292385,4.0,5.0
18800.0,5.0,0.9308631,4.0,5.0
18810.0,5.0,0.9345383,4.0,5.0
18820.0,5.0,0.92978716,4.0,5.0
18830.0,5.0,0.9475604,4.0,5.0
18840.0,5.0,0.9717621,4.0,5.0
18850.0,5.0,0.98520875,4.0,5.0
18860.0,5.0,1.0102129,4.0,5.0
18870.0,5.0,0.98951364,4.0,6.0
18880.0,4.0,1.5384393,3.0,6.0
18890.0,4.0,1.4810059,3.0,6.0
18900.0,4.0,1.4119608,3.0,6.0
18910.0,4.0,1.3604462,4.0,6.0
18920.0,4.0,1.3502594,4.0,6.0
18930.0,4.0,1.320386,4.0,6.0
18940.0,4.0,1.2515651,4.0,6.0
18950.0,4.0,1.197018,4.0,6.0
18960.0,5.0,1.1490148,4.0,6.0
18970.0,5.0,1.1307732,4.0,6.0
18980.0,5.0,1.1530106,4.0,6.0
18990.0,5.0,1.1614597,4.0,6.0
19000.0,5.0,1.1496608,4.0,6.0
19010.0,5.0,1.147493,4.0,6.0
19020.0,5.0,1.1263605,4.0,6.0
19030.0,5.0,1.0772408,4.0,6.0
19040.0,5.0,1.0528038,4.0,6.0
19050.0,5.0,1.0713611,4.0,6.0
19060.0,5.0,1.0770344,4.0,6.0
19070.0,5.0,1.1356831,4.0,6.0
19080.0,5.0,1.1312608,4.0,6.0
19090.0,5.0,1.0972288,4.0,6.0
19100.0,5.0,1.072567,4.0,6.0
19110.0,5.0,1.0708575,4.0,6.0
19120.0,5.0,1.0696126,4.0,6.0
19130.0,5.0,1.0943784,4.0,6.0
19140.0,5.0,1.1248782,4.0,6.0
19150.0,5.0,1.1438422,3.0,6.0
19160.0,5.0,1.1567502,3.0,6.0
19170.0,5.0,1.1754825,3.0,6.0
19180.0,5.0,1.2231594,3.0,6.0
19190.0,5.0,1.2985966,3.0,6.0
19200.0,4.0,1.3654593,3.0,6.0
19210.0,4.0,1.3918607,3.0,6.0
19220.0,4.0,1.4107441,3.0,6.0
19230.0,4.0,1.4433818,3.0,6.0
19240.0,4.0,1.5086418,3.0,6.0
19250.0,4.0,1.5444857,3.0,6.0
19260.0,4.0,1.524147,3.0,6.0
19270.0,4.0,1.516237,3.0,6.0
19280.0,4.0,1.5641022,3.0,6.0
19290.0,4.0,1.6279792,3.0,6.0
19300.0,4.0,1.64648,3.0,6.0
19310.0,4.0,1.6477269,3.0,6.0
19320.0,4.0,1.6912197,3.0,6.0
19330.0,3.0,1.7603906,3.0,6.0
19340.0,3.0,1.7905027,2.0,6.0
19350.0,3.0,1.8156114,2.0,6.0
19360.0,3.0,1.8338546,2.0,6.0
19370.0,4.0,1.6830971,3.0,5.0
19380.0,4.0,1.6736116,2.0,5.0
19390.0,4.0,1.6759311,2.0,5.0
19400.0,4.0,1.6703999,2.0,5.0
19410.0,4.0,1.6450604,2.0,5.0
19420.0,4.0,1.6120914,2.0,5.0
19430.0,4.0,1.5984238,2.0,5.0
19440.0,3.0,1.621313,2.0,5.0
19450.0,3.0,1.6295395,2.0,5.0
19460.0,3.0,1.6373488,2.0,5.0
19470.0,3.0,1.6502578,2.0,5.0
19480.0,3.0,1.6405338,2.0,5.0
19490.0,3.0,1.6616848,2.0,5.0
19500.0,3.0,1.672124,2.0,5.0
19510.0,3.0,1.653626,2.0,5.0
19520.0,3.0,1.6357739,2.0,5.0
19530.0,3.0,1.5927787,2.0,4.0
19540.0,3.0,1.5169377,2.0,4.0
19550.0,3.0,1.4347124,2.0,4.0
19560.0,2.5,1.390095,2.0,4.0
19570.0,2.0,1.3761233,2.0,4.0
19580.0,2.0,1.3700945,2.0,4.0
19590.0,2.0,1.7429605,2.0,4.0
19600.0,2.0,2.0841575,1.0,5.0
19610.0,2.0,2.0899367,1.0,5.0
19620.0,2.0,2.0830777,1.0,4.0
19630.0,2.0,2.0671523,1.0,4.0
19640.0,2.0,2.0602093,1.0,4.0
19650.0,2.0,2.0343943,1.0,5.0
19660.0,2.0,1.9859326,1.0,5.0
19670.0,2.0,1.9948684,2.0,5.0
19680.0,2.0,1.9879414,2.0,5.0
19690.0,2.0,1.9663324,2.0,5.0
19700.0,2.0,1.8963321,2.0,5.0
19710.0,2.0,1.856094,2.0,5.0
19720.0,2.0,1.8214693,2.0,5.0
19730.0,2.0,1.8058952,2.0,5.0
19740.0,2.0,1.7606534,2.0,4.0
19750.0,2.0,1.7382336,2.0,4.0
19760.0,3.0,1.1202214,3.0,4.0
19770.0,3.0,1.0795141,3.0,4.0
19780.0,4.0,1.1393493,3.0,4.0
19790.0,4.0,1.1788384,3.0,4.0
19800.0,4.0,1.2280651,3.0,4.0
19810.0,4.0,1.2437614,3.0,4.0
19820.0,4.0,1.2406906,3.0,4.0
19830.0,4.0,1.2238611,3.0,5.0
19840.0,4.0,1.226489,3.0,5.0
19850.0,4.0,1.259428,3.0,5.0
19860.0,4.0,1.2622477,3.0,5.0
19870.0,4.0,1.2417924,3.0,5.0
19880.0,4.0,1.3059924,3.0,5.0
19890.0,4.0,1.3911264,3.0,5.0
19900.0,4.0,1.4354885,3.0,5.0
19910.0,4.0,1.4494934,3.0,5.0
19920.0,4.0,1.4615492,3.0,5.0
19930.0,4.0,1.4627355,3.0,5.0
19940.0,4.0,1.4495393,3.0,5.25
19950.0,4.0,1.4929969,3.0,6.0
19960.0,4.0,1.5093849,3.0,6.0
19970.0,4.0,1.5133525,3.0,6.0
19980.0,4.0,1.4872645,3.0,6.0
19990.0,4.0,1.4791232,3.0,6.0
20000.0,4.0,1.4721835,3.0,5.0
20010.0,4.0,1.4890825,3.0,5.0
20020.0,4.0,1.4986279,3.0,6.0
20030.0,4.0,1.5059797,3.0,6.0
20040.0,4.0,1.5388181,3.0,6.0
20050.0,4.0,1.5550227,3.0,6.0
20060.0,4.0,1.5141348,3.0,5.0
20070.0,4.0,1.3383092,3.0,5.0
20080.0,4.0,1.3807213,3.0,5.0
20090.0,4.0,1.4146996,3.0,6.0
20100.0,4.0,1.4767456,3.0,6.0
20110.0,3.0,1.5465493,3.0,5.0
20120.0,3.0,1.6099379,3.0,5.0
20130.0,3.0,1.648558,3.0,6.0
20140.0,3.0,1.6910619,3.0,6.0
20150.0,3.0,1.7369511,3.0,6.0
20160.0,3.0,1.7739784,3.0,6.0
20170.0,3.0,1.7871499,3.0,6.0
20180.0,3.0,1.8232595,3.0,6.0
20190.0,3.0,1.9151804,2.0,6.0
20200.0,3.0,2.0127294,2.0,6.0
20210.0,3.0,2.0486677,2.0,6.0
20220.0,3.0,2.069883,2.0,6.0
20230.0,3.0,2.08785,2.0,6.0
20240.0,3.0,2.0766666,2.0,6.0
20250.0,3.0,2.0766666,2.0,6.0
20260.0,3.0,2.07873,2.0,6.0
20270.0,4.0,1.432467,3.0,6.0
20280.0,4.0,1.388559,3.0,5.0
20290.0,4.0,1.3798972,3.0,5.0
20300.0,4.0,1.3785499,3.0,5.0
20310.0,4.0,1.3710945,3.0,5.0
20320.0,4.0,1.3710945,3.0,5.0
20330.0,4.0,1.3712535,3.0,5.0
20340.0,4.0,1.3716489,3.0,5.0
20350.0,4.0,1.37008,3.0,5.0
20360.0,4.0,1.3710945,3.0,5.0
20370.0,4.0,1.3731191,3.0,5.0
20380.0,4.0,1.4154686,3.0,5.0
20390.0,4.0,1.478479,3.0,5.0
20400.0,4.0,1.4703985,3.0,5.0
20410.0,4.0,1.4987781,3.0,6.0
20420.0,4.0,1.4995241,3.0,6.0
20430.0,4.0,1.495715,3.0,6.0
20440.0,4.0,1.5472246,3.0,6.0
20450.0,4.0,1.579959,3.0,6.0
20460.0,4.0,1.7162751,3.0,6.0
20470.0,4.0,1.7240638,3.0,6.0
20480.0,4.0,1.72499,3.0,6.0
20490.0,4.0,1.7367324,3.0,6.0
20500.0,3.0,2.4406686,3.0,7.0
20510.0,3.0,2.4066565,3.0,7.0
20520.0,3.0,2.3920026,3.0,7.0
20530.0,4.0,2.3730571,3.0,7.0
20540.0,4.0,2.34008,3.0,7.0
20550.0,4.0,2.3083985,3.0,7.0
20560.0,4.0,2.2829313,3.0,7.0
20570.0,4.0,2.2807837,2.0,7.0
20580.0,4.0,2.2782521,2.0,7.0
20590.0,4.0,2.238115,2.0,6.0
20600.0,4.0,2.2067258,3.0,6.0
20610.0,4.0,2.1954463,3.0,7.0
20620.0,4.0,2.1708179,3.0,7.0
20630.0,4.0,2.1432383,3.0,7.0
20640.0,4.0,2.1431844,2.0,6.0
20650.0,4.0,2.136629,2.0,6.0
20660.0,4.0,2.0969958,2.0,6.0
20670.0,4.0,2.1017895,3.0,6.0
20680.0,4.0,2.1569698,3.0,6.0
20690.0,4.0,2.1419842,2.0,6.0
20700.0,3.0,1.8098469,2.0,5.0
20710.0,3.0,1.7708504,2.0,5.0
20720.0,3.0,1.6905278,2.0,4.0
20730.0,3.0,1.5796082,2.0,4.0
20740.0,3.0,1.4676061,2.0,4.0
20750.0,4.0,1.4781758,2.0,5.0
20760.0,4.0,1.4786673,2.0,5.0
20770.0,3.0,1.41919,2.0,4.0
20780.0,3.0,1.3456612,2.0,4.0
20790.0,3.0,1.2287312,2.0,4.0
20800.0,3.0,1.2083156,2.0,4.0
20810.0,4.0,1.1526313,2.0,4.0
20820.0,3.0,1.1270587,2.0,4.0
20830.0,3.0,1.1192284,2.0,4.0
20840.0,3.0,1.1237367,2.0,4.0
20850.0,3.0,1.1243278,2.0,4.0
20860.0,3.0,1.099489,2.0,4.0
20870.0,3.0,1.0750918,2.0,4.0
20880.0,3.0,1.0571424,2.0,4.0
20890.0,3.0,1.0642416,2.0,4.0
20900.0,3.0,1.1072491,2.0,4.0
20910.0,3.0,1.189195,2.0,4.0
20920.0,2.0,1.2247891,2.0,4.0
20930.0,2.0,1.241414,2.0,4.0
20940.0,3.0,1.1351492,2.0,4.0
20950.0,4.0,1.5375187,2.0,5.0
20960.0,4.0,1.5871943,2.0,5.0
20970.0,4.0,1.6679565,2.0,5.0
20980.0,4.0,1.7192525,2.0,5.0
20990.0,4.0,1.7654054,2.0,5.0
21000.0,4.0,1.7870119,2.0,5.0
21010.0,4.0,1.818829,2.0,6.0
21020.0,4.0,1.827682,2.0,6.0
21030.0,4.0,1.8531657,2.0,6.0
21040.0,4.0,1.9116095,2.0,6.0
21050.0,4.0,1.9401962,2.0,6.0
21060.0,4.0,1.9532903,2.0,6.0
21070.0,4.0,1.9531949,2.0,6.0
21080.0,4.0,1.9651595,2.0,6.0
21090.0,4.0,1.9632219,2.0,6.0
21100.0,4.0,1.9599578,2.0,6.0
21110.0,4.0,1.9531804,2.0,6.0
21120.0,4.0,2.0766203,2.0,6.0
21130.0,3.0,2.0140417,2.0,6.0
21140.0,3.0,2.0182915,2.0,6.0
21150.0,3.0,2.0158083,2.0,6.0
21160.0,3.0,1.9733585,2.0,6.0
21170.0,3.0,1.9438303,2.0,6.0
21180.0,3.0,1.9404731,2.0,6.0
21190.0,3.0,1.9530159,2.0,5.0
21200.0,4.0,1.9602834,2.0,5.0
21210.0,4.0,1.996675,2.0,5.0
21220.0,4.0,2.0243556,2.0,6.0
21230.0,4.0,2.048158,2.0,6.0
21240.0,4.0,2.0844257,2.0,6.0
21250.0,4.0,2.075202,2.0,6.0
21260.0,4.0,2.0545316,2.0,6.0
21270.0,4.0,2.0807412,2.0,6.0
21280.0,4.0,2.1211658,2.0,6.0
21290.0,4.0,2.169741,2.0,6.0
21300.0,4.0,2.1728134,2.0,6.0
21310.0,4.0,2.1851313,2.0,6.0
21320.0,4.0,2.248654,2.0,6.0
21330.0,4.0,2.2656531,2.0,6.0
21340.0,4.0,2.2293208,2.0,6.0
21350.0,4.0,2.2124898,2.0,6.0
21360.0,3.0,2.23329,2.0,6.0
21370.0,3.0,2.2913313,2.0,6.0
21380.0,3.0,2.2880943,2.0,6.0
21390.0,3.0,2.2867234,2.0,6.0
21400.0,3.0,2.364203,2.0,6.0
21410.0,3.0,2.381807,2.0,6.0
21420.0,3.0,2.3977787,2.0,6.0
21430.0,4.0,2.4113066,1.0,6.0
21440.0,4.0,2.4331372,1.0,6.0
21450.0,4.0,2.421408,2.0,6.0
21460.0,4.0,2.3965223,2.0,6.0
21470.0,4.0,2.360478,2.0,6.0
21480.0,4.0,2.3702657,2.0,6.0
21490.0,3.0,2.3320355,2.0,6.0
21500.0,4.0,2.3931034,2.0,6.0
21510.0,4.0,2.383676,2.0,6.0
21520.0,4.0,2.3284974,2.0,6.0
21530.0,4.0,2.3190033,2.0,6.0
21540.0,4.0,2.3540018,2.0,6.0
21550.0,4.0,2.380352,2.0,6.0
21560.0,4.0,2.3709068,2.0,6.0
21570.0,4.0,2.3626635,2.0,6.0
21580.0,4.0,2.3964942,2.0,6.0
21590.0,4.0,2.420561,2.0,6.0
21600.0,4.0,2.4492903,2.0,6.0
21610.0,4.0,2.4935918,2.0,6.0
21620.0,4.0,2.481867,2.0,6.0
21630.0,4.0,2.514899,2.0,6.0
21640.0,4.0,2.4929335,2.0,6.0
21650.0,4.0,2.4577856,2.0,6.0
21660.0,4.0,2.413172,2.0,6.0
21670.0,4.0,2.4097667,2.0,6.0
21680.0,4.0,2.4522421,2.0,6.0
21690.0,4.0,2.4510648,2.0,6.0
21700.0,4.0,2.4060888,2.0,6.0
21710.0,4.0,2.349846,2.0,6.0
21720.0,4.0,2.3528452,2.0,6.0
21730.0,4.0,2.3805008,2.0,6.0
21740.0,4.0,2.4609654,2.0,6.0
21750.0,4.0,2.4824939,2.0,6.0
21760.0,4.0,2.537882,2.0,6.0
21770.0,4.0,2.504836,2.0,6.0
21780.0,4.0,2.4941883,2.0,6.0
21790.0,4.0,2.459185,2.0,6.0
21800.0,4.0,2.4837544,2.0,6.0
21810.0,4.0,2.4771729,2.0,6.0
21820.0,4.0,2.4915922,2.0,6.0
21830.0,4.0,2.449457,2.0,6.0
21840.0,4.0,2.45094,2.0,6.0
21850.0,4.0,2.456394,2.0,6.0
21860.0,4.0,2.434353,2.0,6.0
21870.0,4.0,2.4282134,2.0,6.0
21880.0,4.0,2.400399,2.0,6.0
21890.0,4.0,2.3938153,2.0,6.0
21900.0,4.0,2.3509965,2.0,6.0
21910.0,4.0,2.339284,2.0,6.0
21920.0,4.0,2.36519,2.0,6.0
21930.0,4.0,2.3648257,2.0,6.0
21940.0,4.0,2.367679,2.0,6.0
21950.0,4.0,2.3739016,2.0,6.0
21960.0,4.0,2.3737798,2.0,5.0
21970.0,4.0,2.3175485,2.0,6.0
21980.0,4.0,2.2648351,2.0,5.0
21990.0,4.0,2.2687335,2.0,5.0
22000.0,4.0,2.2866375,2.0,5.0
22010.0,4.0,2.318854,2.0,5.0
22020.0,4.0,2.2872758,2.0,5.0
22030.0,4.0,2.2622087,2.0,5.0
22040.0,4.0,2.2619808,2.0,5.0
22050.0,4.0,2.2717373,2.0,5.0
22060.0,4.0,2.298015,2.0,5.0
22070.0,4.0,2.286384,2.0,5.0
22080.0,4.0,2.28084,2.0,5.0
22090.0,4.0,2.2831173,2.0,5.0
22100.0,4.0,2.244596,2.0,5.0
22110.0,4.0,2.2630312,2.0,5.0
22120.0,4.0,2.2144716,2.0,5.0
22130.0,4.0,2.2113695,2.0,5.0
22140.0,4.0,2.194714,2.0,5.0
22150.0,4.0,2.203684,2.0,5.0
22160.0,4.0,2.2057118,2.0,5.0
22170.0,4.0,2.1817966,2.0,5.0
22180.0,4.0,2.1790824,2.0,5.0
22190.0,4.0,2.1290317,2.0,5.0
22200.0,4.0,2.137261,2.0,5.0
22210.0,4.0,2.1748333,2.0,5.0
22220.0,4.0,2.1777134,2.0,5.0
22230.0,4.0,2.1781056,2.0,5.0
22240.0,4.0,2.1833403,2.0,5.0
22250.0,4.0,2.1962492,2.0,5.0
22260.0,4.0,2.193325,2.0,5.0
22270.0,4.0,2.2002888,2.0,5.0
22280.0,4.0,2.2026744,2.0,5.0
22290.0,3.0,2.2070947,2.0,5.0
22300.0,3.0,2.2243593,2.0,5.0
22310.0,3.0,2.2653031,2.0,5.0
22320.0,3.0,2.2211435,2.0,5.0
22330.0,3.0,2.1921349,2.0,5.0
22340.0,3.0,2.2055786,2.0,5.0
22350.0,3.0,2.188742,2.0,5.0
22360.0,3.0,2.1954749,2.0,5.0
22370.0,3.0,2.208383,2.0,4.0
22380.0,3.0,2.251683,2.0,4.0
22390.0,3.0,2.2995372,2.0,4.0
22400.0,3.0,2.2817867,2.0,4.0
22410.0,3.0,2.3045096,2.0,4.0
22420.0,3.0,2.2633948,2.0,4.0
22430.0,3.0,2.282234,2.0,5.0
22440.0,3.0,2.2830484,2.0,4.0
22450.0,3.0,2.2648456,2.0,4.0
22460.0,3.0,2.278278,2.0,4.0
22470.0,3.0,2.2726338,2.0,4.0
22480.0,3.0,2.3022935,2.0,4.0
22490.0,3.0,2.2995794,2.0,4.0
22500.0,3.0,2.309467,1.0,4.0
22510.0,3.0,2.1315567,2.0,4.0
22520.0,3.0,2.084305,2.0,4.0
22530.0,3.0,2.1056273,2.0,4.0
22540.0,3.0,2.1088955,2.0,4.0
22550.0,4.0,2.0978189,2.0,4.0
22560.0,4.0,2.1506076,2.0,4.0
22570.0,3.0,2.2029958,2.0,4.0
22580.0,3.0,2.2191067,1.0,4.0
22590.0,4.0,2.214808,1.0,4.0
22600.0,4.0,2.2456913,1.0,4.0
22610.0,4.0,2.2711084,2.0,5.0
22620.0,4.0,2.2995493,2.0,5.0
22630.0,4.0,2.3344102,2.0,5.0
22640.0,4.0,2.3135562,2.0,5.0
22650.0,4.0,2.319198,2.0,5.0
22660.0,4.0,2.3480372,2.0,5.0
22670.0,4.0,2.3944068,2.0,5.0
22680.0,4.0,2.4388013,2.0,5.0
22690.0,4.0,2.4975014,2.0,6.0
22700.0,4.0,2.518506,2.0,5.0
22710.0,4.0,2.4932637,2.0,5.0
22720.0,4.0,2.4887304,2.0,5.0
22730.0,4.0,2.514509,2.0,5.0
22740.0,4.0,2.527207,2.0,6.0
22750.0,4.0,2.5408611,2.0,6.0
22760.0,4.0,2.5739286,2.0,6.0
22770.0,4.0,2.561308,2.0,6.0
22780.0,4.0,2.5344458,2.0,6.0
22790.0,4.0,2.5369222,2.0,6.0
22800.0,5.0,2.5544658,3.0,6.0
22810.0,4.0,2.5256658,3.0,6.0
22820.0,4.0,2.4534163,3.0,6.0
22830.0,5.0,2.381958,3.0,6.0
22840.0,5.0,2.3693979,3.0,6.0
22850.0,5.0,2.3844144,3.0,6.0
22860.0,5.0,2.3804288,3.0,6.0
22870.0,5.0,2.3457022,3.0,6.0
22880.0,5.0,2.295772,3.0,6.0
22890.0,5.0,2.2720087,3.0,6.0
22900.0,5.0,2.2686043,3.0,6.0
22910.0,5.0,2.303478,3.0,6.0
22920.0,5.0,2.3054655,3.0,6.0
22930.0,5.0,2.2356384,3.0,5.0
22940.0,5.0,2.1610525,3.0,6.0
22950.0,5.0,2.109763,3.0,6.0
22960.0,5.0,2.0594504,3.0,6.0
22970.0,5.0,2.0148025,3.0,6.0
22980.0,4.0,1.9943422,3.0,5.0
22990.0,4.0,1.9862114,2.0,5.0
23000.0,4.0,1.9887581,2.0,5.0
23010.0,4.0,1.9796237,2.0,5.0
23020.0,4.0,1.9646684,2.5,5.0
23030.0,4.0,1.9472892,2.0,5.0
23040.0,4.0,1.9064258,2.0,5.0
23050.0,4.0,1.83525,2.0,5.0
23060.0,4.0,1.7830797,2.0,4.5
23070.0,4.0,1.7349992,2.0,4.0
23080.0,4.0,1.7064136,2.0,4.0
23090.0,4.0,1.712881,2.0,4.0
23100.0,3.0,2.123081,2.0,4.0
23110.0,3.0,2.4094608,2.0,5.0
23120.0,3.0,2.3858345,2.0,5.0
23130.0,3.0,2.408575,2.0,5.0
23140.0,3.0,2.3903544,2.0,4.25
23150.0,3.0,2.3836367,2.0,4.0
23160.0,3.0,2.3493705,2.0,4.0
23170.0,3.0,2.2768176,2.0,4.0
23180.0,3.0,2.2537901,2.0,4.0
23190.0,3.0,2.2549884,1.75,4.0
23200.0,3.0,2.2974315,1.0,5.0
23210.0,3.0,2.3018107,1.0,5.0
23220.0,3.0,2.28462,1.0,5.0
23230.0,3.0,2.2719858,1.0,5.0
23240.0,2.0,2.2084434,1.0,5.0
23250.0,2.0,2.1837556,1.0,4.0
23260.0,3.0,2.037806,1.0,4.0
23270.0,3.0,1.9926062,1.0,4.0
23280.0,3.0,1.9736562,1.0,4.0
23290.0,3.0,1.9431567,1.0,4.0
23300.0,3.0,1.9197401,1.0,4.0
23310.0,3.0,1.8531928,1.0,4.0
23320.0,3.0,1.8372812,1.0,4.0
23330.0,3.0,1.7738869,1.0,4.0
23340.0,3.0,1.7538402,1.0,4.0
23350.0,3.0,1.7038878,1.0,4.0
23360.0,3.0,1.6313062,1.0,4.0
23370.0,3.0,1.6033804,1.0,4.0
23380.0,3.0,1.5591278,1.0,4.0
23390.0,3.0,1.5165393,1.0,4.0
23400.0,3.0,1.4480549,1.0,4.0
23410.0,3.0,1.4164793,1.0,4.0
23420.0,3.0,1.4121175,1.0,4.0
23430.0,3.0,1.4021475,1.0,4.0
23440.0,3.0,1.8107038,1.0,4.0
23450.0,3.0,1.7782662,1.0,4.0
23460.0,3.0,1.7756889,2.0,4.0
23470.0,3.0,1.8036007,2.0,4.0
23480.0,3.0,1.8379856,2.0,4.0
23490.0,3.0,1.8810568,2.0,4.0
23500.0,3.0,1.9158995,2.0,4.0
23510.0,3.0,1.9444214,2.0,5.0
23520.0,3.0,1.9495575,2.0,4.0
23530.0,3.0,1.9491279,2.0,4.0
23540.0,3.0,1.9676015,2.0,4.0
23550.0,3.0,2.00743,2.0,5.0
23560.0,3.0,1.9926454,2.0,5.0
23570.0,3.0,2.023304,2.0,5.0
23580.0,3.0,2.0320215,2.0,5.0
23590.0,3.0,1.9967412,2.0,5.0
23600.0,3.0,1.9800364,2.0,4.0
23610.0,3.0,1.9754939,2.0,4.0
23620.0,3.0,1.9631922,2.0,4.0
23630.0,3.0,1.8497611,2.0,4.0
23640.0,3.0,1.8605845,2.0,4.0
23650.0,3.0,1.8880463,2.0,4.0
23660.0,3.0,1.9068589,2.0,4.0
23670.0,3.0,1.8432361,2.0,4.0
23680.0,3.0,1.8319389,2.0,4.0
23690.0,3.0,1.8494496,2.0,4.0
23700.0,3.0,1.8383142,2.0,4.0
23710.0,3.0,1.7769368,2.0,4.0
23720.0,3.0,1.7505289,2.0,4.0
23730.0,3.0,1.7757586,2.0,4.0
23740.0,3.0,1.8185091,1.0,4.0
23750.0,2.0,1.7967349,1.0,4.0
23760.0,2.0,1.7457377,1.0,4.0
23770.0,2.0,1.7227648,1.0,3.0
23780.0,2.0,1.7163916,1.0,3.0
23790.0,2.0,1.7019751,1.0,3.0
23800.0,2.0,1.6697662,1.0,3.0
23810.0,2.0,1.647519,1.0,3.0
23820.0,2.0,1.6715117,1.0,3.0
23830.0,2.0,1.6411797,1.0,3.0
23840.0,2.0,1.5705998,1.0,3.0
23850.0,2.0,1.499717,1.0,3.0
23860.0,2.0,1.2918109,1.0,3.0
23870.0,2.0,1.3094434,1.0,3.0
23880.0,2.0,1.4149785,1.0,3.0
23890.0,2.0,1.4253465,1.0,3.0
23900.0,2.0,1.443696,1.0,3.0
23910.0,2.0,1.3777004,1.0,3.0
23920.0,2.0,1.321929,1.0,3.0
23930.0,2.0,1.3639456,1.0,3.0
23940.0,2.0,1.2780741,1.0,3.0
23950.0,2.0,1.2106197,1.0,3.0
23960.0,2.0,1.166839,1.0,3.0
23970.0,2.0,1.0710762,1.0,3.0
23980.0,2.0,1.0405749,1.0,3.0
23990.0,2.0,1.0543113,1.0,3.0
24000.0,2.0,1.0505815,1.0,3.0
24010.0,2.0,0.95821685,1.0,3.0
24020.0,2.0,0.95717496,1.0,3.0
24030.0,2.0,0.87380934,1.0,2.0
24040.0,2.0,0.8876673,1.0,2.0
24050.0,1.0,0.88531804,1.0,2.0
24060.0,1.0,0.88624704,1.0,2.0
24070.0,1.0,0.8513965,1.0,2.0
24080.0,3.0,1.0548223,1.0,3.0
24090.0,2.0,1.2323811,1.0,3.0
24100.0,2.0,1.2653327,1.0,3.0
24110.0,3.0,1.3191415,1.0,4.0
24120.0,3.0,1.366606,1.0,4.0
24130.0,3.0,1.4274486,1.0,4.0
24140.0,3.0,1.4791263,1.0,4.0
24150.0,3.0,1.5186529,1.0,4.0
24160.0,3.0,1.5540951,1.0,4.0
24170.0,3.0,1.577502,2.0,4.0
24180.0,3.0,1.6160907,2.0,4.0
24190.0,3.0,1.7439781,1.0,4.0
24200.0,3.0,1.8417954,1.0,4.0
24210.0,3.0,1.8748575,1.0,5.0
24220.0,3.0,1.9007362,1.0,5.0
24230.0,3.0,1.9217817,2.0,5.0
24240.0,3.0,1.9372916,2.0,4.0
24250.0,3.0,1.9683414,2.0,4.0
24260.0,3.0,2.0285995,2.0,5.0
24270.0,3.0,2.067113,2.0,5.0
24280.0,3.0,2.081345,2.0,5.0
24290.0,3.0,2.1187682,2.0,5.0
24300.0,3.0,2.1997747,1.0,5.0
24310.0,3.0,2.2585793,1.0,5.0
24320.0,3.0,2.2414901,2.0,5.0
24330.0,3.0,2.225159,2.0,5.0
24340.0,3.0,2.267411,2.0,6.0
24350.0,3.0,2.3319366,2.0,6.0
24360.0,3.0,2.3285043,1.0,6.0
24370.0,3.0,2.3040674,1.0,5.0
24380.0,3.0,2.2660258,2.0,5.0
24390.0,3.0,2.2806153,2.0,5.0
24400.0,3.0,2.3028538,2.0,5.0
24410.0,3.0,2.3082814,1.0,5.0
24420.0,3.0,2.3082635,1.0,5.0
24430.0,3.0,2.3115344,1.0,5.0
24440.0,3.0,2.3150153,1.0,5.0
24450.0,3.0,2.3012254,1.0,5.0
24460.0,3.0,2.2673275,1.0,5.0
24470.0,3.0,2.222873,1.0,5.0
24480.0,3.0,2.191697,1.0,5.0
24490.0,3.0,2.173192,1.0,5.0
24500.0,3.0,2.2043803,1.0,5.0
24510.0,3.0,2.2341387,1.0,5.0
24520.0,3.0,2.2306726,1.0,5.0
24530.0,3.0,2.1456876,1.0,5.0
24540.0,3.0,2.1110995,1.0,5.0
24550.0,3.0,2.1105487,1.0,5.0
24560.0,3.0,2.1317375,1.0,5.0
24570.0,3.0,2.09785,1.0,5.0
24580.0,3.0,2.0789154,1.0,5.0
24590.0,3.0,2.068266,1.0,5.0
24600.0,3.0,2.069705,1.0,5.0
24610.0,3.0,2.0597181,1.0,5.0
24620.0,3.0,2.0557761,1.0,5.0
24630.0,3.0,2.0309305,1.0,5.0
24640.0,3.0,2.0354438,1.0,5.0
24650.0,2.0,2.028291,1.0,4.0
24660.0,2.0,2.0348895,1.0,4.25
24670.0,2.0,2.0315208,1.0,5.0
24680.0,2.0,2.0146244,1.0,5.0
24690.0,2.0,2.0026262,1.0,4.0
24700.0,2.0,1.9981902,1.0,4.0
24710.0,2.0,1.9886909,1.0,4.0
24720.0,2.0,1.9750844,1.0,4.0
24730.0,2.0,1.9575535,1.0,4.0
24740.0,2.0,1.9414953,1.0,4.0
24750.0,2.0,1.9385996,1.0,4.0
24760.0,2.0,1.9516342,1.0,4.0
24770.0,2.0,1.9747281,1.0,4.0
24780.0,2.0,1.9868163,1.0,4.0
24790.0,2.0,1.9959637,1.0,4.0
24800.0,2.0,2.0192945,1.0,4.0
24810.0,2.0,2.0455081,1.0,4.0
24820.0,2.0,2.0101016,1.0,4.0
24830.0,2.0,1.9346968,1.0,4.0
24840.0,2.0,1.9166119,1.0,4.0
24850.0,2.0,1.9632668,1.0,4.0
24860.0,2.0,1.9974943,1.0,4.0
24870.0,2.0,1.969819,1.0,3.0
24880.0,2.0,1.9956207,1.0,3.75
24890.0,2.0,2.0582159,1.0,4.0
24900.0,2.0,1.9303951,1.0,3.0
24910.0,1.0,1.9499861,1.0,3.0
24920.0,2.0,1.9708446,1.0,4.0
24930.0,2.0,2.003824,1.0,3.0
24940.0,2.0,2.0352993,1.0,3.0
24950.0,2.0,2.0076795,1.0,3.0
24960.0,2.0,1.9861945,1.0,3.0
24970.0,2.0,1.9714682,1.0,3.0
24980.0,2.0,1.9332815,1.0,3.0
24990.0,2.0,1.9086648,1.0,3.0
25000.0,2.0,1.9132103,1.0,3.0
25010.0,1.0,1.9418732,1.0,3.0
25020.0,1.0,1.9263538,1.0,3.0
25030.0,1.0,1.8694062,1.0,3.0
25040.0,2.0,1.8103455,1.0,3.0
25050.0,2.0,1.7598398,1.0,3.0
25060.0,2.0,1.7284187,1.0,3.0
25070.0,2.0,1.6867436,1.0,3.0
25080.0,2.0,1.631593,1.0,3.0
25090.0,2.0,1.5429968,1.0,3.0
25100.0,2.0,1.5321879,1.0,3.0
25110.0,2.0,1.4974058,1.0,3.0
25120.0,2.0,1.4732682,1.0,3.0
25130.0,2.0,1.4320024,2.0,3.0
25140.0,2.0,1.3876873,2.0,3.0
25150.0,2.0,1.3042971,2.0,3.0
25160.0,2.0,1.2117028,2.0,3.0
25170.0,2.0,1.1663617,2.0,3.0
25180.0,2.0,1.1181016,2.0,3.0
25190.0,2.0,1.054626,2.0,3.0
25200.0,2.0,0.9764732,2.0,3.0
25210.0,2.0,0.8899613,2.0,3.0
25220.0,2.0,0.7945759,2.0,3.0
25230.0,2.0,0.70125526,2.0,3.0
25240.0,2.0,0.679282,2.0,3.0
25250.0,2.0,0.6323598,2.0,3.0
25260.0,2.0,0.56211656,2.0,3.0
25270.0,2.0,0.5057421,2.0,3.0
25280.0,3.0,0.49993593,2.0,3.0
25290.0,3.0,0.499831,2.0,3.0
25300.0,2.0,0.499831,2.0,3.0
25310.0,2.0,0.49806023,2.0,3.0
25320.0,2.0,0.49254847,2.0,3.0
25330.0,2.0,0.4879744,2.0,3.0
25340.0,2.0,0.4879744,2.0,3.0
25350.0,2.0,0.5223179,2.0,3.0
25360.0,2.0,0.58375937,2.0,3.0
25370.0,2.0,0.66616446,2.0,3.0
25380.0,2.0,0.7386772,2.0,3.0
25390.0,2.0,0.8117728,2.0,3.0
25400.0,2.0,0.90356576,2.0,3.0
25410.0,2.0,1.0000155,2.0,3.0
25420.0,2.0,1.0812765,2.0,3.25
25430.0,3.0,0.850567,2.0,4.0
25440.0,3.0,1.0018858,2.0,4.0
25450.0,3.0,0.9960316,3.0,4.0
25460.0,3.0,1.0193248,3.0,4.0
25470.0,3.0,1.029866,3.0,4.0
25480.0,3.0,1.0605813,2.0,4.0
25490.0,3.0,1.0705471,2.0,4.0
25500.0,3.0,1.0694833,2.0,4.0
25510.0,3.0,1.0569977,2.0,4.0
25520.0,3.0,1.0754693,2.0,4.0
25530.0,3.0,1.0719846,2.0,4.0
25540.0,3.0,1.0650371,2.0,4.0
25550.0,3.0,1.0945204,2.0,4.0
25560.0,3.0,1.1323414,2.0,4.0
25570.0,3.0,1.1446152,2.0,4.0
25580.0,3.0,1.149075,2.0,4.0
25590.0,3.0,1.1949791,2.0,4.0
25600.0,3.0,1.2445365,2.0,4.0
25610.0,3.0,1.3029971,2.0,4.0
25620.0,3.0,1.3895481,2.0,4.0
25630.0,3.0,1.4174988,2.0,4.0
25640.0,3.0,1.4102734,2.0,4.0
25650.0,3.0,1.4151889,2.0,4.0
25660.0,3.0,1.4645269,2.0,4.0
25670.0,3.0,1.5027128,2.0,4.0
25680.0,3.0,1.5267938,1.0,4.0
25690.0,3.0,1.5534089,1.0,4.0
25700.0,3.0,1.607801,1.0,5.0
25710.0,3.0,1.6889589,1.0,5.0
25720.0,3.0,1.7342156,1.0,5.0
25730.0,3.0,2.2570698,2.0,7.0
25740.0,3.0,2.4787145,2.0,7.0
25750.0,3.0,2.5293005,2.0,7.0
25760.0,3.0,2.5796547,2.0,7.0
25770.0,3.0,2.614798,2.0,7.0
25780.0,3.0,2.6758053,2.0,7.0
25790.0,3.0,2.791582,2.0,7.0
25800.0,3.0,2.8756225,2.0,7.0
25810.0,3.0,2.8819256,2.0,7.0
25820.0,3.0,2.8587224,2.0,7.0
25830.0,3.0,2.8483303,2.0,7.0
25840.0,3.0,2.8631713,2.0,7.0
25850.0,3.0,2.8771276,2.0,7.0
25860.0,3.0,2.8867598,2.0,7.0
25870.0,3.0,2.839893,2.0,7.0
25880.0,3.0,2.8156376,2.0,7.0
25890.0,3.0,2.7823434,2.0,7.0
25900.0,3.0,2.7443044,2.0,7.0
25910.0,2.0,0.9151175,2.0,3.0
25920.0,2.0,0.8133332,2.0,3.0
25930.0,2.0,0.8125884,2.0,3.0
25940.0,2.0,0.7425835,1.0,3.0
25950.0,2.0,0.7496666,1.0,3.0
25960.0,2.0,0.7284014,1.0,2.5
25970.0,2.0,0.7071178,1.0,2.0
25980.0,2.0,0.6582371,1.0,2.0
25990.0,2.0,0.61056614,1.0,2.0
26000.0,2.0,0.5407926,1.0,2.0
26010.0,2.0,0.49244565,1.0,2.0
26020.0,2.0,0.49535444,1.0,2.0
26030.0,2.0,0.49934804,1.0,2.0
26040.0,1.0,0.499067,1.0,2.0
26050.0,1.0,0.49244568,1.0,2.0
26060.0,1.0,0.4791148,1.0,2.0
26070.0,1.0,0.45838854,1.0,2.0
26080.0,1.0,0.4677422,1.0,2.0
26090.0,1.0,0.47492594,1.0,2.0
26100.0,1.0,0.4756757,1.0,2.0
26110.0,1.0,0.47740176,1.0,2.0
26120.0,1.0,0.5631126,1.0,2.0
26130.0,1.0,0.57000697,1.0,2.0
26140.0,1.0,0.596524,1.0,2.0
26150.0,1.0,0.6410995,1.0,2.0
26160.0,1.0,0.7246781,1.0,2.0
26170.0,2.0,0.8163545,1.0,2.0
26180.0,2.0,0.81964356,1.0,3.0
26190.0,2.0,0.81939274,1.0,3.0
26200.0,2.0,0.82383084,1.0,3.0
26210.0,2.0,0.8778407,1.0,3.0
26220.0,2.0,0.9080197,1.0,3.0
26230.0,2.0,0.89318126,1.0,3.0
26240.0,2.0,1.7633728,1.0,5.0
26250.0,2.0,2.1885912,1.0,6.0
26260.0,2.0,2.2473905,1.0,6.0
26270.0,2.0,2.2842455,1.0,6.0
26280.0,3.0,2.36644,1.0,6.0
26290.0,3.0,2.4482694,1.0,6.0
26300.0,3.0,2.5071337,1.0,6.0
26310.0,3.0,2.5503206,1.0,7.0
26320.0,2.0,2.6088686,1.0,7.0
26330.0,3.0,2.724985,1.0,7.0
26340.0,3.0,2.813997,1.0,7.0
26350.0,3.0,2.8506572,1.0,7.0
26360.0,3.0,2.8976886,1.0,7.0
26370.0,4.0,2.9148188,1.0,7.0
26380.0,4.0,2.9268277,1.0,8.0
26390.0,4.0,2.9571536,1.0,8.0
26400.0,4.0,2.9559345,1.0,8.0
26410.0,4.0,2.94828,1.0,8.0
26420.0,4.0,2.978379,1.0,8.0
26430.0,5.0,3.054296,1.0,8.0
26440.0,4.0,3.1470468,1.0,8.0
26450.0,4.0,3.2361462,1.0,8.0
26460.0,3.0,3.263257,1.0,8.0
26470.0,3.0,3.2737029,1.0,8.0
26480.0,2.0,3.2873979,1.0,8.0
26490.0,2.0,3.2732818,1.0,8.0
26500.0,2.0,3.2404976,1.0,7.0
26510.0,2.0,3.2808511,1.0,8.0
26520.0,5.0,3.5700562,2.0,9.0
26530.0,4.0,3.5726223,1.0,9.0
26540.0,4.0,3.589662,1.0,9.0
26550.0,4.0,3.5572205,1.0,9.0
26560.0,4.0,3.5461402,1.0,9.0
26570.0,4.0,3.5774038,1.0,9.0
26580.0,4.0,3.5805957,1.0,9.0
26590.0,5.0,3.5856798,1.0,9.0
26600.0,5.0,3.5648937,1.0,9.0
26610.0,5.0,3.5699883,1.0,9.0
26620.0,4.0,3.6252804,1.0,9.0
26630.0,4.0,3.6419227,1.0,9.0
26640.0,4.0,3.6269257,1.0,8.0
26650.0,4.0,3.627354,1.0,8.0
26660.0,3.0,3.6090937,1.0,8.0
26670.0,3.0,3.6140857,1.0,8.0
26680.0,3.0,3.633819,1.0,8.0
26690.0,3.0,3.6099596,1.0,8.0
26700.0,3.0,3.6450398,1.0,9.0
26710.0,4.0,3.643212,1.0,9.0
26720.0,5.0,3.2664156,1.0,9.0
26730.0,4.0,2.2745867,2.0,7.0
26740.0,3.0,2.3257234,2.0,7.0
26750.0,3.0,2.4006832,2.0,7.0
26760.0,3.0,2.4137936,1.0,6.0
26770.0,3.0,2.4232838,1.0,6.0
26780.0,2.0,2.402807,1.0,6.0
26790.0,2.0,2.4269388,1.0,6.0
26800.0,3.0,2.4114637,1.0,6.0
26810.0,3.0,2.4307997,1.0,6.0
26820.0,3.0,2.3774748,1.0,6.0
26830.0,3.0,2.3699818,1.0,6.0
26840.0,3.0,2.3714075,1.0,6.0
26850.0,3.0,2.372081,1.0,6.0
26860.0,4.0,2.27214,1.0,6.0
26870.0,4.0,2.200816,1.0,6.0
26880.0,3.0,2.158317,1.0,6.0
26890.0,3.0,2.1668155,1.0,6.0
26900.0,3.0,2.1609106,1.0,6.0
26910.0,4.0,2.1826477,1.0,6.0
26920.0,3.0,2.1730678,1.0,6.0
26930.0,3.0,2.1709595,1.0,6.0
26940.0,3.0,2.1734893,1.0,6.0
26950.0,3.0,2.2150013,1.0,6.0
26960.0,3.0,2.2195399,1.0,6.0
26970.0,3.0,2.1609583,1.0,6.0
26980.0,2.0,2.2209063,1.0,5.0
26990.0,2.0,2.2214046,1.0,5.0
27000.0,2.0,2.2588923,1.0,5.0
27010.0,2.0,2.2598197,1.0,5.0
27020.0,3.0,2.2669759,1.0,5.0
27030.0,2.0,2.304271,1.0,5.0
27040.0,2.0,2.2779868,1.0,5.0
27050.0,2.0,2.281255,1.0,5.0
27060.0,2.0,2.267962,1.0,5.0
27070.0,2.0,2.2911036,1.0,5.0
27080.0,2.0,2.307874,1.0,5.0
27090.0,1.0,2.2468657,1.0,4.0
27100.0,1.0,2.1832123,1.0,4.0
27110.0,1.0,2.1005251,1.0,3.0
27120.0,1.0,2.1017241,1.0,3.0
27130.0,1.0,2.1072328,1.0,3.0
27140.0,1.0,2.0677125,1.0,3.0
27150.0,1.0,2.0673535,1.0,3.0
27160.0,1.0,2.0726774,1.0,3.0
27170.0,1.0,1.995113,1.0,3.0
27180.0,1.0,1.9973983,1.0,3.0
27190.0,1.0,1.9576517,1.0,2.0
27200.0,1.0,1.950359,1.0,2.0
27210.0,2.0,1.8627667,1.0,2.25
27220.0,2.0,1.8616657,1.0,2.25
27230.0,2.0,1.8020475,1.0,2.25
27240.0,2.0,1.7871629,1.0,2.25
27250.0,2.0,1.791061,1.0,3.0
27260.0,2.0,1.624777,2.0,3.0
27270.0,2.0,1.5883247,2.0,3.0
27280.0,2.0,1.5891367,2.0,3.0
27290.0,3.0,1.4873816,2.0,3.0
27300.0,3.0,1.4768586,2.0,3.0
27310.0,3.0,1.4552401,2.0,3.0
27320.0,3.0,1.3557818,2.0,3.0
27330.0,3.0,1.4325348,2.0,4.0
27340.0,3.0,1.3986962,2.0,4.0
27350.0,3.0,1.3065604,2.0,4.0
27360.0,4.0,1.4225185,2.0,4.0
27370.0,4.0,1.4076874,2.0,4.0
27380.0,4.0,1.4003539,2.0,4.0
27390.0,4.0,1.5459316,2.0,5.0
27400.0,4.0,1.5460527,2.0,5.0
27410.0,4.0,1.5124812,2.0,5.0
27420.0,4.0,1.737405,2.0,5.0
27430.0,4.0,1.6900649,2.0,5.0
27440.0,4.0,1.7231828,2.0,5.0
27450.0,4.0,1.8764126,2.0,6.0
27460.0,4.0,1.8833758,2.0,6.0
27470.0,4.0,1.8773319,2.0,6.0
27480.0,4.0,2.1834204,2.0,6.0
27490.0,4.0,2.1595182,2.0,6.0
27500.0,4.0,2.1846535,2.0,6.0
27510.0,4.0,2.6849775,2.0,7.0
27520.0,5.0,2.717475,2.0,7.0
27530.0,4.0,2.7270672,2.0,7.0
27540.0,4.0,2.7474408,2.0,7.0
27550.0,4.0,2.7308543,2.0,7.0
27560.0,4.0,2.7061176,2.0,7.0
27570.0,4.0,2.6951847,2.0,7.0
27580.0,4.0,2.7066197,2.0,7.0
27590.0,4.0,2.6852014,2.0,7.0
27600.0,4.0,2.6665144,2.0,7.0
27610.0,4.0,2.6680622,2.0,7.0
27620.0,4.0,2.6457634,2.0,7.0
27630.0,4.0,2.629616,2.0,7.0
27640.0,4.0,2.6371052,2.0,7.0
27650.0,4.0,2.6149104,2.0,7.0
27660.0,4.0,2.56609,2.0,7.0
27670.0,4.0,2.5584145,2.0,7.0
27680.0,4.0,2.5416512,2.0,7.0
27690.0,4.0,2.519876,2.0,7.0
27700.0,4.0,2.5261478,2.0,7.0
27710.0,4.0,2.512679,2.0,7.0
27720.0,4.0,2.4836924,2.0,6.0
27730.0,4.0,2.480363,2.0,6.0
27740.0,4.0,2.5520842,2.0,7.0
27750.0,4.0,2.5640666,2.0,7.0
27760.0,4.0,2.5412006,2.0,7.0
27770.0,4.0,2.5433042,2.0,7.0
27780.0,4.0,2.561585,2.0,7.0
27790.0,4.0,2.562215,2.0,7.0
27800.0,3.0,2.5381753,2.0,7.0
27810.0,3.0,2.5573924,2.0,7.0
27820.0,4.0,2.550768,2.0,7.0
27830.0,4.0,2.5031214,2.0,7.0
27840.0,3.0,2.3074226,2.0,6.0
27850.0,3.0,2.3130803,2.0,6.0
27860.0,3.0,2.2844012,2.0,6.0
27870.0,3.0,2.213194,2.0,5.0
27880.0,3.0,2.1553698,2.0,5.0
27890.0,3.0,2.1592126,2.0,5.0
27900.0,3.0,2.1796691,2.0,5.0
27910.0,3.0,2.1626616,2.0,5.0
27920.0,3.0,2.1145327,2.0,5.0
27930.0,3.0,2.0510726,2.0,5.0
27940.0,3.0,2.0272198,2.0,5.0
27950.0,3.0,2.0009332,2.0,5.0
27960.0,3.0,1.9842533,2.0,5.0
27970.0,3.0,1.9719332,2.0,5.0
27980.0,3.0,1.9633623,2.0,5.0
27990.0,3.0,1.923692,2.0,5.0
28000.0,3.0,1.8817775,2.0,5.0
28010.0,3.0,1.8713061,2.0,5.0
28020.0,3.0,1.8551954,2.0,5.0
28030.0,3.0,1.841874,2.0,5.0
28040.0,3.0,1.8333514,2.0,5.0
28050.0,3.0,1.8504286,2.0,5.0
28060.0,3.0,1.8044875,2.0,5.0
28070.0,3.0,1.7784951,2.0,5.0
28080.0,3.0,1.7567754,2.0,5.0
28090.0,3.0,1.7664608,2.0,5.0
28100.0,3.0,1.6999968,2.0,5.0
28110.0,3.0,1.709375,2.0,5.0
28120.0,3.0,1.7445893,2.0,5.0
28130.0,3.0,1.7708503,2.0,5.0
28140.0,3.0,1.7019219,2.0,5.0
28150.0,3.0,1.6555734,2.0,5.0
28160.0,3.0,1.6393708,2.0,5.0
28170.0,3.0,1.6773539,2.0,5.0
28180.0,3.0,1.6984684,2.0,5.0
28190.0,3.0,1.7046334,2.0,5.0
28200.0,3.0,1.6535149,2.0,5.0
28210.0,3.0,1.6451087,2.0,5.0
28220.0,3.0,1.6336619,2.0,5.0
28230.0,3.0,1.5785161,2.0,5.0
28240.0,3.0,1.530629,2.0,5.0
28250.0,3.0,1.5278672,2.0,5.0
28260.0,3.0,1.5250355,2.0,5.0
28270.0,4.0,1.4478273,2.0,5.0
28280.0,4.0,1.3954334,2.0,5.0
28290.0,4.0,1.3963826,2.0,5.0
28300.0,4.0,1.4269795,2.0,5.0
28310.0,4.0,1.3828741,2.0,5.0
28320.0,4.0,1.3464271,2.0,5.0
28330.0,4.0,1.3800998,2.0,5.0
28340.0,4.0,1.4395634,2.0,5.0
28350.0,4.0,1.4451245,2.0,5.0
28360.0,4.0,1.4332355,2.0,5.0
28370.0,4.0,1.4195669,3.0,5.0
28380.0,4.0,1.4364829,3.0,5.0
28390.0,4.0,1.4177101,3.0,5.0
28400.0,4.0,1.3992219,3.0,5.0
28410.0,4.0,1.3597522,3.0,5.0
28420.0,4.0,1.3486124,3.0,5.0
28430.0,4.0,1.3241303,3.0,5.0
28440.0,4.0,1.5195558,3.0,5.0
28450.0,4.0,1.5661601,3.0,5.0
28460.0,4.0,1.555416,3.0,5.0
28470.0,4.0,1.5475236,3.0,5.0
28480.0,4.0,1.5189735,3.0,5.0
28490.0,4.0,1.4812574,3.0,5.0
28500.0,4.0,1.4515102,3.0,5.0
28510.0,4.0,1.4389188,3.0,5.0
28520.0,4.0,1.4460424,3.0,5.0
28530.0,4.0,1.4501454,3.0,6.0
28540.0,4.0,1.4587377,3.0,6.0
28550.0,4.0,1.42951,3.0,6.0
28560.0,4.0,1.432914,3.0,6.0
28570.0,4.0,1.4345732,3.0,6.0
28580.0,4.0,1.4929472,3.0,6.0
28590.0,4.0,1.4952369,3.0,6.0
28600.0,4.0,1.5045847,3.0,6.0
28610.0,5.0,1.5059062,3.0,6.0
28620.0,5.0,1.4873385,3.0,6.0
28630.0,5.0,1.504598,3.0,6.0
28640.0,5.0,1.5217955,3.0,6.0
28650.0,5.0,1.530529,3.0,6.0
28660.0,5.0,1.549503,3.0,6.0
28670.0,5.0,1.5816905,3.0,6.0
28680.0,5.0,1.5930235,3.0,6.0
28690.0,5.0,1.601972,3.0,6.0
28700.0,5.0,1.6051217,3.0,6.0
28710.0,5.0,1.6034505,3.0,6.0
28720.0,4.0,1.590708,3.0,6.0
28730.0,4.0,1.5894653,3.0,6.0
28740.0,4.0,1.5983752,3.0,6.0
28750.0,4.0,1.5844444,3.0,6.0
28760.0,4.0,1.5574965,3.0,6.0
28770.0,4.0,1.5648901,3.0,6.0
28780.0,4.0,1.5738409,3.0,6.0
28790.0,4.0,1.582671,3.0,6.0
28800.0,4.0,1.5914713,3.0,6.0
28810.0,4.0,1.597047,3.0,6.0
28820.0,4.0,1.6044776,3.0,6.0
28830.0,4.0,1.613044,3.0,6.0
28840.0,4.0,1.6513792,3.0,6.0
28850.0,4.0,1.6924634,3.0,6.0
28860.0,4.0,1.70423,3.0,6.0
28870.0,5.0,1.8579447,3.0,7.0
28880.0,4.0,2.1631227,3.0,7.0
28890.0,4.0,2.1351757,3.0,7.0
28900.0,4.0,2.142265,3.0,7.0
28910.0,4.0,2.1602821,3.0,7.0
28920.0,4.0,2.1517258,3.0,7.0
28930.0,4.0,2.1289995,3.0,7.0
28940.0,4.0,2.1142373,3.0,7.0
28950.0,4.0,2.093108,3.0,7.0
28960.0,4.0,2.0477226,3.0,7.0
28970.0,4.0,1.980186,4.0,7.0
28980.0,4.0,1.8802897,4.0,7.0
28990.0,5.0,1.7887847,4.0,7.0
29000.0,5.0,1.7443347,4.0,7.0
29010.0,5.0,1.7259871,4.0,7.0
29020.0,5.0,1.7190343,4.0,7.0
29030.0,5.0,1.7002484,4.0,6.0
29040.0,5.0,1.6842616,4.0,6.0
29050.0,5.0,1.6642246,4.0,6.0
29060.0,5.0,1.6072185,4.0,6.0
29070.0,5.0,1.5676832,4.0,6.0
29080.0,5.0,1.5586274,4.0,6.0
29090.0,5.0,1.502631,4.0,6.0
29100.0,5.0,1.4639755,4.0,6.0
29110.0,5.0,1.4559546,4.0,6.0
29120.0,5.0,1.4299314,4.0,6.0
29130.0,5.0,1.406405,4.0,6.0
29140.0,5.0,1.3888035,4.0,6.0
29150.0,5.0,1.3448416,4.0,6.0
29160.0,5.0,1.2716984,4.0,6.0
29170.0,5.0,1.2034646,4.0,6.0
29180.0,5.0,1.202815,4.0,6.0
29190.0,5.0,1.2111218,4.0,6.0
29200.0,5.0,1.1819606,4.0,6.0
29210.0,5.0,1.1759384,4.0,6.0
29220.0,5.0,1.2121572,4.0,6.0
29230.0,5.0,1.2464797,4.0,6.0
29240.0,5.0,1.2509801,4.0,6.0
29250.0,5.0,1.2421267,4.0,6.0
29260.0,5.0,1.2369171,4.0,6.0
29270.0,5.0,1.2243773,4.0,6.0
29280.0,5.0,1.2187638,4.0,6.0
29290.0,5.0,1.2369514,4.0,6.0
29300.0,5.0,1.2470889,4.0,6.0
29310.0,5.0,1.2311361,4.0,6.0
29320.0,5.0,1.2670138,4.0,6.0
29330.0,5.0,1.3028814,4.0,6.0
29340.0,5.0,1.3159027,4.0,6.0
29350.0,5.0,1.3483901,4.0,6.0
29360.0,5.0,1.3641886,4.0,6.0
29370.0,5.0,1.3428016,4.0,5.0
29380.0,5.0,1.3794876,4.0,5.0
29390.0,5.0,1.436805,4.0,5.0
29400.0,5.0,1.4383932,4.0,6.0
29410.0,5.0,1.437263,4.0,6.0
29420.0,5.0,1.4615616,4.0,6.0
29430.0,5.0,1.4591435,4.0,6.0
29440.0,5.0,1.4729749,4.0,5.0
29450.0,5.0,1.534796,4.0,5.0
29460.0,5.0,1.5763513,4.0,5.0
29470.0,4.0,1.5787032,4.0,5.0
29480.0,4.0,1.579831,4.0,5.0
29490.0,4.0,1.606812,4.0,6.0
29500.0,4.0,1.6440765,4.0,6.0
29510.0,4.0,1.7003483,4.0,6.0
29520.0,4.0,1.7409755,3.0,5.0
29530.0,4.0,1.7287933,3.0,5.0
29540.0,4.0,1.7105001,3.0,6.0
29550.0,4.0,1.7310113,3.0,6.0
29560.0,4.0,1.7648776,3.0,5.0
29570.0,4.0,1.7946192,3.0,5.0
29580.0,4.0,1.8139536,3.0,6.0
29590.0,4.0,1.8293822,3.0,6.0
29600.0,4.0,1.8166109,3.0,5.0
29610.0,3.0,1.8430855,3.0,5.0
29620.0,3.0,1.9095246,3.0,5.0
29630.0,3.0,1.9533468,3.0,6.0
29640.0,3.0,1.9770563,3.0,6.0
29650.0,3.0,1.9969044,3.0,6.0
29660.0,3.0,2.031626,3.0,6.0
29670.0,3.0,2.057572,3.0,6.0
29680.0,3.0,2.10063,3.0,6.0
29690.0,3.0,2.1213663,2.0,6.0
29700.0,3.0,2.1258595,2.0,6.0
29710.0,5.0,1.3703688,4.0,6.0
29720.0,5.0,1.3963141,4.0,6.0
29730.0,5.0,1.378849,4.0,6.0
29740.0,5.0,1.360178,4.0,6.0
29750.0,5.0,1.3483568,4.0,6.0
29760.0,5.0,1.3454928,4.0,6.0
29770.0,5.0,1.3204392,4.0,6.0
29780.0,5.0,1.3422987,4.0,6.0
29790.0,5.0,1.3377634,4.0,6.0
29800.0,5.0,1.3317903,4.0,6.0
29810.0,5.0,1.366938,3.0,6.0
29820.0,5.0,1.3835391,3.0,6.0
29830.0,4.0,1.384332,3.0,6.0
29840.0,4.0,1.3789711,3.0,6.0
29850.0,5.0,1.2354429,3.0,6.0
29860.0,3.0,0.64143467,3.0,4.0
29870.0,3.0,0.65127254,3.0,4.0
29880.0,3.0,0.70996875,3.0,4.0
29890.0,3.0,0.75896734,3.0,4.0
29900.0,3.0,0.80356884,3.0,4.0
29910.0,3.0,0.85029835,3.0,4.0
29920.0,3.0,0.90099096,3.0,4.0
29930.0,4.0,0.90718645,3.0,4.0
29940.0,3.0,0.87913424,2.0,4.0
29950.0,3.0,0.82978576,2.0,4.0
29960.0,3.0,0.87322634,2.0,4.0
29970.0,3.0,0.9408078,2.0,4.0
29980.0,4.0,1.0136993,2.0,4.0
29990.0,4.0,1.0779316,2.0,4.0
30000.0,4.0,1.1197332,2.0,4.0
30010.0,4.0,1.1368243,2.0,4.0
30020.0,3.0,1.1244293,2.0,4.0
30030.0,3.0,1.1574758,2.0,4.0
30040.0,3.0,1.1713338,2.0,4.0
30050.0,3.0,1.1713337,2.0,4.0
30060.0,3.0,1.1996312,2.0,4.0
30070.0,3.0,1.3003762,2.0,5.0
30080.0,3.0,1.3795915,2.0,5.0
30090.0,3.0,1.4063919,2.0,5.0
30100.0,3.0,1.4020004,2.0,5.0
30110.0,3.0,1.3929993,2.0,5.0
30120.0,3.0,1.4361646,2.0,5.0
30130.0,3.0,1.4367228,2.0,5.0
30140.0,3.0,1.4942112,2.0,5.0
30150.0,3.0,1.5718119,2.0,5.0
30160.0,3.0,1.6224654,2.0,5.0
30170.0,3.0,1.6434796,2.0,5.0
30180.0,3.0,1.6635468,2.0,5.0
30190.0,3.0,1.6606025,2.0,5.0
30200.0,3.0,1.6670145,2.0,5.0
30210.0,3.0,1.6253383,2.0,5.0
30220.0,3.0,1.6128024,2.0,4.0
30230.0,3.0,1.6152191,2.0,4.0
30240.0,3.0,1.6074117,2.0,4.0
30250.0,3.0,1.6182004,2.0,4.0
30260.0,3.0,1.63482,2.0,4.0
30270.0,3.0,1.6363914,2.0,4.0
30280.0,2.0,1.6368504,2.0,4.0
30290.0,2.0,1.6255177,2.0,4.0
30300.0,2.0,1.6168488,2.0,4.0
30310.0,3.0,1.6880512,2.0,4.0
30320.0,3.0,1.6998812,2.0,3.0
30330.0,2.0,1.6943508,2.0,3.0
30340.0,2.0,1.6790309,2.0,3.0
30350.0,2.0,1.6772058,2.0,3.0
30360.0,2.0,1.6755596,1.0,3.0
30370.0,2.0,1.6590596,1.75,3.0
30380.0,2.0,1.6371394,2.0,3.0
30390.0,3.0,1.6205758,2.0,4.0
30400.0,3.0,1.66767,2.0,4.0
30410.0,3.0,1.7248296,1.0,4.0
30420.0,3.0,1.7145635,1.0,4.0
30430.0,3.0,1.7183477,1.0,4.0
30440.0,3.0,1.7476692,1.0,4.0
30450.0,3.0,1.8086556,1.0,4.0
30460.0,3.0,1.807341,1.0,4.0
30470.0,3.0,1.8159554,1.0,4.0
30480.0,3.0,1.862429,1.0,4.0
30490.0,3.0,1.9084139,1.0,4.0
30500.0,3.0,1.9858049,1.0,5.0
30510.0,3.0,1.9493959,1.0,4.0
30520.0,3.0,1.9105146,1.0,4.5
30530.0,3.0,1.8852216,1.0,5.0
30540.0,3.0,1.9055203,1.0,5.0
30550.0,3.0,1.9358089,1.0,5.0
30560.0,3.0,1.9151664,2.0,5.0
30570.0,3.0,1.9054384,2.0,5.0
30580.0,3.0,1.9471602,2.0,5.0
30590.0,3.0,1.9924783,1.0,5.0
30600.0,3.0,2.0207217,1.0,5.0
30610.0,3.0,1.9992436,1.0,5.0
30620.0,4.0,1.9914099,2.0,5.0
30630.0,4.0,2.030079,2.0,5.0
30640.0,4.0,2.0552983,2.0,5.0
30650.0,4.0,2.0422018,2.0,5.0
30660.0,4.0,2.023145,2.0,5.0
30670.0,4.0,2.009248,2.0,5.0
30680.0,4.0,2.0546644,2.0,5.0
30690.0,4.0,2.089308,2.0,5.0
30700.0,4.0,2.1360147,2.0,6.0
30710.0,4.0,2.146815,2.0,6.0
30720.0,4.0,2.1248765,2.0,6.0
30730.0,4.0,2.0788856,2.0,6.0
30740.0,4.0,2.0593295,2.0,6.0
30750.0,4.0,2.05411,2.0,6.0
30760.0,4.0,2.0385857,2.0,6.0
30770.0,4.0,2.047621,2.0,6.0
30780.0,4.0,2.0767705,2.0,6.0
30790.0,4.0,2.10573,2.0,6.0
30800.0,4.0,2.0961435,2.0,6.0
30810.0,4.0,2.0959303,2.0,6.0
30820.0,4.0,2.100954,2.0,6.0
30830.0,4.0,2.1019049,2.0,6.0
30840.0,4.0,2.1054778,2.0,6.0
30850.0,4.0,2.096608,2.0,6.0
30860.0,4.0,2.0560043,2.0,6.0
30870.0,4.0,2.0468411,2.0,6.0
30880.0,4.0,2.0523942,2.0,6.0
30890.0,4.0,2.0823011,2.0,6.0
30900.0,4.0,2.0214045,2.0,6.0
30910.0,5.0,2.042106,2.0,6.0
30920.0,5.0,2.0605187,2.0,6.0
30930.0,5.0,2.0697079,2.0,6.0
30940.0,5.0,2.0277548,2.5,7.0
30950.0,4.0,2.0050871,3.0,7.0
30960.0,4.0,1.9985497,3.0,6.0
30970.0,4.0,1.9543287,3.0,6.0
30980.0,4.0,1.9521136,3.0,6.0
30990.0,4.0,1.9634379,3.0,6.0
31000.0,5.0,1.9883877,3.0,6.0
31010.0,5.0,1.9833295,3.0,6.0
31020.0,5.0,1.9883407,3.0,7.0
31030.0,5.0,1.9810572,3.0,7.0
31040.0,5.0,1.9489373,3.0,7.0
31050.0,5.0,1.9176896,3.0,6.0
31060.0,5.0,1.9253067,3.0,6.0
31070.0,5.0,1.925247,3.0,6.0
31080.0,5.0,1.9495435,3.0,6.0
31090.0,5.0,1.9513236,3.0,6.0
31100.0,5.0,1.9710382,3.0,7.0
31110.0,5.0,1.975202,3.0,7.0
31120.0,5.0,1.9737877,3.0,7.0
31130.0,5.0,1.9684814,3.0,7.0
31140.0,5.0,1.9577047,3.0,7.0
31150.0,5.0,1.9400071,3.0,7.0
31160.0,5.0,1.9368368,3.0,7.0
31170.0,5.0,1.9353695,3.0,7.0
31180.0,5.0,1.9415059,3.0,7.0
31190.0,5.0,1.9634659,3.0,7.0
31200.0,5.0,1.9148068,3.0,7.0
31210.0,5.0,1.8897074,3.0,6.0
31220.0,5.0,1.8901945,3.0,6.0
31230.0,5.0,1.8533651,3.0,6.0
31240.0,5.0,1.8600253,3.0,6.0
31250.0,4.0,1.8583968,3.0,6.0
31260.0,4.0,1.9140517,2.0,6.0
31270.0,4.0,1.8986634,2.0,6.0
31280.0,4.0,1.8817041,2.0,6.0
31290.0,4.0,1.8827677,2.0,6.0
31300.0,4.0,1.8621277,2.0,6.0
31310.0,4.0,1.8762546,2.0,6.0
31320.0,4.0,1.8706472,2.0,6.0
31330.0,4.0,1.8752197,2.0,6.0
31340.0,4.0,1.8866414,2.0,6.0
31350.0,4.0,1.9255899,2.0,6.0
31360.0,4.0,1.9640465,2.0,6.0
31370.0,4.0,1.9692256,2.0,6.0
31380.0,4.0,1.9766836,2.0,6.0
31390.0,4.0,1.9958022,2.0,5.0
31400.0,4.0,1.9598316,2.0,5.0
31410.0,3.0,1.9556998,2.0,5.0
31420.0,3.0,1.9805633,2.0,5.0
31430.0,3.0,1.9928092,2.0,5.0
31440.0,3.0,2.0112364,2.0,5.0
31450.0,3.0,2.03394,2.0,5.0
31460.0,3.0,2.0600688,2.0,5.0
31470.0,3.0,2.0894518,2.0,5.0
31480.0,3.0,2.0969405,2.0,5.0
31490.0,3.0,2.1700056,2.0,5.0
31500.0,4.0,2.1212468,2.0,6.0
31510.0,4.0,2.0827324,2.0,6.0
31520.0,4.0,2.106344,2.0,6.0
31530.0,4.0,2.0922132,2.0,6.0
31540.0,4.0,2.0684097,2.0,6.0
31550.0,4.0,2.0929272,2.0,6.0
31560.0,4.0,2.1216183,2.0,6.0
31570.0,4.0,2.134089,2.0,6.0
31580.0,3.0,2.1348536,2.0,6.0
31590.0,3.0,2.1602137,2.0,6.0
31600.0,3.0,2.174713,2.0,5.0
31610.0,3.0,2.1685345,2.0,5.0
31620.0,3.0,2.1957266,1.0,5.0
31630.0,3.0,2.1825578,1.0,5.0
31640.0,3.0,2.163888,1.0,5.0
31650.0,3.0,2.156497,1.0,5.0
31660.0,3.0,2.1409445,1.0,5.0
31670.0,3.0,2.1330802,1.0,5.0
31680.0,3.0,2.12367,2.0,5.0
31690.0,3.0,2.097713,2.0,5.0
31700.0,3.0,2.083369,2.0,5.0
31710.0,3.0,2.0747974,2.0,5.0
31720.0,3.0,2.0805707,1.0,5.0
31730.0,3.0,2.0817971,1.0,5.0
31740.0,3.0,2.0417826,1.0,5.0
31750.0,3.0,2.0024662,2.0,5.0
31760.0,3.0,1.991791,2.0,5.0
31770.0,3.0,1.9874797,2.0,5.0
31780.0,3.0,2.010389,1.0,5.0
31790.0,3.0,1.9814541,1.0,5.0
31800.0,3.0,1.8993378,2.0,5.0
31810.0,3.0,1.8547786,2.0,5.0
31820.0,3.0,1.7924432,2.0,5.0
31830.0,3.0,1.773453,2.0,5.0
31840.0,3.0,1.7693219,2.0,5.0
31850.0,2.0,0.8865434,1.0,3.0
31860.0,2.0,0.9003101,1.0,3.0
31870.0,2.0,0.93528956,1.0,3.0
31880.0,2.0,0.9312645,1.0,3.0
31890.0,2.0,0.91253525,1.0,3.0
31900.0,2.0,0.94377565,1.0,3.0
31910.0,2.0,0.98930603,1.0,3.0
31920.0,2.0,1.0278999,1.0,3.0
31930.0,2.0,1.0655684,1.0,3.0
31940.0,2.0,1.0793177,1.0,3.0
31950.0,2.0,1.0057067,1.0,3.0
31960.0,2.0,0.94377565,1.0,3.0
31970.0,2.0,0.93773985,1.0,3.0
31980.0,2.0,0.98985386,1.0,3.0
31990.0,2.0,1.0300733,1.0,3.0
32000.0,2.0,1.0416309,2.0,3.0
32010.0,2.0,0.99919516,2.0,3.0
32020.0,2.0,0.97920716,2.0,3.0
32030.0,2.0,1.0255609,2.0,3.0
32040.0,2.0,1.089989,2.0,3.0
32050.0,2.0,1.1280941,2.0,3.0
32060.0,2.0,1.108511,2.0,3.0
32070.0,3.0,1.0735903,2.0,3.0
32080.0,2.0,1.0846561,2.0,3.0
32090.0,2.0,1.1864864,2.0,3.0
32100.0,2.0,1.300441,2.0,3.0
32110.0,2.0,1.3276248,2.0,3.0
32120.0,2.0,1.285412,2.0,3.0
32130.0,2.0,1.2977213,2.0,3.0
32140.0,2.0,1.3854151,2.0,3.0
32150.0,2.0,1.4935994,2.0,3.0
32160.0,2.0,1.4850694,2.0,4.0
32170.0,2.0,1.4763662,2.0,4.0
32180.0,3.0,2.1804729,2.0,5.0
32190.0,3.0,2.2257545,2.0,4.0
32200.0,3.0,2.2312121,2.0,4.0
32210.0,3.0,2.205738,2.0,4.0
32220.0,3.0,2.0396118,2.0,4.0
32230.0,3.0,2.009057,2.0,4.0
32240.0,3.0,1.9989588,2.0,4.0
32250.0,3.0,2.004155,2.0,4.0
32260.0,3.0,2.0384133,2.0,4.0
32270.0,3.0,2.023351,2.0,4.0
32280.0,3.0,1.9664749,2.0,4.0
32290.0,3.0,1.990264,2.0,4.0
32300.0,3.0,1.9926844,2.0,4.0
32310.0,3.0,1.9743047,2.0,4.0
32320.0,3.0,1.9095755,2.0,4.0
32330.0,3.0,1.9197893,2.0,4.0
32340.0,3.0,1.8373852,2.0,4.0
32350.0,3.0,1.862216,2.0,4.0
32360.0,3.0,1.8723236,2.0,4.0
32370.0,3.0,1.8824706,2.0,4.0
32380.0,3.0,1.7498678,2.0,4.0
32390.0,3.0,1.7602881,2.0,4.0
32400.0,3.0,1.6469362,2.0,3.0
32410.0,3.0,1.5951823,2.0,4.0
32420.0,3.0,1.6442257,2.0,4.0
32430.0,3.0,1.6076455,2.0,4.0
32440.0,3.0,1.4444431,2.0,4.0
32450.0,3.0,1.445545,2.0,4.0
32460.0,3.0,1.4366376,2.0,4.0
32470.0,3.0,1.2652621,2.0,4.0
32480.0,3.0,1.2460883,2.0,3.0
32490.0,3.0,1.21043,2.0,3.0
32500.0,3.0,1.1316111,2.0,3.0
32510.0,3.0,1.1965635,2.0,4.0
32520.0,3.0,1.2013454,2.0,4.0
32530.0,3.0,1.1514924,2.0,4.0
32540.0,3.0,1.1580237,2.0,4.0
32550.0,2.0,1.1609237,2.0,4.0
32560.0,2.0,1.0676024,2.0,3.0
32570.0,2.0,1.098533,2.0,3.0
32580.0,2.0,1.0971668,2.0,3.0
32590.0,2.0,1.0159327,2.0,3.0
32600.0,2.0,1.0288712,2.0,3.0
32610.0,2.0,1.0441532,2.0,3.0
32620.0,2.0,0.94925445,2.0,3.0
32630.0,2.0,0.828297,2.0,3.0
32640.0,2.0,0.85485375,2.0,3.0
32650.0,2.0,0.8649156,2.0,3.0
32660.0,2.0,0.9895167,2.0,3.0
32670.0,2.0,1.0138426,2.0,3.0
32680.0,2.0,1.0071164,2.0,3.0
32690.0,2.0,1.097484,2.0,3.0
32700.0,2.0,1.1087532,2.0,3.0
32710.0,2.0,1.1080588,2.0,3.0
32720.0,2.0,1.1077454,2.0,3.0
32730.0,2.0,1.1282371,2.0,4.0
32740.0,2.0,1.1193999,2.0,4.0
32750.0,2.0,1.1576661,2.0,4.0
32760.0,2.0,1.1979567,2.0,4.0
32770.0,2.0,1.1957253,2.0,4.0
32780.0,2.0,1.3191934,2.0,4.0
32790.0,2.0,1.3544117,2.0,4.0
32800.0,2.0,1.404057,2.0,4.0
32810.0,2.0,1.5082457,2.0,4.0
32820.0,2.0,1.5322014,2.0,4.0
32830.0,2.0,1.5717814,2.0,4.0
32840.0,2.0,1.5716375,2.0,4.0
32850.0,2.0,1.6013545,2.0,4.0
32860.0,2.0,1.5518347,2.0,4.0
32870.0,2.0,1.5351089,2.0,4.0
32880.0,2.0,1.583343,2.0,4.0
32890.0,2.0,1.583343,2.0,4.0
32900.0,2.0,1.4751834,2.0,4.0
32910.0,2.0,1.4730076,2.0,4.0
32920.0,2.0,1.4748555,2.0,4.0
32930.0,2.0,1.4702685,2.0,4.0
32940.0,2.0,1.470671,2.0,4.0
32950.0,2.0,1.5045735,2.0,4.0
32960.0,2.0,1.488575,2.0,4.0
32970.0,2.0,1.4403764,2.0,4.0
32980.0,2.0,1.4066434,2.0,4.0
32990.0,2.0,1.4058095,2.0,4.0
33000.0,2.0,1.3502564,2.0,4.0
33010.0,2.0,1.3513784,2.0,4.0
33020.0,2.0,1.3598995,2.0,4.0
33030.0,2.0,1.3588233,2.0,4.0
33040.0,2.0,1.35854,2.0,4.0
33050.0,2.0,1.325289,2.0,4.0
33060.0,3.0,1.2078345,2.0,4.0
33070.0,3.0,1.1586595,2.0,4.0
33080.0,3.0,1.085759,2.0,4.0
33090.0,3.0,1.0833855,2.0,4.0
33100.0,3.0,1.0218108,2.0,4.0
33110.0,3.0,1.0139661,2.0,4.0
33120.0,3.0,0.9358487,2.0,4.0
33130.0,3.0,0.90505195,2.0,4.0
33140.0,3.0,0.8954288,2.0,4.0
33150.0,3.0,0.73534274,3.0,4.0
33160.0,3.0,0.671356,3.0,4.0
33170.0,3.0,0.66729003,3.0,4.0
33180.0,3.0,0.6657897,3.0,4.0
33190.0,3.0,0.6377139,3.0,4.0
33200.0,3.0,0.6367543,3.0,4.0
33210.0,3.0,0.6361439,3.0,4.0
33220.0,3.0,0.53633666,3.0,3.0
33230.0,3.0,0.54455924,3.0,3.0
33240.0,3.0,0.5203604,3.0,3.0
33250.0,3.0,0.518957,2.0,3.0
33260.0,3.0,0.516501,2.0,3.0
33270.0,3.0,0.4319966,3.0,3.0
33280.0,3.0,0.45781982,2.0,3.0
33290.0,3.0,0.4836021,2.0,3.0
33300.0,3.0,0.49562484,2.0,3.0
33300.0,3.0,0.49562484,2.0,3.0
33300.0,3.0,0.4959432,2.0,3.0
