Av_ID,River,Year,From,L_A [km],L_A_error [km],Upstream S [-],Upstream S_IQR [-],Downstream S [-],Downstream S_IQR [-],Immediate Upstream S [-],Immediate Upstream S_IQR [-],Total Rise Over Run,Width [m],Width_std [m],S (recorded) [-],S_IQR (recorded) [-],D50 [m] (recorded),Hbf [m] (recorded),Hbf_std [m] (recorded),Cf,L_A (recorded) [km],L_A_error (recorded) [km],L_b [km],L_b_std_dev [km],Tscour [months],Tscour st.dev,Tscour std. err.,L_scour [km],L_scour_std_dev [km],T_e*,T_e* std_dev,T_e* std_err,discharge [cms],WBMSed Qs [kgs],Country,Latitude,Longitude
AFR0211_1998,Catumbela,1998,study,2.049,0,0.0009125784395245,0.0001932977202439,0.0009125784395245,0.0001934476171283,0.0009125784395245,0.0001932977202439,0.0010055865921787,160.0,29.18650119236377,,,,,,,,,,,,,,,,,,,215.65,70.973751,,,
ANGO2_2003,Coporolo,2003,study,16.376,0,0.0022374292374292,9.324009324082268e-05,0.0016946386946378,3.779553779552358e-05,0.002115551115551,7.442557442539129e-05,0.001855976243504,226.36363636363637,54.40132472864429,,,,,,,,,,,,,,,,,,,105.525,46.663293,,,
ARG_001_2001,Sali,2001,study,17.141,0,0.0007027972027967,0.0001048951049014,0.0006103896103917,0.0001358641358646,0.0007027972027967,0.0001048951049014,0.0007624534056252,75.0,0.0,,,,,,,,,,,,,,,,,,,89.299,,,,
BS0115_1995,,2004,study,116.592,0,0.014931381118881,0.0097605831668333,0.0003905427905427,0.0002496253746253,0.0016402659840158,0.0003060897435899,0.0017776598567259,88.57142857142857,13.899542399358499,,,,,,,,,,,,,,,,,,,329.187,,,,
CA0067_1986,Kura,1995,study,7.78,0,0.0001978021978023,3.912753912790852e-05,0.0001098901098899,8.041958041962022e-05,0.0001978021978023,3.912753912790852e-05,0.0001434948979591,94.85714285714286,17.94777002804504,,,,,,,,,,,,,,,,,,,703.485,1010.054221,,,
CA0194_2007,Motagua,1986,study,23.647,0,0.0002090409590409,2.9886779886757867e-05,0.000196928071928,6.699550449553118e-05,5.094905094904845e-05,9.990009990057435e-07,0.0002806361085126,37.74193548387097,11.559014753012205,,,,,,,,,,,,,,,,,,,309.492,142.782421,,,
CASP1_1991,Samala,2007,study,2.459,0,0.0020529470529469,0.0001528643901009,0.0022908038069714,0.0,0.0020529470529469,0.0001528643901009,0.0025561921551344,131.9047619047619,34.45066142416366,,,,,,,,,,,,,,,,,,,75.97,46.951726,,,
CHI_001_1992,,2002,study,4.316,0,0.0073538961038972,0.0004085914085963,0.0022312310444046,8.673617379884035e-19,0.0040692640692637,0.0005716783216778,0.0088943288453692,50.0,0.0,,,,,,,,,,,,,,,,,,,0.424,,,,
CON_001_2013,Sefid Rud,1991,study,3.43,0,0.0005774225774227,1.6783216783117965e-05,0.000106908660202,0.0,0.0004243756243759,7.512487512429544e-05,0.0004783417486048,35.0,0.0,,,,,,,,,,,,,,,,,,,313.827,434.175287,,,
CON_002,,1992,study,3.717,0,0.0008441558441433,7.2427572428353e-05,0.0005030945102799,0.0,0.0008341658341691,7.692307691769434e-05,0.0010631001371742,54.0,0.0,,,,,,,,,,,,,,,,,,,0.267,,DRC,-0.6407079487093661,29.45385056375866
JAVA12_1985,,2013,study,1.837,0,0.0014845992331032,5.683387788169014e-16,0.0014845992331015,0.0,0.0014845992331032,5.683387788169014e-16,0.0006172839506172,113.80952380952381,10.900498230723425,,,,,,,,,,,,,,,,,,,235.881,,,,
JAVA2_1984,,0,study,6.257,0,0.0007137862137778,1.2487512490224672e-05,0.0003871128871179,2.947052946922213e-05,0.0004905094905103,9.990009993430268e-06,0.000698951572641,67.14285714285714,14.603605928757766,,,,,,,,,,,,,,,,,,,40.428,,,,
JAVA3_1992,Danube,0,global,125.242,0,3.077755577755174e-05,4.53712953712696e-06,5.5902430902414015e-06,2.301864801864672e-06,3.077755577755174e-05,4.53712953712696e-06,5.19279637609104e-05,26.896551724137932,12.346561234460797,5e-05,0.0,0.0003,6.3,0.0,0.002,95.0,0.0,126.0,0.0,2.07,1.2,0.18,16.89,6.88,0.00067,6e-05,0.0,6750.823,4294.8,,,
JAVA4_1973,,1999,study,0.71,0,0.0016183816183816,0.0015129870129871,0.0009344834805912,2.1684043449710093e-18,0.0009344834805912,2.1684043449710093e-18,0.0030210454854039,74.78260869565217,16.906280082803114,,,,,,,,,,,,,,,,,,,12.981,,,,
JAVA5_1995,Fiherenana,2001,madagascar,4.603,0,0.002432835914086,0.0001869692807193,0.0021737973403841,3.622995567306936e-05,0.0021737973403841,4.336808689942019e-19,0.0028288100208768,46.92307692307692,11.800444614362926,0.002231,0.000394966,9e-05,0.44,0.13,0.01,5.24,0.0,0.197,0.07,1.52,0.73,0.18,9.08,3.37,337.15147,107.41287,0.75952367,16.847,14.932989,,,
JAVA5_1998,Huanghe,1930,global,85.853,0,0.0001017164653528,9.06366360912226e-06,7.448914721641341e-05,1.3622740895482133e-05,8.900190718374193e-05,7.265461810928222e-06,0.0001182754673788,46.92307692307692,11.800444614362926,6.4e-05,0.0,9e-05,2.6,0.0,0.002,51.6,17.3,40.625,0.0,1.85,0.98,0.19,29.87,6.98,0.08546,0.00892,6e-05,1487.912,7281.5,,,
JAVA5_2018,,1990,study,56.097,0,0.0004330669330674,0.0001833166833169,0.0003716283716276,1.3986013986340092e-05,0.0004330669330674,0.0001833166833169,0.0005176325469724,46.92307692307692,11.800444614362926,,,,,,,,,,,,,,,,,,,395.818,,,,
JAVA6_2010,,2009,study,6.987,0,0.0005274725274725,8.691308691311406e-05,0.0004709254817039,2.1645021644918754e-06,0.0004000999000999,6.19380619381671e-05,0.0011108305983337,63.05555555555556,19.553266911531182,,,,,,,,,,,,,,,,,,,53.989,,,,
JAVA7_1982,,0,study,2.4,0,0.0043826173826176,7.842157842128869e-05,0.0025480639121357,8.673617379884035e-19,0.0026983016983016,4.352701490074797e-05,0.0054307648564117,37.857142857142854,10.473484499010842,,,,,,,,,,,,,,,,,,,3.241,,,,
JAVA7_1990,,1994,study,6.18,0,0.0521618381618372,0.0038519813519775,0.0177435608278946,5.110148459328348e-05,0.0226931401931405,0.0008819180819195,0.0417326502095947,37.857142857142854,10.473484499010842,,,,,,,,,,,,,,,,,,,8.362,,,,
JAVA7_2010,,1998,study,207.24,0,0.0005518481518479,0.0001084582084584,0.0001618381618377,0.0002103230103234,0.0005518481518479,0.0001084582084584,0.0005163246473612,37.857142857142854,10.473484499010842,,,,,,,,,,,,,,,,,,,397.754,,,,
JAVA8_2018,,1990,study,13.006,0,0.0293291708291614,0.0020195637695779,0.0082021312021296,0.0007256077256062,0.0187352647352591,0.0007101232101085,0.0206843521722414,54.074074074074076,10.63162969956098,,,,,,,,,,,,,,,,,,,13.704,,,,
JAVA9_2014,,1989,study,9.47,0,0.0087968697968761,6.393606393942201e-05,0.0060453462704958,0.0003063020811581,0.0087968697968761,6.393606393942201e-05,0.0082838479809976,41.76470588235294,7.463869141440894,,,,,,,,,,,,,,,,,,,3.193,,,,
KAZ_001_1993,,1997,study,3.14,0,0.007760406260406,0.0003018981018985,0.0032746439189552,3.794751605682356e-05,0.0038966866466867,0.0001300532800533,0.0122351923908344,55.0,0.0,,,,,,,,,,,,,,,,,,,0.0,,,,
KAZ_007_2020,,2007,study,8.487,0,0.0045412587412592,0.0003768731268722,0.0017946676078412,1.0842021724855044e-18,0.003463786213786,0.0002025974025971,0.0035348610433934,23.0,0.0,,,,,,,,,,,,,,,,,,,7.788,,,,
KAZ_014_2011,,2001,study,1.469,0,0.008377622377622,0.0005704295704293,0.005495133608906,9.54097911787244e-18,0.005495133608906,1.8214596497756478e-17,0.0108683473389355,160.0,0.0,,,,,,,,,,,,,,,,,,,7.046,,,,
KEN_001_1989,,2000,study,4.037,0,0.0028368774083062,0.0002824318538602,0.0025378130851184,9.491259873574408e-05,0.0026326530612245,6.693306693320673e-05,0.0026321709786276,119.0,0.0,,,,,,,,,,,,,,,,,,,4.142,,,,
MALAWI1_2014,,2005,study,6.05,0,0.0077177822177819,4.2857142856734566e-05,0.0061149760419221,7.627746255789436e-06,0.0077177822177819,4.2857142856734566e-05,0.0087793144918821,125.83333333333333,57.439581784302334,,,,,,,,,,,,,,,,,,,0.75,,,,
PI0019_1989,,1989,study,3.041,0,0.0039960039960032,0.0,0.0035991780674415,0.0,0.0035704295704292,0.0,0.0064446500154178,83.10344827586206,20.359433681552428,,,,,,,,,,,,,,,,,,,12.984,,,,
PI0209_2006,,1994,study,4.3,0,0.0019378121878123,6.542207792200618e-05,0.0010742585159351,0.0003303695718577,0.001574925074925,0.0005718947718948,0.0020347508001828,60.294117647058826,21.48669822685751,,,,,,,,,,,,,,,,,,,19.413,,,,
PI0769_1982,,2008,study,235.633,0,0.0020684115884116,0.0024133597172059,0.0004538661338664,6.09774840539274e-05,0.0005982817182816,0.0002841835087992,0.0006911474986273,154.58333333333334,53.383765218359116,,,,,,,,,,,,,,,,,,,1666.071,,,,
RUS_002_1988,,1989,study,1.82,0,0.0352248362748359,0.0138000682813043,0.022321361273457,3.469446951953614e-18,0.0249528804528812,0.0092093666333681,0.0294386422976501,50.0,0.0,,,,,,,,,,,,,,,,,,,8.218,,,,
RUS_002_1996,,2004,study,2.207,0,0.0095564435564448,0.0012152847152837,0.0069981515490497,0.0,0.0069898765904753,0.0003697799206791,0.0109413965087281,50.0,0.0,,,,,,,,,,,,,,,,,,,12.096,,,,
SA0210_1996,,2004,study,33.814,0,0.0084074925074927,0.0012314685314681,0.002107292707294,0.0001007992007984,0.0072549950049952,0.0046836163836164,0.0039194753698337,53.18181818181818,13.275528969554758,,,,,,,,,,,,,,,,,,,339.139,,,,
SA0505_1999,,2002,study,0.98,0,0.0271839418066963,3.4694469519536136e-17,0.0176695621743526,0.0,0.0271839418066963,3.4694469519536136e-17,0.024602510460251,89.52380952380952,7.853534524986019,,,,,,,,,,,,,,,,,,,10.248,,,,
SUMA2_2005,,2012,study,0.76,0,0.0312102897102893,0.0045791708291724,0.0223971704941764,0.0,0.0223971704941764,2.775557561562892e-17,0.0231605351170568,85.45454545454545,15.876590178702708,,,,,,,,,,,,,,,,,,,12.42,,,,
TAN_002_2011,,1996,study,0.77,0,0.0070944055944055,0.0010266400266398,0.0039404323421089,0.0,0.004076309319423,4.157682836128125e-05,0.0076255131038838,16.0,0.0,,,,,,,,,,,,,,,,,,,22.643,,,,
TKMN_001_2008,,1998,study,5.916,0,0.0042257742257738,0.0001558441558455,0.0030829170829168,0.0002522477522477,0.0037859640359641,4.0584415584668e-05,0.0164104534973097,140.0,0.0,,,,,,,,,,,,,,,,,,,10.239,,,,
TURK_001_1993,,0,study,3.899,0,0.0027773892773891,0.0028014853410064,0.0016872887960343,2.212707452226058e-06,0.0016610662065207,0.000290626040626,0.0027134348113831,40.0,0.0,,,,,,,,,,,,,,,,,,,2.064,,,,
TURK_002_1991,,1989,study,1.186,0,0.0062337662337657,0.0004965034965044,0.0045573516304055,8.673617379884035e-18,0.0045573516304055,0.0,0.0084269662921348,70.0,0.0,,,,,,,,,,,,,,,,,,,7.89,,,,
UZB_001_1994,Bengawan Solo,1985,study,27.986,0,0.0003992015968063,0.0,4.316367265469088e-05,0.0001056636726546,0.0002095808383233,3.5928143712582456e-05,0.0001647717910693,12.0,0.0,,,,,,,,,,,,,,,,,,,453.486,230.957492,,,
VENEZ1_1982,Serang,1984,study,6.135,0,0.0003739188290086,5.788423153693542e-05,0.000188123752495,0.0001564371257485,0.0001447105788423,0.0001350632069194,0.0002151694459386,101.9047619047619,18.157786633273922,,,,,,,,,,,,,,,,,,,130.459,9.786966,,,
VENEZ2_1986,Bodri,1992,study,1.648,0,0.0006007984031936,2.45029690981724e-17,8.014867476205057e-05,8.014867476204167e-05,8.014867476205057e-05,8.014867476204167e-05,0.0008997955010224,29.047619047619047,10.647942749998998,,,,,,,,,,,,,,,,,,,34.163,8.986303,,,
VENEZ2_2009,Comal,1973,study,4.209,0,0.0010788423153692,0.000367265469062,0.0001477045908183,0.0001960947427853,0.0010788423153692,0.000367265469062,0.0006276150627615,29.047619047619047,10.647942749998998,,,,,,,,,,,,,,,,,,,53.139,13.816608,,,
JAVA5_1995,Kelampis,1995,study,2.359,0,0.0001996007984032,3.542914171657309e-05,0.0001585609657179,4.955030178686482e-05,0.0001982012071474,2.222614453595284e-18,0.0005716798592788,,,,,,,,,,,,,,,,,,,,,58.709,10.737281,,,
JAVA5_1998,Kelampis,1998,study,4.468,0,0.0002115768463073,7.984031936126846e-05,0.0001551896207584,4.515968063871999e-05,0.0002115768463073,7.984031936126846e-05,0.0005598621877691,,,,,,,,,,,,,,,,,,,,,58.709,10.737281,,,
JAVA5_2018,Kelampis,2018,study,2.836,0,0.0003693250312124,0.0001063975634388,0.0002228594603621,0.0,0.0003693250312124,0.0001063975634388,0.000557939914163,,,,,,,,,,,,,,,,,,,,,58.709,10.737281,,,
JAVA6_2010,Cirambatan Baru,2010,study,1.94,0,0.000189620758483,9.314703925482727e-05,7.252162341980931e-05,0.0,7.252162341980931e-05,0.0,0.0006425948592411,,,,,,,,,,,,,,,,,,,,,197.437,59.557427,,,
JAVA7_1982,Cikandung,1982,study,2.779,0,0.0003992015968063,0.0001317365269461,0.000165035904287,0.0,0.0003992015968063,0.0001317365269461,0.0002605863192182,,,,,,,,,,,,,,,,,,,,,59.538,16.393808,,,
JAVA7_1990,Cikandung,1990,study,1.608,0,0.0003992015968063,5.73852295409183e-05,5.588822355291123e-05,0.0,5.588822355291123e-05,0.0,0.0003182686187141,,,,,,,,,,,,,,,,,,,,,59.538,16.393808,,,
JAVA7_2010,Cikandung,2010,study,1.22,0,0.00037624750499,5.43912175648742e-05,0.0001087824351297,0.0,0.0001087824351297,0.0,0.0003442340791738,,,,,,,,,,,,,,,,,,,,,63.028,16.393808,,,
JAVA8_2018,Kali Cbl,2018,study,1.948,0,0.0003245033112582,0.0,9.968630184733265e-05,0.0,9.96863018473332e-05,0.0003531334959916,0.0003252032520325,,,,,,,,,,,,,,,,,,,,,64.128,25.198519,,,
JAVA9_2014,Cisadane,2014,study,2.359,0,0.0007501899298306,2.2768245622195597e-18,0.0003750949649153,0.0,0.0007501899298306,2.2768245622195597e-18,0.0005076142131979,,,,,,,,,,,,,,,,,,,,,101.746,10.61608,,,
KAZ_001_1993,,1993,study,2.899,0,0.0005129870129874,3.8711288706281296e-05,0.0005082534232235,0.0,0.0005129870129874,3.8711288706281296e-05,0.000337113086117,,,,,,,,,,,,,,,,,,,,,92.662,,,,
KAZ_007_2020,,2020,study,4.147,0,0.0008976023976035,1.4985014982471772e-06,0.0007158803830839,1.6737609689130304e-05,0.0008006993007003,2.847152847181174e-05,0.0010240655401945,,,,,,,,,,,,,,,,,,,,,4.951,,,,
KAZ_014_2011,,2011,study,9.067,0,0.0019680319680302,8.857808857838396e-05,0.0001201298701299,2.031302031313409e-05,0.0019680319680302,8.857808857838396e-05,0.0003284746458632,,,,,,,,,,,,,,,,,,,,,361.755,,,,
KEN_001_1989,,1989,study,22.945,0,0.0005061605061611,0.000152264402263,1.2237762237911435e-05,2.6764901764835265e-05,0.0002157842157845,0.00014652014652,0.0002368677720496,,,,,,,,,,,,,,,,,,,,,901.531,,,,
MAGDALENA,Magdalena,0,global,85.906,0,7.751214302938455e-05,8.74298115676844e-06,3.805504839987244e-05,1.3028350959391958e-05,1.1329188053323028e-05,8.254676358122566e-06,5.89050589050589e-05,850.0,0.0,9.5e-05,0.0,0.00035,6.0,0.0,0.002,67.0,0.0,63.158,0.0,2.87,2.18,0.46,31.26,12.97,0.00907,0.00145,1e-05,7276.113,0.743448,Venezuela,10.422125851299622,-74.81830330310308
MAHAJAMBA_2004,,2004,study,68.12,0,0.0054767232767234,0.001450901786386,0.0003087605942444,0.0001507116539373,0.004325890775891,0.0020977962897319,0.0021714713590415,,,,,,,,,,,,,,,,,,,,,310.105,,,,
MALAWI1_2014,Lilongwe,2014,study,3.277,0,0.0012987012987025,4.99500499489612e-05,0.0001918165666668,0.0,0.0008896103896114,0.0002442557442552,0.001093951093951,,,,,,,,,,,,,,,,,,,,,43.748,2.037395,,,
MANAMBOLO_2004,Manambolo,2004,madagascar,19.738,0,0.0006551954913701,1.0351845328944343e-05,0.0003232839687393,0.0,0.0005844200487912,3.874603733707862e-05,0.002505384063173,505.59,0.0,0.000599,0.000203663,9e-05,1.63,0.45,0.01,22.65,0.0,2.726,1.228,1.72,0.92,0.29,18.65,5.44,7.39583,4.97566,0.03518323,240.543,121.097229,,,
MANGOKY,Mangoky,0,madagascar,54.002,0,0.0008907576294671,1.2761432116190508e-05,0.0004679738032683,0.0001180568128221,0.0007918847818848,9.214011794660614e-05,0.0006797919762258,949.8,0.0,0.000769,6.96e-05,9e-05,1.27,0.22,0.01,55.75,0.0,1.657,0.312,1.52,0.73,0.18,15.48,4.0,13.79875,2.87699,0.02034342,428.872,451.543402,Madagascar,-21.72398234252209,43.77480855978938
MISS_LAFOURCHE,"Mississippi, Lafourche-Modern",0,global,171.165,0,5.22513201084518e-05,4.613859047365711e-06,1.856001141715056e-05,9.93489269351995e-06,5.22513201084518e-05,4.613859047365711e-06,5.897069335239457e-05,880.0,0.0,4.3e-05,0.0,0.0003,21.0,0.0,0.002,100.0,25.0,488.372,0.0,2.29,1.64,0.35,92.82,38.06,0.00134,0.00021,0.0,21598.58,27284.0,USA,30.11256487298284,-90.98961201897441
MISS_MODERN,"Mississippi, Modern-Atchafalaya",0,global,243.223,0,8.116347937776603e-05,1.967905862610187e-05,2.4879553943595343e-05,2.615666353350679e-05,6.432852861422462e-06,3.479912944198345e-05,6.885001860811313e-05,880.0,0.0,4.3e-05,0.0,0.0003,21.0,0.0,0.002,490.0,0.0,488.372,0.0,2.29,1.64,0.35,93.0,38.26,0.00134,0.00021,0.0,19390.314,27284.0,USA,31.10090326444357,-91.6094303381815
MORONDAVA_1979,Morondava,1979,madagascar,32.024,0,0.0012127572427573,1.50466200464763e-05,0.0010728013304061,0.0,0.0011329270729268,2.987012987126867e-06,0.0016211401425178,188.92,0.0,0.00139,0.00012572,9e-05,0.7,0.1,0.01,38.21,0.0,0.507,0.087,1.33,0.64,0.2,10.76,3.04,71.27949,15.60599,0.11035102,26.804,35.329914,,,
NILE,Nile,0,global,237.385,0,0.0001185689310689,1.4916333666312723e-05,7.427572427570305e-05,3.987262737262354e-05,8.161838161838494e-05,1.3015318015306468e-05,8.271131732902966e-05,500.0,0.0,6.4e-05,0.0,0.0004,16.2,0.0,0.002,210.0,0.0,253.125,0.0,1.54,0.6,0.09,61.94,25.32,0.00222,0.00013,0.0,1936.917,33631.0,Egypt,30.172459297874255,31.14060162810671
ORINOCO,Orinoco,0,global,54.974,0,6.208899795856411e-05,5.926410545976087e-05,3.377413724650736e-06,3.279338147533153e-06,4.979802805888751e-06,0.0,7.221182134260498e-05,1400.0,0.0,6e-05,0.0,0.0003,8.0,0.0,0.002,78.0,0.0,133.333,0.0,4.2,0.78,0.1,41.28,16.79,0.00355,8e-05,0.0,36709.523,19594.0,Venezuela,8.482046928343854,-61.22498309837605
PARANA,Parana,0,global,104.905,0,2.5653891562984278e-05,4.426255562619554e-06,1.5904549995457933e-06,3.915970393243453e-06,7.487966578875385e-06,3.632730905456138e-06,3.80112513303938e-05,1350.0,0.0,4e-05,0.0,0.0003,11.8,0.0,0.002,210.0,0.0,295.0,0.0,5.33,5.52,0.52,55.51,22.77,0.00131,0.00013,0.0,18127.207,8202.8,Argentina,-33.726543603460144,-59.27848579700711
PI0019_1989,Batu Gerigis,1989,study,2.468,0,0.0020682650682651,0.0012930402930402,0.0007579969730867,0.0,0.0013336663336663,0.000356792049268,0.0017817371937639,,,,,,,,,,,,,,,,,,,,,65.488,19.17486,,,
PI0209_2006,Pemali,2006,study,4.7,0,0.0007242757242756,0.0002957042957043,0.0001646425430856,6.071427375026084e-05,1.4985014985011702e-05,1.4985014984995046e-05,0.0004926108374384,,,,,,,,,,,,,,,,,,,,,82.219,27.12855,,,
PI0269-1_1996,,1996,study,4.105,0,0.0211990866276566,0.0092664478378773,0.0048569538246184,0.0008078686651244,0.0107331240188382,0.0011524903667757,0.0174896343761779,,,,,,,,,,,,,,,,,,,,,4.992,,,,
PI0354_2002,,2002,study,1.79,0,0.0531013986014005,0.0045416250416226,0.0321079052683843,0.0,0.0402091242091241,0.0087950087258049,0.0999412110523221,,,,,,,,,,,,,,,,,,,,,2.467,,,,
PI0417,,0,study,3.415,0,0.0195551948051943,0.0038081918081906,0.0117916095880167,1.734723475976807e-18,0.0195551948051943,0.0038081918081906,0.0138208409506398,,,,,,,,,,,,,,,,,,,,,12.77,2.652544,,-0.9708713530522958,122.0123317353432
PI0769_1982,Agos,1982,study,2.969,0,0.0049181424766977,0.0005807312472258,0.001293158767034,0.0001289303387445,0.0023524189968929,0.001088992454505,0.0036987522281639,,,,,,,,,,,,,,,,,,,,,72.466,7.04911,,,
PI0801-1_2007,,2007,study,2.869,0,0.0043549783549781,9.42723942724726e-05,0.0036377371131862,2.1684043449710093e-18,0.0038737096237095,0.0002414335664338,0.0082918253735716,,,,,,,,,,,,,,,,,,,,,13.456,,,,
PNG_010_2011,,2011,study,13.377,0,0.0229625374625383,0.0012618274582521,0.0056377012209347,5.935032931098788e-05,0.0159242186385033,0.0005330919080896,0.0165450121654501,,,,,,,,,,,,,,,,,,,,,7.285,,,,
PNG0066-1_2003,,2003,study,4.68,0,0.0282252747252744,0.0065362873733426,0.0070940735910795,0.0,0.0190875909804483,0.0052538220707862,0.0233441033925686,,,,,,,,,,,,,,,,,,,,,14.734,,,,
PNG0069_1991,,1991,study,1.28,0,0.0291497497083754,0.0031302447552459,0.017129891665221,3.469446951953614e-18,0.017129891665221,1.0408340855860844e-17,0.0216411906677393,,,,,,,,,,,,,,,,,,,,,4.247,,,,
RHINE,Rhine-Meuse,0,global,73.881,0,8.564292850007022e-05,5.48736977309044e-06,7.585450477665949e-05,1.2642417462775942e-05,7.585450477666011e-05,6.2341624917916505e-19,0.0001342038447587,150.0,0.0,0.00011,0.0,0.0005,5.0,0.0,0.002,51.0,0.0,45.455,0.0,1.49,0.74,0.08,15.19,6.19,0.00414,0.00022,0.0,2417.77,1975.9,Netherlands,51.93219682467824,4.891281369628901
RUS_002_1988,,1988,study,5.826,0,0.0005524475524418,0.0001158841158797,0.0002997002997074,3.077261656812884e-05,0.0005489510489599,0.0001538461538643,0.0005955603681645,,,,,,,,,,,,,,,,,,,,,15.415,,,,
RUS_002_1996,,1996,study,5.722,0,0.0004615384615397,0.0,0.0003576423576282,0.0,0.0003596403596418,3.996003995553114e-05,0.0005807814149947,,,,,,,,,,,,,,,,,,,,,0.346,,,,
SA0210_1996,Mitare,1996,study,16.421,0,0.0006993006993006,9.990009989735904e-07,0.0002167832167832,0.0001688311688312,0.0005994005994006,1.898101898101245e-05,0.0004302708175145,,,,,,,,,,,,,,,,,,,,,4.997,14.095327,,,
SA0505_1999,Tumbes,1999,study,12.603,0,0.0003991008991009,0.0002197802197801,0.0002952047952048,0.0002644855144854,0.0002987012987013,0.0002559107559107,0.0004917299955297,,,,,,,,,,,,,,,,,,,,,57.131,50.716552,,,
SAMBAO_2004,Sambao,2004,madagascar,26.542,0,0.0004455544455544,2.6933066933125364e-05,0.0002856343656343,5.400703424320301e-05,0.0003046853146853,3.896103896099817e-06,0.0016495468277945,159.82,0.0,0.000565,8.27e-05,9e-05,1.73,0.39,0.01,30.45,0.0,3.07,0.797,1.15,0.38,0.14,15.71,4.34,4.14038,1.27779,0.00903535,117.461,38.526648,,,
SUMA2_2005,Peusangan,2005,study,1.699,0,0.0019647632427453,0.0003763848925526,0.0019980965142641,1.3010426069826053e-18,0.0019647632427453,0.0003763848925526,0.0020949720670391,,,,,,,,,,,,,,,,,,,,,27.634,38.960969,,,
TAN_002_2011,Ndasegera,2011,study,2.46,0,0.0107802197802243,0.0001773226773286,0.0048954542463525,0.0,0.0047732267732317,0.0001262889445837,0.0279521674140508,,,,,,,,,,,,,,,,,,,,,5.009,,,,
TKMN_001_2008,,2008,study,7.806,0,0.0018055278055278,0.0001860223110222,7.742257742256787e-05,8.34998334998005e-05,0.0007677322677323,0.000109224109224,0.0010116560369474,,,,,,,,,,,,,,,,,,,,,17.077,,,,
TURK_001_1993,,1993,study,1.68,0,0.0039790209789953,0.0001398601398818,0.0035236595739581,1.1366775576338028e-15,0.0035236595739593,0.0,0.0043089430894308,,,,,,,,,,,,,,,,,,,,,5.54,,,,
TURK_002_1991,,1991,study,3.066,0,0.0007134793350362,4.445228907190568e-18,0.0007134793350362,4.3368086899420185e-18,0.0007134793350362,4.445228907190568e-18,0.0007919049714034,,,,,,,,,,,,,,,,,,,,,102.799,,,,
UZB_001_1994,,1994,study,3.226,0,0.0018229027962695,5.692410120019544e-05,0.0008476131115958,0.0,0.0014793608521974,3.994673768531226e-05,0.0009538950715421,,,,,,,,,,,,,,,,,,,,,0.005,,,,
VENEZ1_1982,Catatumbo,1982,study,10.356,0,0.0007147852147852,7.659007659007106e-05,5.551115123125784e-19,0.0,1.598401598401633e-05,0.000282301032301,0.0002102102102102,,,,,,,,,,,,,,,,,,,,,745.209,941.73061,,,
VENEZ2_1986,Misoa,1986,study,1.0,0,0.0013730078304928,0.0,0.0006865039152464,0.0,0.0010297558728696,0.0003432519576232,0.0015434606011372,,,,,,,,,,,,,,,,,,,,,6.82,13.895476,,,
VENEZ2_2009,Misoa,2009,study,0.499,0,0.001368320302452,0.0,0.000684160151226,2.1684043449710093e-19,0.000684160151226,0.0,0.0015091342335186,,,,,,,,,,,,,,,,,,,,,6.82,13.895476,,,
