﻿Av_ID,River,From,L_A [km],L_A_error [km],S [-],L_A [km],Upstream S [-],Upstream S_IQR [-],Downstream S [-],Downstream S_IQR [-],Immediate Upstream S [-],Immediate Upstream S_IQR [-],Total Rise Over Run
DANUBE,Danube,global,95,0,5.00E-05,125.242,3.08E-05,4.54E-06,5.59E-06,2.30E-06,3.08E-05,4.54E-06,5.19E-05
HUANGHE_1930,Huanghe,global,51.6,17.3,6.40E-05,85.853,0.000101716,9.06E-06,7.45E-05,1.36E-05,8.90E-05,7.27E-06,0.000118275
MAGDALENA,Magdalena,global,67,0,9.50E-05,85.906,7.75E-05,8.74E-06,3.81E-05,1.30E-05,1.13E-05,8.25E-06,5.89E-05
MISS_LAFOURCHE,"Mississippi, Lafourche-Modern",global,100,25,4.30E-05,171.165,5.23E-05,4.61E-06,1.86E-05,9.93E-06,5.23E-05,4.61E-06,5.90E-05
MISS_MODERN,"Mississippi, Modern-Atchafalaya",global,490,0,4.30E-05,243.223,8.12E-05,1.97E-05,2.49E-05,2.62E-05,6.43E-06,3.48E-05,6.89E-05
NILE,Nile,global,210,0,6.40E-05,237.385,0.000118569,1.49E-05,7.43E-05,3.99E-05,8.16E-05,1.30E-05,8.27E-05
ORINOCO,Orinoco,global,78,0,6.00E-05,54.974,6.21E-05,5.93E-05,3.38E-06,3.28E-06,4.98E-06,0,7.22E-05
PARANA,Paran√°,global,210,0,4.00E-05,104.905,2.57E-05,4.43E-06,1.59E-06,3.92E-06,7.49E-06,3.63E-06,3.80E-05
RHINE,Rhine-Meuse,global,51,0,0.00011,73.881,8.56E-05,5.49E-06,7.59E-05,1.26E-05,7.59E-05,6.23E-19,0.000134204
FIHERENANA_2001,Fiherenana,madagascar,5.24,0,0.002231,4.603,0.002432836,0.000186969,0.002173797,3.62E-05,0.002173797,4.34E-19,0.00282881
MANAMBOLO_2004,Manambolo,madagascar,22.65,0,0.000599,19.738,0.000655195,1.04E-05,0.000323284,0,0.00058442,3.87E-05,0.002505384
MANGOKY,Mangoky,madagascar,55.75,0,0.000769,54.002,0.000890758,1.28E-05,0.000467974,0.000118057,0.000791885,9.21E-05,0.000679792
MORONDAVA_1979,Morondava,madagascar,38.21,0,0.00139,32.024,0.001212757,1.50E-05,0.001072801,0,0.001132927,2.99E-06,0.00162114
SAMBAO_2004,Sambao,madagascar,30.45,0,0.000565,26.542,0.000445554,2.69E-05,0.000285634,5.40E-05,0.000304685,3.90E-06,0.001649547