{
"type": "FeatureCollection",
"crs": { "type": "name", "properties": { "name": "urn:ogc:def:crs:OGC:1.3:CRS84" } },
"features": [
{ "type": "Feature", "properties": { "HYRIV_ID": 60021612, "NEXT_DOWN": 60021726, "MAIN_RIV": 60022702, "LENGTH_KM": 2.98, "DIST_DN_KM": 90.0, "DIST_UP_KM": 7.8, "CATCH_SKM": 17.4, "UPLAND_SKM": 17.4, "ENDORHEIC": 0, "DIS_AV_CMS": 0.204, "ORD_STRA": 1, "ORD_CLAS": 2, "ORD_FLOW": 7, "HYBAS_L12": 6120984180 }, "geometry": { "type": "LineString", "coordinates": [ [ -61.537500000000406, 8.668749999999015 ], [ -61.510416666667126, 8.668749999999015 ] ] } },
{ "type": "Feature", "properties": { "HYRIV_ID": 60021613, "NEXT_DOWN": 60021726, "MAIN_RIV": 60022702, "LENGTH_KM": 1.44, "DIST_DN_KM": 90.0, "DIST_UP_KM": 6.4, "CATCH_SKM": 22.92, "UPLAND_SKM": 22.9, "ENDORHEIC": 0, "DIS_AV_CMS": 0.283, "ORD_STRA": 1, "ORD_CLAS": 3, "ORD_FLOW": 7, "HYBAS_L12": 6120984180 }, "geometry": { "type": "LineString", "coordinates": [ [ -61.504166666667089, 8.679166666665658 ], [ -61.510416666667126, 8.672916666665635 ], [ -61.510416666667126, 8.668749999999015 ] ] } },
{ "type": "Feature", "properties": { "HYRIV_ID": 60021726, "NEXT_DOWN": 60021793, "MAIN_RIV": 60022702, "LENGTH_KM": 1.11, "DIST_DN_KM": 88.9, "DIST_UP_KM": 9.0, "CATCH_SKM": 1.27, "UPLAND_SKM": 41.6, "ENDORHEIC": 0, "DIS_AV_CMS": 0.502, "ORD_STRA": 2, "ORD_CLAS": 2, "ORD_FLOW": 7, "HYBAS_L12": 6120984180 }, "geometry": { "type": "LineString", "coordinates": [ [ -61.510416666667126, 8.668749999999015 ], [ -61.506250000000335, 8.664583333332352 ], [ -61.506250000000335, 8.660416666665732 ] ] } },
{ "type": "Feature", "properties": { "HYRIV_ID": 60021793, "NEXT_DOWN": 60022698, "MAIN_RIV": 60022702, "LENGTH_KM": 1.57, "DIST_DN_KM": 87.5, "DIST_UP_KM": 14.2, "CATCH_SKM": 1.49, "UPLAND_SKM": 82.5, "ENDORHEIC": 0, "DIS_AV_CMS": 1.029, "ORD_STRA": 2, "ORD_CLAS": 1, "ORD_FLOW": 6, "HYBAS_L12": 6120984180 }, "geometry": { "type": "LineString", "coordinates": [ [ -61.506250000000335, 8.660416666665732 ], [ -61.51458333333386, 8.660416666665732 ], [ -61.518750000000523, 8.656249999998913 ] ] } },
{ "type": "Feature", "properties": { "HYRIV_ID": 60021925, "NEXT_DOWN": 60022698, "MAIN_RIV": 60022702, "LENGTH_KM": 2.91, "DIST_DN_KM": 87.5, "DIST_UP_KM": 6.7, "CATCH_SKM": 16.13, "UPLAND_SKM": 16.1, "ENDORHEIC": 0, "DIS_AV_CMS": 0.199, "ORD_STRA": 1, "ORD_CLAS": 2, "ORD_FLOW": 7, "HYBAS_L12": 6120984180 }, "geometry": { "type": "LineString", "coordinates": [ [ -61.495833333333778, 8.647916666665715 ], [ -61.506250000000335, 8.647916666665715 ], [ -61.510416666667126, 8.652083333332293 ], [ -61.51458333333386, 8.652083333332293 ], [ -61.518750000000523, 8.656249999998913 ] ] } },
{ "type": "Feature", "properties": { "HYRIV_ID": 60022240, "NEXT_DOWN": 60021793, "MAIN_RIV": 60022702, "LENGTH_KM": 8.81, "DIST_DN_KM": 88.9, "DIST_UP_KM": 12.8, "CATCH_SKM": 39.47, "UPLAND_SKM": 39.5, "ENDORHEIC": 0, "DIS_AV_CMS": 0.509, "ORD_STRA": 1, "ORD_CLAS": 1, "ORD_FLOW": 7, "HYBAS_L12": 6120984180 }, "geometry": { "type": "LineString", "coordinates": [ [ -61.460416666667186, 8.62499999999897 ], [ -61.460416666667186, 8.631249999999007 ], [ -61.456250000000438, 8.635416666665613 ], [ -61.456250000000438, 8.647916666665715 ], [ -61.468750000000497, 8.647916666665715 ], [ -61.477083333333766, 8.656249999998913 ], [ -61.489583333333826, 8.656249999998913 ], [ -61.493750000000489, 8.660416666665732 ], [ -61.506250000000335, 8.660416666665732 ] ] } },
{ "type": "Feature", "properties": { "HYRIV_ID": 60022697, "NEXT_DOWN": 60022942, "MAIN_RIV": 60022702, "LENGTH_KM": 11.6, "DIST_DN_KM": 76.3, "DIST_UP_KM": 15.8, "CATCH_SKM": 61.34, "UPLAND_SKM": 61.3, "ENDORHEIC": 0, "DIS_AV_CMS": 0.669, "ORD_STRA": 1, "ORD_CLAS": 2, "ORD_FLOW": 7, "HYBAS_L12": 6120984180 }, "geometry": { "type": "LineString", "coordinates": [ [ -61.589583333333763, 8.641666666665607 ], [ -61.589583333333763, 8.631249999999007 ], [ -61.593750000000497, 8.627083333332386 ], [ -61.597916666667118, 8.627083333332386 ], [ -61.602083333333823, 8.622916666665724 ], [ -61.618750000000418, 8.622916666665724 ], [ -61.622916666667152, 8.618749999998947 ], [ -61.618750000000418, 8.614583333332284 ], [ -61.597916666667118, 8.614583333332284 ], [ -61.577083333333789, 8.593749999998998 ] ] } },
{ "type": "Feature", "properties": { "HYRIV_ID": 60022698, "NEXT_DOWN": 60022942, "MAIN_RIV": 60022702, "LENGTH_KM": 11.2, "DIST_DN_KM": 76.1, "DIST_UP_KM": 25.6, "CATCH_SKM": 37.56, "UPLAND_SKM": 136.2, "ENDORHEIC": 0, "DIS_AV_CMS": 1.667, "ORD_STRA": 2, "ORD_CLAS": 1, "ORD_FLOW": 6, "HYBAS_L12": 6120984180 }, "geometry": { "type": "LineString", "coordinates": [ [ -61.518750000000523, 8.656249999998913 ], [ -61.522916666667101, 8.656249999998913 ], [ -61.527083333333849, 8.652083333332293 ], [ -61.53541666666716, 8.652083333332293 ], [ -61.539583333333823, 8.647916666665715 ], [ -61.547916666667135, 8.647916666665715 ], [ -61.552083333333755, 8.643749999999066 ], [ -61.552083333333755, 8.639583333332446 ], [ -61.556250000000489, 8.639583333332446 ], [ -61.564583333333772, 8.631249999999007 ], [ -61.564583333333772, 8.627083333332386 ], [ -61.572916666667169, 8.618749999998947 ], [ -61.572916666667169, 8.602083333332395 ], [ -61.577083333333789, 8.597916666665647 ], [ -61.577083333333789, 8.593749999998998 ] ] } },
{ "type": "Feature", "properties": { "HYRIV_ID": 60022699, "NEXT_DOWN": 60022773, "MAIN_RIV": 60022702, "LENGTH_KM": 3.02, "DIST_DN_KM": 52.7, "DIST_UP_KM": 6.2, "CATCH_SKM": 16.77, "UPLAND_SKM": 16.8, "ENDORHEIC": 0, "DIS_AV_CMS": 0.236, "ORD_STRA": 1, "ORD_CLAS": 2, "ORD_FLOW": 7, "HYBAS_L12": 6120984310 }, "geometry": { "type": "LineString", "coordinates": [ [ -61.370833333333778, 8.616666666665701 ], [ -61.381250000000463, 8.60625 ], [ -61.381250000000463, 8.593749999998998 ] ] } },
{ "type": "Feature", "properties": { "HYRIV_ID": 60022700, "NEXT_DOWN": 60022830, "MAIN_RIV": 60022702, "LENGTH_KM": 1.81, "DIST_DN_KM": 33.6, "DIST_UP_KM": 5.6, "CATCH_SKM": 15.07, "UPLAND_SKM": 15.1, "ENDORHEIC": 0, "DIS_AV_CMS": 0.244, "ORD_STRA": 1, "ORD_CLAS": 2, "ORD_FLOW": 7, "HYBAS_L12": 6120984380 }, "geometry": { "type": "LineString", "coordinates": [ [ -61.197916666667197, 8.608333333332261 ], [ -61.197916666667197, 8.602083333332395 ], [ -61.202083333333803, 8.597916666665647 ], [ -61.202083333333803, 8.593749999998998 ] ] } },
{ "type": "Feature", "properties": { "HYRIV_ID": 60022701, "NEXT_DOWN": 60022702, "MAIN_RIV": 60022702, "LENGTH_KM": 0.69, "DIST_DN_KM": 19.5, "DIST_UP_KM": 4.5, "CATCH_SKM": 7.0, "UPLAND_SKM": 7.0, "ENDORHEIC": 0, "DIS_AV_CMS": 0.119, "ORD_STRA": 1, "ORD_CLAS": 2, "ORD_FLOW": 7, "HYBAS_L12": 6120004440 }, "geometry": { "type": "LineString", "coordinates": [ [ -61.122916666667095, 8.599999999998978 ], [ -61.122916666667095, 8.593749999998998 ] ] } },
{ "type": "Feature", "properties": { "HYRIV_ID": 60022773, "NEXT_DOWN": 60022877, "MAIN_RIV": 60022702, "LENGTH_KM": 2.03, "DIST_DN_KM": 50.6, "DIST_UP_KM": 51.1, "CATCH_SKM": 5.94, "UPLAND_SKM": 352.5, "ENDORHEIC": 0, "DIS_AV_CMS": 4.346, "ORD_STRA": 2, "ORD_CLAS": 1, "ORD_FLOW": 6, "HYBAS_L12": 6120984310 }, "geometry": { "type": "LineString", "coordinates": [ [ -61.381250000000463, 8.593749999998998 ], [ -61.377083333333758, 8.589583333332378 ], [ -61.364583333333741, 8.589583333332378 ] ] } },
{ "type": "Feature", "properties": { "HYRIV_ID": 60022774, "NEXT_DOWN": 60022830, "MAIN_RIV": 60022702, "LENGTH_KM": 1.44, "DIST_DN_KM": 33.6, "DIST_UP_KM": 5.3, "CATCH_SKM": 9.13, "UPLAND_SKM": 9.1, "ENDORHEIC": 0, "DIS_AV_CMS": 0.15, "ORD_STRA": 1, "ORD_CLAS": 3, "ORD_FLOW": 7, "HYBAS_L12": 6120984380 }, "geometry": { "type": "LineString", "coordinates": [ [ -61.19166666666716, 8.587499999998961 ], [ -61.197916666667197, 8.593749999998998 ], [ -61.202083333333803, 8.593749999998998 ] ] } },
{ "type": "Feature", "properties": { "HYRIV_ID": 60022829, "NEXT_DOWN": 60022877, "MAIN_RIV": 60022702, "LENGTH_KM": 0.69, "DIST_DN_KM": 50.6, "DIST_UP_KM": 4.5, "CATCH_SKM": 11.04, "UPLAND_SKM": 11.0, "ENDORHEIC": 0, "DIS_AV_CMS": 0.156, "ORD_STRA": 1, "ORD_CLAS": 2, "ORD_FLOW": 7, "HYBAS_L12": 6120984310 }, "geometry": { "type": "LineString", "coordinates": [ [ -61.364583333333741, 8.583333333332341 ], [ -61.364583333333741, 8.589583333332378 ] ] } },
{ "type": "Feature", "properties": { "HYRIV_ID": 60022830, "NEXT_DOWN": 60023226, "MAIN_RIV": 60022702, "LENGTH_KM": 1.3, "DIST_DN_KM": 32.5, "DIST_UP_KM": 6.8, "CATCH_SKM": 2.33, "UPLAND_SKM": 26.5, "ENDORHEIC": 0, "DIS_AV_CMS": 0.432, "ORD_STRA": 2, "ORD_CLAS": 2, "ORD_FLOW": 7, "HYBAS_L12": 6120984380 }, "geometry": { "type": "LineString", "coordinates": [ [ -61.202083333333803, 8.593749999998998 ], [ -61.210416666667129, 8.585416666665758 ] ] } },
{ "type": "Feature", "properties": { "HYRIV_ID": 60022831, "NEXT_DOWN": 60022832, "MAIN_RIV": 60022702, "LENGTH_KM": 4.96, "DIST_DN_KM": 20.6, "DIST_UP_KM": 8.9, "CATCH_SKM": 11.25, "UPLAND_SKM": 11.2, "ENDORHEIC": 0, "DIS_AV_CMS": 0.188, "ORD_STRA": 1, "ORD_CLAS": 2, "ORD_FLOW": 7, "HYBAS_L12": 6120004440 }, "geometry": { "type": "LineString", "coordinates": [ [ -61.158333333333857, 8.604166666665684 ], [ -61.143750000000381, 8.589583333332378 ], [ -61.135416666667155, 8.589583333332378 ], [ -61.131250000000534, 8.593749999998998 ], [ -61.127083333333871, 8.589583333332378 ], [ -61.127083333333871, 8.585416666665758 ] ] } },
{ "type": "Feature", "properties": { "HYRIV_ID": 60022877, "NEXT_DOWN": 60022878, "MAIN_RIV": 60022702, "LENGTH_KM": 6.8, "DIST_DN_KM": 43.8, "DIST_UP_KM": 57.9, "CATCH_SKM": 29.71, "UPLAND_SKM": 393.3, "ENDORHEIC": 0, "DIS_AV_CMS": 4.936, "ORD_STRA": 2, "ORD_CLAS": 1, "ORD_FLOW": 6, "HYBAS_L12": 6120984310 }, "geometry": { "type": "LineString", "coordinates": [ [ -61.364583333333741, 8.589583333332378 ], [ -61.335416666667129, 8.589583333332378 ], [ -61.331250000000523, 8.585416666665758 ], [ -61.318750000000421, 8.585416666665758 ], [ -61.3145833333338, 8.581249999999095 ], [ -61.306250000000475, 8.581249999999095 ] ] } },
{ "type": "Feature", "properties": { "HYRIV_ID": 60022878, "NEXT_DOWN": 60023008, "MAIN_RIV": 60022702, "LENGTH_KM": 1.37, "DIST_DN_KM": 42.5, "DIST_UP_KM": 59.3, "CATCH_SKM": 3.4, "UPLAND_SKM": 419.6, "ENDORHEIC": 0, "DIS_AV_CMS": 5.324, "ORD_STRA": 2, "ORD_CLAS": 1, "ORD_FLOW": 6, "HYBAS_L12": 6120984310 }, "geometry": { "type": "LineString", "coordinates": [ [ -61.306250000000475, 8.581249999999095 ], [ -61.2937500000005, 8.581249999999095 ] ] } },
{ "type": "Feature", "properties": { "HYRIV_ID": 60022879, "NEXT_DOWN": 60023008, "MAIN_RIV": 60022702, "LENGTH_KM": 0.69, "DIST_DN_KM": 42.5, "DIST_UP_KM": 4.4, "CATCH_SKM": 7.64, "UPLAND_SKM": 7.6, "ENDORHEIC": 0, "DIS_AV_CMS": 0.116, "ORD_STRA": 1, "ORD_CLAS": 2, "ORD_FLOW": 7, "HYBAS_L12": 6120984310 }, "geometry": { "type": "LineString", "coordinates": [ [ -61.287500000000477, 8.581249999999095 ], [ -61.2937500000005, 8.581249999999095 ] ] } },
{ "type": "Feature", "properties": { "HYRIV_ID": 60022880, "NEXT_DOWN": 60022775, "MAIN_RIV": 60022702, "LENGTH_KM": 10.05, "DIST_DN_KM": 20.1, "DIST_UP_KM": 12.2, "CATCH_SKM": 41.81, "UPLAND_SKM": 41.8, "ENDORHEIC": 0, "DIS_AV_CMS": 0.736, "ORD_STRA": 1, "ORD_CLAS": 2, "ORD_FLOW": 7, "HYBAS_L12": 6120004440 }, "geometry": { "type": "LineString", "coordinates": [ [ -61.050000000000438, 8.599999999998978 ], [ -61.056250000000432, 8.593749999998998 ], [ -61.068750000000492, 8.593749999998998 ], [ -61.081250000000466, 8.581249999999095 ], [ -61.089583333333778, 8.581249999999095 ], [ -61.093750000000526, 8.585416666665758 ], [ -61.097916666667061, 8.581249999999095 ], [ -61.102083333333752, 8.585416666665758 ], [ -61.1062500000005, 8.585416666665758 ], [ -61.11041666666712, 8.581249999999095 ], [ -61.114583333333812, 8.585416666665758 ], [ -61.118750000000347, 8.585416666665758 ], [ -61.122916666667095, 8.589583333332378 ] ] } },
{ "type": "Feature", "properties": { "HYRIV_ID": 60022942, "NEXT_DOWN": 60022944, "MAIN_RIV": 60022702, "LENGTH_KM": 12.16, "DIST_DN_KM": 64.0, "DIST_UP_KM": 37.8, "CATCH_SKM": 49.03, "UPLAND_SKM": 246.6, "ENDORHEIC": 0, "DIS_AV_CMS": 2.925, "ORD_STRA": 2, "ORD_CLAS": 1, "ORD_FLOW": 6, "HYBAS_L12": 6120984240 }, "geometry": { "type": "LineString", "coordinates": [ [ -61.577083333333789, 8.593749999998998 ], [ -61.572916666667169, 8.593749999998998 ], [ -61.568750000000463, 8.589583333332378 ], [ -61.552083333333755, 8.589583333332378 ], [ -61.543750000000429, 8.581249999999095 ], [ -61.539583333333823, 8.585416666665758 ], [ -61.53541666666716, 8.585416666665758 ], [ -61.527083333333849, 8.577083333332318 ], [ -61.477083333333766, 8.577083333332318 ] ] } },
{ "type": "Feature", "properties": { "HYRIV_ID": 60022943, "NEXT_DOWN": 60022944, "MAIN_RIV": 60022702, "LENGTH_KM": 1.16, "DIST_DN_KM": 64.0, "DIST_UP_KM": 7.0, "CATCH_SKM": 12.52, "UPLAND_SKM": 12.5, "ENDORHEIC": 0, "DIS_AV_CMS": 0.157, "ORD_STRA": 1, "ORD_CLAS": 2, "ORD_FLOW": 7, "HYBAS_L12": 6120984240 }, "geometry": { "type": "LineString", "coordinates": [ [ -61.477083333333766, 8.587499999998961 ], [ -61.477083333333766, 8.577083333332318 ] ] } },
{ "type": "Feature", "properties": { "HYRIV_ID": 60022944, "NEXT_DOWN": 60022945, "MAIN_RIV": 60022702, "LENGTH_KM": 0.46, "DIST_DN_KM": 63.5, "DIST_UP_KM": 38.2, "CATCH_SKM": 0.42, "UPLAND_SKM": 259.6, "ENDORHEIC": 0, "DIS_AV_CMS": 3.087, "ORD_STRA": 2, "ORD_CLAS": 1, "ORD_FLOW": 6, "HYBAS_L12": 6120984240 }, "geometry": { "type": "LineString", "coordinates": [ [ -61.477083333333766, 8.577083333332318 ], [ -61.47291666666716, 8.577083333332318 ] ] } },
{ "type": "Feature", "properties": { "HYRIV_ID": 60022945, "NEXT_DOWN": 60022773, "MAIN_RIV": 60022702, "LENGTH_KM": 10.85, "DIST_DN_KM": 52.7, "DIST_UP_KM": 49.1, "CATCH_SKM": 61.77, "UPLAND_SKM": 329.8, "ENDORHEIC": 0, "DIS_AV_CMS": 4.025, "ORD_STRA": 2, "ORD_CLAS": 1, "ORD_FLOW": 6, "HYBAS_L12": 6120984310 }, "geometry": { "type": "LineString", "coordinates": [ [ -61.47291666666716, 8.577083333332318 ], [ -61.464583333333707, 8.577083333332318 ], [ -61.460416666667186, 8.581249999999095 ], [ -61.45208333333386, 8.581249999999095 ], [ -61.447916666667211, 8.585416666665758 ], [ -61.439583333333843, 8.585416666665758 ], [ -61.435416666667152, 8.589583333332378 ], [ -61.418750000000387, 8.589583333332378 ], [ -61.414583333333809, 8.593749999998998 ], [ -61.381250000000463, 8.593749999998998 ] ] } },
{ "type": "Feature", "properties": { "HYRIV_ID": 60023007, "NEXT_DOWN": 60022945, "MAIN_RIV": 60022702, "LENGTH_KM": 0.69, "DIST_DN_KM": 63.5, "DIST_UP_KM": 4.7, "CATCH_SKM": 8.49, "UPLAND_SKM": 8.5, "ENDORHEIC": 0, "DIS_AV_CMS": 0.109, "ORD_STRA": 1, "ORD_CLAS": 2, "ORD_FLOW": 7, "HYBAS_L12": 6120984240 }, "geometry": { "type": "LineString", "coordinates": [ [ -61.47291666666716, 8.570833333332281 ], [ -61.47291666666716, 8.577083333332318 ] ] } },
{ "type": "Feature", "properties": { "HYRIV_ID": 60023008, "NEXT_DOWN": 60023010, "MAIN_RIV": 60022702, "LENGTH_KM": 3.59, "DIST_DN_KM": 38.9, "DIST_UP_KM": 62.9, "CATCH_SKM": 16.34, "UPLAND_SKM": 443.6, "ENDORHEIC": 0, "DIS_AV_CMS": 5.687, "ORD_STRA": 2, "ORD_CLAS": 1, "ORD_FLOW": 6, "HYBAS_L12": 6120984380 }, "geometry": { "type": "LineString", "coordinates": [ [ -61.2937500000005, 8.581249999999095 ], [ -61.289583333333766, 8.577083333332318 ], [ -61.281250000000483, 8.577083333332318 ], [ -61.277083333333792, 8.572916666665655 ], [ -61.26458333333386, 8.572916666665655 ] ] } },
{ "type": "Feature", "properties": { "HYRIV_ID": 60023009, "NEXT_DOWN": 60023010, "MAIN_RIV": 60022702, "LENGTH_KM": 4.23, "DIST_DN_KM": 38.9, "DIST_UP_KM": 8.2, "CATCH_SKM": 25.26, "UPLAND_SKM": 25.3, "ENDORHEIC": 0, "DIS_AV_CMS": 0.393, "ORD_STRA": 1, "ORD_CLAS": 2, "ORD_FLOW": 7, "HYBAS_L12": 6120984380 }, "geometry": { "type": "LineString", "coordinates": [ [ -61.26458333333386, 8.604166666665684 ], [ -61.26458333333386, 8.597916666665647 ], [ -61.256250000000449, 8.589583333332378 ], [ -61.256250000000449, 8.585416666665758 ], [ -61.26458333333386, 8.577083333332318 ], [ -61.26458333333386, 8.572916666665655 ] ] } },
{ "type": "Feature", "properties": { "HYRIV_ID": 60023010, "NEXT_DOWN": 60023011, "MAIN_RIV": 60022702, "LENGTH_KM": 0.92, "DIST_DN_KM": 38.0, "DIST_UP_KM": 63.8, "CATCH_SKM": 2.33, "UPLAND_SKM": 471.2, "ENDORHEIC": 0, "DIS_AV_CMS": 6.115, "ORD_STRA": 2, "ORD_CLAS": 1, "ORD_FLOW": 6, "HYBAS_L12": 6120984380 }, "geometry": { "type": "LineString", "coordinates": [ [ -61.26458333333386, 8.572916666665655 ], [ -61.256250000000449, 8.572916666665655 ] ] } },
{ "type": "Feature", "properties": { "HYRIV_ID": 60023414, "NEXT_DOWN": 60023227, "MAIN_RIV": 60022702, "LENGTH_KM": 2.55, "DIST_DN_KM": 25.7, "DIST_UP_KM": 5.6, "CATCH_SKM": 11.25, "UPLAND_SKM": 11.3, "ENDORHEIC": 0, "DIS_AV_CMS": 0.189, "ORD_STRA": 1, "ORD_CLAS": 2, "ORD_FLOW": 7, "HYBAS_L12": 6120984380 }, "geometry": { "type": "LineString", "coordinates": [ [ -61.145833333333798, 8.545833333332332 ], [ -61.15208333333382, 8.552083333332369 ], [ -61.156250000000441, 8.552083333332369 ], [ -61.160416666667189, 8.556249999999018 ], [ -61.160416666667189, 8.560416666665596 ] ] } },
{ "type": "Feature", "properties": { "HYRIV_ID": 60023483, "NEXT_DOWN": 60022878, "MAIN_RIV": 60022702, "LENGTH_KM": 5.61, "DIST_DN_KM": 43.8, "DIST_UP_KM": 9.8, "CATCH_SKM": 22.93, "UPLAND_SKM": 22.9, "ENDORHEIC": 0, "DIS_AV_CMS": 0.336, "ORD_STRA": 1, "ORD_CLAS": 2, "ORD_FLOW": 7, "HYBAS_L12": 6120984310 }, "geometry": { "type": "LineString", "coordinates": [ [ -61.329166666667149, 8.54374999999893 ], [ -61.322916666667112, 8.54374999999893 ], [ -61.3145833333338, 8.552083333332369 ], [ -61.3145833333338, 8.556249999999018 ], [ -61.310416666667095, 8.560416666665596 ], [ -61.310416666667095, 8.572916666665655 ], [ -61.306250000000475, 8.577083333332318 ], [ -61.306250000000475, 8.581249999999095 ] ] } },
{ "type": "Feature", "properties": { "HYRIV_ID": 60023865, "NEXT_DOWN": 60023011, "MAIN_RIV": 60022702, "LENGTH_KM": 7.2, "DIST_DN_KM": 38.0, "DIST_UP_KM": 11.0, "CATCH_SKM": 33.97, "UPLAND_SKM": 34.0, "ENDORHEIC": 0, "DIS_AV_CMS": 0.522, "ORD_STRA": 1, "ORD_CLAS": 2, "ORD_FLOW": 7, "HYBAS_L12": 6120984380 }, "geometry": { "type": "LineString", "coordinates": [ [ -61.277083333333792, 8.516666666665564 ], [ -61.277083333333792, 8.522916666665587 ], [ -61.272916666667172, 8.527083333332421 ], [ -61.272916666667172, 8.531249999999027 ], [ -61.26458333333386, 8.53958333333231 ], [ -61.26458333333386, 8.54374999999893 ], [ -61.260416666667197, 8.547916666665749 ], [ -61.260416666667197, 8.564583333332216 ], [ -61.256250000000449, 8.568749999999035 ], [ -61.256250000000449, 8.572916666665655 ] ] } }
]
}
