{
"type": "FeatureCollection",
"features": [
{ "type": "Feature", "properties": { "id": 1, "distance": 3430 }, "geometry": { "type": "Point", "coordinates": [ 405140.102963098150212, 4144848.223629367072135 ] } }
]
}
