{
"type": "FeatureCollection",
"features": [
{ "type": "Feature", "properties": { "id": 1, "distance": 2359 }, "geometry": { "type": "Point", "coordinates": [ 680750.073826042935252, 9334952.499091418460011 ] } }
]
}
