{
"type": "FeatureCollection",
"features": [
{ "type": "Feature", "properties": { "id": 1, "distance": 4700 }, "geometry": { "type": "Point", "coordinates": [ 285220.7733799086418, 9248087.379032157361507 ] } }
]
}
