{
"type": "FeatureCollection",
"features": [
{ "type": "Feature", "properties": { "id": 1, "distance": 2969 }, "geometry": { "type": "Point", "coordinates": [ 353563.512923160858918, 1632394.908980027539656 ] } }
]
}
