{
"type": "FeatureCollection",
"features": [
{ "type": "Feature", "properties": { "id": 1, "distance": 1699 }, "geometry": { "type": "Point", "coordinates": [ 262200.15794886474032, 582231.777359753032215 ] } }
]
}
