{
"type": "FeatureCollection",
"features": [
{ "type": "Feature", "properties": { "id": 1, "distance": 10356 }, "geometry": { "type": "Point", "coordinates": [ 197082.834949571784819, 1032870.8424044031417 ] } }
]
}
