distance,median,stdev,prc_25,prc_75
20.0,0.0,2.4372563,0.0,4.0
30.0,0.0,2.5688837,0.0,4.0
40.0,0.0,2.6414177,0.0,4.0
50.0,0.0,2.6376352,0.0,4.0
60.0,0.0,2.6662676,0.0,4.0
70.0,0.0,2.658526,0.0,4.0
80.0,0.0,2.6297607,0.0,4.0
90.0,0.0,2.6990256,0.0,4.0
100.0,0.0,2.816096,0.0,5.0
110.0,0.0,2.9229589,0.0,5.0
120.0,0.0,2.8953354,0.0,5.0
130.0,0.0,2.892054,0.0,5.0
140.0,0.0,2.8933861,0.0,5.0
150.0,0.0,2.8672035,0.0,5.0
160.0,0.0,2.850008,0.0,5.0
170.0,0.0,2.8378232,0.0,5.0
180.0,0.0,2.9052238,0.0,5.0
190.0,0.0,2.8520448,0.0,5.0
200.0,0.0,2.8368711,0.0,5.0
210.0,0.0,2.7424636,0.0,5.0
220.0,0.0,2.7232184,0.0,5.0
230.0,0.0,2.8237567,0.0,5.0
240.0,0.0,2.9522972,0.0,6.0
250.0,0.0,3.1253989,0.0,6.0
260.0,0.0,3.1634314,0.0,6.0
270.0,0.0,3.2544692,0.0,6.0
280.0,0.0,3.3485563,0.0,6.0
290.0,0.0,3.3559773,0.0,7.0
300.0,1.0,3.2968729,0.0,6.0
310.0,1.0,3.2142675,0.0,6.0
320.0,1.0,3.207188,0.0,6.0
330.0,3.0,3.1294844,0.0,6.0
340.0,3.0,3.0864472,0.0,6.0
350.0,3.0,3.1059623,0.0,6.0
360.0,3.0,3.0686915,0.0,6.0
370.0,3.0,2.941866,0.0,6.0
380.0,3.0,2.8730235,0.0,6.0
390.0,3.0,2.9558363,0.0,6.0
400.0,2.0,2.8879383,0.0,6.0
410.0,1.0,2.8865576,0.0,6.0
420.0,1.0,2.8733578,0.0,6.0
430.0,3.0,2.81567,0.0,5.0
440.0,3.0,2.787461,0.0,5.0
450.0,0.0,2.761274,0.0,5.0
460.0,0.0,2.7559505,0.0,5.0
470.0,0.0,2.8507442,0.0,5.0
480.0,0.0,2.952397,0.0,5.0
490.0,0.0,2.9734807,0.0,5.0
500.0,0.0,3.1291666,0.0,6.0
510.0,0.0,3.2228198,0.0,6.0
520.0,0.0,3.2925556,0.0,6.0
530.0,0.0,3.3688643,0.0,6.0
540.0,0.0,3.4363456,0.0,6.0
550.0,0.0,3.4759245,0.0,6.0
560.0,0.0,3.2727938,0.0,6.0
570.0,0.0,2.8191788,0.0,5.0
580.0,0.0,2.7420263,0.0,5.0
590.0,0.0,2.6680176,0.0,5.0
600.0,0.0,2.7387936,0.0,5.0
610.0,0.0,2.8532085,0.0,5.0
620.0,0.0,2.8860521,0.0,5.0
630.0,0.0,2.8609889,0.0,5.0
640.0,0.0,2.805523,0.0,5.0
650.0,0.0,2.7059696,0.0,5.0
660.0,0.0,2.555722,0.0,4.0
670.0,0.0,2.4636898,0.0,4.0
680.0,1.0,2.4246187,0.0,4.0
690.0,1.0,2.4040833,0.0,4.0
700.0,1.0,2.3234887,0.0,4.0
710.0,1.0,2.3259614,0.0,4.0
720.0,1.0,2.3950167,0.0,4.0
730.0,1.0,2.412681,0.0,4.0
740.0,1.0,2.4432108,0.0,4.0
750.0,1.0,2.4839032,0.0,5.0
760.0,1.0,2.5003343,0.0,5.0
770.0,1.0,2.5531583,0.0,5.0
780.0,1.0,2.559447,0.0,5.0
790.0,1.0,2.5940313,0.0,5.0
800.0,1.0,2.5896719,0.0,5.0
810.0,2.0,2.6658056,0.0,5.0
820.0,3.0,2.648135,0.0,5.0
830.0,1.0,2.677019,0.0,5.0
840.0,1.0,2.5952342,0.0,5.0
850.0,1.0,2.6761203,0.0,5.0
860.0,1.0,2.7125647,0.0,5.0
870.0,1.0,2.6815813,0.0,5.0
880.0,3.0,2.9259477,0.0,5.0
890.0,2.0,2.7542276,0.0,5.0
900.0,2.0,2.9830093,0.0,5.0
910.0,2.0,2.983145,0.0,5.0
920.0,2.0,2.8617253,0.0,4.0
930.0,3.0,2.6804442,0.0,4.0
940.0,3.0,2.6809733,0.0,4.0
950.0,3.0,2.5915594,0.0,4.0
960.0,2.0,2.451016,0.0,4.0
970.0,2.0,2.4514525,0.0,4.0
980.0,2.0,2.782474,0.0,5.0
990.0,2.0,2.357734,0.0,4.0
1000.0,2.0,2.4288387,0.0,4.0
1010.0,2.0,2.5880425,0.0,5.0
1020.0,3.0,2.5907526,0.0,5.0
1030.0,3.0,2.5909688,0.0,5.0
1040.0,3.0,2.7068105,0.0,5.0
1050.0,3.0,2.4904768,0.0,5.0
1060.0,3.0,2.6464646,0.0,5.0
1070.0,3.0,2.5767388,0.0,5.0
1080.0,4.0,2.534734,0.0,5.0
1090.0,4.0,2.5619085,0.0,5.0
1100.0,4.0,2.6140373,0.0,5.0
1110.0,4.0,2.6766682,0.0,5.0
1120.0,4.0,2.7102175,0.0,5.0
1130.0,5.0,2.1228998,3.0,6.0
1140.0,5.0,2.4300041,3.0,6.0
1150.0,5.0,2.5728753,3.0,6.0
1160.0,5.0,2.6436753,3.0,6.0
1170.0,5.0,2.649066,4.0,7.0
1180.0,5.0,2.6543634,4.0,7.0
1190.0,5.0,2.616912,3.0,7.0
1200.0,5.0,2.5975778,3.0,6.0
1210.0,5.0,2.6392355,3.0,6.0
1220.0,4.0,2.7186577,3.0,6.0
1230.0,4.0,2.757253,3.0,6.0
1240.0,4.0,2.604363,3.0,6.0
1250.0,5.0,2.4856708,3.0,6.0
1260.0,5.0,2.4773834,3.0,6.0
1270.0,5.0,2.4786224,3.0,7.0
1280.0,5.0,2.5359807,3.0,7.0
1290.0,5.0,2.6391988,4.0,7.0
1300.0,5.0,2.6072676,3.0,7.0
1310.0,5.0,2.5409477,3.0,7.0
1320.0,5.0,2.4843373,4.0,7.0
1330.0,6.0,2.7369127,4.0,7.0
1340.0,6.0,2.756123,4.0,7.0
1350.0,6.0,2.9838583,4.0,7.0
1360.0,6.0,3.1359901,4.0,8.0
1370.0,6.0,3.0858526,4.0,8.0
1380.0,6.0,2.9794405,4.0,8.0
1390.0,6.0,2.8371656,4.0,8.0
1400.0,6.0,2.7640276,4.0,7.0
1410.0,6.0,2.7901278,4.0,7.0
1420.0,6.0,2.7423432,4.0,8.0
1430.0,5.0,2.6355262,4.0,8.0
1440.0,6.0,2.7574482,4.0,8.0
1450.0,5.0,2.730101,4.0,7.0
1460.0,6.0,2.6624687,4.0,7.0
1470.0,6.0,2.7648685,4.0,7.0
1480.0,6.0,2.8824022,4.0,7.0
1490.0,5.0,3.1046193,4.0,7.0
1500.0,6.0,3.1677072,4.0,7.0
1510.0,6.0,3.1319075,4.0,7.0
1520.0,6.0,3.0480485,4.0,7.0
1530.0,6.0,3.007232,4.0,7.0
1540.0,6.0,2.8376172,4.0,7.0
1550.0,5.0,2.780924,4.0,7.0
1560.0,5.0,2.5001955,4.0,7.0
1570.0,5.0,2.437488,4.0,7.0
1580.0,5.0,2.5198965,4.0,7.0
1590.0,5.0,2.3533366,4.0,6.0
1600.0,5.0,2.314236,4.0,6.0
1610.0,5.0,2.1255944,3.0,6.0
1620.0,5.0,2.0372024,3.0,6.0
1630.0,5.0,2.0575333,4.0,6.25
1640.0,5.0,1.9263613,4.0,6.0
1650.0,5.0,1.7706484,4.0,6.0
1660.0,5.0,1.9082761,4.0,6.0
1670.0,6.0,1.9853992,4.0,6.0
1680.0,5.0,1.8511176,4.0,6.0
1690.0,5.0,1.8137028,4.0,7.0
1700.0,5.0,1.9024811,4.0,7.0
1710.0,5.0,1.7552524,4.0,6.0
1720.0,5.0,1.637727,4.0,6.0
1730.0,5.0,1.5367236,4.0,6.0
1740.0,5.0,1.4231808,4.0,6.0
1750.0,5.0,1.5033134,4.0,6.0
1760.0,5.0,1.5096469,4.0,6.0
1770.0,5.0,1.4717677,4.0,6.0
1780.0,5.0,1.5699553,4.0,7.0
1790.0,5.0,1.5573657,4.0,7.0
1800.0,6.0,1.4915617,5.0,7.0
1810.0,6.0,1.6978958,5.0,6.0
1820.0,6.0,1.1067014,5.0,7.0
1830.0,6.0,1.2973397,5.0,7.0
1840.0,6.0,1.3599977,5.0,7.0
1850.0,6.0,1.4564307,5.0,7.0
1860.0,6.0,1.3999375,5.0,7.0
1870.0,6.0,1.4874581,5.0,7.0
1880.0,6.0,1.6636423,5.0,7.0
1890.0,5.0,1.6991876,5.0,7.0
1900.0,6.0,1.7124088,5.0,7.0
1910.0,6.0,1.6634696,5.0,7.0
1920.0,6.0,1.6757678,5.0,7.0
1930.0,6.0,1.7169727,5.0,7.0
1940.0,6.0,1.9000367,5.0,7.0
1950.0,6.0,1.8942282,5.0,7.0
1960.0,6.0,1.8952615,5.0,7.0
1970.0,6.0,1.9658829,5.0,7.0
1980.0,6.0,2.0036077,5.0,7.0
1990.0,6.0,2.005851,5.0,7.0
2000.0,6.0,1.715161,4.0,7.0
2010.0,6.0,1.6013744,6.0,7.0
2020.0,6.0,1.6016054,6.0,7.0
2030.0,6.0,1.3661398,5.0,7.0
2040.0,6.0,1.5866666,5.0,7.0
2050.0,6.0,1.5867665,5.0,7.0
2060.0,6.0,1.8414418,5.0,8.0
2070.0,6.0,1.812642,4.0,7.0
2080.0,6.0,1.8127215,4.0,7.0
2090.0,6.0,2.5170734,5.0,8.0
2100.0,7.0,2.1584437,5.0,8.0
2110.0,7.0,2.1473835,6.0,8.0
2120.0,7.0,2.1279364,6.0,9.0
2130.0,7.0,2.1331575,6.0,9.0
2140.0,7.0,2.1418734,6.0,9.0
2150.0,7.0,2.288924,6.0,9.0
2160.0,7.0,2.1570926,6.0,9.0
2170.0,7.0,2.0609312,6.0,9.0
2180.0,7.0,1.9868563,6.0,9.0
2190.0,7.0,1.9035754,6.0,9.0
2200.0,7.0,1.8649715,6.0,9.0
2210.0,7.0,1.8071712,6.0,8.0
2220.0,7.0,1.7514291,6.0,8.0
2230.0,7.0,1.6918982,5.0,8.0
2240.0,6.0,1.7176728,5.0,7.0
2250.0,6.0,1.7654053,5.0,7.0
2260.0,6.0,1.7750617,5.0,7.0
2270.0,6.0,1.7606534,5.0,7.0
2280.0,6.0,1.7367301,5.0,7.0
2290.0,6.0,1.6976148,5.0,7.0
2300.0,6.0,1.723107,5.0,7.0
2310.0,6.0,1.764195,5.0,8.0
2320.0,6.0,1.7724401,5.0,8.0
2330.0,6.0,1.7982957,5.0,8.0
2340.0,6.0,1.7755387,5.0,8.0
2350.0,7.0,1.7242317,6.0,8.0
2360.0,7.0,1.6842327,6.0,8.0
2370.0,7.0,1.9408605,5.0,8.0
2380.0,7.0,1.3316741,6.0,8.0
2390.0,7.0,1.3635979,6.0,8.0
2400.0,7.0,1.3829417,6.0,8.0
2410.0,7.0,1.3794633,6.0,8.0
2420.0,7.0,1.4491621,6.0,8.0
2430.0,7.0,1.5268346,6.0,8.0
2440.0,7.0,1.6887403,6.0,8.0
2450.0,7.0,1.8519552,6.0,8.0
2460.0,7.0,1.9287244,6.0,8.0
2470.0,7.0,1.9727843,6.0,8.0
2480.0,7.0,1.9830489,6.0,9.0
2490.0,7.0,1.9611384,6.0,9.0
2500.0,7.0,1.9091123,6.0,9.0
2510.0,7.0,1.8505673,6.0,9.0
2520.0,7.0,1.8257107,6.0,9.0
2530.0,7.0,1.8006599,6.0,9.0
2540.0,7.0,1.7363683,6.0,9.0
2550.0,8.0,1.7544869,6.0,9.0
2560.0,7.0,2.0949028,6.0,9.0
2570.0,7.0,2.044206,6.0,9.0
2580.0,7.0,2.0254874,6.0,9.0
2590.0,7.0,2.0601416,6.0,9.0
2600.0,7.0,2.1371577,6.0,9.0
2610.0,7.0,2.2250865,6.0,9.0
2620.0,8.0,2.3252249,6.0,10.0
2630.0,8.0,2.4561348,6.0,10.0
2640.0,8.0,2.588312,6.0,10.0
2650.0,8.0,2.7025871,6.0,10.0
2660.0,8.0,2.8375742,6.0,10.0
2670.0,8.0,2.9563482,6.0,10.0
2680.0,8.0,3.097822,7.0,10.0
2690.0,8.0,3.2145603,7.0,10.0
2700.0,9.0,3.3841972,7.0,10.0
2710.0,9.0,3.4934082,7.0,11.0
2720.0,9.0,3.5386717,7.0,11.0
2730.0,9.0,3.5480924,7.0,11.0
2740.0,8.0,3.5739617,7.0,11.0
2750.0,8.0,3.7172112,7.0,11.0
2760.0,8.0,3.9273248,6.0,12.0
2770.0,8.0,3.9053812,7.0,12.0
2780.0,8.0,3.823684,7.0,12.0
2790.0,8.0,3.7722332,7.0,12.0
2800.0,9.0,3.617884,7.0,12.0
2810.0,9.0,3.5449688,7.0,11.0
2820.0,9.0,3.536834,7.0,11.0
2830.0,9.0,3.6043644,8.0,11.0
2840.0,9.0,3.4995239,8.0,11.0
2850.0,9.0,3.452548,8.0,11.0
2860.0,9.0,3.4216275,8.0,11.0
2870.0,9.0,3.508967,8.0,12.0
2880.0,10.0,3.5480015,8.0,12.0
2890.0,10.0,3.5748417,8.0,12.0
2900.0,10.0,3.596273,8.0,12.0
2910.0,10.0,3.6335976,8.0,12.0
2920.0,10.0,3.6441238,8.0,12.0
2930.0,9.0,3.7219584,8.0,12.0
2940.0,9.0,3.7811098,8.0,12.0
2950.0,9.0,3.7659237,8.0,13.0
2960.0,9.0,3.852481,8.0,13.0
2970.0,9.0,3.83484,8.0,13.0
2980.0,9.0,3.6432528,8.0,12.0
2990.0,9.0,3.5117385,8.0,12.0
3000.0,9.0,3.4000168,8.0,12.0
3010.0,10.0,3.2972906,8.0,12.0
3020.0,9.0,3.316555,8.0,11.0
3030.0,10.0,3.3942535,8.0,11.0
3040.0,10.0,3.4567316,8.0,12.0
3050.0,10.0,3.3242583,9.0,13.0
3060.0,10.0,3.32289,9.0,13.0
3070.0,10.0,3.3989995,9.0,13.0
3080.0,10.0,3.5139437,9.0,13.0
3090.0,10.0,3.6470468,8.0,13.0
3100.0,10.0,3.7598903,8.0,13.0
3110.0,10.0,3.9167058,8.0,13.0
3120.0,10.0,3.9712472,7.0,13.0
3130.0,10.0,3.904382,7.0,13.0
3140.0,10.0,3.7835128,7.0,13.0
3150.0,9.0,3.6388776,7.0,13.0
3160.0,9.0,3.4739301,8.0,13.0
3170.0,9.0,3.3736293,8.0,13.0
3180.0,10.0,3.2667174,8.0,13.0
3190.0,10.0,3.0537436,8.0,13.0
3200.0,10.0,2.8489296,8.0,12.0
3210.0,10.0,2.7627385,8.0,12.0
3220.0,10.0,2.6472144,8.0,11.0
3230.0,9.0,2.5532546,8.0,11.0
3240.0,9.0,2.4584677,7.0,11.0
3250.0,9.0,2.377664,7.0,11.0
3260.0,9.0,2.280803,8.0,11.0
3270.0,10.0,2.9137838,9.0,11.0
3280.0,10.0,2.8255932,9.0,12.0
3290.0,10.0,2.705367,9.0,12.0
3300.0,10.0,2.5915363,9.0,12.0
3310.0,10.0,2.4904659,9.0,11.0
3320.0,10.0,2.4064677,9.0,11.0
3330.0,9.0,2.333719,8.0,11.0
3340.0,9.0,2.2278607,8.0,11.0
3350.0,10.0,2.193005,8.0,11.0
3360.0,9.0,2.1713305,8.0,11.0
3370.0,9.0,2.1484299,8.0,11.0
3380.0,9.0,2.061612,8.0,11.0
3390.0,9.0,1.9618132,8.0,11.0
3400.0,10.0,1.8948942,8.0,11.0
3410.0,10.0,1.8403988,9.0,11.0
3420.0,10.0,1.8421063,9.0,11.0
3430.0,10.0,1.9535244,8.0,11.0
3440.0,10.0,2.2285671,8.0,11.0
3450.0,9.0,2.507433,7.0,11.0
3460.0,9.0,2.1261785,8.0,10.0
3470.0,9.0,2.0881472,8.0,11.0
3480.0,9.0,2.0305717,8.0,10.0
3490.0,9.0,2.0294354,8.0,10.0
3500.0,9.0,2.049883,8.0,10.0
3510.0,9.0,2.0474365,8.0,10.0
3520.0,9.0,2.047437,8.0,10.0
3530.0,9.0,1.9292334,8.0,10.0
3540.0,10.0,1.9713018,8.0,11.0
3550.0,10.0,2.0322173,8.0,11.0
3560.0,10.0,2.0741317,8.0,11.0
3570.0,10.0,1.923687,9.0,11.0
3580.0,10.0,1.8625058,9.0,12.0
3590.0,10.0,1.9437715,9.0,12.0
3600.0,10.0,1.9913737,9.0,12.0
3610.0,10.0,1.9509736,9.0,11.0
3620.0,10.0,1.9419386,9.0,11.0
3630.0,10.0,2.122364,9.0,11.0
3640.0,10.0,2.2315795,9.0,11.0
3650.0,10.0,2.2255108,9.0,11.0
3660.0,10.0,2.1240988,9.0,11.0
3670.0,10.0,2.073827,9.0,11.0
3680.0,10.0,1.9846213,9.0,11.0
3690.0,10.0,1.775224,9.0,11.0
3700.0,10.0,1.7253243,9.0,12.0
3710.0,10.0,1.8340204,9.0,12.0
3720.0,10.0,1.9692413,9.0,12.0
3730.0,10.0,2.088273,9.0,12.0
3740.0,10.0,2.1419559,9.0,12.0
3750.0,10.0,2.1544776,9.0,12.0
3760.0,10.0,2.0804508,9.0,12.0
3770.0,10.0,2.0216315,9.0,12.0
3780.0,10.0,1.8871003,9.0,12.0
3790.0,10.0,1.7622688,9.0,11.0
3800.0,10.0,1.6293231,9.0,11.0
3810.0,10.0,1.6678514,9.0,12.0
3820.0,10.0,1.6263379,9.0,12.0
3830.0,11.0,1.5404412,9.0,12.0
3840.0,11.0,1.5733309,10.0,11.0
3850.0,11.0,1.7047578,10.0,12.0
3860.0,11.0,1.75314,10.0,12.0
3870.0,11.0,1.7696258,9.0,12.0
3880.0,11.0,1.86855,10.0,12.0
3890.0,11.0,1.906261,10.0,12.0
3900.0,11.0,1.9209747,10.0,13.0
3910.0,11.0,1.8710959,10.0,13.0
3920.0,11.0,1.9045781,10.0,12.0
3930.0,11.0,1.8664769,10.0,12.0
3940.0,11.0,1.9313538,10.0,12.0
3950.0,11.0,2.1094916,9.0,12.0
3960.0,11.0,2.1998591,9.0,12.0
3970.0,10.0,2.1849003,9.0,12.0
3980.0,10.0,2.2999141,9.0,12.0
3990.0,10.0,2.4973915,9.0,12.0
4000.0,10.0,2.5126114,9.0,12.0
4010.0,10.0,2.4156494,9.0,12.0
4020.0,10.0,2.4599173,9.0,12.0
4030.0,10.0,2.1943996,9.0,12.0
4040.0,10.0,2.2344606,9.0,12.0
4050.0,11.0,2.3768039,9.0,13.0
4060.0,11.0,2.3999698,9.0,13.0
4070.0,10.0,2.488724,9.0,13.0
4080.0,10.0,2.466623,9.0,13.0
4090.0,10.0,2.2884078,9.0,13.0
4100.0,11.0,2.1575534,9.0,13.0
4110.0,11.0,2.1757247,9.0,12.0
4120.0,11.0,2.1299088,10.0,13.0
4130.0,11.0,2.1610725,10.0,13.0
4140.0,11.0,2.1966343,9.0,13.0
4150.0,11.0,2.5094697,9.0,13.0
4160.0,11.0,2.733305,9.0,13.0
4170.0,11.0,2.874574,9.0,13.0
4180.0,12.0,3.0241625,8.0,13.0
4190.0,12.0,3.154467,8.0,13.0
4200.0,11.0,2.5661178,9.0,13.0
4210.0,12.0,2.6862886,9.0,13.0
4220.0,12.0,2.8681183,9.0,13.0
4230.0,12.0,2.9466097,9.0,13.0
4240.0,12.0,2.9857004,10.0,13.0
4250.0,11.0,2.9907095,10.0,13.0
4260.0,11.0,3.0337355,9.0,13.0
4270.0,11.0,2.9974258,9.0,13.0
4280.0,12.0,2.9681635,9.0,14.0
4290.0,12.0,3.0347464,9.0,13.0
4300.0,12.0,3.1352096,9.0,13.0
4310.0,11.0,3.2503562,9.0,13.0
4320.0,12.0,3.3347704,9.0,14.0
4330.0,12.0,3.4535851,9.0,14.0
4340.0,12.0,3.5328238,9.0,14.0
4350.0,12.0,3.553816,10.0,14.0
4360.0,11.0,3.5527065,10.0,14.0
4370.0,11.0,3.494126,9.0,14.0
4380.0,11.0,3.3998933,9.0,14.0
4390.0,11.0,3.2774668,9.0,14.0
4400.0,11.0,3.1673102,9.0,14.0
4410.0,11.0,3.022873,9.0,14.0
4420.0,11.0,2.8903587,9.0,14.0
4430.0,11.0,2.8141522,9.0,13.0
4440.0,11.0,2.7622118,9.0,13.0
4450.0,11.0,2.6579075,9.0,13.0
4460.0,11.0,2.5277524,10.0,13.0
4470.0,11.0,2.4122913,10.0,13.0
4480.0,11.0,2.358502,10.0,13.0
4490.0,11.0,2.3487666,10.0,13.0
4500.0,11.0,2.408642,10.0,12.0
4510.0,11.0,2.4777882,10.0,13.0
4520.0,11.0,2.2473316,10.0,13.0
4530.0,11.0,1.9228358,10.0,13.0
4540.0,11.0,1.8294983,10.0,13.0
4550.0,11.0,1.7572962,10.0,13.0
4560.0,11.0,1.6943424,10.0,13.0
4570.0,11.0,1.6913122,10.0,13.0
4580.0,11.0,1.7577592,10.0,13.0
4590.0,11.0,1.9022057,10.0,13.0
4600.0,11.0,2.043838,10.0,13.0
4610.0,11.0,2.0822082,10.0,13.0
4620.0,11.0,2.0634592,10.0,13.0
4630.0,11.0,2.052651,10.0,13.0
4640.0,12.0,2.0280805,10.0,13.0
4650.0,12.0,1.9514158,10.0,13.0
4660.0,12.0,1.840695,10.0,13.0
4670.0,12.0,1.7592428,11.0,13.0
4680.0,11.0,1.8158785,10.0,13.0
4690.0,11.0,1.8872074,10.0,13.0
4700.0,11.0,1.8857365,11.0,13.0
4710.0,12.0,1.8821726,10.0,13.0
4720.0,12.0,1.9072932,10.0,13.0
4730.0,12.0,1.9393983,10.0,13.0
4740.0,12.0,1.8955916,11.0,13.0
4750.0,12.0,1.8855516,11.0,13.0
4760.0,12.0,1.9508691,11.0,14.0
4770.0,12.0,1.6155137,11.0,13.0
4780.0,12.0,1.5314496,11.0,13.0
4790.0,12.0,1.4319546,11.0,13.0
4800.0,12.0,1.4141562,11.0,13.0
4810.0,12.0,1.4758985,11.0,13.0
4820.0,12.0,1.6193192,11.0,13.0
4830.0,12.0,1.7258921,10.0,13.0
4840.0,11.0,1.7539536,10.0,13.0
4850.0,12.0,1.816132,10.0,13.0
4860.0,12.0,1.9680686,10.0,13.0
4870.0,11.0,2.1366866,10.0,13.0
4880.0,11.0,2.303097,10.0,13.0
4890.0,11.0,2.443988,10.0,13.0
4900.0,11.0,2.5803206,9.0,13.0
4910.0,11.0,2.738946,9.0,13.0
4920.0,11.0,2.8647218,9.0,13.0
4930.0,11.0,2.9839172,9.0,13.0
4940.0,11.0,3.0641792,9.0,13.0
4950.0,12.0,3.2177083,9.0,13.0
4960.0,12.0,3.3408859,10.0,13.0
4970.0,12.0,3.404443,10.0,13.0
4980.0,12.0,3.218248,10.0,13.0
4990.0,12.0,3.009338,10.0,13.0
5000.0,11.0,2.8573422,10.0,13.0
5010.0,11.0,2.8179936,10.0,13.0
5020.0,11.0,2.920801,9.0,12.0
5030.0,11.0,3.0193303,8.0,12.0
5040.0,11.0,3.0761533,8.0,12.0
5050.0,11.0,3.1438224,8.0,13.0
5060.0,12.0,3.1737502,7.0,13.0
5070.0,12.0,3.1576064,8.0,14.0
5080.0,12.0,3.25155,8.0,14.0
5090.0,12.0,3.2883537,9.0,14.0
5100.0,12.0,3.246258,9.0,14.0
5110.0,12.0,3.192588,9.0,13.0
5120.0,11.0,3.3111308,10.0,14.0
5130.0,11.0,3.4550946,10.0,14.0
5140.0,12.0,3.584042,10.0,14.0
5150.0,12.0,3.6633778,9.0,14.0
5160.0,12.0,3.7222464,9.0,14.0
5170.0,12.0,3.6409333,9.0,14.0
5180.0,12.0,3.4877787,10.0,13.0
5190.0,12.0,3.3119388,10.0,13.0
5200.0,12.0,3.2563016,9.0,14.0
5210.0,12.0,3.289373,9.0,14.0
5220.0,12.0,3.3357863,10.0,14.0
5230.0,12.0,3.4213638,10.0,14.0
5240.0,12.0,3.4054484,10.0,14.0
5250.0,13.0,3.2777278,10.75,14.0
5260.0,12.0,3.1024697,11.0,14.0
5270.0,12.0,2.9416578,10.0,14.0
5280.0,12.0,2.7543771,10.0,14.0
5290.0,12.5,2.5579095,10.0,13.0
5300.0,12.0,2.3983142,10.0,13.0
5310.0,12.0,2.342332,10.0,13.0
5320.0,13.0,2.508106,10.0,14.0
5330.0,13.0,2.5666308,11.0,14.0
5340.0,13.0,2.5913563,11.0,14.0
5350.0,13.0,2.6771326,11.0,14.0
5360.0,13.0,2.7459016,11.0,14.0
5370.0,13.0,2.6707952,11.0,14.0
5380.0,13.0,2.6620734,11.0,14.0
5390.0,13.0,2.6381037,10.0,15.0
5400.0,13.0,2.698722,10.0,15.0
5410.0,13.0,2.7436545,10.0,15.0
5420.0,13.0,2.7612834,10.0,14.0
5430.0,13.0,2.8023274,10.0,14.0
5440.0,12.0,2.8641927,11.0,14.0
5450.0,12.0,2.970667,11.0,14.0
5460.0,12.0,3.047946,11.0,14.0
5470.0,12.0,3.1590984,10.0,14.0
5480.0,12.0,3.2054513,10.0,14.0
5490.0,12.0,3.211575,10.0,14.0
5500.0,12.0,3.1591148,10.0,14.0
5510.0,12.0,3.112996,11.0,14.0
5520.0,13.0,3.0186448,11.0,14.0
5530.0,13.0,2.886893,11.0,14.0
5540.0,13.0,2.7180839,11.0,14.0
5550.0,13.0,2.6107929,11.0,14.0
5560.0,13.0,2.522913,12.0,14.0
5570.0,13.0,2.523036,12.0,14.0
5580.0,12.0,2.6042488,12.0,14.0
5590.0,12.0,2.6077805,11.0,13.0
5600.0,12.0,2.5918403,11.0,14.0
5610.0,12.0,2.5907047,10.0,14.0
5620.0,12.0,2.5866919,10.0,14.0
5630.0,12.0,2.5269785,10.0,13.0
5640.0,12.0,2.4499304,10.0,14.0
5650.0,13.0,2.371834,10.0,14.0
5660.0,13.0,2.2915409,11.0,14.0
5670.0,13.0,2.2317886,11.0,14.0
5680.0,13.0,2.1750715,11.0,14.0
5690.0,13.0,2.1714027,12.0,14.0
5700.0,13.0,2.1902876,11.0,14.0
5710.0,13.0,2.0881972,11.0,14.0
5720.0,13.0,1.7470368,12.0,14.0
5730.0,13.0,1.7304605,12.0,14.0
5740.0,13.0,1.7539781,12.0,14.0
5750.0,13.0,1.6435237,12.0,14.0
5760.0,12.0,1.6245857,12.0,14.0
5770.0,12.0,1.8261914,12.0,14.0
5780.0,12.0,1.9703419,12.0,14.0
5790.0,12.0,2.0352044,11.0,14.0
5800.0,13.0,2.0300736,11.0,14.0
5810.0,13.0,2.1288795,11.0,14.0
5820.0,13.0,2.2409995,11.0,15.0
5830.0,13.0,2.280743,12.0,15.0
5840.0,13.0,2.2658665,12.0,14.0
5850.0,13.0,2.2637112,12.0,14.0
5860.0,13.0,2.2934184,12.0,14.0
5870.0,13.0,2.2658277,11.0,14.0
5880.0,13.0,2.103411,11.0,14.0
5890.0,13.0,2.0054235,11.0,14.0
5900.0,13.0,1.9343107,11.0,14.0
5910.0,13.0,1.8160328,12.0,14.0
5920.0,13.0,1.7992159,12.0,14.0
5930.0,13.0,1.9371288,11.0,14.0
5940.0,13.0,1.9950316,11.0,14.0
5950.0,13.0,1.9998219,11.0,14.0
5960.0,13.0,2.015093,11.0,14.0
5970.0,13.0,1.9945043,11.0,14.0
5980.0,13.0,1.8832628,11.75,14.0
5990.0,13.0,1.7744012,12.0,14.0
6000.0,13.0,1.7068684,12.0,14.0
6010.0,13.0,1.6102825,12.0,14.0
6020.0,13.0,1.7213072,12.0,14.0
6030.0,13.0,1.9433925,12.0,14.0
6040.0,14.0,2.0752673,13.0,14.0
6050.0,14.0,2.0700388,12.0,15.0
6060.0,14.0,2.2129142,12.0,15.0
6070.0,14.0,2.1867344,12.0,15.0
6080.0,14.0,2.1136508,13.0,15.0
6090.0,14.0,2.0889053,13.0,15.0
6100.0,14.0,2.0582137,13.0,15.0
6110.0,14.0,2.0013444,13.0,15.0
6120.0,14.0,2.0061684,13.0,15.0
6130.0,15.0,2.0104206,13.0,16.0
6140.0,15.0,1.8776006,14.0,16.0
6150.0,15.0,1.76533,14.0,16.0
6160.0,15.0,1.8229032,14.0,16.0
6170.0,15.0,1.7333717,14.0,16.0
6180.0,15.0,1.6025976,14.0,16.0
6190.0,16.0,1.5593394,15.0,16.0
6200.0,16.0,1.4798521,15.0,16.0
6210.0,15.0,1.607947,14.0,16.0
6220.0,15.0,1.6023663,14.0,17.0
6230.0,15.0,1.7386448,14.0,17.0
6240.0,15.0,2.0658581,14.0,17.0
6250.0,15.0,2.2854705,14.0,17.0
6260.0,15.0,2.342052,14.0,17.0
6270.0,15.0,2.3845332,14.0,17.0
6280.0,16.0,2.3903368,14.0,17.0
6290.0,16.0,2.369272,14.0,17.0
6300.0,16.0,2.274154,14.0,17.0
6310.0,16.0,2.2474349,14.0,17.0
6320.0,14.0,2.2710755,13.0,16.0
6330.0,14.0,2.3020856,13.0,16.0
6340.0,14.0,2.2173407,13.0,16.0
6350.0,14.0,2.1153617,13.0,16.0
6360.0,14.0,2.0868783,13.0,16.0
6370.0,14.0,2.0811296,13.0,16.0
6380.0,14.0,2.0149093,13.0,15.0
6390.0,14.0,1.9350357,13.0,15.0
6400.0,13.0,1.8746496,13.0,15.0
6410.0,13.0,1.7723405,13.0,15.0
6420.0,13.0,1.6496041,13.0,15.0
6430.0,13.0,1.5676833,13.0,15.0
6440.0,13.0,1.4996693,13.0,15.0
6450.0,13.0,1.5023475,13.0,15.0
6460.0,13.0,1.559374,13.0,15.0
6470.0,13.0,1.6038527,13.0,14.0
6480.0,13.0,1.6446215,13.0,14.0
6490.0,13.0,1.6332262,13.0,14.0
6500.0,13.0,1.5782174,13.0,14.0
6510.0,13.0,1.511542,13.0,14.0
6520.0,13.0,1.477024,13.0,14.0
6530.0,13.0,1.655852,13.0,14.0
6540.0,13.0,1.8614159,13.0,15.0
6550.0,13.0,1.9041617,13.0,15.0
6560.0,13.0,1.8210412,13.0,15.0
6570.0,13.0,1.6802121,13.0,15.0
6580.0,13.0,1.5160671,13.0,14.0
6590.0,14.0,1.9898889,13.0,15.0
6600.0,13.0,2.7728643,12.0,15.0
6610.0,13.0,2.4247015,12.0,15.0
6620.0,13.0,2.1878734,12.0,15.0
6630.0,13.0,2.0775754,13.0,15.0
6640.0,14.0,1.9807063,13.0,15.0
6650.0,14.0,1.8701277,13.0,15.0
6660.0,14.0,1.8187478,13.0,15.0
6670.0,14.0,1.7955832,13.0,15.0
6680.0,14.0,1.8124654,13.0,15.0
6690.0,13.0,1.8374981,13.0,15.0
6700.0,13.0,1.8239515,13.0,14.0
6710.0,13.0,1.8641802,13.0,14.0
6720.0,13.0,1.916644,13.0,14.0
6730.0,13.0,1.9781253,13.0,14.0
6740.0,13.0,2.010472,13.0,14.0
6750.0,13.0,1.9661921,12.0,14.0
6760.0,13.0,1.8900964,12.0,14.0
6770.0,13.0,1.797952,12.0,14.0
6780.0,13.0,1.6892772,12.0,14.0
6790.0,13.0,1.6407167,12.0,14.0
6800.0,14.0,1.6224993,13.0,14.0
6810.0,14.0,1.5538415,13.0,14.0
6820.0,13.0,1.4303845,13.0,15.0
6830.0,14.0,1.3471339,13.0,15.0
6840.0,14.0,1.3742561,13.0,15.0
6850.0,14.0,1.4977295,13.0,15.0
6860.0,14.0,1.6613977,13.0,15.0
6870.0,14.0,1.8416816,13.0,15.0
6880.0,14.0,1.9890772,13.0,15.0
6890.0,14.0,2.1596348,13.0,15.0
6900.0,14.0,2.2177012,13.0,15.0
6910.0,15.0,2.1131046,13.0,15.0
6920.0,15.0,1.9568543,13.0,16.0
6930.0,15.0,1.8865757,13.0,16.0
6940.0,15.0,1.8795074,13.0,16.0
6950.0,15.0,1.9870642,13.0,16.0
6960.0,15.0,2.1183043,13.0,17.0
6970.0,15.0,2.212412,13.0,17.0
6980.0,15.0,2.2793574,13.0,17.0
6990.0,15.0,2.317058,14.0,17.0
7000.0,15.0,2.4089365,14.0,17.0
7010.0,15.0,2.4968333,14.0,17.0
7020.0,15.0,2.580627,13.0,17.0
7030.0,15.0,2.7354379,13.0,17.0
7040.0,15.0,2.7967854,13.0,17.0
7050.0,15.0,2.8755674,13.0,17.0
7060.0,15.0,2.914479,13.0,17.0
7070.0,15.0,2.8641653,13.0,17.0
7080.0,15.0,2.6848323,13.0,17.0
7090.0,15.0,2.4953496,13.0,17.0
7100.0,16.0,3.1333482,14.0,18.0
7110.0,15.5,3.0211494,14.0,18.0
7120.0,15.0,2.9064355,13.0,18.0
7130.0,15.0,2.8134818,13.0,17.0
7140.0,15.0,2.5673332,13.0,17.0
7150.0,15.0,2.5402381,13.0,17.0
7160.0,15.0,2.6925519,13.0,17.0
7170.0,14.0,2.769328,13.0,17.0
7180.0,14.0,2.7338629,13.0,17.0
7190.0,14.0,2.7766483,13.0,17.0
7200.0,14.0,2.8543644,13.0,16.0
7210.0,14.0,2.892745,13.0,17.0
7220.0,14.0,2.8021595,13.0,16.0
7230.0,14.0,2.694332,13.0,16.0
7240.0,14.0,2.5930831,13.0,16.0
7250.0,14.0,2.5082803,13.0,16.0
7260.0,14.0,2.4645827,13.0,16.0
7270.0,14.0,2.4511366,13.0,16.0
7280.0,14.0,2.3878005,13.0,16.0
7290.0,15.0,2.170188,13.0,16.0
7300.0,15.0,2.0869632,13.0,17.0
7310.0,16.0,2.1155083,13.0,17.0
7320.0,16.0,2.0749743,14.0,17.0
7330.0,15.0,2.0393577,14.0,17.0
7340.0,15.0,2.1127796,14.0,17.0
7350.0,15.0,2.2598176,13.0,17.0
7360.0,16.0,2.4107623,13.0,18.0
7370.0,16.0,2.3830383,13.0,18.0
7380.0,16.0,2.4864995,14.0,18.0
7390.0,16.0,2.571536,14.0,18.0
7400.0,16.0,2.6504185,14.0,18.0
7410.0,16.0,2.596429,14.0,18.0
7420.0,16.0,2.449194,15.0,18.0
7430.0,16.0,2.3246486,15.0,18.0
7440.0,17.0,2.2066853,16.0,17.0
7450.0,17.0,2.2063982,16.0,17.0
7460.0,17.0,2.194763,15.0,18.0
7470.0,16.0,2.1530776,15.0,18.0
7480.0,16.0,2.0786898,15.0,18.0
7490.0,16.0,2.0244505,15.0,18.0
7500.0,16.0,1.9246411,15.0,18.0
7510.0,16.0,1.9321485,15.0,18.0
7520.0,16.0,1.9566548,15.0,18.0
7530.0,16.0,1.921436,15.0,17.0
7540.0,16.0,1.8893855,15.0,17.0
7550.0,15.0,1.8991976,15.0,17.0
7560.0,16.0,1.903016,15.0,17.0
7570.0,16.0,1.9295055,15.0,18.0
7580.0,16.0,1.9969335,15.0,18.0
7590.0,16.0,2.1120815,15.0,17.0
7600.0,16.0,2.3087435,15.0,18.0
7610.0,16.0,2.3564513,15.0,18.0
7620.0,16.0,2.26898,15.0,18.0
7630.0,17.0,2.350945,15.0,18.0
7640.0,17.0,2.5027244,15.0,18.0
7650.0,16.0,2.5757184,15.0,18.0
7660.0,16.0,2.7855103,15.0,19.0
7670.0,16.0,2.770547,15.0,19.0
7680.0,16.0,2.5718944,14.0,18.0
7690.0,16.0,2.6318545,14.0,18.0
7700.0,16.0,2.6031284,15.0,18.0
7710.0,16.0,2.5696638,15.0,18.0
7720.0,16.0,2.4391966,14.0,18.0
7730.0,16.0,2.42464,14.0,18.0
7740.0,16.0,2.4611702,14.0,18.0
7750.0,16.0,2.26954,14.0,18.0
7760.0,16.0,2.3319468,14.0,18.0
7770.0,17.0,2.5485744,14.0,18.0
7780.0,16.0,2.6450467,14.0,18.0
7790.0,16.0,2.8410912,14.0,18.0
7800.0,17.0,2.9090545,15.0,18.0
7810.0,17.0,2.9841392,15.0,18.0
7820.0,17.0,3.146408,15.0,19.0
7830.0,17.0,2.9952886,15.0,19.0
7840.0,17.0,2.8927495,16.0,18.0
7850.0,17.0,2.845992,16.0,18.0
7860.0,17.0,2.7789083,16.0,18.0
7870.0,17.0,2.5804493,16.0,19.0
7880.0,17.0,2.5060089,16.0,19.0
7890.0,17.0,2.6360648,16.0,19.0
7900.0,17.0,2.1952214,16.0,19.0
7910.0,17.0,1.9621984,16.0,19.0
7920.0,17.0,1.8281224,16.0,19.0
7930.0,17.0,1.9699465,16.0,19.0
7940.0,17.0,2.0350547,16.0,19.0
7950.0,17.0,1.990856,15.0,18.0
7960.0,16.0,1.8377953,15.0,18.0
7970.0,16.0,1.980514,15.0,18.0
7980.0,16.0,1.9693519,15.0,18.0
7990.0,16.0,1.8897727,15.0,18.0
8000.0,16.0,1.9240764,15.0,18.0
8010.0,17.0,1.8721002,15.0,18.0
8020.0,17.0,1.7433453,15.0,18.0
8030.0,17.0,1.6518056,16.0,18.0
8040.0,17.0,1.5699188,16.0,19.0
8050.0,17.0,1.5303005,16.0,19.0
8060.0,18.0,1.5286866,17.0,19.0
8070.0,18.0,1.6202722,17.0,19.0
8080.0,17.0,1.6000212,17.0,19.0
8090.0,18.0,1.5465794,17.0,19.0
8100.0,18.0,1.4290053,17.0,19.0
8110.0,18.0,1.4811648,17.0,19.0
8120.0,18.0,1.5072291,16.0,19.0
8130.0,18.0,1.6179782,16.0,19.0
8140.0,18.0,1.8594208,16.0,19.0
8150.0,18.0,1.9973667,16.0,19.0
8160.0,18.0,2.0758307,16.5,20.0
8170.0,18.0,2.4160523,17.0,20.0
8180.0,18.0,2.6070685,17.0,20.0
8190.0,18.0,2.604304,17.0,20.0
8200.0,18.0,2.4508162,17.0,20.0
8210.0,18.0,2.55224,17.0,20.0
8220.0,18.0,2.7374961,17.0,20.0
8230.0,18.0,2.7592099,17.0,20.0
8240.0,18.0,2.8409805,17.0,20.0
8250.0,18.0,2.8444815,17.0,20.0
8260.0,18.0,2.9364345,17.0,21.0
8270.0,18.0,2.9326732,16.0,21.0
8280.0,18.0,2.874537,16.0,21.0
8290.0,18.0,3.0660806,16.0,21.0
8300.0,18.0,3.1981645,17.0,22.0
8310.0,18.0,3.181759,16.0,21.0
8320.0,19.0,3.0524943,17.0,21.0
8330.0,19.0,2.911065,17.0,21.0
8340.0,19.0,2.9082959,17.0,21.0
8350.0,19.0,2.6086538,17.0,21.0
8360.0,19.0,2.452843,18.0,21.0
8370.0,19.0,2.5514,18.0,21.0
8380.0,19.0,2.5866945,18.0,21.0
8390.0,19.0,2.5099971,17.0,21.0
8400.0,19.0,2.4421082,18.0,21.0
8410.0,19.0,2.43947,18.0,21.0
8420.0,19.0,2.349433,18.0,20.5
8430.0,19.0,2.2604065,17.0,20.0
8440.0,19.0,2.1580474,17.0,20.0
8450.0,19.0,2.0679407,17.0,20.0
8460.0,19.0,1.944045,18.0,20.0
8470.0,19.0,1.8117915,18.0,20.0
8480.0,19.0,1.8299701,18.0,20.0
8490.0,19.0,1.7907028,18.0,20.0
8500.0,19.0,1.7688019,18.0,20.0
8510.0,19.0,2.1003273,17.0,20.0
8520.0,19.0,2.0733137,18.0,20.0
8530.0,19.0,2.0733414,18.0,21.0
8540.0,19.0,2.019324,18.0,21.0
8550.0,20.0,1.9967897,18.0,21.0
8560.0,19.0,2.0183601,18.0,20.0
8570.0,19.0,1.9660106,18.0,20.0
8580.0,19.0,1.8722125,18.0,21.0
8590.0,19.0,1.7788169,18.0,21.0
8600.0,19.0,1.7175546,18.0,21.0
8610.0,19.0,1.6444204,18.0,21.0
8620.0,19.0,1.5854337,18.0,21.0
8630.0,19.0,1.6063324,18.0,20.0
8640.0,19.0,1.7733272,18.0,20.0
8650.0,19.0,1.9134204,18.0,21.0
8660.0,19.0,1.9883448,18.0,21.0
8670.0,19.0,2.0113053,18.0,21.0
8680.0,19.0,2.029083,18.0,21.0
8690.0,19.0,2.0242524,18.0,21.0
8700.0,19.0,2.0567596,18.0,21.0
8710.0,19.0,2.0943036,18.0,21.0
8720.0,19.0,2.095246,18.0,21.0
8730.0,19.0,1.9027566,18.0,21.0
8740.0,20.0,2.1546767,19.0,21.0
8750.0,20.0,2.155033,19.0,21.0
8760.0,20.0,2.143025,19.0,21.0
8770.0,20.0,2.1874897,18.0,21.0
8780.0,20.0,2.189051,18.0,21.0
8790.0,20.0,1.9067247,18.0,21.0
8800.0,20.0,1.8935723,19.0,21.0
8810.0,20.0,1.8935723,19.0,21.0
8820.0,20.0,2.151742,19.0,22.0
8830.0,21.0,2.2059827,19.0,22.0
8840.0,21.0,2.2068615,19.0,22.0
8850.0,20.0,2.6584039,19.0,23.0
8860.0,20.0,2.718103,18.0,23.0
8870.0,20.0,2.7182968,18.0,23.0
8880.0,21.0,2.7214239,18.0,23.0
8890.0,21.0,2.7160504,19.0,23.0
8900.0,21.0,2.7145855,19.0,23.0
8910.0,21.0,2.586998,19.0,23.0
8920.0,21.0,2.6566708,19.0,23.0
8930.0,21.0,2.6566708,19.0,23.0
8940.0,21.0,2.7343884,19.0,23.0
8950.0,22.0,2.5519001,20.0,23.0
8960.0,21.0,3.2100115,19.0,24.0
8970.0,22.0,3.530403,20.0,24.0
8980.0,21.0,3.3398938,19.0,24.0
8990.0,21.0,3.1228166,20.0,24.0
9000.0,22.0,2.9152937,20.0,24.0
9010.0,22.0,2.5169108,20.0,23.0
9020.0,22.0,2.454634,21.0,23.0
9030.0,22.0,2.356879,20.0,23.0
9040.0,22.0,2.0841956,21.0,23.0
9050.0,22.0,2.034201,20.5,23.0
9060.0,22.0,2.1000073,21.0,22.0
9070.0,21.0,2.0127547,21.0,22.0
9080.0,21.0,2.0334787,20.0,22.0
9090.0,21.0,2.2964926,20.0,22.0
9100.0,21.0,2.4634264,20.0,22.0
9110.0,21.0,2.4441748,19.0,22.0
9120.0,20.0,2.5017688,19.0,22.0
9130.0,20.0,2.6336439,19.0,22.0
9140.0,19.0,2.7435312,18.0,21.0
9150.0,19.0,2.7449853,18.0,22.0
9160.0,20.0,2.91395,18.0,22.0
9170.0,20.0,2.800053,18.0,22.0
9180.0,20.0,3.062698,18.0,22.0
9190.0,19.5,3.1158688,17.0,22.0
9200.0,19.0,3.1158113,17.0,22.0
9210.0,19.0,3.032433,17.0,22.0
9220.0,19.0,3.0814993,17.0,22.0
9230.0,19.0,3.0814993,17.0,22.0
9240.0,19.0,2.7866683,17.0,22.0
9250.0,20.0,2.7191255,18.0,22.0
9260.0,20.0,2.7189658,18.0,22.0
9270.0,19.0,2.4990191,18.0,21.0
9280.0,20.0,2.2179246,18.0,21.0
9290.0,20.0,2.2160902,18.0,21.0
9300.0,20.0,2.9878242,18.0,22.0
9310.0,21.0,2.472928,20.0,23.0
9320.0,21.0,2.7016375,20.0,24.0
9330.0,22.0,2.8219497,20.0,24.0
9340.0,22.0,2.7271588,20.0,24.0
9350.0,22.0,2.5363145,20.0,24.0
9360.0,22.0,2.391071,20.0,23.0
9370.0,22.0,2.1479442,20.0,23.0
9380.0,22.0,2.0324535,20.0,23.0
9390.0,22.0,2.1162362,20.0,23.0
9400.0,22.0,2.168701,20.0,23.0
9410.0,22.0,2.2696462,21.0,23.0
9420.0,22.0,2.405331,21.0,23.0
9430.0,22.0,2.707409,20.0,23.0
9440.0,23.0,3.023406,20.0,23.0
9450.0,23.0,3.2141843,20.0,24.0
9460.0,23.0,3.2172017,20.0,24.0
9470.0,22.0,3.074838,20.0,24.0
9480.0,22.0,2.8642883,20.0,23.0
9490.0,22.0,2.6941419,20.0,23.0
9500.0,22.0,2.652745,19.0,23.0
9510.0,22.0,2.6363614,19.0,23.0
9520.0,22.0,2.614977,19.0,23.0
9530.0,21.0,2.552861,19.0,23.0
9540.0,21.0,2.4997249,19.0,22.0
9550.0,21.0,2.438855,19.0,22.0
9560.0,20.0,2.4401753,19.0,23.0
9570.0,20.0,2.5642862,19.0,22.0
9580.0,21.0,2.7553637,19.0,22.0
9590.0,21.0,3.0501223,19.0,23.0
9600.0,21.0,3.2254755,19.0,23.0
9610.0,22.0,3.4122474,19.0,23.0
9620.0,22.0,3.5557013,20.0,24.0
9630.0,23.0,3.6328468,21.0,24.0
9640.0,23.0,3.6411335,21.0,25.0
9650.0,23.0,3.7013776,21.0,25.0
9660.0,23.0,3.5475316,21.0,25.0
9670.0,23.0,3.325923,21.0,26.0
9680.0,23.0,3.1016552,21.0,25.0
9690.0,23.0,2.964458,21.0,25.0
9700.0,23.0,2.9617043,21.0,25.0
9710.0,22.0,2.5435112,21.0,24.0
9720.0,22.0,2.2673092,22.0,24.0
9730.0,23.0,2.1998436,22.0,24.0
9740.0,23.0,2.1481922,22.0,24.0
9750.0,23.0,2.098918,22.0,24.0
9760.0,23.0,2.1823199,22.0,24.0
9770.0,23.0,2.0816543,21.0,23.0
9780.0,23.0,2.052335,21.0,23.0
9790.0,23.0,2.113147,21.0,24.0
9800.0,23.0,2.072125,21.0,24.0
9810.0,23.0,1.9555277,21.0,24.0
9820.0,23.0,1.8249154,21.0,23.0
9830.0,23.0,1.841618,21.0,24.0
9840.0,23.0,1.885897,22.0,24.0
9850.0,23.0,1.8793564,22.0,23.0
9860.0,23.0,1.8581355,21.0,23.0
9870.0,23.0,1.7957437,21.0,23.0
9880.0,23.0,1.7688769,21.0,24.0
9890.0,23.0,1.8230665,21.0,24.0
9900.0,23.0,2.0147007,22.0,24.0
9910.0,23.0,2.2162218,22.0,24.0
9920.0,23.0,2.3231204,22.0,24.0
9930.0,23.0,2.3286297,22.0,25.0
9940.0,23.0,2.3160782,22.0,25.0
9950.0,23.0,2.3000848,22.0,25.0
9960.0,23.0,2.1838336,22.0,25.0
9970.0,23.0,2.0146806,22.0,25.0
9980.0,24.0,1.9196692,22.0,25.0
9990.0,24.0,1.9582522,22.0,25.0
10000.0,24.0,2.0361178,22.0,25.0
10010.0,24.0,2.1387398,22.0,25.0
10020.0,24.0,2.2939036,22.0,25.0
10030.0,24.0,2.4643078,22.0,25.0
10040.0,24.0,2.5095606,22.0,25.0
10050.0,24.0,2.501557,22.0,26.0
10060.0,24.0,2.5222967,22.0,26.0
10070.0,24.0,2.5355713,22.0,26.0
10080.0,25.0,2.5545857,22.0,26.0
10090.0,25.0,2.4999201,22.0,26.0
10100.0,24.0,2.5465937,22.0,26.0
10110.0,24.0,2.562744,22.0,26.0
10120.0,24.0,2.5581942,21.0,26.0
10130.0,23.0,2.6875558,21.0,26.0
10140.0,23.0,2.7080028,21.0,26.0
10150.0,23.0,2.6727808,21.0,25.0
10160.0,23.0,2.643195,21.0,25.0
10170.0,23.0,2.7287257,21.0,25.0
10180.0,23.0,2.7811575,21.0,25.0
10190.0,23.0,2.8913145,21.0,25.0
10200.0,23.0,3.0946178,21.0,25.0
10210.0,23.0,3.1898086,21.0,24.0
10220.0,23.0,3.1385963,21.0,25.0
10230.0,23.0,3.1768963,22.0,24.0
10240.0,23.0,3.1086934,21.0,24.0
10250.0,23.0,3.01228,21.0,25.0
10260.0,23.0,2.851175,21.0,25.0
10270.0,23.0,2.884006,22.0,25.0
10280.0,23.0,2.8200963,22.0,25.0
10290.0,23.0,2.6545959,22.0,25.0
10300.0,24.0,2.562541,22.0,25.0
10310.0,24.0,2.6823056,22.0,25.0
10320.0,24.0,2.777948,22.0,25.0
10330.0,24.0,2.8573952,22.0,25.0
10340.0,24.0,2.9392173,21.0,25.0
10350.0,24.0,3.1214414,21.0,25.0
10360.0,24.0,3.277765,21.0,25.0
10370.0,23.0,3.4137044,21.0,26.0
10380.0,23.0,3.3576183,21.0,26.0
10390.0,23.0,3.3531015,21.0,26.0
10400.0,23.0,3.571357,21.0,26.0
10410.0,23.0,3.8028169,21.0,26.0
10420.0,24.0,3.72356,21.0,26.0
10430.0,24.0,3.6874962,21.0,26.0
10440.0,24.0,3.7177649,21.0,26.0
10450.0,24.0,3.7097585,22.0,26.0
10460.0,24.0,3.4385984,22.0,26.0
10470.0,24.0,3.1656735,22.0,26.0
10480.0,24.0,2.866749,22.0,25.0
10490.0,24.0,2.6498423,22.0,25.0
10500.0,25.0,3.5454338,22.0,27.0
10510.0,25.0,3.524982,22.0,27.0
10520.0,25.0,3.4567747,22.0,27.0
10530.0,24.0,3.39872,22.0,27.0
10540.0,24.0,3.3634267,22.0,27.0
10550.0,24.0,3.2553117,22.0,27.0
10560.0,24.0,3.1510105,22.0,27.0
10570.0,25.0,3.042997,22.0,27.0
10580.0,25.0,2.9268274,23.0,26.0
10590.0,24.0,2.791853,23.0,26.0
10600.0,24.0,2.751485,22.0,26.0
10610.0,24.0,2.777813,22.0,26.0
10620.0,24.0,2.8238325,22.0,27.0
10630.0,24.0,2.7919478,22.0,27.0
10640.0,24.0,2.889732,22.0,27.0
10650.0,24.0,3.044403,22.0,27.0
10660.0,24.0,3.155217,22.0,27.0
10670.0,24.0,3.2804341,22.0,27.0
10680.0,24.0,3.426751,22.0,26.0
10690.0,24.0,3.5350344,22.0,26.0
10700.0,24.0,3.6277084,22.0,26.0
10710.0,25.0,3.6692271,22.0,26.0
10720.0,25.0,3.688938,22.0,26.0
10730.0,25.0,3.636677,22.0,26.0
10740.0,25.0,3.8540623,23.0,26.0
10750.0,25.0,4.2171397,23.0,26.0
10760.0,25.0,4.552727,23.0,26.0
10770.0,25.0,4.672301,23.0,26.0
10780.0,25.0,4.646823,23.0,26.0
10790.0,25.0,3.4318666,23.0,27.0
10800.0,24.0,4.217665,22.0,26.0
10810.0,24.0,4.15107,22.0,27.0
10820.0,24.0,4.035426,22.0,27.0
10830.0,25.0,3.8855789,22.0,26.0
10840.0,25.0,3.7947323,22.0,26.0
10850.0,25.0,3.7489202,22.0,26.0
10860.0,25.0,3.7285829,22.0,27.0
10870.0,25.0,3.7319105,22.0,27.0
10880.0,25.0,3.7314038,22.0,27.0
10890.0,25.0,3.729116,22.0,27.0
10900.0,25.0,3.6523297,22.0,27.0
10910.0,26.0,3.4712884,22.0,27.0
10920.0,26.0,3.307203,23.0,27.0
10930.0,26.0,3.076611,23.0,27.0
10940.0,25.0,2.805778,23.0,27.0
10950.0,25.0,2.6128569,23.0,27.0
10960.0,25.0,2.6716428,23.0,27.0
10970.0,25.0,2.8250496,23.0,27.0
10980.0,25.0,2.9969409,23.0,27.0
10990.0,25.0,3.2564573,22.0,27.0
11000.0,25.0,3.615922,22.0,27.0
11010.0,25.0,4.040988,22.0,27.0
11020.0,25.0,4.357088,22.0,27.0
11030.0,25.0,4.486362,22.0,27.0
11040.0,25.0,4.6002517,21.0,27.0
11050.0,25.0,4.789369,20.0,27.0
11060.0,25.0,4.908258,19.0,27.0
11070.0,25.0,4.959241,19.0,27.0
11080.0,25.0,4.943162,20.0,27.0
11090.0,25.0,4.785496,20.0,26.0
11100.0,25.0,4.5528946,20.0,26.0
11110.0,25.0,4.324931,21.0,26.0
11120.0,25.0,4.1058683,21.0,26.0
11130.0,25.0,3.9562936,22.0,26.0
11140.0,25.0,3.8833356,22.0,26.0
11150.0,25.0,3.7999976,23.0,26.0
11160.0,25.0,3.746466,23.0,26.0
11170.0,24.0,3.5720775,22.0,26.0
11180.0,25.0,3.8267472,22.0,26.0
11190.0,25.0,3.860729,22.0,26.0
11200.0,25.0,3.7641792,23.0,26.0
11210.0,25.0,3.5135727,23.0,27.0
11220.0,25.0,3.1989274,23.0,26.0
11230.0,25.0,2.874512,23.0,26.0
11240.0,25.0,2.6297338,23.0,26.0
11250.0,25.0,2.3846524,23.0,26.0
11260.0,25.0,2.2541401,23.0,26.0
11270.0,25.0,2.2310247,23.0,26.0
11280.0,25.0,2.2247827,23.0,26.0
11290.0,25.0,2.2653863,23.0,26.0
11300.0,25.0,2.379277,23.0,26.0
11310.0,25.0,2.5437226,23.0,27.0
11320.0,25.0,2.7531672,23.0,27.0
11330.0,25.0,2.9873807,23.0,27.0
11340.0,25.0,3.2207155,23.0,27.0
11350.0,25.0,3.3575585,22.0,27.0
11360.0,25.0,3.4878104,22.0,26.0
11370.0,25.0,3.599627,22.0,26.0
11380.0,25.0,3.7601106,22.0,27.0
11390.0,24.0,3.9017658,21.0,27.0
11400.0,25.0,4.003273,21.0,27.0
11410.0,25.0,4.1015053,21.0,27.0
11420.0,25.0,4.1984253,20.0,27.0
11430.0,25.0,4.256548,21.0,28.0
11440.0,25.0,4.2245817,21.0,28.0
11450.0,25.0,4.1729317,21.0,28.0
11460.0,25.0,4.1507707,21.0,28.0
11470.0,26.0,4.098939,22.0,27.0
11480.0,26.0,4.0288434,22.0,27.0
11490.0,26.0,3.9118774,22.0,27.0
11500.0,26.0,3.8542492,22.0,27.0
11510.0,26.0,3.7334292,22.0,27.0
11520.0,26.0,3.6783154,22.0,28.0
11530.0,26.0,3.6331627,22.0,28.0
11540.0,26.0,3.632613,22.0,28.0
11550.0,25.0,3.5998275,22.0,28.0
11560.0,26.0,3.3572376,23.0,28.0
11570.0,26.0,3.2468998,23.0,28.0
11580.0,26.0,3.2587998,23.0,28.0
11590.0,26.0,3.2453337,24.0,28.0
11600.0,26.0,3.1763296,24.0,28.0
11610.0,26.0,3.2863135,25.0,28.0
11620.0,27.0,3.4907305,25.0,28.0
11630.0,27.0,3.5314884,25.0,28.0
11640.0,27.0,3.4118843,25.0,28.0
11650.0,27.0,3.350576,25.0,28.0
11660.0,26.0,3.403474,25.0,28.0
11670.0,26.0,3.4115722,24.0,28.0
11680.0,26.0,3.353898,24.0,28.0
11690.0,26.0,3.2344372,24.0,28.0
11700.0,26.0,3.0963972,24.0,28.0
11710.0,26.0,3.0034814,24.0,28.0
11720.0,27.0,2.9541197,25.0,28.0
11730.0,27.0,2.8570402,25.0,28.0
11740.0,27.0,2.8200166,25.0,29.0
11750.0,27.0,2.7331657,25.0,29.0
11760.0,27.0,2.7270257,25.0,29.0
11770.0,27.0,2.7914948,25.0,29.0
11780.0,28.0,2.9411623,25.0,30.0
11790.0,28.0,3.0569563,26.0,29.0
11800.0,28.0,3.0744205,26.0,29.0
11810.0,28.0,3.0264652,27.0,29.0
11820.0,28.0,2.9958324,26.0,29.0
11830.0,28.0,3.0296319,26.0,29.0
11840.0,28.0,3.0654097,26.0,29.0
11850.0,28.0,3.135193,26.0,29.0
11860.0,28.0,3.2504244,26.0,29.0
11870.0,28.0,3.4640357,26.0,30.0
11880.0,28.0,3.62077,26.0,30.0
11890.0,29.0,3.757739,26.0,30.0
11900.0,29.0,3.7577057,27.0,30.0
11910.0,29.0,3.7167337,27.0,30.0
11920.0,29.0,3.6492567,27.0,30.0
11930.0,29.0,3.5684602,27.0,30.0
11940.0,29.0,3.4042764,27.0,30.0
11950.0,28.0,3.3088665,27.0,30.0
11960.0,28.0,3.4273312,27.0,30.0
11970.0,28.0,3.5963523,27.0,29.0
11980.0,28.0,3.6587424,26.0,29.0
11990.0,28.0,3.6138036,26.0,29.0
12000.0,27.0,3.5220413,26.0,29.0
12010.0,28.0,3.4110472,25.0,29.0
12020.0,28.0,3.4722614,25.0,29.0
12030.0,27.0,3.2491646,26.0,29.0
12040.0,29.0,4.1642914,27.0,31.0
12050.0,30.0,4.161698,26.0,31.0
12060.0,29.0,4.0638585,26.0,31.0
12070.0,29.0,3.889754,26.0,30.0
12080.0,29.0,3.745773,26.0,30.0
12090.0,29.0,3.6513293,25.0,30.0
12100.0,28.0,3.5732024,25.0,30.0
12110.0,28.0,3.5092902,24.0,30.0
12120.0,27.0,3.494356,24.0,30.0
12130.0,27.0,3.453824,25.0,30.0
12140.0,27.0,3.4061077,25.0,30.0
12150.0,28.0,3.361835,25.0,30.0
12160.0,28.0,3.2203567,25.0,30.0
12170.0,28.0,3.1213322,25.0,30.0
12180.0,28.0,3.1177557,25.0,30.0
12190.0,28.0,3.154905,25.0,30.0
12200.0,29.0,3.2537038,25.0,30.0
12210.0,29.0,3.3346815,25.0,30.0
12220.0,29.0,3.3732426,25.0,30.0
12230.0,28.0,3.3564816,25.0,30.0
12240.0,28.0,3.3926795,25.0,30.0
12250.0,28.0,3.4585614,25.0,30.0
12260.0,28.0,3.496505,25.0,30.0
12270.0,28.0,3.523786,25.0,30.0
12280.0,28.0,3.512045,25.0,30.0
12290.0,28.0,3.448801,25.0,30.0
12300.0,28.0,3.3564131,25.0,30.0
12310.0,28.0,3.2681751,25.0,30.0
12320.0,28.0,3.1133893,25.0,30.0
12330.0,28.0,2.9167106,25.0,30.0
12340.0,28.0,2.7548387,25.0,29.0
12350.0,27.0,2.6210866,25.0,29.0
12360.0,28.0,2.5017273,25.0,29.0
12370.0,28.0,2.365318,26.0,29.0
12380.0,28.0,2.2436562,26.0,29.0
12390.0,28.0,2.239732,26.0,29.0
12400.0,28.0,2.3165662,26.0,29.0
12410.0,27.0,2.538148,26.0,29.0
12420.0,27.0,2.779792,25.0,29.0
12430.0,28.0,3.0294185,25.0,30.0
12440.0,28.0,3.231767,25.0,30.0
12450.0,28.0,3.4459252,25.0,30.0
12460.0,28.0,3.7358668,25.0,30.0
12470.0,28.0,3.932545,26.0,30.0
12480.0,28.0,4.0021544,26.0,30.0
12490.0,28.0,4.033132,26.0,30.0
12500.0,28.0,3.9732184,27.0,31.0
12510.0,28.0,3.8938823,27.0,31.0
12520.0,28.0,3.8541064,27.0,32.0
12530.0,29.0,3.7414796,27.0,32.0
12540.0,29.0,3.5485158,27.0,33.0
12550.0,29.0,3.3270333,27.0,33.0
12560.0,29.0,3.1357744,27.0,32.0
12570.0,30.0,3.0747344,27.0,32.0
12580.0,30.0,3.0442195,27.0,32.0
12590.0,30.0,2.9328458,27.0,32.0
12600.0,30.0,2.8728516,27.0,32.0
12610.0,30.0,2.7971628,27.0,32.0
12620.0,29.0,2.6672552,27.0,31.0
12630.0,29.0,2.530998,28.0,31.0
12640.0,29.0,2.3365986,28.0,31.0
12650.0,29.0,2.262431,28.0,31.0
12660.0,29.0,2.240623,28.0,31.0
12670.0,29.5,2.2489536,28.0,31.0
12680.0,30.0,2.3148603,28.0,31.0
12690.0,29.0,2.3012974,28.0,31.0
12700.0,27.0,4.174562,26.0,33.0
12710.0,27.0,4.2707233,26.0,33.0
12720.0,28.0,4.5608325,26.0,33.0
12730.0,28.0,4.8099275,26.0,34.0
12740.0,27.0,4.9666586,26.0,34.0
12750.0,27.0,4.8410816,26.0,34.0
12760.0,27.0,4.6952267,26.0,33.0
12770.0,28.0,4.692937,27.0,33.0
12780.0,28.0,4.4278126,27.0,33.0
12790.0,28.0,4.1564307,27.0,33.0
12800.0,28.0,4.0566306,27.0,32.0
12810.0,29.0,3.6779833,27.0,32.0
12820.0,29.0,3.7021585,27.0,32.0
12830.0,30.0,3.7776897,27.0,32.0
12840.0,30.0,3.7473536,27.0,32.0
12850.0,30.0,3.8213203,27.0,33.0
12860.0,30.0,3.8005025,27.0,33.0
12870.0,29.0,3.1025734,26.0,32.0
12880.0,30.0,2.790288,27.0,32.0
12890.0,30.0,2.7016509,27.0,32.0
12900.0,29.0,2.7297516,27.0,31.0
12910.0,29.0,2.6759298,27.0,31.0
12920.0,29.0,2.5185442,27.0,31.0
12930.0,29.0,2.4372883,27.0,31.0
12940.0,29.0,2.3563678,27.0,31.0
12950.0,29.0,2.4441407,27.0,30.0
12960.0,29.0,2.5675533,27.0,31.0
12970.0,29.0,2.6049414,27.0,30.0
12980.0,29.0,2.721184,27.0,31.0
12990.0,28.0,3.0338156,27.0,31.0
13000.0,29.0,3.071973,27.0,31.0
13010.0,29.0,2.9097672,27.0,31.0
13020.0,29.0,2.9288013,28.0,31.0
13030.0,30.0,3.0884223,28.0,31.0
13040.0,31.0,3.1144807,28.0,32.0
13050.0,31.0,3.0272832,29.0,32.0
13060.0,31.0,3.124779,29.0,33.0
13070.0,32.0,3.1254344,29.0,34.0
13080.0,33.0,3.0032966,30.0,34.0
13090.0,33.0,3.0260944,31.0,34.0
13100.0,33.0,2.9433389,30.0,34.0
13110.0,33.0,2.8071387,30.0,34.0
13120.0,33.0,2.9407473,30.0,34.0
13130.0,32.0,3.4041657,30.0,34.0
13140.0,31.0,3.4781716,29.0,34.0
13150.0,31.0,3.4944007,29.0,34.0
13160.0,31.0,3.407116,29.0,34.0
13170.0,32.0,3.5016441,29.0,34.0
13180.0,32.0,3.579362,28.0,34.0
13190.0,31.0,3.4627976,29.0,34.0
13200.0,32.0,3.3006363,29.0,34.0
13210.0,32.0,3.2704728,29.0,34.0
13220.0,32.0,3.2914176,30.0,34.0
13230.0,32.0,3.4299898,30.0,34.0
13240.0,32.0,3.434262,30.0,34.0
13250.0,32.0,3.6423364,30.0,34.0
13260.0,32.0,3.773322,30.0,35.0
13270.0,32.0,4.006649,30.0,35.0
13280.0,32.0,4.0506883,30.0,35.0
13290.0,32.0,3.9872928,30.0,35.0
13300.0,32.0,4.130466,29.0,35.0
13310.0,32.0,4.3041606,29.0,35.0
13320.0,33.0,4.083053,29.0,34.0
13330.0,31.0,2.618468,29.0,33.0
13340.0,31.0,2.6161802,29.0,33.0
13350.0,31.0,2.650141,29.0,32.0
13360.0,31.0,2.5088053,29.0,32.0
13370.0,31.0,2.4113157,29.0,32.0
13380.0,31.0,2.4445548,30.0,32.0
13390.0,31.0,2.4719126,30.0,33.0
13400.0,31.0,2.3893502,30.0,33.0
13410.0,31.0,2.4778426,30.0,33.0
13420.0,32.0,2.6558523,30.0,33.0
13430.0,32.0,2.6929731,30.0,34.0
13440.0,32.0,2.692572,30.0,34.0
13450.0,32.0,2.7197938,31.0,34.0
13460.0,32.0,2.6326365,31.0,34.0
13470.0,33.0,2.4364548,31.0,34.0
13480.0,33.0,2.2436564,31.0,34.0
13490.0,33.0,2.1972291,31.0,34.0
13500.0,32.0,2.2606525,31.0,34.0
13510.0,32.0,1.9870076,31.0,33.0
13520.0,32.0,2.5749483,30.0,34.0
13530.0,32.0,2.6822898,30.0,34.0
13540.0,32.0,2.6914318,30.0,34.0
13550.0,32.0,2.6669548,30.0,34.0
13560.0,31.0,2.6969013,30.0,33.0
13570.0,31.0,2.8014588,30.0,33.0
13580.0,31.0,2.9292095,30.0,33.0
13590.0,31.0,2.9863675,30.0,33.0
13600.0,31.0,3.028881,30.0,33.0
13610.0,31.0,3.003452,30.0,33.0
13620.0,31.0,2.940109,30.0,33.0
13630.0,31.0,2.7305455,30.0,33.0
13640.0,31.0,2.487015,31.0,33.0
13650.0,32.0,2.1530206,31.0,33.0
13660.0,32.0,1.9776198,31.0,33.0
13670.0,32.0,1.9244758,31.0,33.0
13680.0,32.0,1.9443003,31.0,34.0
13690.0,32.0,2.0910988,31.0,34.0
13700.0,32.0,2.236793,31.0,35.0
13710.0,32.0,2.3919642,31.0,35.0
13720.0,32.0,2.53446,31.0,35.0
13730.0,33.0,2.6147308,31.0,35.0
13740.0,33.0,2.6431088,31.0,35.0
13750.0,33.0,2.6284065,31.0,35.0
13760.0,33.0,2.6576674,31.0,34.5
13770.0,33.0,2.6349344,31.0,34.0
13780.0,33.0,2.602797,31.0,34.0
13790.0,32.0,2.5761127,31.0,34.0
13800.0,32.0,2.5885859,31.0,34.0
13810.0,32.0,2.5350997,31.0,34.0
13820.0,33.0,2.4596646,32.0,34.0
13830.0,33.0,2.4039533,32.0,34.0
13840.0,33.0,2.3160908,32.0,34.0
13850.0,33.0,2.208116,32.0,35.0
13860.0,33.0,2.0273457,31.0,35.0
13870.0,32.0,2.525962,31.0,35.0
13880.0,33.0,2.7511716,31.0,36.0
13890.0,33.0,2.8971233,31.0,36.0
13900.0,33.0,3.0240726,31.0,36.0
13910.0,33.0,3.0860717,31.0,37.0
13920.0,34.0,3.115315,32.0,37.0
13930.0,34.0,3.0459347,31.0,36.0
13940.0,34.0,2.9458272,32.0,37.0
13950.0,34.0,2.8969285,32.0,37.0
13960.0,34.0,2.8150642,32.0,37.0
13970.0,34.0,2.761547,32.0,36.0
13980.0,34.0,2.7410297,32.0,36.0
13990.0,34.0,2.6844487,32.0,36.0
14000.0,34.0,2.5963774,32.0,36.0
14010.0,34.0,2.6436217,32.0,36.0
14020.0,35.0,2.7988076,32.0,36.0
14030.0,34.0,2.8888204,32.0,36.0
14040.0,34.0,2.976792,32.0,36.0
14050.0,34.0,3.0613198,32.0,36.0
14060.0,35.0,3.2403617,32.0,36.0
14070.0,34.0,3.2961257,32.0,36.0
14080.0,34.0,3.2667115,32.0,36.0
14090.0,34.0,3.4169798,31.0,36.0
14100.0,34.0,3.5799427,31.0,36.0
14110.0,34.0,3.5625832,31.0,36.0
14120.0,34.0,3.2614303,31.0,36.0
14130.0,34.0,3.0952644,31.0,36.0
14140.0,33.0,3.2258124,31.0,36.0
14150.0,33.0,3.5124984,31.0,36.0
14160.0,33.0,3.695526,31.0,37.0
14170.0,34.0,3.878746,31.0,37.0
14180.0,34.0,4.0462775,31.0,38.0
14190.0,34.0,4.3861456,32.0,38.0
14200.0,34.0,4.6142836,32.0,38.0
14210.0,34.0,4.6226726,32.0,38.0
14220.0,35.0,4.6148157,32.0,39.0
14230.0,35.0,4.651929,32.0,39.0
14240.0,35.0,4.587987,33.0,40.0
14250.0,35.0,4.464221,33.0,40.0
14260.0,34.0,3.9054925,32.0,37.0
14270.0,35.0,3.7808528,32.0,37.0
14280.0,35.0,3.475021,32.0,37.0
14290.0,35.0,3.222227,32.0,37.0
14300.0,35.0,3.6046085,32.0,38.0
14310.0,34.0,3.5725152,31.0,37.0
14320.0,34.0,3.5628622,31.0,37.0
14330.0,34.0,3.5296369,31.0,37.0
14340.0,35.0,3.6954086,31.0,37.0
14350.0,34.0,4.0507894,31.0,37.0
14360.0,34.0,3.7680612,32.0,37.0
14370.0,34.0,3.6426675,32.0,37.0
14380.0,34.0,3.1684892,32.0,37.0
14390.0,34.0,3.1707623,32.0,37.0
14400.0,34.0,2.8606493,32.0,37.0
14410.0,35.0,2.5490403,33.0,36.0
14420.0,34.0,2.8232782,32.0,36.0
14430.0,34.0,2.7326648,32.0,37.0
14440.0,34.0,2.7592227,32.0,37.0
14450.0,34.0,2.6927683,32.0,36.0
14460.0,34.0,2.6558888,32.0,36.0
14470.0,34.0,2.582659,32.0,35.0
14480.0,33.0,2.5990899,32.0,35.0
14490.0,33.0,2.619349,31.0,35.0
14500.0,33.0,2.5338192,31.0,35.0
14510.0,33.0,2.4503443,31.0,34.0
14520.0,33.0,2.44276,31.0,34.0
14530.0,33.0,2.4321342,32.0,34.0
14540.0,33.0,2.452267,31.0,34.0
14550.0,34.0,2.6084979,32.0,35.0
14560.0,34.0,2.6970234,32.0,35.0
14570.0,34.0,2.9917953,32.0,36.0
14580.0,34.0,3.2652993,32.0,36.0
14590.0,34.0,3.3407798,32.0,36.0
14600.0,33.0,3.261699,32.0,36.0
14610.0,33.0,2.7664692,32.0,36.0
14620.0,33.0,2.5602238,32.0,36.0
14630.0,33.0,2.275847,32.0,36.0
14640.0,34.0,2.2034967,32.0,36.0
14650.0,34.0,2.244638,33.0,36.0
14660.0,35.0,2.3987498,33.0,36.0
14670.0,35.0,2.4401124,33.0,36.0
14680.0,35.0,2.5305922,33.0,36.0
14690.0,35.0,2.4472864,33.0,36.0
14700.0,35.0,2.4939353,33.0,36.0
14710.0,35.0,2.5483277,33.0,36.0
14720.0,35.0,2.4059196,33.0,36.0
14730.0,34.0,2.2824566,33.0,36.0
14740.0,34.0,2.237159,33.0,36.0
14750.0,34.0,2.2317793,33.0,36.0
14760.0,34.0,2.1988142,33.0,36.0
14770.0,35.0,2.1479645,33.0,37.0
14780.0,34.0,2.2006278,33.0,36.0
14790.0,34.0,2.2988935,33.0,37.0
14800.0,34.0,2.1674645,33.0,36.0
14810.0,34.0,2.108538,33.0,35.5
14820.0,34.0,2.175529,33.0,35.0
14830.0,34.0,2.0014834,33.0,35.0
14840.0,34.0,1.9322293,33.0,35.0
14850.0,34.0,1.9943998,33.0,35.0
14860.0,34.0,2.1435328,32.0,35.0
14870.0,34.0,2.0837288,33.0,35.0
14880.0,34.0,2.0856519,33.0,35.0
14890.0,34.0,2.2703457,33.0,35.0
14900.0,34.0,2.3647165,33.0,36.0
14910.0,34.0,2.3637338,33.0,36.0
14920.0,35.0,2.1956506,33.0,36.0
14930.0,35.0,2.1741552,34.0,37.0
14940.0,36.0,2.2211843,34.0,37.0
14950.0,36.0,2.359147,35.0,37.0
14960.0,36.0,2.3617458,35.0,37.0
14970.0,36.0,2.5244243,35.0,37.0
14980.0,36.0,2.5879755,35.0,38.0
14990.0,36.0,2.7393408,35.0,38.0
15000.0,36.0,2.8727043,34.0,38.0
15010.0,35.0,2.8797057,34.0,39.0
15020.0,36.0,2.907436,34.0,38.0
15030.0,35.0,2.807849,34.0,38.0
15040.0,35.0,2.773031,34.0,38.0
15050.0,36.0,2.5862358,34.0,38.0
15060.0,36.0,2.3090482,34.0,38.0
15070.0,36.0,2.0453675,34.0,37.0
15080.0,36.0,1.9099909,34.0,37.0
15090.0,36.0,1.8125478,35.0,38.0
15100.0,37.0,1.8607658,35.0,38.0
15110.0,37.0,1.8547033,35.0,38.0
15120.0,37.0,2.0496562,35.0,37.0
15130.0,37.0,2.267577,35.0,38.0
15140.0,37.0,2.3129113,35.0,38.0
15150.0,37.0,2.7033124,35.0,38.0
15160.0,37.0,2.9290724,35.0,38.0
15170.0,37.0,3.011343,35.0,38.0
15180.0,37.0,2.838644,35.0,38.0
15190.0,37.0,2.7211108,35.0,38.0
15200.0,36.0,2.6075132,35.0,38.0
15210.0,36.0,2.509043,35.0,38.0
15220.0,36.0,2.24843,35.0,38.0
15230.0,36.0,2.3417425,35.0,38.0
15240.0,35.0,1.9747556,34.0,37.0
15250.0,35.0,1.988709,34.0,37.0
15260.0,36.0,1.8333488,35.0,37.0
15270.0,36.0,1.7350665,35.0,37.0
15280.0,36.0,1.5566559,35.0,37.0
15290.0,36.0,1.4856716,35.0,37.0
15300.0,36.0,1.4937094,35.0,37.0
15310.0,36.0,1.5743414,35.0,37.0
15320.0,36.0,1.617108,35.0,37.0
15330.0,36.0,1.828341,35.0,37.0
15340.0,36.0,1.9578376,35.0,37.0
15350.0,36.0,2.0721765,35.0,37.0
15360.0,36.0,2.1799886,35.0,37.0
15370.0,36.0,2.2317073,35.0,37.0
15380.0,36.0,2.3041253,35.0,37.0
15390.0,36.0,2.262563,35.0,38.0
15400.0,36.0,2.2257454,35.0,38.0
15410.0,37.0,2.0814984,35.0,38.0
15420.0,37.0,1.9741727,35.0,37.0
15430.0,37.0,1.8920407,35.0,37.0
15440.0,36.0,1.8546779,35.0,37.0
15450.0,36.0,1.8719028,35.0,37.0
15460.0,37.0,1.9273291,35.0,38.0
15470.0,37.0,1.9193904,36.0,38.0
15480.0,37.0,1.7946225,36.0,38.0
15490.0,37.0,1.8347746,36.0,38.0
15500.0,37.0,1.9390655,36.0,38.0
15510.0,37.0,1.9809976,36.0,38.0
15520.0,36.0,2.0715234,35.0,38.0
15530.0,36.0,2.0753179,35.0,38.0
15540.0,36.0,2.057185,35.0,38.0
15550.0,37.0,1.8695711,35.0,38.0
15560.0,37.0,1.6957134,35.0,38.0
15570.0,37.0,1.5742841,35.0,38.0
15580.0,36.0,1.4797938,35.0,37.0
15590.0,36.0,1.5022902,35.0,37.0
15600.0,36.0,1.553657,35.0,37.0
15610.0,36.0,1.5873334,35.0,37.0
15620.0,36.0,1.6401083,35.0,37.0
15630.0,36.0,1.6011207,35.0,37.0
15640.0,36.0,1.6187251,35.0,37.0
15650.0,37.0,1.9778208,35.0,38.0
15660.0,37.0,1.4263809,36.0,38.0
15670.0,37.0,1.5251434,36.0,38.0
15680.0,37.0,1.5969554,36.0,38.0
15690.0,37.0,1.6633844,36.0,39.0
15700.0,37.0,1.7416791,36.0,39.0
15710.0,37.0,1.8253703,36.0,39.0
15720.0,37.0,1.8935633,36.0,39.0
15730.0,37.0,1.9710319,36.0,39.0
15740.0,37.0,2.0108113,36.0,39.0
15750.0,37.0,2.019868,36.0,38.0
15760.0,37.0,2.0215936,36.0,38.0
15770.0,37.0,2.030877,36.0,38.0
15780.0,37.0,2.0692115,35.0,38.0
15790.0,37.0,2.1366694,35.0,38.0
15800.0,37.0,2.22863,35.0,38.0
15810.0,37.0,2.2917817,35.0,38.0
15820.0,36.0,2.3613513,35.0,38.0
15830.0,36.0,2.408192,35.0,39.0
15840.0,37.0,2.39229,35.0,39.0
15850.0,37.0,2.3315334,35.0,39.0
15860.0,37.0,2.3297853,36.0,39.0
15870.0,38.0,2.4440904,36.0,39.0
15880.0,38.0,2.6790411,36.0,39.0
15890.0,38.0,2.9000742,37.0,39.0
15900.0,38.0,3.0618997,37.0,39.0
15910.0,37.0,3.1999779,37.0,39.0
15920.0,37.0,3.143396,36.0,38.0
15930.0,37.0,2.9653513,36.0,38.0
15940.0,38.0,2.8697987,36.0,39.0
15950.0,38.0,2.6001685,36.0,39.0
15960.0,38.0,2.4620268,36.0,39.0
15970.0,38.0,2.3592758,37.0,39.0
15980.0,38.0,2.295952,37.0,39.0
15990.0,38.0,2.2907374,37.0,40.0
16000.0,39.0,2.3058515,37.0,40.0
16010.0,39.0,2.3586955,37.0,40.0
16020.0,39.0,2.578829,37.0,40.0
16030.0,39.0,2.8133342,37.0,40.0
16040.0,38.0,3.0694702,37.0,41.0
16050.0,38.0,3.3512385,37.0,41.0
16060.0,38.0,3.477977,37.0,41.0
16070.0,38.0,3.6108525,37.0,41.0
16080.0,38.0,3.6223474,36.0,41.0
16090.0,38.0,3.6122298,36.0,41.0
16100.0,38.0,3.622292,36.0,41.0
16110.0,38.0,3.5516953,36.0,41.0
16120.0,39.0,3.405533,36.0,41.0
16130.0,39.0,3.3215551,36.0,41.0
16140.0,39.0,3.239669,37.0,40.0
16150.0,39.0,3.1363635,37.0,40.0
16160.0,39.0,3.0781395,37.0,40.0
16170.0,39.0,3.037177,37.0,40.0
16180.0,40.0,2.6778214,38.0,41.0
16190.0,40.0,2.482678,38.0,41.0
16200.0,40.0,2.3250544,38.0,41.0
16210.0,40.0,2.18308,38.0,41.0
16220.0,40.0,2.115888,38.0,41.0
16230.0,40.0,2.1118865,38.0,41.0
16240.0,39.0,2.1432986,38.0,41.0
16250.0,39.0,2.120812,38.0,40.0
16260.0,39.0,2.1812801,38.0,40.0
16270.0,39.0,2.3214715,38.0,40.0
16280.0,39.0,2.4420617,38.0,41.0
16290.0,39.0,2.5222387,38.0,41.0
16300.0,39.0,2.5757134,38.0,41.0
16310.0,39.0,2.6082406,38.0,41.0
16320.0,39.0,2.591954,38.0,42.0
16330.0,39.0,2.502974,38.0,41.25
16340.0,40.0,2.4714208,38.0,42.0
16350.0,40.0,2.504315,38.0,42.0
16360.0,40.0,2.5549893,38.0,42.0
16370.0,40.0,2.7053404,38.0,42.0
16380.0,40.0,2.8421786,38.0,42.0
16390.0,40.0,2.9482772,37.0,41.0
16400.0,40.0,3.0153766,37.0,41.0
16410.0,40.0,3.0305254,38.0,41.0
16420.0,40.0,2.8932114,38.0,41.0
16430.0,40.0,2.7659485,38.0,41.0
16440.0,40.0,2.707919,38.0,41.0
16450.0,40.0,2.5939205,38.0,41.0
16460.0,39.0,2.4826229,38.0,41.0
16470.0,39.0,2.3147244,39.0,41.0
16480.0,40.0,2.1616762,39.0,41.0
16490.0,40.0,2.0774899,39.0,41.0
16500.0,40.0,2.0670235,39.0,41.0
16510.0,40.0,2.0459151,39.0,41.0
16520.0,40.0,2.082993,39.0,41.0
16530.0,40.0,2.1557345,39.0,41.0
16540.0,40.0,2.186592,38.0,42.0
16550.0,40.0,2.1803312,38.0,42.0
16560.0,40.0,2.1179512,38.0,41.0
16570.0,39.0,2.0102239,38.0,41.0
16580.0,39.0,1.887879,38.0,41.0
16590.0,40.0,1.7538072,38.0,41.0
16600.0,40.0,1.671822,38.0,41.0
16610.0,40.0,1.6521451,39.0,41.0
16620.0,40.0,1.7056023,39.0,41.0
16630.0,40.0,1.8164804,39.0,41.0
16640.0,40.0,1.8450116,39.0,41.0
16650.0,40.0,1.8449026,39.0,41.0
16660.0,40.0,1.8988665,39.0,41.0
16670.0,40.0,1.9394714,39.0,41.0
16680.0,40.0,1.9071336,39.0,41.0
16690.0,40.0,1.9112664,39.0,41.0
16700.0,40.0,2.0092385,39.0,41.0
16710.0,40.0,2.1095252,38.0,41.0
16720.0,40.0,2.1497626,38.0,41.0
16730.0,40.0,2.1884093,38.0,41.0
16740.0,39.0,2.318368,38.0,41.0
16750.0,39.0,2.5523973,38.0,41.0
16760.0,40.0,2.7362149,38.0,41.0
16770.0,40.0,2.8704205,38.0,42.0
16780.0,40.0,2.8980758,38.0,42.0
16790.0,40.0,2.8844814,38.0,42.0
16800.0,40.0,2.823544,38.0,42.0
16810.0,40.0,1.996321,39.0,42.0
16820.0,40.0,2.359219,39.0,42.0
16830.0,40.0,2.2926788,39.0,42.0
16840.0,40.0,2.1692996,39.0,41.0
16850.0,40.0,2.1270516,39.0,41.0
16860.0,40.0,2.1818492,39.0,42.0
16870.0,40.0,2.209836,39.0,42.0
16880.0,40.0,2.1743667,39.0,42.0
16890.0,40.0,2.1720252,39.0,42.0
16900.0,40.0,2.166589,39.0,42.0
16910.0,41.0,2.1667404,39.0,42.0
16920.0,41.0,2.1805894,39.0,42.0
16930.0,41.0,2.188344,39.0,42.0
16940.0,41.0,2.090095,39.0,43.0
16950.0,41.0,2.0080311,40.0,43.0
16960.0,41.0,1.8876024,40.0,42.0
16970.0,41.0,1.8787276,40.0,42.0
16980.0,41.0,1.932973,40.0,42.0
16990.0,41.0,2.1186695,39.0,42.0
17000.0,41.0,2.1814892,39.0,42.0
17010.0,40.0,2.2303014,39.0,42.0
17020.0,40.0,2.2565265,39.0,42.0
17030.0,40.0,2.2791348,39.0,42.0
17040.0,40.0,2.290466,39.0,42.0
17050.0,40.0,2.2873783,39.0,42.0
17060.0,40.0,2.3487325,39.0,41.0
17070.0,41.0,2.391918,39.0,41.0
17080.0,41.0,2.3292763,40.0,42.0
17090.0,41.0,2.1725633,40.0,42.0
17100.0,41.0,2.1548648,40.0,42.0
17110.0,41.0,2.110591,40.0,42.0
17120.0,41.0,1.9998698,40.0,42.0
17130.0,41.0,1.9033651,40.0,42.0
17140.0,41.0,1.9097126,40.0,43.0
17150.0,41.0,2.093169,40.0,43.0
17160.0,42.0,2.5073073,40.0,43.0
17170.0,42.0,2.5083363,40.0,43.0
17180.0,42.0,2.535382,40.0,43.0
17190.0,41.0,2.569456,40.0,43.0
17200.0,42.0,2.5447843,40.0,43.0
17210.0,42.0,2.4704888,40.0,43.0
17220.0,42.0,2.3437896,40.0,43.0
17230.0,42.0,2.2925355,40.0,43.0
17240.0,42.0,2.3182695,40.0,43.0
17250.0,42.0,2.369464,40.0,43.0
17260.0,42.0,2.5221958,39.0,43.0
17270.0,42.0,2.738219,39.0,43.0
17280.0,42.0,2.9613426,39.0,44.0
17290.0,42.0,2.9873576,39.0,44.0
17300.0,42.0,2.9898627,39.0,43.0
17310.0,42.0,2.9954972,40.0,43.0
17320.0,42.0,2.947197,39.0,43.0
17330.0,42.0,2.7704093,40.0,43.0
17340.0,42.0,2.5584123,40.0,43.0
17350.0,42.0,2.487175,41.0,43.0
17360.0,42.0,2.5350344,41.0,44.0
17370.0,42.0,2.552959,41.0,44.0
17380.0,42.0,2.5211782,41.0,44.0
17390.0,42.0,2.407883,41.0,44.0
17400.0,42.0,2.4105544,41.0,44.0
17410.0,43.0,2.3650117,41.0,44.0
17420.0,43.0,2.2084174,41.0,44.0
17430.0,43.0,2.0072708,41.0,44.0
17440.0,43.0,1.976315,41.0,44.0
17450.0,43.0,2.0170374,41.0,43.0
17460.0,43.0,1.9321611,41.0,43.0
17470.0,43.0,1.8700686,41.0,43.0
17480.0,43.0,1.8646984,41.0,43.0
17490.0,43.0,1.9203304,41.0,43.0
17500.0,43.0,1.7164428,41.0,43.0
17510.0,42.0,1.4738954,41.0,43.0
17520.0,42.0,1.3157712,42.0,43.0
17530.0,42.0,1.3029501,42.0,43.0
17540.0,42.0,1.4285195,41.0,43.0
17550.0,43.0,1.6059152,41.0,44.0
17560.0,43.0,1.1133727,42.0,43.0
17570.0,43.0,1.2053112,42.0,44.0
17580.0,43.0,1.3296021,42.0,44.0
17590.0,43.0,1.4009427,42.0,44.0
17600.0,43.0,1.4509507,42.0,44.0
17610.0,43.0,1.47328,43.0,44.0
17620.0,43.0,1.4758402,43.0,44.0
17630.0,43.0,1.4884722,42.0,44.0
17640.0,43.0,1.5277579,42.0,44.0
17650.0,43.0,1.6313176,42.0,44.0
17660.0,43.0,1.7777314,42.0,45.0
17670.0,43.0,1.888974,42.0,45.0
17680.0,43.0,1.911511,42.0,45.0
17690.0,43.0,1.8922148,42.0,45.0
17700.0,43.0,1.8650935,42.0,45.0
17710.0,43.0,1.771979,42.0,45.0
17720.0,43.0,1.64002,42.0,44.0
17730.0,43.0,1.5317991,42.0,44.0
17740.0,43.0,1.4884515,42.0,44.0
17750.0,42.0,1.4988047,42.0,44.0
17760.0,42.0,1.5182078,41.0,43.0
17770.0,42.0,1.5460802,41.0,43.0
17780.0,42.0,1.5742701,41.0,43.0
17790.0,42.0,1.59827,41.0,43.0
17800.0,42.0,1.5437531,41.0,43.0
17810.0,42.0,1.4207268,41.0,43.0
17820.0,42.0,1.3687127,41.0,43.0
17830.0,42.0,1.385315,41.0,43.0
17840.0,43.0,1.3615158,41.0,43.0
17850.0,43.0,1.3384157,42.0,44.0
17860.0,43.0,1.3350071,42.0,44.0
17870.0,43.0,1.3880795,42.0,43.0
17880.0,43.0,1.4524174,42.0,44.0
17890.0,43.0,1.5452183,42.0,44.0
17900.0,43.0,1.64947,42.0,44.0
17910.0,43.0,1.7130382,42.0,44.0
17920.0,43.0,1.7734574,42.0,44.0
17930.0,43.0,1.8133637,42.0,44.0
17940.0,43.0,1.8505386,42.0,45.0
17950.0,43.0,1.8592321,42.0,45.0
17960.0,43.0,1.8390077,42.0,44.0
17970.0,43.0,1.8487766,42.0,44.0
17980.0,43.0,1.8634913,42.0,44.0
17990.0,43.0,1.8028942,42.0,45.0
18000.0,43.0,1.7580299,42.0,44.0
18010.0,43.0,1.767522,42.0,44.0
18020.0,43.0,1.7550664,42.0,45.0
18030.0,44.0,1.8499129,42.0,45.0
18040.0,44.0,1.9424212,43.0,45.0
18050.0,44.0,2.0413618,43.0,45.0
18060.0,44.0,2.1074336,43.0,45.0
18070.0,44.0,2.1583385,43.0,45.0
18080.0,44.0,2.213973,43.0,46.0
18090.0,44.0,2.2011633,43.0,46.0
18100.0,44.0,2.005299,43.0,46.0
18110.0,44.0,1.7994444,43.0,46.0
18120.0,44.0,1.7252733,43.0,46.0
18130.0,44.0,1.6634146,43.0,45.0
18140.0,44.0,1.6054357,43.0,45.0
18150.0,44.0,1.6041816,43.0,45.0
18160.0,44.0,1.6250633,43.0,45.0
18170.0,44.0,1.638484,43.0,45.0
18180.0,44.0,1.635809,43.0,45.0
18190.0,44.0,1.6255246,43.0,45.0
18200.0,44.0,1.6681651,43.0,45.0
18210.0,44.0,1.7165207,43.0,45.0
18220.0,44.0,1.8017335,43.0,45.0
18230.0,44.0,1.9256841,43.0,45.0
18240.0,44.0,2.0395598,43.0,46.0
18250.0,45.0,2.1151302,43.0,46.0
18260.0,45.0,2.2030647,43.0,47.0
18270.0,45.0,2.166421,44.0,46.0
18280.0,46.0,2.0576696,44.0,46.0
18290.0,45.0,1.973066,44.0,47.0
18300.0,45.0,1.9724361,44.0,47.0
18310.0,45.0,1.9733839,44.0,47.0
18320.0,45.0,1.9425498,44.0,47.0
18330.0,45.0,1.9132105,44.0,47.0
18340.0,45.0,1.8840955,44.0,47.0
18350.0,46.0,1.8443154,44.0,46.0
18360.0,46.0,1.7868341,44.0,46.0
18370.0,45.0,1.7351587,44.0,47.0
18380.0,45.0,1.7050273,44.0,47.0
18390.0,45.0,1.7486212,44.0,47.0
18400.0,46.0,2.2668366,44.0,47.0
18410.0,46.0,2.886739,44.0,48.0
18420.0,45.0,2.9565935,44.0,48.0
18430.0,45.0,3.1381917,44.0,48.0
18440.0,45.0,3.1774328,44.0,48.0
18450.0,45.0,3.147296,44.0,48.0
18460.0,45.0,3.1006598,44.0,48.0
18470.0,45.0,3.0784395,44.0,48.0
18480.0,46.0,2.9359796,44.0,48.0
18490.0,46.0,2.805939,44.0,48.0
18500.0,46.0,2.7177694,45.0,48.0
18510.0,46.0,2.6552277,45.0,48.0
18520.0,46.0,2.5479481,45.0,48.0
18530.0,46.0,2.4458265,45.0,48.0
18540.0,46.0,2.5143764,45.0,48.0
18550.0,46.0,2.6492794,45.0,48.0
18560.0,46.0,2.7105048,45.0,49.0
18570.0,46.0,2.755057,45.0,48.0
18580.0,46.0,2.824966,45.0,48.0
18590.0,46.0,2.8917184,45.0,48.0
18600.0,46.0,2.8478045,45.0,48.0
18610.0,46.0,2.7800999,45.0,48.0
18620.0,47.0,2.7484953,45.0,48.0
18630.0,47.0,2.8030608,45.0,49.0
18640.0,47.0,2.7698724,45.0,49.0
18650.0,47.0,2.7076855,45.0,49.0
18660.0,47.0,2.735466,45.0,49.0
18670.0,47.0,2.9421854,45.0,49.0
18680.0,47.0,2.967473,45.0,49.0
18690.0,47.0,2.9751105,45.0,50.0
18700.0,47.0,2.9300478,45.0,50.0
18710.0,47.0,2.8486223,45.0,50.0
18720.0,47.0,2.7183971,45.0,49.0
18730.0,47.0,2.5675266,45.0,49.0
18740.0,47.0,2.511721,45.0,49.0
18750.0,47.0,2.5717442,45.0,49.0
18760.0,47.0,2.6548257,45.0,49.0
18770.0,47.0,2.632627,45.0,49.0
18780.0,47.0,2.5226858,45.0,49.0
18790.0,47.0,2.4853923,45.0,49.0
18800.0,47.0,2.4962225,45.0,48.0
18810.0,47.0,2.4098418,45.0,48.0
18820.0,47.0,2.3972714,45.0,48.0
18830.0,47.0,2.5210476,45.5,48.0
18840.0,47.0,2.752051,46.0,49.0
18850.0,47.0,2.8297534,46.0,49.0
18860.0,48.0,2.8967052,46.0,49.0
18870.0,48.0,2.8997128,46.0,49.0
18880.0,48.0,2.9142215,46.0,49.0
18890.0,47.0,2.8180788,46.0,49.0
18900.0,47.0,2.807461,46.0,49.0
18910.0,47.0,2.915373,45.0,49.0
18920.0,47.0,3.0731676,45.0,49.0
18930.0,47.0,3.209532,45.0,49.0
18940.0,47.0,3.3080916,45.0,49.0
18950.0,47.0,3.3542612,45.0,49.0
18960.0,47.0,3.288394,45.0,49.0
18970.0,48.0,3.1726494,45.0,50.0
18980.0,47.0,3.0801144,45.0,50.0
18990.0,47.0,2.9979415,46.0,50.0
19000.0,47.0,2.951444,46.0,50.0
19010.0,48.0,3.0101597,46.0,50.0
19020.0,48.0,3.1003382,46.0,50.0
19030.0,48.0,3.2529376,46.0,50.0
19040.0,48.0,3.4490132,46.0,52.0
19050.0,48.0,3.6821635,46.0,52.0
19060.0,49.0,3.8193545,46.0,52.0
19070.0,48.0,2.4593244,46.0,50.0
19080.0,48.0,2.2588909,46.0,50.0
19090.0,48.0,2.2379456,46.0,49.0
19100.0,48.0,2.192373,46.0,49.0
19110.0,47.0,2.0942707,46.0,49.0
19120.0,47.0,1.9597179,46.0,49.0
19130.0,48.0,1.8480395,46.0,49.0
19140.0,48.0,1.8387539,46.0,49.0
19150.0,48.0,1.8440163,47.0,49.0
19160.0,48.0,1.8671746,47.0,50.0
19170.0,48.0,1.9531097,47.0,50.0
19180.0,48.0,2.1285417,47.0,50.0
19190.0,48.0,2.3430662,47.0,50.0
19200.0,49.0,2.4365711,47.0,50.0
19210.0,49.0,2.4622726,46.0,51.0
19220.0,49.0,2.5132976,47.0,51.0
19230.0,49.0,2.5227764,48.0,51.0
19240.0,50.0,2.4306972,48.0,51.0
19250.0,49.0,2.2857385,48.0,50.0
19260.0,49.0,2.1955204,48.0,50.0
19270.0,49.0,2.1852117,48.0,50.0
19280.0,49.0,2.2570977,47.0,50.0
19290.0,49.0,2.3176272,47.0,50.25
19300.0,49.0,2.3167775,47.0,51.0
19310.0,49.0,2.3198211,47.0,51.0
19320.0,49.0,2.3624952,47.0,51.0
19330.0,49.0,2.3851151,47.0,51.0
19340.0,49.0,2.4636874,48.0,51.0
19350.0,49.0,2.592664,48.0,51.0
19360.0,49.0,2.6593533,47.0,51.0
19370.0,49.0,2.6855736,48.0,51.0
19380.0,49.0,2.663454,48.0,51.0
19390.0,50.0,2.5731633,48.0,51.0
19400.0,50.0,2.4134567,49.0,51.0
19410.0,50.0,2.361942,49.0,51.0
19420.0,50.0,2.2561338,49.0,51.0
19430.0,50.0,2.222503,49.0,52.0
19440.0,50.0,2.1724856,49.0,52.0
19450.0,50.0,2.0575972,48.0,51.0
19460.0,51.0,2.288909,50.0,52.0
19470.0,51.0,2.8992248,48.0,52.0
19480.0,51.0,2.7650905,48.0,52.0
19490.0,51.0,2.616176,48.0,52.0
19500.0,50.0,2.6148574,48.0,51.0
19510.0,50.0,2.535536,48.0,52.0
19520.0,50.0,2.6059163,48.0,52.0
19530.0,50.0,2.5969958,48.0,52.0
19540.0,50.0,2.6719222,48.0,52.0
19550.0,50.0,2.5749617,48.0,52.0
19560.0,50.0,2.3966558,49.0,52.0
19570.0,50.0,2.2752883,49.0,51.0
19580.0,50.0,2.1600225,49.0,51.0
19590.0,50.0,1.9896884,49.0,51.0
19600.0,50.0,2.0835965,49.0,51.0
19610.0,50.0,2.1494052,49.0,51.0
19620.0,50.0,2.2244325,49.0,51.0
19630.0,50.0,2.2948184,49.0,51.0
19640.0,50.0,2.6226916,48.75,51.0
19650.0,50.0,2.6853693,49.0,51.0
19660.0,50.0,2.5481558,49.0,51.0
19670.0,50.0,2.5176315,49.0,52.0
19680.0,50.0,2.7180126,49.0,52.0
19690.0,50.0,2.7521439,49.0,52.0
19700.0,51.0,2.652131,49.0,52.0
19710.0,51.0,2.7433574,49.0,52.0
19720.0,51.0,3.0171561,49.0,52.0
19730.0,51.0,3.1985848,49.0,52.0
19740.0,51.0,3.3686361,49.0,52.0
19750.0,51.0,3.4936423,49.0,53.0
19760.0,51.0,3.374665,49.0,52.0
19770.0,52.0,3.343667,50.0,53.0
19780.0,52.0,3.2378726,50.0,53.0
19790.0,52.0,3.1171103,50.0,53.0
19800.0,51.0,3.0106347,50.0,53.0
19810.0,51.0,2.989053,50.0,53.0
19820.0,51.0,2.9061034,50.0,53.0
19830.0,51.0,2.7223735,50.0,53.0
19840.0,51.0,2.656696,50.0,53.0
19850.0,51.0,2.5346048,50.0,53.0
19860.0,51.0,2.4149415,49.0,53.0
19870.0,51.0,2.398597,49.0,53.0
19880.0,51.0,2.3915024,49.0,53.0
19890.0,51.0,2.3105497,49.0,53.0
19900.0,51.0,2.3125317,49.0,52.0
19910.0,51.0,2.3268263,49.0,52.0
19920.0,51.0,2.3899307,49.0,53.0
19930.0,51.0,2.5063195,50.0,53.0
19940.0,51.0,2.521105,50.0,53.0
19950.0,51.0,2.53925,50.0,53.0
19960.0,51.0,2.9758856,49.0,53.0
19970.0,51.0,2.9382553,50.0,53.0
19980.0,51.0,2.8625052,50.0,53.0
19990.0,52.0,2.8107202,50.0,53.0
20000.0,52.0,2.7528253,49.0,53.0
20010.0,52.0,2.618318,50.0,53.0
20020.0,52.0,2.3926659,50.0,54.0
20030.0,52.0,2.2407765,50.0,53.0
20040.0,52.0,2.020821,51.0,53.0
20050.0,52.0,1.8639393,51.0,54.0
20060.0,52.0,1.921447,51.0,54.0
20070.0,52.0,1.961169,51.0,54.0
20080.0,52.0,1.8861833,51.0,54.0
20090.0,52.0,1.8454742,51.0,54.0
20100.0,52.0,1.8167828,51.0,53.0
20110.0,52.0,1.793218,51.0,53.0
20120.0,52.0,1.7401425,51.0,53.0
20130.0,52.0,1.8439021,51.0,54.0
20140.0,52.0,1.9316518,51.0,54.0
20150.0,52.0,1.9319357,51.0,54.0
20160.0,52.0,1.9612905,51.0,53.0
20170.0,52.0,2.1058755,50.0,53.0
20180.0,52.0,2.1915107,50.0,53.0
20190.0,52.0,2.2682629,50.0,53.0
20200.0,52.0,2.210552,50.0,53.0
20210.0,52.0,2.1911707,50.0,53.0
20220.0,52.0,2.1832316,50.0,53.0
20230.0,52.0,2.1810417,50.0,54.0
20240.0,52.0,2.2332647,50.0,54.0
20250.0,52.0,2.2108586,50.0,54.0
20260.0,52.0,2.1943939,50.0,54.0
20270.0,52.0,2.1433969,50.0,54.0
20280.0,52.0,2.2194378,50.0,54.0
20290.0,52.0,2.3639796,50.0,53.0
20300.0,52.0,2.5165665,50.0,53.0
20310.0,52.0,2.709649,50.0,54.0
20320.0,52.0,2.0170748,51.0,54.0
20330.0,52.0,1.9725169,51.0,54.0
20340.0,52.0,1.9722444,51.0,54.0
20350.0,52.0,2.012127,51.0,53.0
20360.0,52.0,2.0477085,50.0,53.0
20370.0,52.0,2.0138633,50.0,53.0
20380.0,52.0,1.9763393,51.0,53.0
20390.0,52.0,2.0719295,51.0,53.0
20400.0,52.0,2.2178066,50.0,54.0
20410.0,52.0,2.3084857,50.0,54.0
20420.0,52.0,2.4221585,50.0,54.0
20430.0,52.0,2.4766476,50.0,54.0
20440.0,52.0,2.4396586,50.0,53.0
20450.0,52.0,2.3643496,50.0,54.0
20460.0,52.0,2.3242116,50.0,54.0
20470.0,52.0,2.3138409,51.0,54.0
20480.0,52.0,2.2963145,51.0,54.0
20490.0,52.0,2.299678,51.0,54.0
20500.0,52.0,2.3037603,51.0,54.0
20510.0,53.0,2.3018112,51.0,54.0
20520.0,53.0,2.342686,51.0,54.0
20530.0,53.0,2.4357862,51.0,55.0
20540.0,53.0,2.4509206,51.0,55.0
20550.0,53.0,2.4053051,51.0,55.0
20560.0,53.0,2.2772264,51.0,55.0
20570.0,52.0,2.1340744,51.0,55.0
20580.0,52.0,1.9239584,51.0,54.0
20590.0,52.0,1.8529706,51.0,54.0
20600.0,52.0,1.7637397,51.0,54.0
20610.0,52.0,1.710104,51.0,54.0
20620.0,52.0,1.7129353,51.0,54.0
20630.0,53.0,1.7142514,51.0,54.0
20640.0,53.0,1.7200322,52.0,54.0
20650.0,53.0,1.7535392,51.75,54.0
20660.0,53.0,1.7461271,51.0,54.0
20670.0,53.0,1.7660375,51.0,54.0
20680.0,52.0,1.8106904,51.0,54.0
20690.0,52.0,1.8106629,51.0,54.0
20700.0,52.0,1.8256078,51.0,54.0
20710.0,52.0,1.8210534,51.0,54.0
20720.0,52.0,1.7228744,51.0,54.0
20730.0,52.0,1.6405607,51.0,53.0
20740.0,52.0,1.5299288,51.0,53.0
20750.0,52.0,1.4434348,51.0,53.0
20760.0,52.0,1.4967223,52.0,53.0
20770.0,52.0,1.5662048,52.0,53.0
20780.0,52.0,1.5465364,51.0,53.0
20790.0,52.0,1.5986757,51.0,53.25
20800.0,52.0,1.7166663,51.0,54.0
20810.0,53.0,1.9050548,51.0,54.0
20820.0,53.0,2.0406272,51.0,54.0
20830.0,53.0,2.072485,51.0,54.0
20840.0,53.0,2.1283422,51.0,54.0
20850.0,53.0,2.2316244,51.0,55.0
20860.0,53.0,2.3309674,52.0,55.0
20870.0,53.0,2.4177923,51.0,55.0
20880.0,54.0,2.55638,51.0,55.0
20890.0,54.0,2.6107469,51.0,55.0
20900.0,54.0,2.601687,51.0,55.0
20910.0,54.0,2.564653,52.0,55.0
20920.0,54.0,2.5713127,52.0,55.0
20930.0,54.0,2.5959332,52.0,55.0
20940.0,54.0,2.636141,52.0,55.0
20950.0,54.0,2.0678003,53.0,55.0
20960.0,54.0,1.9367146,52.0,54.25
20970.0,54.0,1.8828509,52.0,55.0
20980.0,54.0,1.7949452,52.0,55.0
20990.0,54.0,1.8830676,52.0,55.0
21000.0,54.0,2.0421336,52.0,55.0
21010.0,54.0,2.062789,52.0,56.0
21020.0,54.0,2.0435448,52.0,55.0
21030.0,54.0,1.9653357,52.75,56.0
21040.0,54.0,1.8895451,53.0,56.0
21050.0,54.0,1.8643519,53.0,56.0
21060.0,54.0,1.9324362,53.0,55.0
21070.0,54.0,2.0591056,53.0,56.0
21080.0,54.0,2.190454,53.0,56.0
21090.0,54.0,2.2721364,53.0,56.0
21100.0,55.0,2.2612088,53.0,56.0
21110.0,55.0,2.26528,53.0,57.0
21120.0,55.0,2.2602785,53.0,57.0
21130.0,55.0,2.2105794,54.0,57.0
21140.0,55.0,2.1330547,54.0,57.0
21150.0,55.0,2.0678675,54.0,57.0
21160.0,55.0,1.995096,54.0,56.0
21170.0,55.0,1.9453055,54.0,56.0
21180.0,55.0,1.9553208,54.0,56.0
21190.0,55.0,1.9805405,54.0,56.0
21200.0,55.0,2.0546312,54.0,56.0
21210.0,55.0,2.1441827,54.0,56.0
21220.0,55.0,2.1862068,54.0,57.0
21230.0,56.0,2.2274368,54.0,57.0
21240.0,56.0,2.3452497,54.0,57.0
21250.0,56.0,2.3818529,54.0,58.0
21260.0,56.0,2.2768834,54.0,58.0
21270.0,56.0,2.2303798,54.0,58.0
21280.0,56.0,2.2140014,55.0,58.0
21290.0,56.0,2.20566,55.0,57.5
21300.0,56.0,2.1839445,55.0,57.0
21310.0,56.0,2.2031364,55.0,57.0
21320.0,56.0,2.2289138,54.0,57.0
21330.0,56.0,2.2616625,54.0,57.0
21340.0,55.0,2.2800565,54.0,57.0
21350.0,55.0,2.2536705,54.0,57.0
21360.0,56.0,2.1974845,54.0,57.0
21370.0,56.0,2.3232596,54.0,57.0
21380.0,56.0,2.520764,54.0,57.0
21390.0,56.0,2.6405756,54.0,57.0
21400.0,56.0,2.7258592,54.0,57.0
21410.0,56.0,2.8340633,55.0,57.0
21420.0,56.0,2.835805,55.0,57.0
21430.0,56.0,2.780411,55.0,58.0
21440.0,56.0,2.6444223,55.0,58.0
21450.0,56.0,2.5328927,55.0,58.0
21460.0,56.0,2.4198377,55.0,58.0
21470.0,56.0,2.4838977,55.0,58.5
21480.0,57.0,2.501639,55.0,59.0
21490.0,57.0,2.4847267,56.0,58.0
21500.0,57.0,2.4442616,56.0,58.0
21510.0,57.0,2.4680598,56.0,58.0
21520.0,57.0,2.560699,56.0,58.0
21530.0,57.0,2.5789135,56.0,58.0
21540.0,57.0,2.6455255,56.0,58.0
21550.0,57.0,2.6716542,56.0,58.0
21560.0,57.0,2.6740832,55.0,58.0
21570.0,57.0,2.6001232,55.0,58.0
21580.0,56.0,2.5618768,55.0,58.0
21590.0,56.0,2.5235083,55.0,58.0
21600.0,56.0,2.460171,55.0,58.0
21610.0,56.0,2.3918688,55.0,58.0
21620.0,56.0,2.2752807,55.0,58.0
21630.0,57.0,2.2143219,55.0,58.0
21640.0,57.0,2.2075295,55.0,58.0
21650.0,57.0,2.241594,55.0,58.0
21660.0,57.0,2.1675398,56.0,58.0
21670.0,57.0,2.0802672,55.0,58.0
21680.0,57.0,2.0083613,55.0,58.0
21690.0,57.0,2.03695,55.0,58.0
21700.0,57.0,2.0664806,55.0,58.0
21710.0,56.0,2.1491346,55.0,58.0
21720.0,57.0,2.1391642,55.0,58.0
21730.0,57.0,2.0387306,55.0,58.0
21740.0,57.0,1.8272381,56.0,58.0
21750.0,57.0,2.5030277,56.0,58.0
21760.0,57.0,2.1967902,56.0,58.0
21770.0,57.0,2.2396696,56.0,58.0
21780.0,57.0,2.3076801,56.0,58.0
21790.0,57.0,2.3688161,56.0,58.0
21800.0,57.0,2.4012,56.0,59.0
21810.0,57.0,2.3978188,56.0,59.0
21820.0,57.0,2.3535945,56.0,59.0
21830.0,57.0,2.3115232,55.0,59.0
21840.0,57.0,2.2583258,56.0,59.0
21850.0,57.0,2.1860123,56.0,59.0
21860.0,57.0,2.1112728,56.0,59.0
21870.0,57.0,1.9588517,56.0,59.0
21880.0,57.0,1.9022093,56.0,58.0
21890.0,57.0,1.8864263,56.0,58.0
21900.0,57.0,1.9388702,56.0,58.0
21910.0,57.0,2.0944133,56.0,59.0
21920.0,57.0,2.1623595,56.0,59.0
21930.0,57.0,2.1933768,56.0,59.0
21940.0,57.0,2.2688212,56.0,59.0
21950.0,57.0,2.3608718,56.0,59.0
21960.0,57.0,2.4199173,56.0,59.0
21970.0,57.0,2.3643045,56.0,59.0
21980.0,58.0,2.2381642,56.0,59.0
21990.0,58.0,2.2386022,56.0,59.0
22000.0,58.0,2.2593024,56.0,60.0
22010.0,58.0,2.2231572,56.0,60.0
22020.0,58.0,2.1444635,57.0,60.0
22030.0,58.0,2.1133757,57.0,60.0
22040.0,58.0,2.1145654,57.0,60.0
22050.0,58.0,2.130636,57.0,60.0
22060.0,58.0,2.1554902,57.0,60.0
22070.0,58.0,2.2047129,57.0,59.0
22080.0,58.0,2.2052958,57.0,59.0
22090.0,58.0,2.2390409,56.0,60.0
22100.0,57.0,2.2629998,56.0,60.0
22110.0,58.0,2.3146203,56.0,59.0
22120.0,58.0,2.383398,56.0,59.0
22130.0,58.0,2.4143302,57.0,60.0
22140.0,58.0,2.4451377,57.0,60.0
22150.0,59.0,2.4692652,57.0,60.0
22160.0,59.0,2.5095468,57.0,60.0
22170.0,58.0,2.5336218,57.0,60.0
22180.0,58.0,2.5356266,57.0,60.0
22190.0,58.0,2.4293826,57.0,60.0
22200.0,58.0,2.3157506,57.0,60.0
22210.0,58.0,2.2983627,57.0,60.0
22220.0,58.0,2.323054,57.0,60.0
22230.0,59.0,2.3273027,57.0,60.0
22240.0,59.0,2.3203664,57.0,60.0
22250.0,59.0,2.1595485,57.0,60.0
22260.0,59.0,2.066451,57.0,60.0
22270.0,59.0,2.1336095,57.0,60.0
22280.0,59.0,2.1410182,57.0,60.0
22290.0,59.0,2.0253642,58.0,60.0
22300.0,59.0,1.994941,57.0,60.0
22310.0,59.0,2.0807977,57.0,60.0
22320.0,59.0,2.1632245,57.0,60.0
22330.0,59.0,2.2463834,57.0,60.0
22340.0,59.0,2.230133,57.0,60.0
22350.0,59.0,2.1550477,57.0,60.0
22360.0,59.0,2.089997,57.0,60.0
22370.0,59.0,1.960033,58.0,60.0
22380.0,59.0,1.8815098,58.0,60.0
22390.0,59.0,1.9018284,57.0,60.0
22400.0,59.0,1.9648814,57.0,60.0
22410.0,59.0,1.9667817,57.0,60.0
22420.0,59.0,1.9955826,57.0,60.0
22430.0,59.0,2.045439,57.0,60.0
22440.0,59.0,2.0198905,57.0,60.0
22450.0,59.0,1.9508557,57.0,60.0
22460.0,59.0,1.9626257,57.0,60.0
22470.0,58.0,2.0189102,57.0,60.0
22480.0,58.0,2.0744295,57.0,60.0
22490.0,58.0,2.1121967,57.0,60.0
22500.0,58.0,2.1656864,57.0,60.0
22510.0,58.0,2.300174,57.0,60.0
22520.0,59.0,2.5002038,57.0,61.0
22530.0,59.0,2.6651225,57.0,61.0
22540.0,59.0,2.7209792,58.0,61.0
22550.0,59.0,2.7431114,58.0,61.0
22560.0,60.0,2.7051551,58.0,62.0
22570.0,60.0,2.651754,58.0,62.0
22580.0,61.0,2.5538096,59.0,62.0
22590.0,61.0,2.5122156,59.0,63.0
22600.0,62.0,2.5547426,59.0,63.0
22610.0,62.0,2.6040218,59.0,63.0
22620.0,62.0,2.6750326,60.0,64.0
22630.0,62.0,2.7913246,60.0,64.0
22640.0,62.0,2.8698292,60.0,64.0
22650.0,62.0,2.9304702,59.0,64.0
22660.0,62.0,2.9484096,59.0,64.0
22670.0,62.0,2.898188,59.0,64.0
22680.0,62.0,2.8741608,60.0,64.0
22690.0,62.0,2.794092,60.0,64.0
22690.0,62.0,2.794092,60.0,64.0
22690.0,62.0,2.788114,60.0,64.0
